V	CDR3	J	Disease_Annotation	L7AC	L8AC	M1C	L1BC	CD8_O3a8-7_F6-3	Y1_4_8C	O4a4-7_F6-8	L6BC	CD8_Y3a8-7_F6-2	CD8_Y1a8-7_F5-6	CD8_O1a8-7_F5-5	L6AC	L5BC	O3C	O1_4_8C	L8BC	O2b4-7_F4-3	CD8_M3a8-7_F6-1	M1_CC	CD8_O2a8-7_F5-2	L2BC	L1AC	M3b4-7_F4-6	O1C	M2C	L4AC	Y1_4_3e8C	CD8_Y2a8-7_F5-7	Y1_4C	L3BC	L2AC	L3AC	L7BC	CD8_O4a8-7e6_F7-8	M1_4_8C	Y3C	O1_CC	Y2b4-7_F4-5	O1_4_3e8C	M1_4_3e8C	Y1_CC	CD8_M2a8-7_F5-1	L5AC	L4BC	CD8_M1a8-7_2nd_run_F6-5
15	CSARDGGTDTQYFGPG	8	2	NaN	NaN	NaN	NaN	NaN	NaN	NaN	NaN	NaN	NaN	NaN	NaN	NaN	NaN	NaN	NaN	NaN	NaN	NaN	NaN	NaN	NaN	NaN	NaN	NaN	NaN	SARDGGTDTQY,2	NaN	NaN	NaN	NaN	NaN	NaN	NaN	NaN	NaN	NaN	NaN	NaN	NaN	SARDGGTDTQY,2	NaN	NaN	NaN	NaN
6	CASRTGVSNQPQHFGDG	4	1	NaN	ASRTGVSNQPQH,9	NaN	NaN	NaN	NaN	NaN	NaN	NaN	NaN	NaN	NaN	NaN	NaN	NaN	NaN	NaN	NaN	NaN	NaN	NaN	NaN	NaN	NaN	NaN	NaN	NaN	NaN	NaN	NaN	NaN	NaN	NaN	NaN	NaN	NaN	NaN	NaN	NaN	NaN	NaN	NaN	NaN	NaN	NaN
6	CASSSANYGYTFGSG	1	1	ASSSANYGYT,2	NaN	NaN	NaN	NaN	NaN	NaN	NaN	NaN	NaN	NaN	NaN	NaN	NaN	NaN	NaN	NaN	NaN	NaN	NaN	NaN	NaN	NaN	NaN	NaN	NaN	NaN	NaN	NaN	NaN	NaN	NaN	NaN	NaN	NaN	NaN	NaN	NaN	NaN	NaN	NaN	NaN	NaN	NaN	NaN
15	CSARVGVGNTIY	2	1	SARVGVGNTIY,6	NaN	NaN	NaN	NaN	NaN	NaN	NaN	NaN	NaN	NaN	NaN	NaN	NaN	NaN	NaN	NaN	NaN	NaN	NaN	NaN	NaN	NaN	NaN	NaN	NaN	NaN	NaN	NaN	NaN	NaN	NaN	NaN	NaN	NaN	NaN	NaN	NaN	NaN	NaN	NaN	NaN	NaN	NaN	NaN
14	CASSERRTDTQYFGPG	8	1	NaN	NaN	NaN	NaN	NaN	NaN	NaN	NaN	NaN	NaN	NaN	NaN	NaN	NaN	NaN	NaN	NaN	NaN	NaN	NaN	NaN	NaN	NaN	NaN	NaN	NaN	NaN	NaN	NaN	NaN	NaN	NaN	ASSERRTDTQY,1	NaN	NaN	NaN	NaN	NaN	NaN	NaN	NaN	NaN	NaN	NaN	NaN
22	CAWSVQGNTEAFFGQG	0	2	NaN	NaN	NaN	NaN	NaN	NaN	NaN	NaN	NaN	NaN	NaN	NaN	NaN	NaN	NaN	NaN	NaN	NaN	NaN	NaN	NaN	NaN	NaN	NaN	NaN	NaN	NaN	NaN	NaN	NaN	NaN	NaN	NaN	NaN	NaN	NaN	AWSVQGNTEAF,42	NaN	AWSVQGNTEAF,42	NaN	NaN	NaN	NaN	NaN	NaN
33	CASSYLGSYNEQFFGPG	6	2	NaN	ASSYLGSYNEQF,1635	NaN	NaN	NaN	NaN	NaN	NaN	NaN	NaN	NaN	NaN	NaN	NaN	NaN	NaN	NaN	NaN	NaN	NaN	NaN	NaN	NaN	NaN	ASSYLGSYNEQF,3	NaN	NaN	NaN	NaN	NaN	NaN	NaN	NaN	NaN	NaN	NaN	NaN	NaN	NaN	NaN	NaN	NaN	NaN	NaN	NaN
37	CASSLGQGAYEQYFGPG	12	3	NaN	NaN	NaN	NaN	NaN	NaN	NaN	NaN	NaN	NaN	NaN	NaN	NaN	NaN	NaN	NaN	NaN	NaN	NaN	NaN	NaN	NaN	NaN	ASSLGQGAYEQY,6	NaN	NaN	NaN	NaN	NaN	NaN	NaN	NaN	NaN	NaN	NaN	NaN	ASSLGQGAYEQY,7	NaN	ASSLGQGAYEQY,1	NaN	NaN	NaN	NaN	NaN	NaN
26	CASSLGTGTSYNEQF	6	1	NaN	NaN	NaN	NaN	ASSLGTGTSYNEQF,1	NaN	NaN	NaN	NaN	NaN	NaN	NaN	NaN	NaN	NaN	NaN	NaN	NaN	NaN	NaN	NaN	NaN	NaN	NaN	NaN	NaN	NaN	NaN	NaN	NaN	NaN	NaN	NaN	NaN	NaN	NaN	NaN	NaN	NaN	NaN	NaN	NaN	NaN	NaN	NaN
44	CASSVAGGEQYFGPG	12	3	NaN	ASSVAGGEQY,20	NaN	NaN	NaN	NaN	NaN	NaN	NaN	NaN	NaN	NaN	NaN	NaN	NaN	NaN	NaN	NaN	NaN	NaN	ASSVAGGEQY,37654	NaN	NaN	NaN	NaN	NaN	NaN	NaN	NaN	ASSVAGGEQY,48103	NaN	NaN	NaN	NaN	NaN	NaN	NaN	NaN	NaN	NaN	NaN	NaN	NaN	NaN	NaN
13	CASSILGTEETQY	10	2	NaN	NaN	NaN	NaN	NaN	NaN	NaN	NaN	NaN	NaN	NaN	NaN	NaN	NaN	NaN	NaN	NaN	NaN	ASSILGTEETQY,2	NaN	NaN	NaN	NaN	NaN	NaN	NaN	NaN	NaN	NaN	NaN	NaN	NaN	NaN	NaN	NaN	NaN	NaN	NaN	NaN	ASSILGTEETQY,2	NaN	NaN	NaN	NaN	NaN
26	CASSLGLTDTQYFGPG	8	2	NaN	NaN	NaN	NaN	NaN	NaN	NaN	NaN	NaN	NaN	NaN	ASSLGLTDTQY,1	NaN	NaN	NaN	NaN	NaN	NaN	NaN	NaN	NaN	NaN	NaN	NaN	NaN	NaN	NaN	NaN	NaN	NaN	NaN	NaN	NaN	NaN	NaN	NaN	NaN	NaN	NaN	NaN	NaN	NaN	NaN	ASSLGLTDTQY,2	NaN
6	CASSSANYGYT	1	1	ASSSANYGYT,2	NaN	NaN	NaN	NaN	NaN	NaN	NaN	NaN	NaN	NaN	NaN	NaN	NaN	NaN	NaN	NaN	NaN	NaN	NaN	NaN	NaN	NaN	NaN	NaN	NaN	NaN	NaN	NaN	NaN	NaN	NaN	NaN	NaN	NaN	NaN	NaN	NaN	NaN	NaN	NaN	NaN	NaN	NaN	NaN
6	CASSLRGDEQFFGPG	6	1	NaN	NaN	NaN	NaN	NaN	NaN	NaN	NaN	NaN	NaN	NaN	ASSLRGDEQF,1	NaN	NaN	NaN	NaN	NaN	NaN	NaN	NaN	NaN	NaN	NaN	NaN	NaN	NaN	NaN	NaN	NaN	NaN	NaN	NaN	NaN	NaN	NaN	NaN	NaN	NaN	NaN	NaN	NaN	NaN	NaN	NaN	NaN
18	CASSSTGEDEQYFGPG	12	1	NaN	NaN	NaN	NaN	NaN	NaN	NaN	NaN	NaN	NaN	NaN	NaN	NaN	NaN	NaN	NaN	NaN	NaN	NaN	NaN	NaN	NaN	NaN	NaN	NaN	NaN	NaN	NaN	NaN	NaN	NaN	NaN	NaN	NaN	NaN	NaN	NaN	NaN	NaN	NaN	NaN	NaN	NaN	ASSSTGEDEQY,20	NaN
37	CASSLAGADTQY	8	10	NaN	NaN	NaN	NaN	NaN	ASSLAGADTQY,4	NaN	NaN	NaN	NaN	NaN	NaN	NaN	NaN	NaN	NaN	NaN	NaN	ASSLAGADTQY,13	NaN	NaN	NaN	NaN	ASSLAGADTQY,5	NaN	NaN	ASSLAGADTQY,6	NaN	ASSLAGADTQY,13303	NaN	NaN	NaN	ASSLAGADTQY,3	NaN	NaN	NaN	ASSLAGADTQY,7	NaN	ASSLAGADTQY,2	ASSLAGADTQY,13	ASSLAGADTQY,13313	NaN	NaN	NaN	NaN
21	CASSPGDTQYFGPG	8	2	NaN	NaN	NaN	NaN	NaN	NaN	NaN	NaN	NaN	NaN	NaN	NaN	NaN	NaN	NaN	NaN	NaN	NaN	NaN	NaN	NaN	NaN	NaN	NaN	NaN	NaN	NaN	NaN	NaN	NaN	NaN	NaN	NaN	NaN	NaN	NaN	ASSPGDTQY,1	NaN	ASSPGDTQY,1	NaN	NaN	NaN	NaN	NaN	NaN
6	CASSRTSGVYNEQFFGPG	6	2	NaN	NaN	NaN	NaN	NaN	NaN	NaN	NaN	NaN	NaN	NaN	NaN	NaN	NaN	NaN	NaN	NaN	NaN	NaN	NaN	NaN	NaN	NaN	NaN	NaN	NaN	NaN	NaN	NaN	ASSRTSGVYNEQF,542	NaN	ASSRTSGVYNEQF,629	NaN	NaN	NaN	NaN	NaN	NaN	NaN	NaN	NaN	NaN	NaN	NaN	NaN
20	CSVGTGGTNEKLF	3	1	NaN	NaN	NaN	NaN	NaN	NaN	NaN	NaN	NaN	NaN	NaN	NaN	NaN	NaN	NaN	SVGTGGTNEKLF,1	NaN	NaN	NaN	NaN	NaN	NaN	NaN	NaN	NaN	NaN	NaN	NaN	NaN	NaN	NaN	NaN	NaN	NaN	NaN	NaN	NaN	NaN	NaN	NaN	NaN	NaN	NaN	NaN	NaN
37	CASSFSYEQYFGPG	12	4	NaN	NaN	NaN	NaN	NaN	NaN	ASSFSYEQY,1	NaN	NaN	NaN	NaN	NaN	NaN	NaN	NaN	NaN	NaN	NaN	NaN	NaN	NaN	NaN	ASSFSYEQY,696	NaN	NaN	NaN	NaN	NaN	NaN	NaN	NaN	NaN	NaN	NaN	NaN	NaN	ASSFSYEQY,1	NaN	ASSFSYEQY,1	NaN	NaN	NaN	NaN	NaN	NaN
2	CAISESEGAYEQYFGPG	12	2	NaN	NaN	NaN	NaN	NaN	NaN	NaN	NaN	NaN	NaN	NaN	NaN	NaN	NaN	NaN	NaN	NaN	NaN	AISESEGAYEQY,4	NaN	NaN	NaN	NaN	NaN	NaN	NaN	NaN	NaN	NaN	NaN	NaN	NaN	NaN	NaN	NaN	NaN	NaN	NaN	NaN	AISESEGAYEQY,4	NaN	NaN	NaN	NaN	NaN
6	CASSSANYGYTF	1	1	ASSSANYGYT,2	NaN	NaN	NaN	NaN	NaN	NaN	NaN	NaN	NaN	NaN	NaN	NaN	NaN	NaN	NaN	NaN	NaN	NaN	NaN	NaN	NaN	NaN	NaN	NaN	NaN	NaN	NaN	NaN	NaN	NaN	NaN	NaN	NaN	NaN	NaN	NaN	NaN	NaN	NaN	NaN	NaN	NaN	NaN	NaN
19	CASSLSGRFNEQFFGPG	6	5	NaN	NaN	NaN	NaN	NaN	NaN	NaN	ASSLSGRFNEQF,1	NaN	NaN	NaN	NaN	ASSLSGRFNEQF,1	NaN	NaN	NaN	NaN	NaN	NaN	NaN	NaN	NaN	NaN	NaN	NaN	ASSLSGRFNEQF,7742	NaN	NaN	NaN	NaN	NaN	NaN	NaN	NaN	NaN	NaN	NaN	NaN	NaN	NaN	NaN	NaN	ASSLSGRFNEQF,1	ASSLSGRFNEQF,2	NaN
27	CASSLGSYEQY	12	2	NaN	NaN	NaN	NaN	NaN	NaN	NaN	NaN	NaN	NaN	NaN	NaN	NaN	NaN	NaN	NaN	NaN	NaN	ASSLGSYEQY,2	NaN	NaN	NaN	NaN	NaN	NaN	NaN	NaN	NaN	NaN	NaN	NaN	NaN	NaN	NaN	NaN	NaN	NaN	NaN	NaN	ASSLGSYEQY,2	NaN	NaN	NaN	NaN	NaN
6	CASSLGSTYEQYFGPG	12	2	NaN	NaN	NaN	NaN	NaN	NaN	NaN	NaN	NaN	NaN	NaN	NaN	NaN	NaN	NaN	NaN	NaN	NaN	ASSLGSTYEQY,49	NaN	NaN	NaN	NaN	NaN	NaN	NaN	NaN	NaN	NaN	NaN	NaN	NaN	NaN	NaN	ASSLGSTYEQY,49	NaN	NaN	NaN	NaN	NaN	NaN	NaN	NaN	NaN	NaN
6	CASASGLGETQYFGPG	10	3	NaN	NaN	NaN	NaN	NaN	NaN	NaN	NaN	NaN	NaN	NaN	NaN	NaN	NaN	NaN	NaN	NaN	NaN	NaN	NaN	NaN	NaN	NaN	NaN	NaN	NaN	NaN	NaN	NaN	NaN	NaN	NaN	NaN	NaN	NaN	NaN	ASGLGETQY,1	NaN	ASGLGETQY,1	NaN	NaN	NaN	NaN	NaN	ASGLGETQY,3
26	CASSLGLAGPYEQYFGPG	12	2	NaN	NaN	NaN	NaN	NaN	NaN	NaN	NaN	NaN	NaN	NaN	NaN	NaN	NaN	NaN	NaN	NaN	NaN	NaN	NaN	NaN	NaN	NaN	NaN	NaN	NaN	NaN	NaN	NaN	NaN	NaN	NaN	NaN	NaN	NaN	NaN	ASSLGLAGPYEQY,3	NaN	ASSLGLAGPYEQY,3	NaN	NaN	NaN	NaN	NaN	NaN
44	CASSVGTSGTDTQYFGPG	8	1	NaN	NaN	NaN	NaN	NaN	NaN	NaN	NaN	NaN	NaN	NaN	NaN	NaN	NaN	NaN	NaN	NaN	NaN	NaN	NaN	NaN	NaN	ASSVGTSGTDTQY,8	NaN	NaN	NaN	NaN	NaN	NaN	NaN	NaN	NaN	NaN	NaN	NaN	NaN	NaN	NaN	NaN	NaN	NaN	NaN	NaN	NaN	NaN
15	CSARQGNEQFFGPG	6	3	NaN	NaN	NaN	NaN	NaN	NaN	NaN	NaN	NaN	NaN	NaN	NaN	NaN	NaN	NaN	SARQGNEQF,159	NaN	NaN	NaN	NaN	NaN	NaN	NaN	NaN	SARQGNEQF,33	SARQGNEQF,2	NaN	NaN	NaN	NaN	NaN	NaN	NaN	NaN	NaN	NaN	NaN	NaN	NaN	NaN	NaN	NaN	NaN	NaN	NaN
20	CSVGTANYGYTFGSG	1	1	NaN	NaN	NaN	NaN	NaN	NaN	NaN	NaN	NaN	NaN	NaN	NaN	NaN	NaN	NaN	NaN	NaN	NaN	NaN	NaN	NaN	NaN	NaN	NaN	NaN	SVGTANYGYT,4	NaN	NaN	NaN	NaN	NaN	NaN	NaN	NaN	NaN	NaN	NaN	NaN	NaN	NaN	NaN	NaN	NaN	NaN	NaN
29	CASSLGETQYFGPG	10	5	NaN	NaN	NaN	NaN	NaN	ASSLGETQY,2	NaN	NaN	NaN	NaN	NaN	ASSLGETQY,3	NaN	NaN	NaN	NaN	NaN	NaN	NaN	NaN	NaN	NaN	NaN	NaN	NaN	ASSLGETQY,327	NaN	NaN	NaN	NaN	NaN	NaN	ASSLGETQY,2260	NaN	NaN	NaN	NaN	NaN	NaN	NaN	ASSLGETQY,2	NaN	NaN	NaN	NaN
2	CAISESSGNTIYFGEG	2	3	NaN	NaN	NaN	NaN	NaN	NaN	NaN	NaN	NaN	NaN	NaN	NaN	NaN	NaN	NaN	NaN	NaN	NaN	NaN	NaN	NaN	NaN	NaN	NaN	NaN	NaN	NaN	NaN	NaN	NaN	NaN	NaN	NaN	NaN	NaN	NaN	AISESSGNTIY,1100	NaN	AISESSGNTIY,1100	NaN	NaN	NaN	NaN	AISESSGNTIY,37	NaN
9	CASSQLNEQFFGPG	6	3	ASSQLNEQF,1662	NaN	NaN	NaN	NaN	NaN	NaN	NaN	NaN	NaN	NaN	ASSQLNEQF,2	NaN	NaN	NaN	NaN	NaN	NaN	NaN	NaN	NaN	NaN	NaN	NaN	NaN	ASSQLNEQF,1	NaN	NaN	NaN	NaN	NaN	NaN	NaN	NaN	NaN	NaN	NaN	NaN	NaN	NaN	NaN	NaN	NaN	NaN	NaN
44	CASSVAGGDEQY	12	1	NaN	NaN	NaN	ASSVAGGDEQY,3	NaN	NaN	NaN	NaN	NaN	NaN	NaN	NaN	NaN	NaN	NaN	NaN	NaN	NaN	NaN	NaN	NaN	NaN	NaN	NaN	NaN	NaN	NaN	NaN	NaN	NaN	NaN	NaN	NaN	NaN	NaN	NaN	NaN	NaN	NaN	NaN	NaN	NaN	NaN	NaN	NaN
15	CSARDPYEQYFGPG	12	2	NaN	NaN	NaN	NaN	NaN	NaN	NaN	NaN	NaN	NaN	NaN	NaN	NaN	NaN	NaN	NaN	NaN	NaN	NaN	NaN	NaN	NaN	NaN	NaN	NaN	NaN	NaN	NaN	NaN	NaN	NaN	NaN	NaN	SARDPYEQY,3	NaN	NaN	NaN	NaN	NaN	NaN	NaN	NaN	NaN	SARDPYEQY,1	NaN
19	CASSLDRGEQYFGPG	12	2	NaN	NaN	NaN	NaN	NaN	NaN	NaN	NaN	NaN	NaN	NaN	NaN	NaN	NaN	NaN	NaN	NaN	NaN	ASSLDRGEQY,38	NaN	NaN	NaN	NaN	NaN	NaN	NaN	NaN	NaN	NaN	NaN	NaN	NaN	NaN	NaN	NaN	NaN	NaN	NaN	NaN	ASSLDRGEQY,38	NaN	NaN	NaN	NaN	NaN
44	CASSVGQDYEQYFGPG	12	1	NaN	NaN	NaN	NaN	NaN	NaN	NaN	NaN	NaN	NaN	NaN	NaN	NaN	NaN	NaN	NaN	NaN	NaN	NaN	NaN	NaN	NaN	NaN	NaN	NaN	NaN	NaN	NaN	NaN	NaN	NaN	NaN	NaN	NaN	NaN	NaN	NaN	NaN	NaN	NaN	NaN	NaN	NaN	ASSVGQDYEQY,2	NaN
26	CASSTDSYNEQFFGPG	6	1	NaN	NaN	NaN	NaN	NaN	NaN	NaN	NaN	NaN	NaN	NaN	NaN	NaN	NaN	NaN	NaN	NaN	NaN	NaN	NaN	NaN	NaN	NaN	NaN	NaN	ASSTDSYNEQF,5	NaN	NaN	NaN	NaN	NaN	NaN	NaN	NaN	NaN	NaN	NaN	NaN	NaN	NaN	NaN	NaN	NaN	NaN	NaN
43	CASSLSAYNEQFFGPG	6	2	NaN	NaN	NaN	NaN	NaN	NaN	NaN	NaN	NaN	NaN	NaN	NaN	NaN	NaN	NaN	ASSLSAYNEQF,1	NaN	NaN	NaN	NaN	NaN	NaN	NaN	NaN	NaN	ASSLSAYNEQF,2	NaN	NaN	NaN	NaN	NaN	NaN	NaN	NaN	NaN	NaN	NaN	NaN	NaN	NaN	NaN	NaN	NaN	NaN	NaN
26	CASSLAPGSTDTQYFGPG	8	1	ASSLAPGSTDTQY,6	NaN	NaN	NaN	NaN	NaN	NaN	NaN	NaN	NaN	NaN	NaN	NaN	NaN	NaN	NaN	NaN	NaN	NaN	NaN	NaN	NaN	NaN	NaN	NaN	NaN	NaN	NaN	NaN	NaN	NaN	NaN	NaN	NaN	NaN	NaN	NaN	NaN	NaN	NaN	NaN	NaN	NaN	NaN	NaN
15	CSARDRGIGNTIY	2	2	NaN	SARDRGIGNTIY,24	NaN	NaN	NaN	NaN	NaN	NaN	NaN	NaN	NaN	NaN	NaN	NaN	NaN	SARDRGIGNTIY,2	NaN	NaN	NaN	NaN	NaN	NaN	NaN	NaN	NaN	NaN	NaN	NaN	NaN	NaN	NaN	NaN	NaN	NaN	NaN	NaN	NaN	NaN	NaN	NaN	NaN	NaN	NaN	NaN	NaN
6	CASSLRGDTQYFGPG	8	3	NaN	NaN	NaN	NaN	NaN	NaN	NaN	NaN	NaN	NaN	NaN	NaN	NaN	NaN	NaN	NaN	NaN	NaN	NaN	NaN	NaN	NaN	NaN	NaN	NaN	ASSLRGDTQY,4	NaN	NaN	ASSLRGDTQY,2	NaN	NaN	NaN	NaN	NaN	NaN	NaN	NaN	NaN	NaN	NaN	ASSLRGDTQY,2	NaN	NaN	NaN	NaN
18	CASSSTVEGEQYFGPG	12	2	NaN	NaN	NaN	NaN	NaN	NaN	NaN	NaN	NaN	NaN	NaN	NaN	NaN	NaN	NaN	NaN	NaN	NaN	NaN	NaN	ASSSTVEGEQY,3	NaN	NaN	NaN	NaN	NaN	NaN	NaN	NaN	NaN	ASSSTVEGEQY,2	NaN	NaN	NaN	NaN	NaN	NaN	NaN	NaN	NaN	NaN	NaN	NaN	NaN	NaN
13	CASSIGSKETQY	10	1	NaN	NaN	NaN	NaN	NaN	NaN	NaN	NaN	NaN	NaN	NaN	NaN	NaN	NaN	NaN	ASSIGSKETQY,19	NaN	NaN	NaN	NaN	NaN	NaN	NaN	NaN	NaN	NaN	NaN	NaN	NaN	NaN	NaN	NaN	NaN	NaN	NaN	NaN	NaN	NaN	NaN	NaN	NaN	NaN	NaN	NaN	NaN
4	CASSTGLQETQY	10	2	NaN	NaN	NaN	NaN	NaN	NaN	NaN	NaN	NaN	NaN	NaN	NaN	NaN	NaN	NaN	NaN	NaN	NaN	NaN	NaN	NaN	NaN	NaN	NaN	NaN	NaN	NaN	NaN	NaN	NaN	NaN	NaN	NaN	NaN	NaN	NaN	ASSTGLQETQY,1	NaN	ASSTGLQETQY,1	NaN	NaN	NaN	NaN	NaN	NaN
6	CASSLLAYEQYFGPG	12	2	NaN	NaN	NaN	NaN	NaN	NaN	NaN	NaN	NaN	NaN	NaN	NaN	NaN	NaN	NaN	NaN	NaN	NaN	NaN	NaN	NaN	NaN	NaN	NaN	NaN	NaN	NaN	NaN	NaN	NaN	NaN	NaN	NaN	NaN	NaN	NaN	ASSLLAYEQY,4	NaN	ASSLLAYEQY,4	NaN	NaN	NaN	NaN	NaN	NaN
27	CASSLDYSYEQY	12	1	NaN	NaN	NaN	NaN	NaN	NaN	NaN	ASSLDYSYEQY,1	NaN	NaN	NaN	NaN	NaN	NaN	NaN	NaN	NaN	NaN	NaN	NaN	NaN	NaN	NaN	NaN	NaN	NaN	NaN	NaN	NaN	NaN	NaN	NaN	NaN	NaN	NaN	NaN	NaN	NaN	NaN	NaN	NaN	NaN	NaN	NaN	NaN
19	CASSLGSYEQYFGPG	12	12	NaN	NaN	ASSLGSYEQY,5	NaN	NaN	ASSLGSYEQY,1	NaN	NaN	NaN	NaN	NaN	NaN	NaN	NaN	NaN	ASSLGSYEQY,91	NaN	NaN	ASSLGSYEQY,15602	NaN	NaN	NaN	NaN	ASSLGSYEQY,1	NaN	ASSLGSYEQY,5	ASSLGSYEQY,3	NaN	ASSLGSYEQY,2	NaN	NaN	NaN	NaN	NaN	NaN	NaN	ASSLGSYEQY,4	NaN	ASSLGSYEQY,3	ASSLGSYEQY,15597	ASSLGSYEQY,6	NaN	NaN	NaN	NaN
19	CASSLTSAAGELFFGEG	7	1	NaN	NaN	NaN	NaN	NaN	NaN	NaN	NaN	NaN	ASSLTSAAGELF,3	NaN	NaN	NaN	NaN	NaN	NaN	NaN	NaN	NaN	NaN	NaN	NaN	NaN	NaN	NaN	NaN	NaN	NaN	NaN	NaN	NaN	NaN	NaN	NaN	NaN	NaN	NaN	NaN	NaN	NaN	NaN	NaN	NaN	NaN	NaN
16	CATSDLTDTQYFGPG	8	2	NaN	NaN	NaN	NaN	NaN	NaN	NaN	NaN	NaN	NaN	NaN	NaN	NaN	NaN	NaN	NaN	NaN	NaN	NaN	NaN	NaN	NaN	NaN	ATSDLTDTQY,41	NaN	NaN	NaN	NaN	NaN	NaN	NaN	NaN	NaN	NaN	NaN	NaN	ATSDLTDTQY,42	NaN	NaN	NaN	NaN	NaN	NaN	NaN	NaN
31	CASRVNYEQY	12	4	NaN	NaN	NaN	NaN	NaN	ASRVNYEQY,1	NaN	NaN	NaN	NaN	NaN	NaN	NaN	NaN	ASRVNYEQY,3	NaN	NaN	NaN	NaN	NaN	NaN	NaN	NaN	NaN	NaN	NaN	NaN	NaN	NaN	NaN	NaN	NaN	NaN	NaN	NaN	NaN	ASRVNYEQY,3	NaN	NaN	NaN	ASRVNYEQY,1	NaN	NaN	NaN	NaN
19	CASSFQGYTEAF	0	2	NaN	NaN	NaN	NaN	NaN	NaN	NaN	NaN	NaN	NaN	NaN	ASSFQGYTEAF,24	NaN	NaN	NaN	NaN	NaN	NaN	NaN	NaN	NaN	NaN	NaN	NaN	NaN	ASSFQGYTEAF,2	NaN	NaN	NaN	NaN	NaN	NaN	NaN	NaN	NaN	NaN	NaN	NaN	NaN	NaN	NaN	NaN	NaN	NaN	NaN
15	CSARIGVGNTIY	2	1	SARIGVGNTIY,316	NaN	NaN	NaN	NaN	NaN	NaN	NaN	NaN	NaN	NaN	NaN	NaN	NaN	NaN	NaN	NaN	NaN	NaN	NaN	NaN	NaN	NaN	NaN	NaN	NaN	NaN	NaN	NaN	NaN	NaN	NaN	NaN	NaN	NaN	NaN	NaN	NaN	NaN	NaN	NaN	NaN	NaN	NaN	NaN
15	CSASSDSTDTQYFGPG	8	1	NaN	NaN	NaN	NaN	NaN	NaN	NaN	NaN	NaN	NaN	NaN	NaN	NaN	NaN	NaN	SASSDSTDTQY,9	NaN	NaN	NaN	NaN	NaN	NaN	NaN	NaN	NaN	NaN	NaN	NaN	NaN	NaN	NaN	NaN	NaN	NaN	NaN	NaN	NaN	NaN	NaN	NaN	NaN	NaN	NaN	NaN	NaN
6	CASSAGGTDTQYFGPG	8	1	NaN	NaN	NaN	NaN	NaN	NaN	NaN	NaN	NaN	NaN	NaN	NaN	NaN	NaN	NaN	NaN	NaN	NaN	NaN	NaN	NaN	NaN	NaN	NaN	NaN	NaN	NaN	NaN	NaN	NaN	NaN	NaN	NaN	NaN	NaN	NaN	NaN	NaN	NaN	NaN	NaN	NaN	ASSAGGTDTQY,10	NaN	NaN
19	CASSFQGYTEAFFGQG	0	2	NaN	NaN	NaN	NaN	NaN	NaN	NaN	NaN	NaN	NaN	NaN	ASSFQGYTEAF,24	NaN	NaN	NaN	NaN	NaN	NaN	NaN	NaN	NaN	NaN	NaN	NaN	NaN	ASSFQGYTEAF,2	NaN	NaN	NaN	NaN	NaN	NaN	NaN	NaN	NaN	NaN	NaN	NaN	NaN	NaN	NaN	NaN	NaN	NaN	NaN
26	CASSLGLAGVDEQFFGPG	6	2	NaN	NaN	ASSLGLAGVDEQF,2	NaN	NaN	NaN	NaN	NaN	NaN	NaN	NaN	NaN	NaN	NaN	NaN	NaN	NaN	NaN	ASSLGLAGVDEQF,2	NaN	NaN	NaN	NaN	NaN	NaN	NaN	NaN	NaN	NaN	NaN	NaN	NaN	NaN	NaN	NaN	NaN	NaN	NaN	NaN	NaN	NaN	NaN	NaN	NaN	NaN
18	CASSLSRGLLNEQFFGPG	6	3	NaN	NaN	NaN	NaN	NaN	NaN	NaN	NaN	NaN	NaN	NaN	NaN	NaN	NaN	NaN	NaN	NaN	NaN	NaN	NaN	NaN	ASSLSRGLLNEQF,17	NaN	NaN	NaN	NaN	NaN	NaN	NaN	ASSLSRGLLNEQF,4086	NaN	ASSLSRGLLNEQF,4450	NaN	NaN	NaN	NaN	NaN	NaN	NaN	NaN	NaN	NaN	NaN	NaN	NaN
9	CASSLGTASYNEQF	6	1	NaN	NaN	NaN	NaN	NaN	NaN	NaN	NaN	NaN	NaN	NaN	NaN	NaN	NaN	NaN	ASSLGTASYNEQF,45	NaN	NaN	NaN	NaN	NaN	NaN	NaN	NaN	NaN	NaN	NaN	NaN	NaN	NaN	NaN	NaN	NaN	NaN	NaN	NaN	NaN	NaN	NaN	NaN	NaN	NaN	NaN	NaN	NaN
26	CASSPDRGYNEQFFGPG	6	1	NaN	NaN	NaN	NaN	NaN	NaN	NaN	NaN	NaN	NaN	NaN	NaN	NaN	NaN	NaN	ASSPDRGYNEQF,3	NaN	NaN	NaN	NaN	NaN	NaN	NaN	NaN	NaN	NaN	NaN	NaN	NaN	NaN	NaN	NaN	NaN	NaN	NaN	NaN	NaN	NaN	NaN	NaN	NaN	NaN	NaN	NaN	NaN
6	CASSFGQQETQY	10	1	NaN	NaN	NaN	NaN	NaN	NaN	NaN	NaN	NaN	NaN	NaN	NaN	NaN	NaN	NaN	ASSFGQQETQY,5	NaN	NaN	NaN	NaN	NaN	NaN	NaN	NaN	NaN	NaN	NaN	NaN	NaN	NaN	NaN	NaN	NaN	NaN	NaN	NaN	NaN	NaN	NaN	NaN	NaN	NaN	NaN	NaN	NaN
26	CASSLTDTQYFGPG	8	3	NaN	NaN	NaN	NaN	NaN	ASSLTDTQY,4	NaN	NaN	NaN	NaN	NaN	NaN	NaN	NaN	NaN	NaN	NaN	NaN	NaN	NaN	NaN	NaN	NaN	NaN	NaN	NaN	ASSLTDTQY,55	NaN	NaN	NaN	NaN	NaN	NaN	NaN	NaN	NaN	NaN	NaN	NaN	NaN	ASSLTDTQY,59	NaN	NaN	NaN	NaN
6	CASSVVNEQF	6	2	NaN	ASSVVNEQF,1	NaN	NaN	NaN	NaN	NaN	NaN	NaN	NaN	NaN	NaN	NaN	NaN	NaN	NaN	NaN	NaN	NaN	NaN	NaN	NaN	NaN	NaN	ASSVVNEQF,3	NaN	NaN	NaN	NaN	NaN	NaN	NaN	NaN	NaN	NaN	NaN	NaN	NaN	NaN	NaN	NaN	NaN	NaN	NaN	NaN
21	CASSQGLAGETQYFGPG	10	1	NaN	NaN	NaN	NaN	NaN	NaN	NaN	NaN	NaN	NaN	NaN	NaN	NaN	NaN	NaN	NaN	NaN	NaN	NaN	NaN	NaN	NaN	NaN	NaN	NaN	ASSQGLAGETQY,4	NaN	NaN	NaN	NaN	NaN	NaN	NaN	NaN	NaN	NaN	NaN	NaN	NaN	NaN	NaN	NaN	NaN	NaN	NaN
15	CSASQGSYEQYFGPG	12	1	NaN	SASQGSYEQY,1	NaN	NaN	NaN	NaN	NaN	NaN	NaN	NaN	NaN	NaN	NaN	NaN	NaN	NaN	NaN	NaN	NaN	NaN	NaN	NaN	NaN	NaN	NaN	NaN	NaN	NaN	NaN	NaN	NaN	NaN	NaN	NaN	NaN	NaN	NaN	NaN	NaN	NaN	NaN	NaN	NaN	NaN	NaN
18	CASSPGGTYNEQFFGPG	6	1	NaN	NaN	NaN	NaN	NaN	NaN	NaN	NaN	NaN	NaN	NaN	NaN	NaN	NaN	NaN	NaN	NaN	NaN	NaN	NaN	NaN	NaN	NaN	NaN	NaN	NaN	NaN	NaN	NaN	ASSPGGTYNEQF,1	NaN	NaN	NaN	NaN	NaN	NaN	NaN	NaN	NaN	NaN	NaN	NaN	NaN	NaN	NaN
20	CSVLAGGTYEQYFGPG	12	1	NaN	NaN	NaN	NaN	NaN	NaN	NaN	NaN	NaN	NaN	NaN	NaN	NaN	NaN	NaN	NaN	NaN	NaN	NaN	NaN	NaN	NaN	NaN	NaN	NaN	NaN	NaN	NaN	NaN	NaN	NaN	NaN	NaN	NaN	NaN	NaN	NaN	NaN	NaN	NaN	NaN	NaN	NaN	SVLAGGTYEQY,1	NaN
20	CSVVTDSYEQY	12	1	NaN	NaN	NaN	NaN	NaN	NaN	NaN	NaN	NaN	NaN	NaN	NaN	NaN	NaN	NaN	SVVTDSYEQY,8	NaN	NaN	NaN	NaN	NaN	NaN	NaN	NaN	NaN	NaN	NaN	NaN	NaN	NaN	NaN	NaN	NaN	NaN	NaN	NaN	NaN	NaN	NaN	NaN	NaN	NaN	NaN	NaN	NaN
37	CASSLVGYEQYFGPG	12	8	NaN	NaN	ASSLVGYEQY,1	NaN	NaN	ASSLVGYEQY,23	NaN	NaN	NaN	NaN	NaN	NaN	NaN	NaN	NaN	NaN	NaN	NaN	ASSLVGYEQY,1	NaN	NaN	NaN	NaN	ASSLVGYEQY,3	NaN	NaN	NaN	NaN	ASSLVGYEQY,1	NaN	NaN	NaN	NaN	NaN	NaN	NaN	ASSLVGYEQY,4	NaN	ASSLVGYEQY,1	NaN	ASSLVGYEQY,24	NaN	NaN	NaN	NaN
18	CASSLTSGSPYNEQF	6	1	NaN	NaN	NaN	NaN	NaN	NaN	NaN	NaN	NaN	NaN	NaN	NaN	NaN	NaN	NaN	ASSLTSGSPYNEQF,27	NaN	NaN	NaN	NaN	NaN	NaN	NaN	NaN	NaN	NaN	NaN	NaN	NaN	NaN	NaN	NaN	NaN	NaN	NaN	NaN	NaN	NaN	NaN	NaN	NaN	NaN	NaN	NaN	NaN
26	CASSSDLSGANVLTFGAG	11	2	NaN	NaN	NaN	NaN	NaN	NaN	NaN	NaN	NaN	NaN	NaN	NaN	NaN	NaN	NaN	NaN	NaN	NaN	NaN	NaN	NaN	NaN	NaN	NaN	NaN	NaN	NaN	NaN	NaN	NaN	NaN	NaN	NaN	NaN	NaN	NaN	ASSSDLSGANVLT,25	NaN	ASSSDLSGANVLT,25	NaN	NaN	NaN	NaN	NaN	NaN
15	CSARDPGTGNTGELFFGEG	7	2	NaN	NaN	NaN	NaN	NaN	SARDPGTGNTGELF,1	NaN	NaN	NaN	NaN	NaN	NaN	NaN	NaN	NaN	NaN	NaN	NaN	NaN	NaN	NaN	NaN	NaN	NaN	NaN	NaN	NaN	NaN	NaN	NaN	NaN	NaN	NaN	NaN	NaN	NaN	NaN	NaN	NaN	NaN	SARDPGTGNTGELF,1	NaN	NaN	NaN	NaN
26	CASSLDSYEQYFGPG	12	3	NaN	NaN	NaN	NaN	NaN	NaN	NaN	ASSLDSYEQY,1	NaN	NaN	NaN	NaN	NaN	NaN	NaN	ASSLDSYEQY,4	NaN	NaN	ASSLDSYEQY,1	NaN	NaN	NaN	NaN	NaN	NaN	NaN	NaN	NaN	NaN	NaN	NaN	NaN	NaN	NaN	NaN	NaN	NaN	NaN	NaN	NaN	NaN	NaN	NaN	NaN	NaN
43	CASSPDYEQYFGPG	12	2	NaN	NaN	NaN	NaN	NaN	NaN	NaN	NaN	NaN	NaN	NaN	NaN	NaN	NaN	NaN	NaN	NaN	NaN	NaN	NaN	NaN	NaN	ASSPDYEQY,1	NaN	NaN	NaN	NaN	NaN	NaN	NaN	NaN	NaN	NaN	NaN	NaN	NaN	NaN	NaN	NaN	NaN	NaN	NaN	NaN	ASSPDYEQY,4	NaN
19	CASSPTTSSYNEQFFGPG	6	2	NaN	NaN	NaN	NaN	NaN	NaN	NaN	NaN	NaN	NaN	NaN	NaN	NaN	NaN	NaN	NaN	NaN	NaN	NaN	NaN	NaN	NaN	NaN	NaN	NaN	NaN	NaN	NaN	NaN	NaN	NaN	NaN	NaN	NaN	NaN	NaN	ASSPTTSSYNEQF,8	NaN	ASSPTTSSYNEQF,8	NaN	NaN	NaN	NaN	NaN	NaN
15	CSARLAGRYEQYFGPG	12	5	NaN	NaN	NaN	NaN	NaN	NaN	NaN	NaN	NaN	NaN	NaN	NaN	NaN	NaN	NaN	NaN	NaN	NaN	NaN	NaN	NaN	SARLAGRYEQY,4	NaN	NaN	NaN	NaN	NaN	NaN	NaN	SARLAGRYEQY,2083	NaN	ARLAGRYEQY,1	NaN	NaN	NaN	NaN	NaN	NaN	NaN	NaN	NaN	NaN	NaN	NaN	NaN
6	CASSSGNTIYFGEG	2	2	NaN	NaN	NaN	NaN	NaN	NaN	NaN	NaN	NaN	NaN	NaN	NaN	NaN	NaN	NaN	NaN	NaN	NaN	NaN	NaN	NaN	NaN	NaN	ASSSGNTIY,2	NaN	NaN	NaN	NaN	NaN	NaN	NaN	NaN	NaN	NaN	NaN	NaN	ASSSGNTIY,2	NaN	NaN	NaN	NaN	NaN	NaN	NaN	NaN
14	CASSEADSYEQYFGPG	12	2	NaN	NaN	ASSEADSYEQY,16	NaN	NaN	NaN	NaN	NaN	NaN	NaN	NaN	NaN	NaN	NaN	NaN	NaN	NaN	NaN	ASSEADSYEQY,16	NaN	NaN	NaN	NaN	NaN	NaN	NaN	NaN	NaN	NaN	NaN	NaN	NaN	NaN	NaN	NaN	NaN	NaN	NaN	NaN	NaN	NaN	NaN	NaN	NaN	NaN
2	CAISSGGGTDTQYFGPG	8	9	NaN	NaN	NaN	NaN	NaN	NaN	NaN	AISSGGGTDTQY,531	NaN	NaN	NaN	AISSGGGTDTQY,306	NaN	AISSGGGTDTQY,1	NaN	NaN	NaN	NaN	NaN	NaN	NaN	NaN	NaN	NaN	AISSGGGTDTQY,8	AISSGGGTDTQY,246	NaN	NaN	NaN	NaN	NaN	NaN	AISSGGGTDTQY,138	NaN	NaN	AISSGGGTDTQY,10	NaN	NaN	NaN	NaN	NaN	NaN	AISSGGGTDTQY,345	AISSGGGTDTQY,205	NaN
18	CASSLGTYNEQFFGPG	6	1	NaN	NaN	NaN	NaN	NaN	NaN	NaN	NaN	NaN	NaN	NaN	ASSLGTYNEQF,18	NaN	NaN	NaN	NaN	NaN	NaN	NaN	NaN	NaN	NaN	NaN	NaN	NaN	NaN	NaN	NaN	NaN	NaN	NaN	NaN	NaN	NaN	NaN	NaN	NaN	NaN	NaN	NaN	NaN	NaN	NaN	NaN	NaN
43	CASSPGTSYEQYFGPG	12	1	NaN	NaN	NaN	NaN	NaN	NaN	NaN	ASSPGTSYEQY,3	NaN	NaN	NaN	NaN	NaN	NaN	NaN	NaN	NaN	NaN	NaN	NaN	NaN	NaN	NaN	NaN	NaN	NaN	NaN	NaN	NaN	NaN	NaN	NaN	NaN	NaN	NaN	NaN	NaN	NaN	NaN	NaN	NaN	NaN	NaN	NaN	NaN
6	CASSPTGGGNTIYFGEG	2	2	NaN	NaN	NaN	NaN	NaN	NaN	NaN	NaN	NaN	NaN	NaN	NaN	NaN	NaN	NaN	NaN	NaN	NaN	ASSPTGGGNTIY,6	NaN	NaN	NaN	NaN	NaN	NaN	NaN	NaN	NaN	NaN	NaN	NaN	NaN	NaN	NaN	NaN	NaN	NaN	NaN	NaN	ASSPTGGGNTIY,6	NaN	NaN	NaN	NaN	NaN
29	CASSLVAGGGETQYFGPG	10	7	NaN	ASSLVAGGGETQY,7	NaN	NaN	NaN	NaN	NaN	NaN	NaN	NaN	NaN	NaN	NaN	ASSLVAGGGETQY,44725	NaN	NaN	NaN	NaN	NaN	NaN	NaN	NaN	NaN	ASSLVAGGGETQY,8	ASSLVAGGGETQY,14	NaN	NaN	NaN	NaN	NaN	NaN	NaN	NaN	NaN	NaN	ASSLVAGGGETQY,9	ASSLVAGGGETQY,8	NaN	NaN	NaN	NaN	ASSLVAGGGETQY,348	NaN	NaN	NaN
18	CASSLGGGGTEAFFGQG	0	1	NaN	NaN	NaN	NaN	NaN	NaN	NaN	NaN	NaN	NaN	NaN	NaN	NaN	NaN	NaN	ASSLGGGGTEAF,9	NaN	NaN	NaN	NaN	NaN	NaN	NaN	NaN	NaN	NaN	NaN	NaN	NaN	NaN	NaN	NaN	NaN	NaN	NaN	NaN	NaN	NaN	NaN	NaN	NaN	NaN	NaN	NaN	NaN
15	CSASRASSYNEQFFGPG	6	2	NaN	NaN	NaN	NaN	NaN	NaN	NaN	NaN	NaN	NaN	NaN	NaN	NaN	NaN	NaN	NaN	NaN	NaN	NaN	NaN	NaN	NaN	NaN	NaN	NaN	NaN	NaN	NaN	NaN	NaN	NaN	NaN	NaN	NaN	NaN	NaN	SASRASSYNEQF,1	NaN	SASRASSYNEQF,1	NaN	NaN	NaN	NaN	NaN	NaN
27	CASSWDRGDEQY	12	3	NaN	NaN	NaN	NaN	NaN	NaN	NaN	NaN	NaN	NaN	NaN	NaN	NaN	NaN	ASSWDRGDEQY,2	NaN	NaN	NaN	NaN	NaN	NaN	NaN	ASSWDRGDEQY,2289	NaN	NaN	NaN	NaN	NaN	NaN	NaN	NaN	NaN	NaN	NaN	NaN	NaN	ASSWDRGDEQY,2	NaN	NaN	NaN	NaN	NaN	NaN	NaN	NaN
8	CASSLGRVDTQYFGPG	8	1	NaN	NaN	NaN	NaN	NaN	NaN	NaN	NaN	NaN	NaN	NaN	NaN	NaN	NaN	NaN	NaN	NaN	NaN	NaN	NaN	NaN	NaN	NaN	NaN	NaN	NaN	NaN	NaN	NaN	NaN	NaN	NaN	NaN	ASSLGRVDTQY,819	NaN	NaN	NaN	NaN	NaN	NaN	NaN	NaN	NaN	NaN	NaN
6	CASSLGNSGANVLTFGAG	11	1	NaN	NaN	NaN	NaN	NaN	NaN	NaN	NaN	NaN	NaN	NaN	NaN	NaN	NaN	NaN	ASSLGNSGANVLT,1	NaN	NaN	NaN	NaN	NaN	NaN	NaN	NaN	NaN	NaN	NaN	NaN	NaN	NaN	NaN	NaN	NaN	NaN	NaN	NaN	NaN	NaN	NaN	NaN	NaN	NaN	NaN	NaN	NaN
6	CASSLGGLGDTQYFGPG	8	3	NaN	NaN	NaN	NaN	NaN	NaN	NaN	NaN	NaN	NaN	NaN	NaN	NaN	NaN	NaN	NaN	NaN	NaN	NaN	NaN	NaN	NaN	NaN	ASSLGGLGDTQY,1	NaN	NaN	NaN	NaN	NaN	NaN	NaN	NaN	NaN	NaN	NaN	NaN	ASSLGGLGDTQY,4	NaN	ASSLGGLGDTQY,3	NaN	NaN	NaN	NaN	NaN	NaN
18	CASSLGSYNEQFFGPG	6	2	NaN	NaN	NaN	NaN	NaN	NaN	NaN	NaN	NaN	NaN	NaN	NaN	NaN	ASSLGSYNEQF,62	NaN	ASSLGSYNEQF,4	NaN	NaN	NaN	NaN	NaN	NaN	NaN	NaN	NaN	NaN	NaN	NaN	NaN	NaN	NaN	NaN	NaN	NaN	NaN	NaN	NaN	NaN	NaN	NaN	NaN	NaN	NaN	NaN	NaN
43	CASSLGGTGNTIYFGEG	2	2	NaN	NaN	NaN	NaN	NaN	NaN	NaN	NaN	NaN	NaN	NaN	NaN	NaN	NaN	NaN	NaN	NaN	NaN	NaN	NaN	NaN	NaN	NaN	NaN	NaN	NaN	NaN	NaN	NaN	NaN	NaN	NaN	NaN	NaN	NaN	NaN	ASSLGGTGNTIY,1	NaN	ASSLGGTGNTIY,1	NaN	NaN	NaN	NaN	NaN	NaN
44	CASSVVGNEQF	6	2	NaN	NaN	NaN	NaN	NaN	NaN	NaN	NaN	NaN	NaN	NaN	NaN	NaN	NaN	NaN	ASSVVGNEQF,96	NaN	NaN	NaN	NaN	NaN	NaN	NaN	NaN	NaN	NaN	NaN	NaN	NaN	ASSVVGNEQF,1	NaN	NaN	NaN	NaN	NaN	NaN	NaN	NaN	NaN	NaN	NaN	NaN	NaN	NaN	NaN
20	CSVEKGSYEQY	12	3	NaN	NaN	NaN	NaN	NaN	NaN	NaN	NaN	NaN	NaN	NaN	NaN	NaN	NaN	NaN	NaN	NaN	NaN	NaN	NaN	NaN	NaN	NaN	SVEKGSYEQY,1	NaN	NaN	NaN	NaN	NaN	NaN	NaN	NaN	NaN	NaN	NaN	NaN	SVEKGSYEQY,99	NaN	SVEKGSYEQY,98	NaN	NaN	NaN	NaN	NaN	NaN
16	CATSVSGLNEQFFGPG	6	2	NaN	NaN	NaN	NaN	NaN	NaN	NaN	NaN	NaN	NaN	NaN	NaN	NaN	NaN	NaN	NaN	NaN	NaN	NaN	NaN	NaN	NaN	NaN	NaN	NaN	NaN	NaN	NaN	NaN	NaN	NaN	NaN	NaN	NaN	NaN	NaN	ATSVSGLNEQF,1	NaN	ATSVSGLNEQF,1	NaN	NaN	NaN	NaN	NaN	NaN
19	CASSSSGNTGELFFGEG	7	1	NaN	NaN	NaN	NaN	NaN	NaN	NaN	ASSSSGNTGELF,118	NaN	NaN	NaN	NaN	NaN	NaN	NaN	NaN	NaN	NaN	NaN	NaN	NaN	NaN	NaN	NaN	NaN	NaN	NaN	NaN	NaN	NaN	NaN	NaN	NaN	NaN	NaN	NaN	NaN	NaN	NaN	NaN	NaN	NaN	NaN	NaN	NaN
9	CASSQSPGGTQYFGPG	8	1	NaN	NaN	NaN	NaN	NaN	NaN	NaN	NaN	NaN	NaN	NaN	NaN	NaN	NaN	NaN	ASSQSPGGTQY,16	NaN	NaN	NaN	NaN	NaN	NaN	NaN	NaN	NaN	NaN	NaN	NaN	NaN	NaN	NaN	NaN	NaN	NaN	NaN	NaN	NaN	NaN	NaN	NaN	NaN	NaN	NaN	NaN	NaN
26	CASSLGSYTDTQY	8	1	NaN	NaN	NaN	NaN	NaN	NaN	NaN	NaN	NaN	NaN	NaN	NaN	NaN	NaN	NaN	NaN	NaN	NaN	NaN	NaN	NaN	NaN	NaN	NaN	NaN	ASSLGSYTDTQY,2	NaN	NaN	NaN	NaN	NaN	NaN	NaN	NaN	NaN	NaN	NaN	NaN	NaN	NaN	NaN	NaN	NaN	NaN	NaN
37	CASSLTTGGGYEQYFGPG	12	2	NaN	NaN	NaN	NaN	NaN	NaN	NaN	NaN	NaN	NaN	NaN	NaN	NaN	NaN	NaN	NaN	NaN	NaN	NaN	NaN	NaN	NaN	NaN	NaN	NaN	NaN	NaN	NaN	NaN	NaN	NaN	NaN	NaN	NaN	NaN	NaN	ASSLTTGGGYEQY,1	NaN	ASSLTTGGGYEQY,1	NaN	NaN	NaN	NaN	NaN	NaN
23	CASSHRGGVSYNEQFFGPG	6	2	NaN	NaN	NaN	NaN	NaN	NaN	NaN	NaN	NaN	NaN	NaN	NaN	NaN	NaN	NaN	NaN	NaN	NaN	NaN	NaN	NaN	NaN	NaN	NaN	NaN	NaN	ASSHRGGVSYNEQF,1	NaN	NaN	NaN	NaN	NaN	NaN	NaN	NaN	NaN	NaN	NaN	NaN	NaN	ASSHRGGVSYNEQF,1	NaN	NaN	NaN	NaN
26	CASSPGQGAYEQYFGPG	12	1	NaN	NaN	NaN	NaN	NaN	NaN	NaN	NaN	NaN	NaN	NaN	NaN	NaN	NaN	NaN	NaN	NaN	NaN	NaN	NaN	NaN	NaN	NaN	NaN	NaN	NaN	NaN	NaN	NaN	NaN	NaN	NaN	NaN	NaN	NaN	NaN	NaN	NaN	NaN	NaN	NaN	NaN	NaN	ASSPGQGAYEQY,56	NaN
4	CASSLGGYEQYFGPG	12	2	ASSLGGYEQY,2	NaN	NaN	NaN	NaN	NaN	NaN	NaN	NaN	NaN	NaN	NaN	NaN	NaN	NaN	NaN	NaN	NaN	NaN	NaN	NaN	NaN	NaN	NaN	NaN	NaN	NaN	NaN	NaN	NaN	NaN	NaN	NaN	NaN	NaN	NaN	NaN	NaN	NaN	NaN	NaN	NaN	NaN	ASSLGGYEQY,10	NaN
26	CASSSEETQYFGPG	10	8	NaN	ASSSEETQY,1	NaN	NaN	NaN	ASSSEETQY,8	NaN	ASSSEETQY,1	NaN	NaN	NaN	NaN	NaN	NaN	NaN	NaN	NaN	NaN	ASSSEETQY,1	NaN	NaN	NaN	NaN	NaN	NaN	NaN	NaN	NaN	NaN	NaN	NaN	NaN	NaN	NaN	NaN	NaN	ASSSEETQY,49	NaN	ASSSEETQY,49	ASSSEETQY,1	ASSSEETQY,8	NaN	NaN	NaN	NaN
6	CASSSVNEQFFGPG	6	2	NaN	NaN	NaN	NaN	NaN	NaN	NaN	NaN	NaN	NaN	NaN	NaN	NaN	NaN	NaN	NaN	NaN	NaN	NaN	NaN	NaN	NaN	NaN	NaN	NaN	NaN	ASSSVNEQF,147	NaN	NaN	NaN	NaN	NaN	NaN	NaN	NaN	NaN	NaN	NaN	NaN	NaN	ASSSVNEQF,147	NaN	NaN	NaN	NaN
18	CASSDGTGGYNEQFFGPG	6	1	ASSDGTGGYNEQF,3	NaN	NaN	NaN	NaN	NaN	NaN	NaN	NaN	NaN	NaN	NaN	NaN	NaN	NaN	NaN	NaN	NaN	NaN	NaN	NaN	NaN	NaN	NaN	NaN	NaN	NaN	NaN	NaN	NaN	NaN	NaN	NaN	NaN	NaN	NaN	NaN	NaN	NaN	NaN	NaN	NaN	NaN	NaN	NaN
2	CAISESTRDQPQHFGDG	4	1	AISESTRDQPQH,1	NaN	NaN	NaN	NaN	NaN	NaN	NaN	NaN	NaN	NaN	NaN	NaN	NaN	NaN	NaN	NaN	NaN	NaN	NaN	NaN	NaN	NaN	NaN	NaN	NaN	NaN	NaN	NaN	NaN	NaN	NaN	NaN	NaN	NaN	NaN	NaN	NaN	NaN	NaN	NaN	NaN	NaN	NaN	NaN
37	CASSLDRAYEQYFGPG	12	5	NaN	NaN	NaN	NaN	NaN	NaN	NaN	NaN	NaN	NaN	NaN	NaN	NaN	NaN	NaN	NaN	NaN	NaN	NaN	NaN	NaN	ASSLDRAYEQY,1	NaN	NaN	NaN	NaN	NaN	NaN	NaN	ASSLDRAYEQY,109	NaN	ASSLDRAYEQY,130	NaN	NaN	NaN	NaN	ASSLDRAYEQY,1	NaN	ASSLDRAYEQY,1	NaN	NaN	NaN	NaN	NaN	NaN
21	CASSLGTDTQYFGPG	8	1	NaN	NaN	NaN	NaN	NaN	NaN	NaN	NaN	NaN	NaN	NaN	NaN	NaN	NaN	NaN	NaN	NaN	NaN	NaN	NaN	NaN	NaN	ASSLGTDTQY,1	NaN	NaN	NaN	NaN	NaN	NaN	NaN	NaN	NaN	NaN	NaN	NaN	NaN	NaN	NaN	NaN	NaN	NaN	NaN	NaN	NaN	NaN
1	CASSADGMNTEAFFGQG	0	2	NaN	NaN	NaN	NaN	NaN	NaN	NaN	NaN	NaN	NaN	NaN	NaN	NaN	NaN	NaN	NaN	NaN	NaN	NaN	NaN	NaN	NaN	NaN	ASSADGMNTEAF,11	NaN	NaN	NaN	NaN	NaN	NaN	NaN	NaN	NaN	NaN	NaN	NaN	ASSADGMNTEAF,11	NaN	NaN	NaN	NaN	NaN	NaN	NaN	NaN
