20	SVDFSANEQF	6	335950
15	SVDFSANEQF	6	1
25	ARSDGTGLSPYNEQF	6	1
28	ARSDGTGLSPYNEQF	6	176
23	VSSRPTGVSKNIQY	9	2
25	VSSRPTGVSKNIQY	9	1
35	ASSNVDDNEQF	6	1
33	ASSNVDDNEQF	6	7
40	ASSRQAGEAVEQY	12	1
43	ASSRQAGEAVEQY	12	327
18	ASSFILGTRTDTQY	8	1138
19	ASSFILGTRTDTQY	8	1
30	ASSDGTGLSPNNEQF	6	1
28	ASSDGTGLSPNNEQF	6	45
31	ASSYSISTGGKETQY	10	115
33	ASSYSISTGGKETQY	10	1
7	ASAGTGGQCNEQF	6	328
6	ASAGTGGQCNEQF	6	2
40	ASSFRDWGSYEQY	12	3
43	ASSFRDWGSYEQY	12	16706
28	ASSFRDWGSYEQY	12	22
30	ASSNPTGSIHGADTQY	8	6
37	ASSNPTGSIHGADTQY	8	13554
5	ASSDLMRGQGVVLQFENEQF	6	1
4	ASSDLMRGQGVVLQFENEQF	6	267
43	ASSLISVSSYNEQF	6	657
40	ASSLISVSSYNEQF	6	1
30	ASSDRTGLSPYNEQF	6	1
28	ASSDRTGLSPYNEQF	6	503
28	ARSPAGGVTYEQY	12	1
43	ARSPAGGVTYEQY	12	67
6	ASSLIAGGPNEQF	6	56823
18	ASSLIAGGPNEQF	6	1
8	ASSLIAGGPNEQF	6	1
33	ASSLIAGGPNEQF	6	1
21	ASSLIAGGPNEQF	6	1
2	ASSLIAGGPNEQF	6	1
7	ASSLIAGGPNEQF	6	25
35	AISLDGNTEAF	0	5
2	AISLDGNTEAF	0	1893
7	ASAGTGGQYDEQF	12	396
6	ASAGTGGQYDEQF	12	2
28	ASNRDPFPLYEQY	12	1
43	ASNRDPFPLYEQY	12	60
43	ASSLIGVSSYSEQF	6	405
40	ASSLIGVSSYSEQF	6	1
28	ASSLIGVSSYSEQF	6	1
4	ASSLDRVRGGSQETQY	10	646
5	ASSLDRVRGGSQETQY	10	2
25	ASSRQLGDEQY	12	2
23	ASSRQLGDEQY	12	133
23	ASSHQLGGEQY	12	298
25	ASSHQLGGEQY	12	1
36	ASSYVDDNEQF	6	3
28	ASSYVDDNEQF	6	1
32	ASSYVDDNEQF	6	42
1	ASSYVDDNEQF	6	10
35	ASSYVDDNEQF	6	98
31	ASSYVDDNEQF	6	67
33	ASSYVDDNEQF	6	89066
4	ASSYVDDNEQF	6	1
2	ASSYVDDNEQF	6	1
6	ASAGTGGQYNEQL	12	4
7	ASAGTGGQYNEQL	12	939
43	ASDSGSSYEQY	12	4738
28	ASDSGSSYEQY	12	6
14	ATSSTASETQY	10	3
10	ATSSTASETQY	10	2620
1	ASSIRSDPREQY	12	2
31	ASSIRSDPREQY	12	33
32	ASSIRSDPREQY	12	57
2	ASSIRSDPREQY	12	1
36	ASSIRSDPREQY	12	1
33	ASSIRSDPREQY	12	74702
18	ASSIRSDPREQY	12	2
35	ASSIRSDPREQY	12	86
19	ASSLGSGFSEQY	12	1
18	ASSLGSGFSEQY	12	136339
28	ASSRDPFPVYEQY	12	1
43	ASSRDPFPVYEQY	12	18
43	ASSSRQHQETQY	10	1
40	ASSSRQHQETQY	10	992
41	ASSSRQHQETQY	10	1
8	ASSPGNNEQF	6	1
6	ASSPGNNEQF	6	28388
7	ASSPGNNEQF	6	11
28	ASSLIGVRSYNEQF	6	1
43	ASSLIGVRSYNEQF	6	154
2	AISESWTDVQTSTDTQY	8	41
32	AISESWTDVQTSTDTQY	8	1
4	ASSLGGALETQY	10	160
5	ASSLGGALETQY	10	1
43	ASSRQAGEAVEQY	6	138775
30	ASSRQAGEAVEQY	6	3
37	ASSRQAGEAVEQY	6	3
38	ASSRQAGEAVEQY	6	2
40	ASSRQAGEAVEQY	6	14
28	ASSRQAGEAVEQY	6	158
25	ASSHPTGVSKTIQY	9	1
23	ASSHPTGVSKTIQY	9	22
35	ASSYMGLATDTQY	8	4
33	ASSYMGLATDTQY	8	1675
43	ASNLAASASYEQY	12	15
28	ASNLAASASYEQY	12	1
35	ASSYVGDNEQL	6	1
33	ASSYVGDNEQL	6	4
43	ASSGQVQETQY	10	10
40	ASSGQVQETQY	10	8955
41	ASSGQVQETQY	10	3
28	ASSLSESGINIQY	9	1
43	ASSLSESGINIQY	9	180
43	ASGLIGVSSYNEQF	6	1080
40	ASGLIGVSSYNEQF	6	1
43	ASSLAGTYNEQF	6	5729
28	ASSLAGTYNEQF	6	7
14	ATSRMEGSYEQY	12	11
10	ATSRMEGSYEQY	12	10185
43	ASSRQAGEAAEQY	6	360
28	ASSRQAGEAAEQY	6	1
28	ASSSSPAGVGDTQY	8	11
43	ASSSSPAGVGDTQY	8	7051
36	ASSEAGTEPYEQY	12	2
32	ASSEAGTEPYEQY	12	30
34	ASSEAGTEPYEQY	12	41
35	ASSEAGTEPYEQY	12	30
31	ASSEAGTEPYEQY	12	45850
28	ASRDRLEYEQY	12	1
43	ASRDRLEYEQY	12	351
43	ASSLSESGKNIQY	9	18729
37	ASSLSESGKNIQY	9	1
28	ASSLSESGKNIQY	9	11
27	ASSPLAGGQETQY	10	5107
26	ASSPLAGGQETQY	10	1
30	ASSPLAGGQETQY	10	2
34	ASSYSISPGGQETQY	10	1
31	ASSYSISPGGQETQY	10	9
30	ASGDGTGLSPYNEQF	6	1
28	ASGDGTGLSPYNEQF	6	463
18	ASSLLTGASYNEQF	6	59901
19	ASSLLTGASYNEQF	6	1
43	ASSLSESGKDIQY	9	49
28	ASSLSESGKDIQY	9	1
33	ASSYSIYTGGQETQY	10	1
31	ASSYSIYTGGQETQY	10	60
32	ASSYSIYTGGQETQY	10	1
25	ASSHPTGVGKNIQY	9	2
23	ASSHPTGVGKNIQY	9	113
40	TSSLIGVSSYNEQF	6	1
43	TSSLIGVSSYNEQF	6	131
43	ASSPLTGQKSSYEQY	12	1
19	ASSPLTGQKSSYEQY	12	91382
6	ASAGTGGRYNEQF	6	1
7	ASAGTGGRYNEQF	6	395
28	ASSLIGVSSCNEQF	6	1
40	ASSLIGVSSCNEQF	6	1
43	ASSLIGVSSCNEQF	6	313
35	AISESWTGVRTSTDTQY	8	1
2	AISESWTGVRTSTDTQY	8	180
28	ASGRDPFPLYEQY	12	2
43	ASGRDPFPLYEQY	12	223
43	ASSRDPCPLYEQY	12	23
28	ASSRDPCPLYEQY	12	1
6	ASAGTGEQYNEQF	12	1
7	ASAGTGEQYNEQF	12	110
43	ASSLIGVSPYNEQF	6	458
40	ASSLIGVSPYNEQF	6	1
31	VSSYSISTGGQETQY	10	116
33	VSSYSISTGGQETQY	10	1
37	ASSSETSGAGWGTDTQY	8	2264
30	ASSSETSGAGWGTDTQY	8	1
21	ASSLIGVSSYNEQF	6	1
14	ASSLIGVSSYNEQF	6	1
38	ASSLIGVSSYNEQF	6	1
30	ASSLIGVSSYNEQF	6	2
40	ASSLIGVSSYNEQF	6	402
43	ASSLIGVSSYNEQF	6	176048
25	ASSLIGVSSYNEQF	6	1
28	ASSLIGVSSYNEQF	6	185
3	ASSLIGVSSYNEQF	6	1
37	ASSLIGVSSYNEQF	6	1
41	ASSLIGVSSYNEQF	6	1
30	ASSLLTGGGADTQY	8	14
2	ASSLLTGGGADTQY	8	1
3	ASSLLTGGGADTQY	8	1
5	ASSLLTGGGADTQY	8	214
4	ASSLLTGGGADTQY	8	52833
30	ASSFGGTLETQY	10	1
4	ASSFGGTLETQY	10	33
2	AISESWTCVQTSTDTQY	8	19
35	AISESWTCVQTSTDTQY	8	1
35	ASSYQGGMNTEAF	0	1
33	ASSYQGGMNTEAF	0	152
43	ASCRQAGEAVEQY	6	33
28	ASCRQAGEAVEQY	6	1
4	ASSLTVGQETQY	10	366
5	ASSLTVGQETQY	10	1
43	ASSLRDWGSYEQY	12	60
40	ASSLRDWGSYEQY	12	1
28	ASSLRDWGSYEQY	12	1
28	ASSDGTGLSHYNEQF	6	100
25	ASSDGTGLSHYNEQF	6	1
27	ASSPWEEHEQY	12	1
30	ASSPWEEHEQY	12	2
37	ASSPWEEHEQY	12	15933
43	ASSLVGVSSYNEQF	6	436
28	ASSLVGVSSYNEQF	6	1
18	ASSPLGRSYTDTQY	1	159782
31	ASSPLGRSYTDTQY	1	1
2	ASSPLGRSYTDTQY	1	1
19	ASSPLGRSYTDTQY	1	2
43	ASGDSLEYEQY	12	59
28	ASGDSLEYEQY	12	1
34	ASSYGRGAGDETQY	10	1
31	ASSYGRGAGDETQY	10	26
32	ASSYEDDNEQF	6	1
33	ASSYEDDNEQF	6	7
28	ASSLSESSKNIQY	9	1
43	ASSLSESSKNIQY	9	16
30	ASRDGTGLSPYNEQF	6	1
28	ASRDGTGLSPYNEQF	6	195
7	ASAGTRGQYNEQF	12	203
6	ASAGTRGQYNEQF	12	2
25	ASSDGTGLSPYNEQL	6	1
28	ASSDGTGLSPYNEQL	6	1071
6	ASSLIAGGPSEQF	4	86
7	ASSLIAGGPSEQF	4	1
44	ASSGTYEQY	12	11370
8	ASSGTYEQY	12	3
43	ARSFRDWGSYEQY	12	17
28	ARSFRDWGSYEQY	12	1
7	VSAGTGGQYNEQF	12	138
6	VSAGTGGQYNEQF	12	1
42	ASSLGASGGYEQY	12	1341
37	ASSLGASGGYEQY	12	1
24	ASSQEMARSHNEQF	6	49
30	ASSQEMARSHNEQF	6	1
38	ASSPAGGVTYEQY	12	1
28	ASSPAGGVTYEQY	12	134
43	ASSPAGGVTYEQY	12	70553
30	ASSPAGGVTYEQY	12	2
40	ASSPAGGVTYEQY	12	11
29	ASSDGTGLSPCNEQF	6	1
28	ASSDGTGLSPCNEQF	6	332
33	ASSIRSDPTEQY	12	7
31	ASSIRSDPTEQY	12	2
28	ASSKLASEQF	6	1
43	ASSKLASEQF	6	349
14	ATSSTAGETQY	10	3
10	ATSSTAGETQY	10	2856
30	ASSWLGGSETQY	10	2
37	ASSWLGGSETQY	10	54
32	AISEPSSSYNEQF	6	11
2	AISEPSSSYNEQF	6	27
10	ATSRQGVNEQF	6	5317
14	ATSRQGVNEQF	6	1
31	ASSHVDDNEQF	6	1
33	ASSHVDDNEQF	6	146
43	ASSPTGGVLANEQF	6	327
28	ASSPTGGVLANEQF	6	3
4	ASSLLPGGGADTQY	8	3
5	ASSLLPGGGADTQY	8	1
21	ASSVEGAAETQY	10	1
44	ASSVEGAAETQY	10	48187
8	ASSVEGAAETQY	10	1
35	ASSYADDNEQF	6	1
33	ASSYADDNEQF	6	144
36	ASSPGRYLDEQY	12	1
1	ASSPGRYLDEQY	12	1
32	ASSPGRYLDEQY	12	33
33	ASSPGRYLDEQY	12	39086
21	ASSPGRYLDEQY	12	1
35	ASSPGRYLDEQY	12	41
31	ASSPGRYLDEQY	12	11
44	ASSGGLAGFDEQF	6	50359
21	ASSGGLAGFDEQF	6	1
28	ASSLSAGDDNEQF	6	1
29	ASSLSAGDDNEQF	6	744
33	ASGIRSDPREQY	12	848
35	ASGIRSDPREQY	12	1
43	ASSHQLGDEQY	12	1
25	ASSHQLGDEQY	12	129
23	ASSHQLGDEQY	12	58491
31	ASSYSISTRGQETQY	10	69
34	ASSYSISTRGQETQY	10	1
32	ARSEAGTEPYEQY	12	1
31	ARSEAGTEPYEQY	12	54
6	ASSLIAGGPNEQL	6	334
7	ASSLIAGGPNEQL	6	1
37	ASSPDPFPLYEQY	12	1
43	ASSPDPFPLYEQY	12	16
35	AISESWTGVQTSTDTQY	8	29
36	AISESWTGVQTSTDTQY	8	63
32	AISESWTGVQTSTDTQY	8	41
2	AISESWTGVQTSTDTQY	8	65332
1	ATRAGGPHNEQF	6	21
0	ATRAGGPHNEQF	6	1
28	ASSLALAGPYNEQF	6	4
3	ASSLALAGPYNEQF	6	3
4	ASSLALAGPYNEQF	6	1
5	ASSLALAGPYNEQF	6	3617
31	ASSYVGDNEQF	6	1
33	ASSYVGDNEQF	6	209
35	ASSYVGDNEQF	6	1
28	ASGSRAKNIQY	9	1
8	ASGSRAKNIQY	9	124
29	ASSLGAGYNEQF	6	8
25	ASSLGAGYNEQF	6	8
28	ASSLGAGYNEQF	6	77588
42	ASSLGAGYNEQF	6	1
43	ASSLGAGYNEQF	6	1
30	ASSLGAGYNEQF	6	46
18	ATRGRGESYNEQF	6	1
16	ATRGRGESYNEQF	6	505299
2	ATRGRGESYNEQF	6	1
2	AISVSWTGVQTSTDTQY	8	39
36	AISVSWTGVQTSTDTQY	8	1
23	ASGHQLGDEQY	12	127
25	ASGHQLGDEQY	12	2
43	ARSRQAGEAVEQY	6	136
28	ARSRQAGEAVEQY	6	1
28	ASRDSLEYEQY	12	27
40	ASRDSLEYEQY	12	2
30	ASRDSLEYEQY	12	1
43	ASRDSLEYEQY	12	27112
38	ASRDSLEYEQY	12	2
43	ASTGAWTGGEQY	12	1
42	ASTGAWTGGEQY	12	11325
37	ASTGAWTGGEQY	12	9
43	ASSLTGVSSYNEQF	6	248
40	ASSLTGVSSYNEQF	6	1
34	ASSYGRGDGEETQY	10	1
31	ASSYGRGDGEETQY	10	8
33	ASSYVDENEQF	6	82
35	ASSYVDENEQF	6	1
35	AISESWTGVQNSTDTQY	8	1
2	AISESWTGVQNSTDTQY	8	25
36	AISDYIMSTDTQY	8	4
2	AISDYIMSTDTQY	8	4152
10	ASSVLAGETQY	10	85
43	ASSVLAGETQY	10	1
4	ASSSGGTLETQY	10	48
5	ASSSGGTLETQY	10	1
43	ASSLIGLSSYNEQF	6	53
40	ASSLIGLSSYNEQF	6	2
6	ASAGTGGQYNEQF	6	3
7	ASAGTGGQYNEQF	6	410
43	ASSLASSASYEQY	12	8
28	ASSLASSASYEQY	12	1
4	ASSLGGTFETQY	10	16
30	ASSLGGTFETQY	10	1
14	ASLRGIETQY	10	14559
8	ASLRGIETQY	10	1
42	ASSLGSYEQY	12	3
37	ASSLGSYEQY	12	8525
30	ASSLGSYEQY	12	2
43	ASSLGSYEQY	12	1
7	ASSLIAGSPNEQL	6	1
6	ASSLIAGSPNEQL	6	1
36	AIGESWTGVQTSTDTQY	8	2
32	AIGESWTGVQTSTDTQY	8	1
2	AIGESWTGVQTSTDTQY	8	331
32	ASSTRSDPREQY	12	1
33	ASSTRSDPREQY	12	119
5	ASSAQTSAGGVDEQF	6	22
28	ASSAQTSAGGVDEQF	6	1
25	ASSHRLGDEQY	12	1
23	ASSHRLGDEQY	12	134
31	ASSYSISTGGQGTQY	10	353
34	ASSYSISTGGQGTQY	10	1
21	ASSLGTGNEQY	12	1
19	ASSLGTGNEQY	12	65481
33	ASSLGTGNEQY	12	1
18	ASSLGTGNEQY	12	1
28	ASSQDPFPLYEQY	12	1
43	ASSQDPFPLYEQY	12	103
25	ATSHQLGDEQY	12	1
23	ATSHQLGDEQY	12	12
23	ASSHPTGVSENIQY	9	70
25	ASSHPTGVSENIQY	9	1
6	ASAGIGGQYNEQF	12	1
7	ASAGIGGQYNEQF	12	140
5	ASRLLTGGGADTQY	8	1
4	ASRLLTGGGADTQY	8	58
7	TSAGTGGQYNEQF	12	150
6	TSAGTGGQYNEQF	12	2
33	ASRIRSDPREQY	12	60
35	ASRIRSDPREQY	12	1
28	ASSDGTGLSPDNEQF	6	862
30	ASSDGTGLSPDNEQF	6	1
33	ASSYVEDNEQF	6	167
1	ASSYVEDNEQF	6	1
43	ASSRNPFPLYEQY	12	41
28	ASSRNPFPLYEQY	12	2
16	ASSRPIGVEGTDEQY	12	1
19	ASSRPIGVEGTDEQY	12	33468
43	ASISSGITDTQY	8	1
19	ASISSGITDTQY	8	61580
36	AINESWTGVQTSTDTQY	8	1
2	AINESWTGVQTSTDTQY	8	26
8	ASSADTYEQY	12	5
14	ASSADTYEQY	12	49089
40	ASSLIGVSSYNEQL	6	1
43	ASSLIGVSSYNEQL	6	1597
30	ASSLGGTLETQY	10	10
5	ASSLGGTLETQY	10	115
4	ASSLGGTLETQY	10	40347
35	AISGSWTGVQTSTDTQY	8	1
2	AISGSWTGVQTSTDTQY	8	148
43	ASSRQGGEAVEQY	6	47
28	ASSRQGGEAVEQY	6	1
34	ASSYAISTGGQETQY	10	1
31	ASSYAISTGGQETQY	10	45
31	ASSYVDDNEQL	6	2
33	ASSYVDDNEQL	6	498
44	ASSFLLAGGYEQY	12	1
19	ASSFLLAGGYEQY	12	418067
35	ASSFLLAGGYEQY	12	2
18	ASSFLLAGGYEQY	12	1
31	ASGEAGTEPYEQY	12	105
34	ASGEAGTEPYEQY	12	1
32	ASGEAGTEPYEQY	12	3
31	ASSCVDDNEQF	6	1
33	ASSCVDDNEQF	6	200
37	ASSRGSYEQY	12	5
13	ASSRGSYEQY	12	2
32	ASSDSVVYEQY	12	1860
35	ASSDSVVYEQY	12	1
28	ASSLAALASYEQY	12	1
43	ASSLAALASYEQY	12	18
43	ASSSLSNTIY	2	13292
40	ASSSLSNTIY	2	1
28	ASSSLSNTIY	2	19
14	ATSVLAGETQY	10	35
10	ATSVLAGETQY	10	57385
29	ASSVQGNPYEQY	12	2404
43	ASSVQGNPYEQY	12	1
7	ASTLGLSNDNEQF	6	1
6	ASTLGLSNDNEQF	6	3351
19	ASSLTRLTEQY	12	37950
14	ASSLTRLTEQY	12	1
25	ASSTAPGTGPQETQY	10	1
26	ASSTAPGTGPQETQY	10	20495
43	ASSSGTGGIDFLAKNIQY	9	2076
28	ASSSGTGGIDFLAKNIQY	9	15
30	ASSDGKGLSPYNEQF	6	1
28	ASSDGKGLSPYNEQF	6	167
32	ASSYGQGAGEETQY	10	1
31	ASSYGQGAGEETQY	10	30
25	ASSREISIGEQY	12	1
23	ASSREISIGEQY	12	481
31	ASSCSISTGGQETQY	10	211
34	ASSCSISTGGQETQY	10	2
44	ASSSSGSSYNEQF	6	130
8	ASSSSGSSYNEQF	6	1
4	ASSTGQYQETQY	10	1
42	ASSTGQYQETQY	10	44171
37	ASSTGQYQETQY	10	11
21	ASSTGQYQETQY	10	1
34	ASSYSISTEGQETQY	10	1
31	ASSYSISTEGQETQY	10	99
32	ASSYSISTEGQETQY	10	1
7	ASAGTEGQYNEQF	12	121
6	ASAGTEGQYNEQF	12	1
4	ATSLLTGGGADTQY	8	4
5	ATSLLTGGGADTQY	8	1
21	ASSQDGGGRVNNEQF	6	117361
4	ASSQDGGGRVNNEQF	6	1
14	ATSNIQGVETEAF	0	2
10	ATSNIQGVETEAF	0	4377
5	ASSFLTGGGADTQY	8	1
4	ASSFLTGGGADTQY	8	18
40	ASRYDGNTGELF	7	1
43	ASRYDGNTGELF	7	673
28	ASRYDGNTGELF	7	2
31	ASSYPISTGGQETQY	10	270
33	ASSYPISTGGQETQY	10	1
28	ASSLGEGYNEQF	6	36
30	ASSLGEGYNEQF	6	1
43	ASSSAGGVTYEQY	12	71
28	ASSSAGGVTYEQY	12	3
25	ASSHPTGVSKNIQY	9	98
23	ASSHPTGVSKNIQY	9	36637
23	ASSHQLEDEQY	12	46
25	ASSHQLEDEQY	12	2
28	ASSLAPGNTIY	2	1
29	ASSLAPGNTIY	2	1613
23	ASSQDLTSGGNNEQF	6	26
25	ASSQDLTSGGNNEQF	6	1
25	ASSHHLGDEQY	12	1
23	ASSHHLGDEQY	12	14
28	ASSLAASASYEQY	12	14
3	ASSLAASASYEQY	12	1
43	ASSLAASASYEQY	12	20448
40	ASSLAASASYEQY	12	2
30	ASSLAASASYEQY	12	1
41	ASSLSGSGGTFNEQF	6	4
40	ASSLSGSGGTFNEQF	6	1622
25	TSSHPTGVSKNIQY	9	1
23	TSSHPTGVSKNIQY	9	53
43	ASSLIGASSYNEQF	6	404
40	ASSLIGASSYNEQF	6	1
5	ASNLALAGPYNEQF	6	5
28	ASNLALAGPYNEQF	6	1
32	ASSYGRGAGEETQY	10	13
31	ASSYGRGAGEETQY	10	29062
34	ASSYGRGAGEETQY	10	26
33	ASSYGRGAGEETQY	10	14
2	ASSYGRGAGEETQY	10	1
1	ASSYGRGAGEETQY	10	3
18	ASSRDFSYNSPLH	5	12
19	ASSRDFSYNSPLH	5	1
34	ASSEAGAEPYEQY	12	2
31	ASSEAGAEPYEQY	12	112
4	ASSLITGGGADTQY	8	13
5	ASSLITGGGADTQY	8	1
37	ASSPMPSSYEQY	12	1
42	ASSPMPSSYEQY	12	5699
3	ASSRDPFPLYEQY	12	1
40	ASSRDPFPLYEQY	12	11
38	ASSRDPFPLYEQY	12	1
28	ASSRDPFPLYEQY	12	55
43	ASSRDPFPLYEQY	12	80382
37	ASSRDPFPLYEQY	12	2
43	ASSFSTGVLNAEAF	0	2
28	ASSFSTGVLNAEAF	0	1
40	VSSLIGVSSYNEQF	6	1
43	VSSLIGVSSYNEQF	6	121
31	ASSHSISTGGQETQY	10	171
34	ASSHSISTGGQETQY	10	1
32	ASSPDRYLDEQY	12	1
33	ASSPDRYLDEQY	12	581
43	ASSVSYEQY	12	7
28	ASSVSYEQY	12	1
2	AISESWSGVQTSTDTQY	8	13
36	AISESWSGVQTSTDTQY	8	1
40	ASSLRGVSSYNEQF	6	1
43	ASSLRGVSSYNEQF	6	66
18	ASSFPQISRDSAATYEQY	12	1
19	ASSFPQISRDSAATYEQY	12	246799
23	VSSHPTGVSKNIQY	9	802
25	VSSHPTGVSKNIQY	9	2
28	ASSLDASGGLSSYNEQF	6	1
4	ASSLDASGGLSSYNEQF	6	1525
5	ASSLDASGGLSSYNEQF	6	5
30	ASSPGLAGVDTQY	8	4
37	ASSPGLAGVDTQY	8	3739
7	ASAGTGGQYNEQF	12	171766
6	ASAGTGGQYNEQF	12	297
39	ASAGTGGQYNEQF	12	1
44	ASAGTGGQYNEQF	12	2
25	ASSQDWQESSYEQY	12	15
30	ASSQDWQESSYEQY	12	12
24	ASSQDWQESSYEQY	12	4026
31	ASSLGSALYEQY	12	1
18	ASSLGSALYEQY	12	22123
16	AISEGGSSYNEQF	7	2
35	AISEGGSSYNEQF	7	4
32	AISEGGSSYNEQF	7	6
2	AISEGGSSYNEQF	7	12729
36	AISEGGSSYNEQF	7	5
31	ASSYSISTGGQETQY	10	125435
33	ASSYSISTGGQETQY	10	50
16	ASSYSISTGGQETQY	10	1
34	ASSYSISTGGQETQY	10	127
36	ASSYSISTGGQETQY	10	4
32	ASSYSISTGGQETQY	10	79
1	ASSYSISTGGQETQY	10	2
29	ASSRGAGYNEQF	6	1
28	ASSRGAGYNEQF	6	50
43	TSSRQAGEAVEQY	6	147
40	TSSRQAGEAVEQY	6	1
26	ASSHTLDYEQY	12	11081
25	ASSHTLDYEQY	12	1
37	ASSLRGGGGGDTQY	8	1
42	ASSLRGGGGGDTQY	8	2467
43	ASSDGTGLSPYNEQF	6	3
23	ASSDGTGLSPYNEQF	6	1
25	ASSDGTGLSPYNEQF	6	26
30	ASSDGTGLSPYNEQF	6	114
19	ASSDGTGLSPYNEQF	6	1
28	ASSDGTGLSPYNEQF	6	196807
29	ASSDGTGLSPYNEQF	6	22
18	ASAERQGNEQF	6	1
16	ASAERQGNEQF	6	378
34	ASSYGRGAGEGTQY	10	1
31	ASSYGRGAGEGTQY	10	68
43	ASSPVPGELF	7	840
28	ASSPVPGELF	7	1
