8	ASIAGTGDEQY	12	1
14	ASIAGTGDEQY	12	29
40	ASSLTDYEQY	12	1
6	ASSLTDYEQY	12	12
38	ASSPQGMHNEQF	6	126
42	ASSPQGMHNEQF	6	3
37	ASSVDRYNEQF	6	1
3	ASSVDRYNEQF	6	1
8	ASSDLGAGNYNEQF	6	1
14	ASSDLGAGNYNEQF	6	186
38	ASSLNGPGTGAYEQY	12	46
37	ASSLNGPGTGAYEQY	12	1
42	ASSLGTASTDTQY	8	50
43	ASSLGTASTDTQY	8	4
42	ASSFSGTGRSYEQY	12	1
37	ASSFSGTGRSYEQY	12	1
4	ASSLGGYGEQF	6	414
5	ASSLGGYGEQF	6	2
42	ASSLGGYGEQF	6	1
42	ASSLPNRVTSTDTQY	8	5
40	ASSLPNRVTSTDTQY	8	108
33	ASGWQGLSNEQF	6	114
6	ASGWQGLSNEQF	6	1
1	ASSEALQGSTSTDTQY	8	4
35	ASSEALQGSTSTDTQY	8	20
32	ASSEALQGSTSTDTQY	8	3
36	ASSEALQGSTSTDTQY	8	6
14	ATSRDDSIYNEQF	6	2
10	ATSRDDSIYNEQF	6	326
42	ASSLATGLATSSYEQY	12	2178
43	ASSLATGLATSSYEQY	12	4
38	ASSLATGLATSSYEQY	12	1
40	ASSLDGLRTGAYEQY	12	1
38	ASSLDGLRTGAYEQY	12	1
33	ASSGSPAGGETQY	10	1
31	ASSGSPAGGETQY	10	42
12	ASSVGGLETQY	10	1
19	ASSVGGLETQY	10	1
14	ASSPGTRSDEQF	6	1240
42	ASSPGTRSDEQF	6	1
38	ASSLATGLPASSYEQY	12	2
37	ASSLATGLPASSYEQY	12	1
42	ASSLATGLPASSYEQY	12	3145
43	ASSLATGLPASSYEQY	12	5
33	ASRTGQATSYEQY	12	3
31	ASRTGQATSYEQY	12	362
1	ASNDGDYEQY	12	1
31	ASNDGDYEQY	12	2
38	ASSLGQQETQY	10	1
37	ASSLGQQETQY	10	1399
43	ASSLGQQETQY	10	4
42	ASSLGQQETQY	10	13
14	ASSDGQGRSYNSPLH	5	68
42	ASSDGQGRSYNSPLH	5	1
38	AISLGGPGTGAYEQY	12	1
42	AISLGGPGTGAYEQY	12	1
14	ASSEVGQHYEQY	12	187
8	ASSEVGQHYEQY	12	1
37	ASSLAHEQY	12	3
42	ASSLAHEQY	12	1
40	ASGEGRSYEQY	12	1
37	ASGEGRSYEQY	12	2
2	AIRVDSQETQY	10	383
32	AIRVDSQETQY	10	1
38	ASSLVTGLAASSYEQY	12	2
43	ASSLVTGLAASSYEQY	12	8
42	ASSLVTGLAASSYEQY	12	5513
37	ASSLVTGLAASSYEQY	12	3
37	ASSIDGGREDTQY	8	1
42	ASSIDGGREDTQY	8	1
42	ASSLAFGTSWSGYEQF	6	1
43	ASSLAFGTSWSGYEQF	6	1
40	ASSLAFGTSWSGYEQF	6	293
43	VSSLDGPGTGAYEQY	12	2
38	VSSLDGPGTGAYEQY	12	110
31	ASSLTSGVYEQY	12	1
34	ASSLTSGVYEQY	12	1
19	ASSLTSGVYEQY	12	871
43	ASSLTSGVYEQY	12	1
42	ASSLATGLSASSYEQY	12	3050
38	ASSLATGLSASSYEQY	12	3
43	ASSLATGLSASSYEQY	12	4
37	ASSLATGLSASSYEQY	12	1
36	ASSYHPRETWDEQY	12	3
35	ASSYHPRETWDEQY	12	4
1	ASSYHPRETWDEQY	12	2
32	ASSYHPRETWDEQY	12	2
42	ASSYHPRETWDEQY	12	1
33	TSVPPGLAASSYEQY	12	15
32	TSVPPGLAASSYEQY	12	1
19	ASTAGTGRYEQY	12	2508
42	ASTAGTGRYEQY	12	1
33	ASAGAQYNEQF	12	1
34	ASAGAQYNEQF	12	1
31	ASAGAQYNEQF	12	154
31	ASSYGPSLDEQY	12	1
33	ASSYGPSLDEQY	12	2
43	ASKDSRGSTDTQY	8	53
42	ASKDSRGSTDTQY	8	1
43	ASSLLGSDSEQY	12	1
19	ASSLLGSDSEQY	12	467
37	ASSLGAHPNEQF	6	80
43	ASSLGAHPNEQF	6	1
42	ASSLGAHPNEQF	6	1
18	ASSLGEYNEQF	6	35
6	ASSLGEYNEQF	6	7
31	ATWARGQETQY	10	1
36	ATWARGQETQY	10	1
34	ATWARGQETQY	10	2
33	ATWARGQETQY	10	2558
19	ASSRSGRFYEQY	12	1
31	ASSRSGRFYEQY	12	61
42	ASSQTGGPGSTIY	2	1
37	ASSQTGGPGSTIY	2	4
24	ASSQDPPGKRSYEQY	12	251
30	ASSQDPPGKRSYEQY	12	2
33	ASSSPRGIQETQY	10	458
31	ASSSPRGIQETQY	10	1
40	ASSLAFGTGGSGYEQF	6	39
43	ASSLAFGTGGSGYEQF	6	2
43	ASSLATGLTASSYEQY	12	12
4	ASSLATGLTASSYEQY	12	1
37	ASSLATGLTASSYEQY	12	4
42	ASSLATGLTASSYEQY	12	4484
42	ASSAAGAETQY	10	1
38	ASSAAGAETQY	10	1
43	ASSAAGAETQY	10	274
38	ASSLVYGTGGSYNEQF	6	1
4	ASSLVYGTGGSYNEQF	6	85
42	ASSFATGLAASSYEQY	12	1287
43	ASSFATGLAASSYEQY	12	4
42	ASPASGLFTDTQY	8	2
43	ASPASGLFTDTQY	8	1197
38	ASPASGLFTDTQY	8	1
41	ASSPGGHEQY	12	136
40	ASSPGGHEQY	12	1
42	ASSPSGTGTYEQY	12	12
37	ASSPSGTGTYEQY	12	1009
38	ASSPSGTGTYEQY	12	2
43	ASSPSGTGTYEQY	12	4
43	ASSLTWGRRDEQF	6	1
38	ASSLTWGRRDEQF	6	1
37	ASSLATGLAVSSYEQY	12	1
43	ASSLATGLAVSSYEQY	12	2
42	ASSLATGLAVSSYEQY	12	2290
42	ASSLRRQYADTQY	8	1
37	ASSLRRQYADTQY	8	230
33	ASSYSPQGDTQY	8	81
34	ASSYSPQGDTQY	8	1
23	ASSPFEGYETQY	10	212
25	ASSPFEGYETQY	10	1
42	ASSLSPPYNEQF	6	14
37	ASSLSPPYNEQF	6	1409
43	ASSLSPPYNEQF	6	8
42	ASSSGTSYNEQF	6	7
37	ASSSGTSYNEQF	6	768
43	ASSSGTSYNEQF	6	4
31	ASSCRETQY	10	14
32	ASSCRETQY	10	1
31	ASRPLDSLDYEQY	12	454
33	ASRPLDSLDYEQY	12	3
43	ARSLATGLAASSYEQY	12	3
38	ARSLATGLAASSYEQY	12	1
37	ARSLATGLAASSYEQY	12	4
42	ARSLATGLAASSYEQY	12	1466
42	ASSLATGLAASCYEQY	12	836
37	ASSLATGLAASCYEQY	12	1
43	ASSLTGVETQY	10	1
5	ASSLTGVETQY	10	9
19	ASSLTGVETQY	10	1
30	ASSLTGVETQY	10	1
4	ASSLTGVETQY	10	3194
42	ASSLTGVETQY	10	1
42	ASSTYNEQF	6	27
37	ASSTYNEQF	6	2012
4	ASSTYNEQF	6	1
38	ASSTYNEQF	6	4
43	ASSTYNEQF	6	13
40	ASSTYNEQF	6	2
35	ASSLPNYNEQF	6	25
34	ASSLPNYNEQF	6	221
33	ASSLPNYNEQF	6	1
42	ARSPANEQF	6	1
4	ARSPANEQF	6	1
42	ASSERASGSGYNEQF	6	6
43	ASSERASGSGYNEQF	6	1279
21	ASSVDGVEQF	6	1
44	ASSVDGVEQF	6	7421
42	ASSVDGVEQF	6	3
43	ASRLAFGTSGSGYEQF	6	1
40	ASRLAFGTSGSGYEQF	6	10
38	ASIPILSYNEQF	6	1
43	ASIPILSYNEQF	6	6
34	ATWSRGQETQY	10	2
32	ATWSRGQETQY	10	1
33	ATWSRGQETQY	10	620
43	ASMMTSGPYEQY	12	1
14	ASMMTSGPYEQY	12	497
42	ASREGQAYEQY	12	11
40	ASREGQAYEQY	12	2
28	ASREGQAYEQY	12	6
38	ASREGQAYEQY	12	1
43	ASREGQAYEQY	12	5813
14	ASSETGYEQY	12	9512
8	ASSETGYEQY	12	8
19	ASSETGYEQY	12	1
28	ASRKGQAHEQY	12	3
43	ASRKGQAHEQY	12	2248
27	ASSPPTSFNEQF	6	600
28	ASSPPTSFNEQF	6	2
43	ASSLERIPYEQY	12	558
42	ASSLERIPYEQY	12	1
28	ASSLERIPYEQY	12	2
33	ASSYAGASSYEQY	12	2
31	ASSYAGASSYEQY	12	225
32	ASSYAGASSYEQY	12	2
42	ASSLDGPGKGAYEQY	12	1
38	ASSLDGPGKGAYEQY	12	45
43	ASSQILEKNEQF	6	351
42	ASSQILEKNEQF	6	2
6	ARSLKETQY	10	8
19	ARSLKETQY	10	1
44	ASSYSGIGEKFTDTQY	8	1
29	ASSYSGIGEKFTDTQY	8	1
43	ASSLEPHSYEQY	12	1
37	ASSLEPHSYEQY	12	411
42	ASSLEPHSYEQY	12	5
6	ASSLGATYNEQF	6	1372
7	ASSLGATYNEQF	6	2
29	ASSVAREETQY	10	86
43	ASSVAREETQY	10	1
14	ASSSNKPYEQY	12	1
18	ASSSNKPYEQY	12	1
19	ASSSNKPYEQY	12	56970
43	ASSSNKPYEQY	12	7
38	ASSSNKPYEQY	12	1
44	ASSSNKPYEQY	12	1
40	ASSSNKPYEQY	12	1
42	ASSSNKPYEQY	12	3
39	ASRLANEQF	6	1
37	ASRLANEQF	6	479
43	ASRLANEQF	6	7
42	ASRLANEQF	6	15
41	ASSSPGSYNEQF	6	1
40	ASSSPGSYNEQF	6	1255
42	ASSSPGSYNEQF	6	3
38	ASSSPGSYNEQF	6	1
3	ASSLGAGGTYNEQF	6	15
5	ASSLGAGGTYNEQF	6	1
42	ASSHRGGAKNIQY	9	2
19	ASSHRGGAKNIQY	9	12420
38	ASRNGQAYEQY	12	2
42	ASRNGQAYEQY	12	10
43	ASRNGQAYEQY	12	3489
40	ASSSPNRVSSTDTQY	8	48
43	ASSSPNRVSSTDTQY	8	1
4	ASSPAGNEQF	6	48
19	ASSPAGNEQF	6	3
43	ASKKGQAYEQY	12	1322
28	ASKKGQAYEQY	12	1
30	ASKKGQAYEQY	12	1
14	ASSENSVAGDEQF	6	3184
8	ASSENSVAGDEQF	6	1
37	ASSPYNEQF	6	1
19	ASSPYNEQF	6	8
43	ASREGRSYEQY	12	27
38	ASREGRSYEQY	12	6
30	ASREGRSYEQY	12	2
42	ASREGRSYEQY	12	45
37	ASREGRSYEQY	12	4295
40	ASREGRSYEQY	12	2
42	ASSLVKGLAASSYEQY	12	4
43	ASSLVKGLAASSYEQY	12	1
19	ASSPRQGSGDTQY	8	1
18	ASSPRQGSGDTQY	8	2814
43	ASSQPGQGEEQY	12	1
19	ASSQPGQGEEQY	12	925
42	ASSSPSGLSTDTQY	8	1
37	ASSSPSGLSTDTQY	8	70
43	ASSSPSGLSTDTQY	8	1
38	ASSSPSGLSTDTQY	8	2
33	ASSDGTSSHEQY	12	1
34	ASSDGTSSHEQY	12	2
43	ASSQDRGWDEQF	6	304
42	ASSQDRGWDEQF	6	1
43	AIRPRLASDEQF	6	1
2	AIRPRLASDEQF	6	124
43	ASSARQGRNEQF	6	1
40	ASSARQGRNEQF	6	168
4	ASGAGLAYNEQF	6	13
5	ASGAGLAYNEQF	6	1
33	AIWTRGQETQY	10	372
34	AIWTRGQETQY	10	1
31	AIWTRGQETQY	10	1
35	AIWTRGQETQY	10	1
42	ASSLTGGYEQY	12	35
37	ASSLTGGYEQY	12	2450
38	ASSLTGGYEQY	12	2
43	ASSLTGGYEQY	12	14
6	ASSLKETQY	10	2965
7	ASSLKETQY	10	1
38	ASSLKETQY	10	2
19	ASSLKETQY	10	15
1	ASSRLAGGTYNEQF	6	1
32	ASSRLAGGTYNEQF	6	5
42	ASSLITHTYNEQF	6	16
43	ASSLITHTYNEQF	6	6
38	ASSLITHTYNEQF	6	1
37	ASSLITHTYNEQF	6	608
28	ASSPGLDADTQY	8	1
43	ASSPGLDADTQY	8	5
42	ASRTGQAYEQY	12	1
43	ASRTGQAYEQY	12	155
39	ASSLIGQGIGDEQF	6	1
42	ASSLIGQGIGDEQF	6	22
43	ASSLIGQGIGDEQF	6	5949
38	ASSLIGQGIGDEQF	6	4
40	ASSLIGQGIGDEQF	6	5
28	ASSLIGQGIGDEQF	6	5
38	ASSFGGQETQY	10	1
42	ASSFGGQETQY	10	136
43	TSSSPNRVTSTDTQY	8	5
40	TSSSPNRVTSTDTQY	8	1274
41	TSSSPNRVTSTDTQY	8	1
35	ATGTRGQETQY	10	1
33	ATGTRGQETQY	10	462
43	ASSLANMVGLNEQF	6	2
40	ASSLANMVGLNEQF	6	152
2	ASSNSQDRGSPLH	5	1
1	ASSNSQDRGSPLH	5	321
42	ASILVTGLAASSYEQY	12	2
43	ASILVTGLAASSYEQY	12	1
19	ASSLGRGYEQY	12	3
38	ASSLGRGYEQY	12	6
30	ASRKGLAYEQY	12	1
43	ASRKGLAYEQY	12	411
43	ASSLATGRAASSYEQY	12	2
42	ASSLATGRAASSYEQY	12	1021
23	ASSQDWTDTQY	8	2
25	ASSQDWTDTQY	8	2840
24	ASSQDWTDTQY	8	3
28	ASSQDWTDTQY	8	1
30	ASSQDWTDTQY	8	10
43	ASSQDWTDTQY	8	2
30	ASSFWGGTNEQY	12	1
27	ASSFWGGTNEQY	12	1150
25	ASSFWGGTNEQY	12	2
40	ASSSPNRGTSTDTQY	8	526
43	ASSSPNRGTSTDTQY	8	5
42	ASSSPNRGTSTDTQY	8	1
38	ASSSPNRGTSTDTQY	8	1
41	ASSSPNRGTSTDTQY	8	1
7	ASSLVRGSGYYEQY	12	1
6	ASSLVRGSGYYEQY	12	2051
26	ASSPGLAGGNEQF	6	1800
33	ASSPGLAGGNEQF	6	1
37	ASSLRASETNEQY	12	10
38	ASSLRASETNEQY	12	1
3	ASSERGRGKGSYNEQF	6	609
38	ASSERGRGKGSYNEQF	6	1
43	ASSERGRGKGSYNEQF	6	4
42	ASSRSGRYTQETQY	10	1
37	ASSRSGRYTQETQY	10	28
42	ASSLDGPGIGAYEQY	12	1
38	ASSLDGPGIGAYEQY	12	43
5	ASSLDGPGIGAYEQY	12	1
43	ASSSSWEQY	12	1
19	ASSSSWEQY	12	173
43	ASSAGPSSYEQY	12	1
44	ASSAGPSSYEQY	12	1509
2	AIARGQTYNEQF	6	7619
35	AIARGQTYNEQF	6	2
33	AIARGQTYNEQF	6	6
36	AIARGQTYNEQF	6	2
32	AIARGQTYNEQF	6	7
31	ASKGGDFSNEQF	6	72
35	ASKGGDFSNEQF	6	1
32	ASRQVSGNTIY	2	1
31	ASRQVSGNTIY	2	1
33	ASRQVSGNTIY	2	351
29	ASSSGQGGQEETQY	10	1
19	ASSSGQGGQEETQY	10	15503
19	ASSWEAGVLYEQY	12	1
6	ASSWEAGVLYEQY	12	141
31	ASSLGGSTDTQY	8	2
6	ASSLGGSTDTQY	8	1135
4	ASSFRSYPGGRNQETQY	10	85
42	ASSFRSYPGGRNQETQY	10	1
43	ASTKGQAYEQY	12	111
42	ASTKGQAYEQY	12	2
34	ASSAGLRCEQY	12	21
33	ASSAGLRCEQY	12	1
42	ASSLATGLGASSYEQY	12	908
43	ASSLATGLGASSYEQY	12	5
38	ASSLATGLGASSYEQY	12	1
42	ASSLASGLAASSYEQY	12	760
37	ASSLASGLAASSYEQY	12	1
37	ASSLYGGGRSISNEQF	6	3
38	ASSLYGGGRSISNEQF	6	1
33	ASMTSGNNEQF	6	7
34	ASMTSGNNEQF	6	1
32	ASMTSGNNEQF	6	18
31	ASMTSGNNEQF	6	1675
42	ASSLATGLAASFYEQY	12	1566
43	ASSLATGLAASFYEQY	12	4
9	ASSPGPVEQF	6	4492
43	ASSPGPVEQF	6	1
23	ASSPSGPPSYNEQF	6	270
25	ASSPSGPPSYNEQF	6	1
30	ASSLSGNEQF	6	1
28	ASSLSGNEQF	6	1
43	ASSRRPGDEQF	6	1
37	ASSRRPGDEQF	6	3
5	ASSIAGGLNEQF	6	5
38	ASSIAGGLNEQF	6	1
4	ASSIAGGLNEQF	6	2246
42	ASSIAGGLNEQF	6	7
43	ASRKGRPYEQY	12	2
37	ASRKGRPYEQY	12	1
42	ASSHEGPGTGTQY	8	12
38	ASSHEGPGTGTQY	8	1
42	ASSLVRASINTYEQY	12	1
4	ASSLVRASINTYEQY	12	1476
5	ASSLVRASINTYEQY	12	3
19	ASSLVRASINTYEQY	12	1
42	ASSLATGLAASSFEQY	12	85
43	ASSLATGLAASSFEQY	12	2
1	ASSYLAVTSTDTQY	8	3
32	ASSYLAVTSTDTQY	8	1
31	ASSFSRSNYNEQF	6	1
43	ASSFSRSNYNEQF	6	10
33	ASSVADAGNTIY	2	1
31	ASSVADAGNTIY	2	391
32	ASSVADAGNTIY	2	2
43	ASSLDPDASYNSPLH	5	2
42	ASSLDPDASYNSPLH	5	375
42	ASSLTRGYEQY	12	1
37	ASSLTRGYEQY	12	3
43	ASSLATGLAASSCEQY	12	14
37	ASSLATGLAASSCEQY	12	2
42	ASSLATGLAASSCEQY	12	5027
38	ASSLATGLAASSCEQY	12	4
40	ASSLATGLAASSCEQY	12	1
14	ASSFREGYNEQF	6	7036
8	ASSFREGYNEQF	6	1
42	ASTLLGATSEQY	12	1
19	ASTLLGATSEQY	12	6262
35	AIRGTGGDYNEQF	6	2
36	AIRGTGGDYNEQF	6	2
32	AIRGTGGDYNEQF	6	3
2	AIRGTGGDYNEQF	6	3942
42	ASSFSGTGHSYEQY	12	19
43	ASSFSGTGHSYEQY	12	5
37	ASSFSGTGHSYEQY	12	1293
38	ASSLATGLAAGSYEQY	12	4
42	ASSLATGLAAGSYEQY	12	6302
43	ASSLATGLAAGSYEQY	12	5
40	ASSLATGLAAGSYEQY	12	1
37	ASSLATGLAAGSYEQY	12	4
42	ASSLATGLAAGTYEQY	12	2
43	ASSLATGLAAGTYEQY	12	1
43	ASSLSGGAYEQY	12	1
21	ASSLSGGAYEQY	12	1
31	TSVPAVTSSLYNEQF	6	169
32	TSVPAVTSSLYNEQF	6	1
28	ASSLWATSGRNEQF	6	35
30	ASSLWATSGRNEQF	6	1
6	ASTLSSSGTQY	8	1
18	ASTLSSSGTQY	8	1196
31	ASTLSSSGTQY	8	1
19	ASTLSSSGTQY	8	1
42	ASSLATGLAGSSYEQY	12	907
38	ASSLATGLAGSSYEQY	12	2
43	ASSLATGLAGSSYEQY	12	2
42	ASSVGGGRNNEQF	6	1
43	ASSVGGGRNNEQF	6	1
14	ASSVGGGRNNEQF	6	1826
2	AISGLFTDTQY	8	366
33	AISGLFTDTQY	8	1
37	ASSLATGLVASSCEQY	12	1
42	ASSLATGLVASSCEQY	12	5
32	ASSYSWGSGNTIY	2	1
33	ASSYSWGSGNTIY	2	897
6	ASSIRGDTQY	8	4
37	ASSIRGDTQY	8	4
43	ASSLLGSSYNEQF	6	1
38	ASSLLGSSYNEQF	6	148
42	ASSLLGSSYNEQF	6	3
43	ASRLGPAHYEQY	12	1
18	ASRLGPAHYEQY	12	1147
19	ASSPRDRQETQY	10	2864
43	ASSPRDRQETQY	10	1
38	ASSQQGADTQY	8	4
21	ASSQQGADTQY	8	1
33	ASSQQGADTQY	8	1
36	AIRVNIQETQY	10	1
2	AIRVNIQETQY	10	39
37	ASSPGQGRTSSADTQY	8	132
43	ASSPGQGRTSSADTQY	8	1
42	ASSPGQGRTSSADTQY	8	4
32	ASSAGEGGTQY	10	2696
35	ASSAGEGGTQY	10	2
1	AISEGPSGRAAYEQY	12	1
35	AISEGPSGRAAYEQY	12	2
36	AISEGPSGRAAYEQY	12	2
2	AISEGPSGRAAYEQY	12	3199
19	ASSPPGALETQY	10	239
33	ASSPPGALETQY	10	1
36	AIGVDIQETQY	10	1
2	AIGVDIQETQY	10	64
25	ASSQETGSYIQY	9	1
23	ASSQETGSYIQY	9	342
43	ASSSSGDYPQETQY	10	1
13	ASSSSGDYPQETQY	10	22911
43	ASSLGAGTYEQY	12	51
40	ASSLGAGTYEQY	12	1
43	ASSENWGLSYEQY	12	791
37	ASSENWGLSYEQY	12	1
42	ASSENWGLSYEQY	12	2
40	ASSENWGLSYEQY	12	1
42	ASSMRSSYEQY	12	1
13	ASSMRSSYEQY	12	82
43	ASSLGRQETQY	10	2
38	ASSLGRQETQY	10	1
37	ASSLGRQETQY	10	143
37	ASRRLTELPRYNEQF	6	4
42	ASRRLTELPRYNEQF	6	1
33	ASSYSAGVGETQY	10	6
31	ASSYSAGVGETQY	10	1943
34	ASSYSAGVGETQY	10	2
19	ASSYSAGVGETQY	10	1
32	ASSYSAGVGETQY	10	4
19	ASSGEQGFQETQY	10	69
27	ASSGEQGFQETQY	10	1
31	ASEEGYSDTQY	8	10
33	ASEEGYSDTQY	8	2
32	ATWTRGQGTQY	10	4
33	ATWTRGQGTQY	10	1608
35	ATWTRGQGTQY	10	1
42	ASSFVGLLETQY	10	3
37	ASSFVGLLETQY	10	115
27	ASSLVGGRDQETQY	10	2
4	ASSLVGGRDQETQY	10	8
7	ASAGAGGSYNEQF	6	2024
6	ASAGAGGSYNEQF	6	5
42	ASSSSGSGRSTDTQY	8	1
43	ASSSSGSGRSTDTQY	8	315
41	ASSLARDGGHNEQF	6	1
40	ASSLARDGGHNEQF	6	1
42	ASSLGRGRETQY	10	1
43	ASSLGRGRETQY	10	13
38	ASSLDGPGTEAYEQY	12	71
37	ASSLDGPGTEAYEQY	12	1
33	ASSWGQAPSYEQY	12	494
35	ASSWGQAPSYEQY	12	1
31	ASSWGQAPSYEQY	12	2
38	ASSLDGIAGGPKKEQY	12	2
42	ASSLDGIAGGPKKEQY	12	435
42	ASSLYQGYQETQY	10	2
37	ASSLYQGYQETQY	10	125
42	ASSPTLEGVGNEQF	6	3
38	ASSPTLEGVGNEQF	6	602
28	ASSLDRDSTDTQY	8	1
43	ASSLDRDSTDTQY	8	4
43	ASSFRRGRDNEQF	6	2
42	ASSFRRGRDNEQF	6	196
25	ASSQDLRGQETQY	10	244
24	ASSQDLRGQETQY	10	1
28	ASSQDLRGQETQY	10	1
24	ASSQEPILAPNTDTQY	8	1
25	ASSQEPILAPNTDTQY	8	341
33	ASSHVVLSEQY	12	4
31	ASSHVVLSEQY	12	650
33	ATQTSDTETQY	10	1
16	ATQTSDTETQY	10	585
40	ASSPFGTGIEETQY	10	283
43	ASSPFGTGIEETQY	10	2
43	ASRKGRAYEQY	6	8
42	ASRKGRAYEQY	6	1
30	ASSLDGSNYNEQF	6	1
37	ASSLDGSNYNEQF	6	99
42	ASSLDGSNYNEQF	6	2
25	ASSQESSGTTNEQY	12	1
24	ASSQESSGTTNEQY	12	445
40	ASSLVMADTQY	8	59
43	ASSLVMADTQY	8	4
30	ASSQERKVGGWDEQF	6	1
27	ASSQERKVGGWDEQF	6	1
25	ASSQERKVGGWDEQF	6	152
6	ASSLYRTSGKVYNEQF	6	1088
7	ASSLYRTSGKVYNEQF	6	1
42	ASSVGAVEQF	6	1
28	ASSVGAVEQF	6	2
42	ASSLATGLAPSSYEQY	12	330
43	ASSLATGLAPSSYEQY	12	2
43	ASSLATGLVASSYEQY	12	5
37	ASSLATGLVASSYEQY	12	5
42	ASSLATGLVASSYEQY	12	3408
28	ASSLGRRLAGRVSYNEQF	6	1
30	ASSLGRRLAGRVSYNEQF	6	6
37	ASCLRGDTQY	8	1
42	ASCLRGDTQY	8	1
42	ASSIDRGREDTQY	8	7
37	ASSIDRGREDTQY	8	201
40	ASSIDRGREDTQY	8	1
43	ASSPRLGAPGGNEQF	6	1
3	ASSPRLGAPGGNEQF	6	24
42	ASSLYPGQQETQY	10	1
38	ASSLYPGQQETQY	10	2
14	ATSIELGYEQY	12	1
10	ATSIELGYEQY	12	1228
42	ASSPKSGVEQF	6	421
27	ASSPKSGVEQF	6	1
38	ASILDGPGTGAYEQY	12	81
41	ASILDGPGTGAYEQY	12	1
24	ASSQERIGTDTQY	8	59
30	ASSQERIGTDTQY	8	1
2	AIRLDIQETQY	10	97
19	AIRLDIQETQY	10	1
14	ATSRVGGEEQY	12	31
10	ATSRVGGEEQY	12	32386
35	AIRVDIQETQY	10	19
43	AIRVDIQETQY	10	3
36	AIRVDIQETQY	10	42
1	AIRVDIQETQY	10	4
34	AIRVDIQETQY	10	2
32	AIRVDIQETQY	10	49
33	AIRVDIQETQY	10	29
2	AIRVDIQETQY	10	50512
25	ASSPQIRQGLHNEQF	6	148
24	ASSPQIRQGLHNEQF	6	1
13	ASRLAGYNEQF	6	1
18	ASRLAGYNEQF	6	5
33	ASSLNSNNEQF	6	31
35	ASSLNSNNEQF	6	3
31	ASSLNSNNEQF	6	5
34	ASSLNSNNEQF	6	2774
32	ASSLNSNNEQF	6	3
42	ASSLNSNNEQF	6	1
42	ASSLFAGRRDTYYNEQF	6	1
43	ASSLFAGRRDTYYNEQF	6	14
42	ASRKGQGYEQY	12	18
40	ASRKGQGYEQY	12	1
19	ASRKGQGYEQY	12	1
43	ASRKGQGYEQY	12	673
19	ASSGGQGCQETQY	10	877
43	ASSGGQGCQETQY	10	1
38	ASSRTSAQETQY	10	1
19	ASSRTSAQETQY	10	1
41	ASSRTSAQETQY	10	31
43	ASSRTSAQETQY	10	12
40	ASSRTSAQETQY	10	1408
42	ASSLDAIRRAYNEQF	6	1020
37	ASSLDAIRRAYNEQF	6	1
43	ASSLDAIRRAYNEQF	6	1
38	ASSLDAIRRAYNEQF	6	1
1	ASSARFSTGETQY	10	2164
2	ASSARFSTGETQY	10	1
43	ASSLPQETQY	10	105
38	ASSLPQETQY	10	1
4	ASRKGQAYEQY	12	15
44	ASRKGQAYEQY	12	1
30	ASRKGQAYEQY	12	48
5	ASRKGQAYEQY	12	6
42	ASRKGQAYEQY	12	2609
39	ASRKGQAYEQY	12	3
2	ASRKGQAYEQY	12	1
14	ASRKGQAYEQY	12	25
18	ASRKGQAYEQY	12	2
3	ASRKGQAYEQY	12	21
27	ASRKGQAYEQY	12	10
26	ASRKGQAYEQY	12	1
31	ASRKGQAYEQY	12	1
43	ASRKGQAYEQY	12	1304555
29	ASRKGQAYEQY	12	4
24	ASRKGQAYEQY	12	8
25	ASRKGQAYEQY	12	1
28	ASRKGQAYEQY	12	1288
6	ASRKGQAYEQY	12	7
38	ASRKGQAYEQY	12	453
37	ASRKGQAYEQY	12	217
40	ASRKGQAYEQY	12	624
41	ASRKGQAYEQY	12	12
19	ASRKGQAYEQY	12	46
37	ARRKGQAYEQY	12	1
28	ARRKGQAYEQY	12	3
43	ARRKGQAYEQY	12	936
2	AIRVDVQETQY	10	94
36	AIRVDVQETQY	10	1
38	ASSGNTGREAYEQY	12	1
43	ASSGNTGREAYEQY	12	398
40	ASSGNTGREAYEQY	12	1
42	ASSGNTGREAYEQY	12	4
43	ATSQGGGENIQY	9	2
5	ATSQGGGENIQY	9	2
4	ATSQGGGENIQY	9	1279
43	ASSLVGTNQETQY	10	1
19	ASSLVGTNQETQY	10	441
34	ASRPTSPAAIQY	9	1
33	ASRPTSPAAIQY	9	1463
43	ASRPTSPAAIQY	9	1
32	ASRPTSPAAIQY	9	1
35	ASRPTSPAAIQY	9	1
2	ASRPTSPAAIQY	9	1
31	ASRPTSPAAIQY	9	4
38	ASSKGHENYEQY	12	1
18	ASSKGHENYEQY	12	88
42	ASSAGQGALQETQY	10	832
40	ASSAGQGALQETQY	10	1
42	ASRRTGGSYEQY	12	3
43	ASRRTGGSYEQY	12	1007
40	ASRRTGGSYEQY	12	1
28	ASRRTGGSYEQY	12	3
37	ASREGRPYEQY	12	9
43	ASREGRPYEQY	12	1
42	ATALVQETQY	10	470
43	ATALVQETQY	10	1
32	ASSYGGTHQETQY	10	1
34	ASSYGGTHQETQY	10	4
25	ASSQGTGTTDTQY	8	1
24	ASSQGTGTTDTQY	8	22
43	ASSLSGGVSYEQY	12	1
42	ASSLSGGVSYEQY	12	1
21	ASSLSGGVSYEQY	12	820
38	ASSLRGDTQY	8	4
37	ASSLRGDTQY	8	4110
42	ASSLRGDTQY	8	43
40	ASSLRGDTQY	8	1
43	ASSLRGDTQY	8	15
4	ASSLRGDTQY	8	1
6	ASSLQDNEQF	6	3990
7	ASSLQDNEQF	6	1
42	ASSLATGPAASSYEQY	12	5272
38	ASSLATGPAASSYEQY	12	4
43	ASSLATGPAASSYEQY	12	5
37	ASSLATGPAASSYEQY	12	5
32	ASSYSRDYRAPYEQY	12	1
36	ASSYSRDYRAPYEQY	12	2
37	ASRLATGLAASSYEQY	12	2
38	ASRLATGLAASSYEQY	12	3
42	ASRLATGLAASSYEQY	12	1463
43	ASRLATGLAASSYEQY	12	6
19	ASSQWTSGIAYNEQF	6	5708
42	ASSQWTSGIAYNEQF	6	1
42	ASSLATGLSSYEQY	12	1
37	ASSLATGLSSYEQY	12	19
42	ASSWGGRDEQF	6	1
38	ASSWGGRDEQF	6	8
24	ASSRMTGGRGTDTQY	8	301
43	ASSRMTGGRGTDTQY	8	1
25	ASSRMTGGRGTDTQY	8	2
4	ASSLGGQETQY	10	2
42	ASSLGGQETQY	10	1
32	ASSYQGGSSYEQY	12	1
33	ASSYQGGSSYEQY	12	489
43	ASSSQPALQETQY	10	2
5	ASSSQPALQETQY	10	3
4	ASSSQPALQETQY	10	222
31	ASSDGDYEQY	12	2098
33	ASSDGDYEQY	12	23
32	ASSDGDYEQY	12	1
34	ASSDGDYEQY	12	4
1	ASSDGDYEQY	12	1
35	ASSDGDYEQY	12	1
43	ASSLDPTYEQY	12	5
38	ASSLDPTYEQY	12	2
43	ARSSPNRVTSTDTQY	8	1
40	ARSSPNRVTSTDTQY	8	52
42	ASSSLSGLAGRNEQF	6	115
43	ASSSLSGLAGRNEQF	6	1
6	ASSLVYEQY	12	421
43	ASSLVYEQY	12	2
37	VSSTYNEQF	6	2
43	VSSTYNEQF	6	1
42	ASSLDGPETGAYEQY	12	1
38	ASSLDGPETGAYEQY	12	44
42	ASSRGVRDEQF	6	1
38	ASSRGVRDEQF	6	1
25	ASSQDRGEQY	12	73
24	ASSQDRGEQY	12	2
42	ASSFSTWGTYNEQF	6	3
43	ASSFSTWGTYNEQF	6	1
6	ASSLGRSTDTQY	8	1
26	ASSLGRSTDTQY	8	1
14	ATRAGGGDEQY	12	1
6	ATRAGGGDEQY	12	2450
37	ASSLGGRAGKNEQF	6	5
42	ASSLGGRAGKNEQF	6	1
36	ASTPAGGRGNEQF	6	1
33	ASTPAGGRGNEQF	6	20
1	ASTPAGGRGNEQF	6	1
42	ASTPAGGRGNEQF	6	1
31	ASTPAGGRGNEQF	6	3
34	ASTPAGGRGNEQF	6	338
42	TSRKGQAYEQY	12	2
43	TSRKGQAYEQY	12	1108
40	TSRKGQAYEQY	12	2
43	TSSLDGPGTGAYEQY	12	1
38	TSSLDGPGTGAYEQY	12	47
19	ASRPAGNEQF	6	1
4	ASRPAGNEQF	6	1
43	ASSLATGLAASAYEQY	12	3
42	ASSLATGLAASAYEQY	12	851
38	ASSLATGLAASAYEQY	12	1
42	ASSLDGPGTGDYEQY	12	4
38	ASSLDGPGTGDYEQY	12	39
38	ASSLYGPGTGAYEQY	12	101
42	ASSLYGPGTGAYEQY	12	4
19	ASRSNKPYEQY	12	584
43	ASRSNKPYEQY	12	1
32	ASRQDRLFTDTQY	8	1
31	ASRQDRLFTDTQY	8	71
42	ASSLDRRLAGYNEQF	6	1
43	ASSLDRRLAGYNEQF	6	242
40	ASGKGRAYEQY	12	1
43	ASGKGRAYEQY	12	7
40	ASSSTNRVTSTDTQY	8	117
43	ASSSTNRVTSTDTQY	8	1
41	ASSSTNRVTSTDTQY	8	1
42	ASSSTNRVTSTDTQY	8	1
19	ASSFRGTQY	10	1
31	ASSFRGTQY	10	2
19	ASSLVEYNEQF	6	1
18	ASSLVEYNEQF	6	4536
40	AISSPNRVTSTDTQY	8	53
43	AISSPNRVTSTDTQY	8	3
42	ASSLGGPGTGAYEQY	12	6
38	ASSLGGPGTGAYEQY	12	394
43	ASSLGGPGTGAYEQY	12	1
31	ASSYRLYTGELF	7	1
33	ASSYRLYTGELF	7	1
42	ASSLDGTGTGAYEQY	12	1
38	ASSLDGTGTGAYEQY	12	66
42	ASSSPNRLTSTDTQY	8	1
40	ASSSPNRLTSTDTQY	8	304
43	ASSSPNRLTSTDTQY	8	2
32	ASRPGGAKNIQY	9	1
31	ASRPGGAKNIQY	9	547
33	ASRPGGAKNIQY	9	3
38	ASSLMALSSYNEQF	6	453
43	ASSLMALSSYNEQF	6	6
42	ASSLMALSSYNEQF	6	13
31	ASRSGSYEQF	7	17
33	ASRSGSYEQF	7	1
42	ASSLTTGLAASSYEQY	12	1707
37	ASSLTTGLAASSYEQY	12	4
43	ASSLTTGLAASSYEQY	12	3
38	ASSLTTGLAASSYEQY	12	3
38	ASSLATGLAAWSYEQY	12	1
42	ASSLATGLAAWSYEQY	12	1
30	ASSQDWRSQETQY	10	1
25	ASSQDWRSQETQY	10	102
38	ASSERGNSYNEQF	6	1
14	ASSERGNSYNEQF	6	15053
33	ASSERGNSYNEQF	6	1
43	ASSERGNSYNEQF	6	1
34	ASSERGNSYNEQF	6	1
8	ASSERGNSYNEQF	6	1
38	ASSLDCPGTGAYEQY	12	87
42	ASSLDCPGTGAYEQY	12	4
38	ASSLSIRNPSYEQY	12	1
42	ASSLSIRNPSYEQY	12	1
18	ASSLSIRNPSYEQY	12	2882
37	ASSLQGAGEQY	6	1161
42	ASSLQGAGEQY	6	13
43	ASSLQGAGEQY	6	5
38	ASSLQGAGEQY	6	2
33	ASSYGGRGTDTQY	8	192
31	ASSYGGRGTDTQY	8	1
37	ASSTGQPKETQY	10	1665
42	ASSTGQPKETQY	10	16
38	ASSTGQPKETQY	10	2
43	ASSTGQPKETQY	10	10
37	ASSLATGLAARSYEQY	12	1
38	ASSLATGLAARSYEQY	12	1
43	ASSLATGLAARSYEQY	12	5
42	ASSLATGLAARSYEQY	12	1829
32	ASWGGGSTDTQY	8	1
34	ASWGGGSTDTQY	8	240
38	ASSHRDREFNEQF	6	1
43	ASSHRDREFNEQF	6	3
42	ASSHRDREFNEQF	6	582
37	ASSHRDREFNEQF	6	1
26	ASSLGGSTGELF	7	1085
43	ASSLGGSTGELF	7	12
4	ASSLTGGETQY	10	12
6	ASSLTGGETQY	10	1
37	ASRGTSGTNEQF	6	7
38	ASRGTSGTNEQF	6	1
6	ASRKQRSPQETQY	10	906
7	ASRKQRSPQETQY	10	1
38	ASSLAKGLAASSYEQY	12	1
42	ASSLAKGLAASSYEQY	12	1192
37	ASSLAKGLAASSYEQY	12	3
42	ASSLAGGQDTQY	8	6
43	ASSLAGGQDTQY	8	529
43	ASSLAIGTGGWGNIQY	9	4
42	ASSLAIGTGGWGNIQY	9	11
37	ASSLAIGTGGWGNIQY	9	1008
38	ASSLDGPGTWAYEQY	12	37
42	ASSLDGPGTWAYEQY	12	2
43	ASSPNGGGSYNEQF	6	1
42	ASSPNGGGSYNEQF	6	468
43	ASSSPNRITSTDTQY	8	1
40	ASSSPNRITSTDTQY	8	166
40	ASRKGEAYEQY	12	1
43	ASRKGEAYEQY	12	386
42	ASGTGPYEQY	12	3
28	ASGTGPYEQY	12	2
43	ASGTGPYEQY	12	787
38	ASGTGPYEQY	12	1
42	ASSLATGLAANSYEQY	12	2269
37	ASSLATGLAANSYEQY	12	1
38	ASSLATGLAANSYEQY	12	2
43	ASSLATGLAANSYEQY	12	3
41	ASSSHNRVTSTDTQY	8	1
40	ASSSHNRVTSTDTQY	8	37
37	ASSSWTSGRGNEQF	6	511
42	ASSSWTSGRGNEQF	6	7
43	ASSSWTSGRGNEQF	6	4
6	ASSFANSPLH	5	234
7	ASSFANSPLH	5	1
34	ASSSLYEQY	12	2
43	ASSSLYEQY	12	3
34	ASSVERAYEQY	12	1
31	ASSVERAYEQY	12	330
33	ASSVERAYEQY	12	4
43	ASNLATGLAASSYEQY	12	3
42	ASNLATGLAASSYEQY	12	1940
37	ASNLATGLAASSYEQY	12	1
42	ASSLDGPGTGSYEQY	12	2
38	ASSLDGPGTGSYEQY	12	85
42	ASRKGQVYEQY	12	4
43	ASRKGQVYEQY	12	1018
38	ASSSTSGRANEQF	6	5
37	ASSSTSGRANEQF	6	3953
26	ASSSTSGRANEQF	6	2
43	ASSSTSGRANEQF	6	19
42	ASSSTSGRANEQF	6	55
42	ASRQGQAYEQY	12	5
38	ASRQGQAYEQY	12	1
43	ASRQGQAYEQY	12	2608
40	ASRQGQAYEQY	12	2
28	ASRQGQAYEQY	12	3
42	ASSLATELAASSYEQY	12	2313
37	ASSLATELAASSYEQY	12	1
43	ASSLATELAASSYEQY	12	2
33	ASSYGLGSHEQY	12	290
35	ASSYGLGSHEQY	12	1
32	ASSYGLGSHEQY	12	1
3	ASSSLWPFVEQY	6	1
43	ASSSLWPFVEQY	6	4997
38	ASSSLWPFVEQY	6	1
42	ASSSLWPFVEQY	6	5
40	ASSSLWPFVEQY	6	2
43	ASRKGKAYEQY	12	869
30	ASRKGKAYEQY	12	1
28	ASRKGKAYEQY	12	2
40	ASRKGKAYEQY	12	1
42	ASRKGKAYEQY	12	3
23	ASSPQIRQGLYNEQF	6	2
25	ASSPQIRQGLYNEQF	6	904
24	ASSPQIRQGLYNEQF	6	1
43	AIRPGLASDEQF	6	2
36	AIRPGLASDEQF	6	5
18	AIRPGLASDEQF	6	1
32	AIRPGLASDEQF	6	15
33	AIRPGLASDEQF	6	7
2	AIRPGLASDEQF	6	18307
35	AIRPGLASDEQF	6	12
42	AIRPGLASDEQF	6	9
37	ASREGQSYEQY	12	6
43	ASREGQSYEQY	12	4
31	AIRVGIQETQY	10	1
2	AIRVGIQETQY	10	106
42	ASSLIGGWDQNEQY	12	2
43	ASSLIGGWDQNEQY	12	681
43	ASSLVGIAGGPKKEQY	12	1
42	ASSLVGIAGGPKKEQY	12	2
10	ATRRVGGETQY	10	41
35	ATRRVGGETQY	10	1
3	ASSPTRVDNEQF	6	1
4	ASSPTRVDNEQF	6	897
5	ASSPTRVDNEQF	6	1
44	ASRVDGVEQF	6	29
42	ASRVDGVEQF	6	1
40	ASRKEQAYEQY	12	1
42	ASRKEQAYEQY	12	2
43	ASRKEQAYEQY	12	945
14	ASKTLAGVGDTQY	8	1173
6	ASKTLAGVGDTQY	8	1
33	ASRRDGTSGNTIY	2	1
31	ASRRDGTSGNTIY	2	327
0	ASGLGPSWNEQF	6	3
2	ASGLGPSWNEQF	6	1
1	ASGLGPSWNEQF	6	5283
33	ATTGSYEQF	6	4
31	ATTGSYEQF	6	253
8	ASSEILETQY	10	1
14	ASSEILETQY	10	1161
37	VSSSTSGRANEQF	6	4
43	VSSSTSGRANEQF	6	1
33	ASRLTSGSNEQF	6	1673
43	ASRLTSGSNEQF	6	1
32	ASRLTSGSNEQF	6	1
35	ASRLTSGSNEQF	6	4
31	ASRLTSGSNEQF	6	6
34	ASRLTSGSNEQF	6	2
42	ASSPGLAEGTYNEQF	6	3
43	ASSPGLAEGTYNEQF	6	2
37	ASSPGLAEGTYNEQF	6	178
42	ASSRSPERGTGNTIY	2	99
37	ASSRSPERGTGNTIY	2	1
4	ASSLGLANIQY	9	291
5	ASSLGLANIQY	9	2
43	ASSDGTSSYEQY	12	1
31	ASSDGTSSYEQY	12	3
33	ASSDGTSSYEQY	12	26
34	ASSDGTSSYEQY	12	2008
35	ASSDGTSSYEQY	12	1
43	ASSFSGSNYNEQF	6	1437
40	ASSFSGSNYNEQF	6	1
42	ASSFSGSNYNEQF	6	4
31	ASSELGSSTDTQY	8	298
34	ASSELGSSTDTQY	8	1
33	ASSELGSSTDTQY	8	3
42	ASSLWTGLAASSYEQY	12	96
38	ASSLWTGLAASSYEQY	12	1
42	ASGKGQAYEQY	12	9
41	ASGKGQAYEQY	12	1
37	ASGKGQAYEQY	12	2
28	ASGKGQAYEQY	12	1
29	ASGKGQAYEQY	12	1
43	ASGKGQAYEQY	12	3670
37	ASSQRPSGINEQF	6	1
38	ASSQRPSGINEQF	6	2014
43	ASSQRPSGINEQF	6	9
42	ASSQRPSGINEQF	6	24
42	ATRKGQAYEQY	12	1
43	ATRKGQAYEQY	12	56
28	ASSLLFSAGVSYEQY	12	324
42	ASSLLFSAGVSYEQY	12	1
29	ASSLLFSAGVSYEQY	12	1
37	ASSLGGGQDTQY	8	19
42	ASSLGGGQDTQY	8	1
24	ASSLATGLAASSYEQY	12	2
9	ASSLATGLAASSYEQY	12	3
14	ASSLATGLAASSYEQY	12	7
3	ASSLATGLAASSYEQY	12	4
28	ASSLATGLAASSYEQY	12	16
30	ASSLATGLAASSYEQY	12	4
38	ASSLATGLAASSYEQY	12	1397
42	ASSLATGLAASSYEQY	12	2661553
37	ASSLATGLAASSYEQY	12	1668
29	ASSLATGLAASSYEQY	12	7
5	ASSLATGLAASSYEQY	12	13
21	ASSLATGLAASSYEQY	12	8
18	ASSLATGLAASSYEQY	12	4
19	ASSLATGLAASSYEQY	12	34
6	ASSLATGLAASSYEQY	12	8
40	ASSLATGLAASSYEQY	12	312
41	ASSLATGLAASSYEQY	12	12
27	ASSLATGLAASSYEQY	12	2
44	ASSLATGLAASSYEQY	12	9
4	ASSLATGLAASSYEQY	12	122
39	ASSLATGLAASSYEQY	12	19
43	ASSLATGLAASSYEQY	12	4271
42	ASSLATGLAASSSEQY	12	165
43	ASSLATGLAASSSEQY	12	1
42	ASSLAFVTSGSGYEQF	6	1
43	ASSLAFVTSGSGYEQF	6	1
40	ASSLAFVTSGSGYEQF	6	12
34	ASSAGLRYEQY	12	243
33	ASSAGLRYEQY	12	10
37	ASILYTIGNAGTQY	10	1
42	ASILYTIGNAGTQY	10	1
33	ATWTRDQETQY	10	449
35	ATWTRDQETQY	10	1
38	ASSLAAGLAASSYEQY	12	3
40	ASSLAAGLAASSYEQY	12	1
37	ASSLAAGLAASSYEQY	12	1
43	ASSLAAGLAASSYEQY	12	7
42	ASSLAAGLAASSYEQY	12	7085
5	ASSAGLAYNEQF	6	10
38	ASSAGLAYNEQF	6	1
43	ASSAGLAYNEQF	6	2
4	ASSAGLAYNEQF	6	5439
42	ASSAGLAYNEQF	6	9
30	ASSAGLAYNEQF	6	4
33	ASTGLGTTTDTQY	8	9
32	ASTGLGTTTDTQY	8	1
43	ASRKGHAYEQY	12	621
42	ASRKGHAYEQY	12	8
42	ASSLVGSSYEQY	12	4
43	ASSLVGSSYEQY	12	2
37	ASSLVGSSYEQY	12	143
4	ASSLVGGLDQETQY	10	951
37	ASSLVGGLDQETQY	10	1
42	ASSLVGGLDQETQY	10	3
30	ASSPSDRGNYNEQF	6	1
24	ASSPSDRGNYNEQF	6	2
19	ASRKGQPYEQY	12	1
43	ASRKGQPYEQY	12	166
1	ASRRDSKTVNTDTQY	8	1
35	ASRRDSKTVNTDTQY	8	1
36	ASRRDSKTVNTDTQY	8	3
32	ASRRDSKTVNTDTQY	8	2
43	ASSLATGLADSSYEQY	12	3
42	ASSLATGLADSSYEQY	12	724
42	ASSRTGGWVEQY	12	1
6	ASSRTGGWVEQY	12	1552
6	ASSVSSYEQY	12	139
38	ASSVSSYEQY	12	1
19	ASSWGGGDYNEQF	6	3
18	ASSWGGGDYNEQF	6	1906
28	ASSFSNEQF	6	1
42	ASSFSNEQF	6	38
42	ASRLRGDTQY	8	1
37	ASRLRGDTQY	8	6
31	ASRLRGDTQY	8	1
28	ASSLIGLAGEETQY	10	1
29	ASSLIGLAGEETQY	10	717
42	ASSLIGLAGEETQY	10	1
33	ATWTRGHETQY	10	561
35	ATWTRGHETQY	10	1
37	ASGRETKNEQF	6	929
43	ASGRETKNEQF	6	4
42	ASGRETKNEQF	6	12
43	ASSLSGQGPYEQY	12	1
37	ASSLSGQGPYEQY	12	84
42	ASSLSGQGPYEQY	12	2
28	ASGKEQAYEQY	12	1
43	ASGKEQAYEQY	12	4
40	ASSSPNKVTSTDTQY	8	66
43	ASSSPNKVTSTDTQY	8	2
33	ASSWNRDNSPLH	5	1
19	ASSWNRDNSPLH	5	6
28	ASRKGQSYEQY	12	2
37	ASRKGQSYEQY	12	1
42	ASRKGQSYEQY	12	6
43	ASRKGQSYEQY	12	1143
14	ASSVLASSYNEQF	6	2342
42	ASSVLASSYNEQF	6	1
4	ASSLVTGIYEQY	12	42
42	ASSLVTGIYEQY	12	1
33	ASSGGQGFQETQY	10	6
42	ASSGGQGFQETQY	10	3
43	ASSGGQGFQETQY	10	19
19	ASSGGQGFQETQY	10	138490
31	ASSGGQGFQETQY	10	2
42	ASSLVTGLATSSYEQY	12	3
43	ASSLVTGLATSSYEQY	12	1
19	ASSVSQETQY	10	2
14	ASSVSQETQY	10	1928
43	ASSLATGLAAISYEQY	12	3
42	ASSLATGLAAISYEQY	12	908
38	ASSLATGLAAISYEQY	12	2
42	ASSPRDLSYNEQF	6	1
44	ASSPRDLSYNEQF	6	70
38	ASSLVALGETQY	10	1
42	ASSLVALGETQY	10	640
37	ASSLITHTYDEQF	6	88
42	ASSLITHTYDEQF	6	2
4	ASSSHFSGSDNEQF	6	648
37	ASSSHFSGSDNEQF	6	2
43	ASSLDGDSTDTQY	8	991
42	ASSLDGDSTDTQY	8	2
26	ARSLGGSTGELF	7	1
43	ARSLGGSTGELF	7	1
6	ASSLEQNYEQY	12	1
19	ASSLEQNYEQY	12	2
18	ASSLEQNYEQY	12	6962
34	ASSDGASSYEQY	12	8
33	ASSDGASSYEQY	12	1
2	ATVDDFTDTQY	8	267
32	ATVDDFTDTQY	8	1
42	ASSVAFGTSGSGYEQF	6	1
40	ASSVAFGTSGSGYEQF	6	10
32	ASSLTSGRYNEQF	6	4
31	ASSLTSGRYNEQF	6	17
33	ASSLTSGRYNEQF	6	11662
2	ASSLTSGRYNEQF	6	1
42	ASSLTSGRYNEQF	6	2
34	ASSLTSGRYNEQF	6	3
35	ASSLTSGRYNEQF	6	22
26	ASSLTSGRYNEQF	6	1
1	ASSPTGTSGPETQY	10	1
42	ASSPTGTSGPETQY	10	27
42	ASSLGLAGGSSYNEQF	7	1
6	ASSLGLAGGSSYNEQF	7	1996
42	VSSLATGLAASSYEQY	12	2947
43	VSSLATGLAASSYEQY	12	7
38	VSSLATGLAASSYEQY	12	3
37	VSSLATGLAASSYEQY	12	1
43	ASSRRDSKETQY	10	3
41	ASSRRDSKETQY	10	652
9	ASSFRDRAYNEQF	6	408
42	ASSFRDRAYNEQF	6	1
37	ASGSTSGRANEQF	6	7
43	ASGSTSGRANEQF	6	1
42	ASGSTSGRANEQF	6	1
43	ASSPGRNSPLH	5	1
42	ASSPGRNSPLH	5	1
37	ASSPGRNSPLH	5	15
4	ASRETGARGSYEQY	12	579
5	ASRETGARGSYEQY	12	2
16	ASIQLISGNTIY	2	1
19	ASIQLISGNTIY	2	110367
26	ASSLAGTGEYEQY	12	1
42	ASSLAGTGEYEQY	12	1
42	ASSLEAGLAASSYEQY	12	5
43	ASSLEAGLAASSYEQY	12	1
2	AINERRGETQY	10	141
33	AINERRGETQY	10	3
33	ATWTRSQETQY	10	448
32	ATWTRSQETQY	10	2
42	ASSLEGTSGTADEQF	6	2
29	ASSLEGTSGTADEQF	6	1
28	ASSLEGTSGTADEQF	6	1671
43	ASSLEGTSGTADEQF	6	3
30	ASSLEGTSGTADEQF	6	1
37	ASSLGGYEQF	6	1
26	ASSLGGYEQF	6	1
40	ASSLAFGTRGSGYEQF	6	73
42	ASSLAFGTRGSGYEQF	6	1
41	ASSLAFGTRGSGYEQF	6	1
40	ASSSPSRVTSTDTQY	10	200
43	ASSSPSRVTSTDTQY	10	1
42	ASSLDGPGTGAHEQY	12	1
38	ASSLDGPGTGAHEQY	12	107
42	ASSLARAGGVADTQY	8	1
37	ASSLARAGGVADTQY	8	1
43	ASSLARAGGVADTQY	8	2
41	ASSLARAGGVADTQY	8	1
40	ASSLARAGGVADTQY	8	440
35	AISESAGKQETQY	10	1
2	AISESAGKQETQY	10	413
42	ASSLATGVAASSYEQY	12	915
38	ASSLATGVAASSYEQY	12	2
40	VSSLRGDTQY	8	1
37	VSSLRGDTQY	8	8
32	ASSADTKQETQY	10	1
33	ASSADTKQETQY	10	5
31	ASSADTKQETQY	10	394
28	ASSLGAVEQF	6	190
30	ASSLGAVEQF	6	2
35	ASSPLGQTDQETQY	10	1
1	ASSPLGQTDQETQY	10	2
30	ASSLPLAGEVGLSYNEQF	6	754
28	ASSLPLAGEVGLSYNEQF	6	2
42	ASSSTGGRANEQF	6	1
37	ASSSTGGRANEQF	6	9
33	ASSHPSGVIYEQY	12	2
31	ASSHPSGVIYEQY	12	109
32	AIRVDIEETQY	10	1
2	AIRVDIEETQY	10	20
43	ASSSDRDVTSGANVLT	11	17
42	ASSSDRDVTSGANVLT	11	1
5	ASSLGLAKNIQY	9	1
4	ASSLGLAKNIQY	9	290
31	ASRLLAGGHNEQF	6	80
33	ASRLLAGGHNEQF	6	1
6	ASSKPSSPQETQY	10	2578
14	ASSKPSSPQETQY	10	1
7	ASSKPSSPQETQY	10	1
28	ASSTGTSGRSDNEQF	6	1
25	ASSTGTSGRSDNEQF	6	59
43	ASSPRGGETQY	10	1
37	ASSPRGGETQY	10	15
43	ASSLARGLAASSYEQY	12	1
42	ASSLARGLAASSYEQY	12	937
37	ASSLARGLAASSYEQY	12	4
38	ASSLARGLAASSYEQY	12	1
18	ASSISGKSTDTQY	8	2236
14	ASSISGKSTDTQY	8	1
43	ASSSLWPLVEQY	6	27
42	ASSSLWPLVEQY	6	1
37	ASSLLVHEQY	12	284
43	ASSLLVHEQY	12	3
42	ASSLLVHEQY	12	4
38	ASSLLVHEQY	12	1
42	ASSLTRATSDTEQF	6	6
38	ASSLTRATSDTEQF	6	344
14	ASSERTSEWADTQY	8	200
6	ASSERTSEWADTQY	8	1
43	ASSRTGFSYEQY	12	5
37	ASSRTGFSYEQY	12	689
42	ASSRTGFSYEQY	12	11
43	ASSRTDLTNEKLF	3	2
37	ASSRTDLTNEKLF	3	36
37	ASSLLADTQY	8	212
14	ASSLLADTQY	8	1
42	ASSLLADTQY	8	3
38	ASSLLADTQY	8	1
32	ASSLGFGNTIY	2	3
31	ASSLGFGNTIY	2	1
33	ASSLGFGNTIY	2	2425
43	ASSVTGGYEQY	12	1
37	ASSVTGGYEQY	12	26
9	ASSLSDTQY	8	4
37	ASSLSDTQY	8	1
42	ASSLSGSGRSTDTQY	8	3
43	ASSLSGSGRSTDTQY	8	1250
38	ASSLSGSGRSTDTQY	8	1
40	ASSLSGSGRSTDTQY	8	1
28	ASSLSNEQF	6	61
42	ASSLSNEQF	6	1
42	ASSLGMGRRDEQF	6	4
43	ASSLGMGRRDEQF	6	1
37	ASSLGMGRRDEQF	6	475
1	ASSDKRLAGGLSYNEQF	6	3
35	ASSDKRLAGGLSYNEQF	6	9
36	ASSDKRLAGGLSYNEQF	6	10
40	VSRKGQAYEQY	12	2
38	VSRKGQAYEQY	12	4
43	VSRKGQAYEQY	12	2170
37	VSRKGQAYEQY	12	1
28	VSRKGQAYEQY	12	1
42	VSRKGQAYEQY	12	4
42	ASSLATVLAASSYEQY	12	3400
30	ASSLATVLAASSYEQY	12	1
38	ASSLATVLAASSYEQY	12	2
43	ASSLATVLAASSYEQY	12	3
37	ASSLATVLAASSYEQY	12	6
35	ASSDGSEGEQF	6	2
33	ASSDGSEGEQF	6	1
19	ASSDGSEGEQF	6	1
32	ASSDGSEGEQF	6	1439
43	ASILATGLAASSYEQY	12	12
42	ASILATGLAASSYEQY	12	2211
38	ASILATGLAASSYEQY	12	2
37	ASILATGLAASSYEQY	12	1
31	ASSLRTGGGDTQY	8	148
33	ASSLRTGGGDTQY	8	4
35	AISVDRNWETQY	10	1
2	AISVDRNWETQY	10	1091
32	AISVDRNWETQY	10	2
43	ASSFVGTNQETQY	10	3
4	ASSFVGTNQETQY	10	1
6	ASSFVGTNQETQY	10	1
33	ASSFVGTNQETQY	10	3
42	ASSFVGTNQETQY	10	9
19	ASSFVGTNQETQY	10	153481
35	ASSFVGTNQETQY	10	1
13	ASSFVGTNQETQY	10	1
43	ASSSATGLSASSYEQY	12	1
42	ASSSATGLSASSYEQY	12	7
43	ASSRQDASYEQY	12	68
42	ASSRQDASYEQY	12	1
44	ASSYSRIGEKFTDTQY	8	12037
39	ASSYSRIGEKFTDTQY	8	2
18	ASSPSDRPGYT	1	49
19	ASSPSDRPGYT	1	1
42	ASSDPTGTSTDTQY	8	2
1	ASSDPTGTSTDTQY	8	3213
0	ASSDPTGTSTDTQY	8	6
4	ASSLGRNLQETQY	10	133
42	ASSLGRNLQETQY	10	1
37	ASSLGRNLQETQY	10	1
40	ASSFRSADTQY	8	69
43	ASSFRSADTQY	8	1
28	AIRKGQAYEQY	12	3
43	AIRKGQAYEQY	12	1244
42	AIRKGQAYEQY	12	4
40	ASRGGQETQY	10	1
43	ASRGGQETQY	10	546
28	ASRGGQETQY	10	1
42	ASRGGQETQY	10	1
34	ASSYSGQSTDTQY	8	62
33	ASSYSGQSTDTQY	8	1
26	ASSLAREETQY	10	3
28	ASSLAREETQY	10	4
29	ASSLAREETQY	10	8463
38	ASSLAREETQY	10	2
43	ASSLAREETQY	10	8
28	ASSGSAIRNEQF	6	1
43	ASSGSAIRNEQF	6	2
19	ASSLSGTGEQY	12	1
18	ASSLSGTGEQY	12	64
43	ASSLATGLAVSSYEQY	6	1
42	ASSLATGLAVSSYEQY	6	4
38	AISLDGPGTGAYEQY	12	80
37	AISLDGPGTGAYEQY	12	1
26	ASSLRSSGNEQF	6	4256
42	ASSLRSSGNEQF	6	1
33	ASSEVGNTIY	2	5
34	ASSEVGNTIY	2	1
35	ASSEVGNTIY	2	1
31	ASSEVGNTIY	2	727
19	ASSPGRGYEQY	12	3381
43	ASSPGRGYEQY	12	3
30	ASSQDASQETQY	10	2
28	ASSQDASQETQY	10	1
25	ASSQDASQETQY	10	587
42	ASSLGSYEQY	12	2
6	ASSLGSYEQY	12	50
33	ATWTKGQETQY	10	343
31	ATWTKGQETQY	10	2
35	ATWTKGQETQY	10	1
43	ASSVRQGAVYNEQF	6	2
37	ASSVRQGAVYNEQF	6	87
24	ASSPPRRGEQF	6	2
37	ASSPPRRGEQF	6	712
42	ASSPPRRGEQF	6	9
43	ASSPNGGSSYNEQF	6	12
38	ASSPNGGSSYNEQF	6	2
37	ASSPNGGSSYNEQF	6	1
42	ASSPNGGSSYNEQF	6	5504
40	ASSPNGGSSYNEQF	6	1
38	ASSLDGPGTGGYEQY	12	36
42	ASSLDGPGTGGYEQY	12	1
33	ASSAYYEQY	12	1
31	ASSAYYEQY	12	21
41	ASSLLRDGEQY	12	863
40	ASSLLRDGEQY	12	1
42	ASSLPGGYNEQF	6	1
28	ASSLPGGYNEQF	6	417
43	ASSLPGGYNEQF	6	3
36	ATWTRGQETQY	10	18
35	ATWTRGQETQY	10	488
16	ATWTRGQETQY	10	1
32	ATWTRGQETQY	10	645
33	ATWTRGQETQY	10	563449
43	ATWTRGQETQY	10	5
34	ATWTRGQETQY	10	247
1	ATWTRGQETQY	10	11
6	ATWTRGQETQY	10	8
2	ATWTRGQETQY	10	90
18	ATWTRGQETQY	10	2
42	ATWTRGQETQY	10	1
31	ATWTRGQETQY	10	546
19	ATWTRGQETQY	10	2
19	ASSYAGPNQPQH	4	1
31	ASSYAGPNQPQH	4	7
4	ASSLQETQY	10	1
43	ASSLQETQY	10	18
43	ASSWSPSDHYYNEQF	6	33
40	ASSWSPSDHYYNEQF	6	1
31	ASSSVTDTQY	8	44
32	ASSSVTDTQY	8	1
42	ASSIRTSGRANEQF	6	1
43	ASSIRTSGRANEQF	6	151
37	ASSSDGRSQETQY	10	171
38	ASSSDGRSQETQY	10	1
42	ASSSDGRSQETQY	10	4
43	ASSSDGRSQETQY	10	2
43	ASTLDGPGTGAYEQY	12	1
38	ASTLDGPGTGAYEQY	12	16
28	ASSPEGAYKETQY	10	1
43	ASSPEGAYKETQY	10	619
38	ASSPEGAYKETQY	10	1
43	ASRAQGVANAYNEQF	6	4
42	ASRAQGVANAYNEQF	6	1944
42	ASRRLTDLPRYNEQF	6	7
37	ASRRLTDLPRYNEQF	6	421
43	ASRRLTDLPRYNEQF	6	5
42	ASSAGTRIQETQY	10	1
43	ASSAGTRIQETQY	10	1
41	ASSAGTRIQETQY	10	238
38	ASSAGTRIQETQY	10	1
42	ASSLAAGEETQY	10	3
37	ASSLAAGEETQY	10	78
31	ASRTSGGTYNEQF	6	88
33	ASRTSGGTYNEQF	6	1
32	AISRLAGENEQF	6	1
36	AISRLAGENEQF	6	2
2	AISRLAGENEQF	6	840
6	ASSRGTGFTDTQY	8	1
14	ASSRGTGFTDTQY	8	62
10	ATSAGGGKSYEQY	12	5
14	ATSAGGGKSYEQY	12	1
43	ASRKGRAYEQY	12	3977
42	ASRKGRAYEQY	12	5
38	ASRKGRAYEQY	12	1
40	ASRKGRAYEQY	12	1
28	ASRKGRAYEQY	12	3
6	ASSLAGGKETQY	10	1
26	ASSLAGGKETQY	10	162
32	ASSSPRQGMETQY	10	1
6	ASSSPRQGMETQY	10	1936
42	ASRLDGPGTGAYEQY	12	1
38	ASRLDGPGTGAYEQY	12	56
43	ASSLYGGGGSISNEQF	6	3
37	ASSLYGGGGSISNEQF	6	362
28	ASSLVGSTGELF	7	1
42	ASSLVGSTGELF	7	9
40	ASSLVGSTGELF	7	2
43	ASSLVGSTGELF	7	2000
38	ASSLRTGLAASSYEQY	12	1
42	ASSLRTGLAASSYEQY	12	158
2	AIRVDIQGTQY	10	134
36	AIRVDIQGTQY	10	1
43	ASILAQGAFTDTQY	8	1
42	ASILAQGAFTDTQY	8	8
1	ASNDRDYEQY	12	1740
0	ASNDRDYEQY	12	1
2	ASNDRDYEQY	12	1
33	ASNDRDYEQY	12	1
32	ATSTRGQETQY	10	1
33	ATSTRGQETQY	10	48
24	ASSQDSLAGDYNEQF	6	1452
23	ASSQDSLAGDYNEQF	6	1
30	ASSQDSLAGDYNEQF	6	6
25	ASSQDSLAGDYNEQF	6	3
28	ASSQDSLAGDYNEQF	6	2
40	ASSSGLAGTDTQY	8	1
4	ASSSGLAGTDTQY	8	181
5	ASSLGGRNFDEQF	6	98
42	ASSLGGRNFDEQF	6	1
42	ASTLATGLAASSYEQY	12	186
43	ASTLATGLAASSYEQY	12	4
14	ASSESGRASNEQF	6	3666
43	ASSESGRASNEQF	6	1
6	ASSESGRASNEQF	6	1
27	ASSVNQETQY	10	3
14	ASSVNQETQY	10	4
26	ASSFTSGRANEQF	6	3
37	ASSFTSGRANEQF	6	1
37	ASSPKETQY	10	101
42	ASSPKETQY	10	4
43	ASSPKETQY	10	1
38	ASRRGQAYEQY	12	1
43	ASRRGQAYEQY	12	3800
37	ASRRGQAYEQY	12	1
28	ASRRGQAYEQY	12	5
42	ASRRGQAYEQY	12	6
23	ASSQDALGLAGGPGETQY	10	121
25	ASSQDALGLAGGPGETQY	10	1
31	ASSFVGQPDTQY	8	1
19	ASSFVGQPDTQY	8	2041
34	ASTLADEQY	12	1
31	ASTLADEQY	12	127
36	ATSHSLSGDVRDTQY	8	1
32	ATSHSLSGDVRDTQY	8	1
35	ASSLTGGRYNEQF	6	1
33	ASSLTGGRYNEQF	6	44
8	ASRASGPAYEQY	12	5
42	ASRASGPAYEQY	12	6
43	ASRASGPAYEQY	12	10
14	ASRASGPAYEQY	12	13160
19	ASRASGPAYEQY	12	2
36	AIKASGSANEQF	6	1
2	AIKASGSANEQF	6	2060
35	AIKASGSANEQF	6	1
32	AIKASGSANEQF	6	1
38	ASSLEGPGTGAYEQY	12	96
43	ASSLEGPGTGAYEQY	12	2
37	ASSSHPGGSYNEQF	6	107
42	ASSSHPGGSYNEQF	6	2
14	ATSSYGGPSNEQF	6	2
10	ATSSYGGPSNEQF	6	5367
19	ASSWDRDNSPLH	5	11296
43	ASSWDRDNSPLH	5	5
33	ASSWDRDNSPLH	5	1
27	ASSLMGGRDQETQY	10	537
43	ASSLMGGRDQETQY	10	2
28	ASSLMGGRDQETQY	10	1
2	ATWTRGEETQY	10	2
33	ATWTRGEETQY	10	168
31	ATWTRGEETQY	10	1
43	ASSYNSDYYNEQF	6	1
42	ASSYNSDYYNEQF	6	308
37	ASSLLSPGYEQY	12	3
42	ASSLLSPGYEQY	12	4719
43	ASSLLSPGYEQY	12	5
18	ASSLGDTQY	8	27
42	ASSLGDTQY	8	1
43	ASRKGQAYEQY	6	1586
28	ASRKGQAYEQY	6	4
42	ASRKGQAYEQY	6	3
40	ASRKGQAYEQY	6	2
38	ASRKGQAYEQY	6	1
38	ASNLDGPGTGAYEQY	12	52
42	ASNLDGPGTGAYEQY	12	1
18	ASSLSGTHYEQY	12	2
5	ASSLSGTHYEQY	12	1
31	ATWTIGQETQY	10	1
33	ATWTIGQETQY	10	187
31	ASSSTSGSSYEQY	7	33
33	ASSSTSGSSYEQY	7	1
3	ASSYPPDNEQF	6	1
5	ASSYPPDNEQF	6	176
37	ASSGSATRNEQF	6	1
43	ASSGSATRNEQF	6	6863
28	ASSGSATRNEQF	6	12
42	ASSGSATRNEQF	6	6
38	ASSGSATRNEQF	6	3
37	ASSLAQGAFTDTQY	8	7
38	ASSLAQGAFTDTQY	8	5
42	ASSLAQGAFTDTQY	8	6066
43	ASSLAQGAFTDTQY	8	6
42	ASSKGQAYEQY	12	4
43	ASSKGQAYEQY	12	774
38	ASSKGQAYEQY	12	2
43	ASSARFRGSNEQF	6	2
42	ASSARFRGSNEQF	6	7
37	ASSARFRGSNEQF	6	313
42	ASSLAFGTSGSGYEQF	6	79
37	ASSLAFGTSGSGYEQF	6	2
43	ASSLAFGTSGSGYEQF	6	86
41	ASSLAFGTSGSGYEQF	6	23
38	ASSLAFGTSGSGYEQF	6	7
40	ASSLAFGTSGSGYEQF	6	16461
5	ASSLNQETQY	10	1
27	ASSLNQETQY	10	137
33	ASSFRETQY	10	8
34	ASSFRETQY	10	2
31	ASSFRETQY	10	1114
25	ASSPGTGGGEQY	12	3
42	ASSPGTGGGEQY	12	2
24	ASSPGTGGGEQY	12	550
37	ASSLDYFAYEQY	12	25
42	ASSLDYFAYEQY	12	2
31	ASSEQGGHYNEQF	6	65
34	ASSEQGGHYNEQF	6	1
33	ASSEQGGHYNEQF	6	1
37	ASSWGQGAGDTQY	8	195
43	ASSWGQGAGDTQY	8	1
42	ASSWGQGAGDTQY	8	3
38	ASSWGQGAGDTQY	8	1
36	ASSEGGRGLTETQY	10	1
35	ASSEGGRGLTETQY	10	7
1	ASSEGGRGLTETQY	10	2
2	ASSEGGRGLTETQY	10	1
42	ASSLNPTAQSYEQY	12	1
18	ASSLNPTAQSYEQY	12	61
38	TSSLATGLAASSYEQY	12	1
43	TSSLATGLAASSYEQY	12	12
37	TSSLATGLAASSYEQY	12	6
42	TSSLATGLAASSYEQY	12	6395
40	TSSLATGLAASSYEQY	12	1
33	ASSYIGTQY	10	9
31	ASSYIGTQY	10	1
43	ASSPILSYNEQF	6	1253
40	ASSPILSYNEQF	6	1
28	ASSPILSYNEQF	6	1
42	ASSPILSYNEQF	6	4
19	ASSLAGGQETQY	10	1
6	ASSLAGGQETQY	10	221
32	ASSYGYSEQF	6	1
31	ASSYGYSEQF	6	41
30	ASSSPETSGSRKETQY	10	1
27	ASSSPETSGSRKETQY	10	712
42	ASSPPALAGTSYEQY	12	1
37	ASSPPALAGTSYEQY	12	31
28	ASISTRGKINEQF	6	1
43	ASISTRGKINEQF	6	60
42	ASSLGTGLAASSYEQY	12	912
43	ASSLGTGLAASSYEQY	12	4
43	ASRNAGNEQF	6	3
42	ASRNAGNEQF	6	258
5	ASSAGLGYNEQF	6	1
4	ASSAGLGYNEQF	6	1
40	ASSLATGLAASSHEQY	12	1
42	ASSLATGLAASSHEQY	12	3669
37	ASSLATGLAASSHEQY	12	3
26	ASSLGQGAYNEQF	6	1
40	ASSLGQGAYNEQF	6	4
33	ATRLQNSPLH	5	443
35	ATRLQNSPLH	5	1
34	ATRLQNSPLH	5	1
42	ASSLAAGLAGSSYEQY	12	3
37	ASSLAAGLAGSSYEQY	12	1
28	ASSLISALPGSYEQY	12	1
29	ASSLISALPGSYEQY	12	6283
42	ASSLISALPGSYEQY	12	1
38	ASSLISALPGSYEQY	12	1
43	ASSPRTRQSSYNEQF	6	4
40	ASSPRTRQSSYNEQF	6	1
42	ASSPRTRQSSYNEQF	6	997
23	ASSQENPLAGAHNEQF	6	1913
25	ASSQENPLAGAHNEQF	6	6
5	ASSTRDAGMNEQF	6	44
30	ASSTRDAGMNEQF	6	1
40	AISLATGLAASSYEQY	12	1
4	AISLATGLAASSYEQY	12	1
37	AISLATGLAASSYEQY	12	1
43	AISLATGLAASSYEQY	12	3
42	AISLATGLAASSYEQY	12	2039
31	ASSQRPYEQY	12	1
33	ASSQRPYEQY	12	124
2	AISEARVGETQY	10	333
33	AISEARVGETQY	10	1
35	AISEARVGETQY	10	1
33	ASSVAGKKIYEQY	12	11
34	ASSVAGKKIYEQY	12	1
31	ASSVAGKKIYEQY	12	1352
43	ASSSRTGGNEQF	6	13
40	ASSSRTGGNEQF	6	3574
41	ASSSRTGGNEQF	6	3
38	ASSSRTGGNEQF	6	1
42	ASSSRTGGNEQF	6	2
33	ATWTRGQDTQY	10	690
35	ATWTRGQDTQY	10	1
32	ATWTRGQDTQY	10	2
31	ATWTRGQDTQY	10	1
37	ASSLEGATYNEQF	6	116
42	ASSLEGATYNEQF	6	4
19	ASSHEGPGTDTQY	8	1
38	ASSHEGPGTDTQY	8	2
42	ASSHEGPGTDTQY	8	3314
37	ASSHEGPGTDTQY	8	3
43	ASRKGQACEQY	6	2
40	ASRKGQACEQY	6	1
4	ASSVATGLAASSYEQY	12	1
42	ASSVATGLAASSYEQY	12	1357
43	ASSVATGLAASSYEQY	12	2
4	ASSPPVLDTQY	8	1
19	ASSPPVLDTQY	8	39
2	AIRPGIASDEQF	6	28
35	AIRPGIASDEQF	6	1
10	ATSSGGGKSYEQY	12	14555
14	ATSSGGGKSYEQY	12	11
6	ATSSGGGKSYEQY	12	2
25	ARSPLAGGVLGTDTQY	8	1
23	ARSPLAGGVLGTDTQY	8	1
14	ASNPGPTEQF	6	2237
8	ASNPGPTEQF	6	1
38	ASSLDGPRTGAYEQY	12	447
42	ASSLDGPRTGAYEQY	12	4
43	ASSLDGPRTGAYEQY	12	1
19	ASSNAGTYNEQF	6	1
18	ASSNAGTYNEQF	6	7
35	ASSYQAGLRSYEQY	12	1
36	ASSYQAGLRSYEQY	12	1
25	ASSQDRGATSTDTQY	8	125
23	ASSQDRGATSTDTQY	8	1
28	ASRKVQAYEQY	12	2
43	ASRKVQAYEQY	12	1064
42	ASRKVQAYEQY	12	2
42	ASSSYNFEQF	6	3
37	ASSSYNFEQF	6	36
42	ASSLQGPTDTQY	8	1
26	ASSLQGPTDTQY	8	376
42	ASSLDGLGTGAYEQY	12	1
38	ASSLDGLGTGAYEQY	12	59
25	ASSQENPLAGANNEQF	6	1
23	ASSQENPLAGANNEQF	6	1
37	ASINDRGPSYEQY	12	71
42	ASINDRGPSYEQY	12	1
42	ASRSSGNTIY	2	5
37	ASRSSGNTIY	2	365
43	ASSLDGPWTGAYEQY	12	1
42	ASSLDGPWTGAYEQY	12	2
38	ASSLDGPWTGAYEQY	12	91
43	ASRRQGTPYEQY	12	1
6	ASRRQGTPYEQY	12	391
40	ASRKGQDYEQY	12	3
19	ASRKGQDYEQY	12	1
42	ASRKGQDYEQY	12	12
43	ASRKGQDYEQY	12	651
28	ASRKGQDYEQY	12	1
42	ASSLSTGLAASSDEQY	12	3
37	ASSLSTGLAASSDEQY	12	1
40	ASSFDRGGGDTQY	8	1
43	ASSFDRGGGDTQY	8	353
38	ASSFDRGGGDTQY	8	1
42	ASRPDGDKNIQY	9	1
14	ASRPDGDKNIQY	9	2359
8	ASRPDGDKNIQY	9	1
43	ASSLGYEQY	12	5
6	ASSLGYEQY	12	1
42	ASSLATGIAASSYEQY	12	2123
38	ASSLATGIAASSYEQY	12	1
37	ASSLLGFYNEQF	6	38
42	ASSLLGFYNEQF	6	2
1	ASSAPLRQLQETQY	10	4
36	ASSAPLRQLQETQY	10	6
42	ASSAPLRQLQETQY	10	1
35	ASSAPLRQLQETQY	10	9
32	ASSAPLRQLQETQY	10	7
33	ASSYSVGHQETQY	10	3
31	ASSYSVGHQETQY	10	241
34	ASRATSGRADTQY	8	3
32	ASRATSGRADTQY	8	1
31	ASRATSGRADTQY	8	974
33	ASRATSGRADTQY	8	13
37	ASSSGQQGYGYNEQF	6	1
42	ASSSGQQGYGYNEQF	6	688
38	ASSSGQQGYGYNEQF	6	3
40	ASSSGQQGYGYNEQF	6	1
43	ASSSGQQGYGYNEQF	6	2
6	ASSFHSGNTIY	2	223
7	ASSFHSGNTIY	2	1
42	ASSGRPGDEQF	6	5
40	ASSGRPGDEQF	6	1
37	ASSGRPGDEQF	6	537
43	ASSGRPGDEQF	6	4
38	ASSGRPGDEQF	6	1
42	ASSLYTIGNAGTQY	10	2
43	ASSLYTIGNAGTQY	10	3
37	ASSLYTIGNAGTQY	10	358
34	ASSYSSETYNEQF	6	1
35	ASSYSSETYNEQF	6	1
33	ASSYSSETYNEQF	6	288
29	ASSLSGYEQY	12	15
6	ASSLSGYEQY	12	43
43	ASSDGGGALWNEQF	6	1
37	ASSDGGGALWNEQF	6	115
38	ASSLATGLEASSYEQY	12	2
37	ASSLATGLEASSYEQY	12	1
42	ASSLATGLEASSYEQY	12	1113
43	ASSLATGLEASSYEQY	12	2
40	ASMKGQAYEQY	12	2
43	ASMKGQAYEQY	12	967
42	ASMKGQAYEQY	12	9
28	ASMKGQAYEQY	12	1
38	ASSLATGLAASSDEQY	12	1
42	ASSLATGLAASSDEQY	12	921
42	ASCLATGLAASSYEQY	12	222
43	ASCLATGLAASSYEQY	12	1
41	ASSLARDGGYNEQF	6	502
42	ASSLARDGGYNEQF	6	1
43	ASSLARDGGYNEQF	6	1
43	ASSLATGLASSSYEQY	12	5
42	ASSLATGLASSSYEQY	12	1016
37	ASSLATGLASSSYEQY	12	1
37	ASSPLAGGPDEQF	6	337
42	ASSPLAGGPDEQF	6	4
43	ASSPLAGGPDEQF	6	1
43	ASSPNAGNEQF	6	1
37	ASSPNAGNEQF	6	458
42	ASSPNAGNEQF	6	333
12	ASSPRGDTQY	8	2
37	ASSPRGDTQY	8	5
33	ASSYLLSETQY	10	30
32	ASSYLLSETQY	10	3
6	ASSYLLSETQY	10	1
34	ASSYLLSETQY	10	6
31	ASSYLLSETQY	10	2641
43	ASSVSMGTTSYNEQF	6	2
44	ASSVSMGTTSYNEQF	6	3263
5	ASSLGPGLAGASHDTQY	8	1
40	ASSLGPGLAGASHDTQY	8	1
42	ASSLGPGLAGASHDTQY	8	1
38	ASSLGPGLAGASHDTQY	8	1
4	ASSLGPGLAGASHDTQY	8	636
19	ASSHRTGAYNEQF	6	2
18	ASSHRTGAYNEQF	6	1308
42	ASRKGQADEQY	12	2
43	ASRKGQADEQY	12	393
43	ASSPGDSSYNEQF	6	216
40	ASSPGDSSYNEQF	6	1
42	ASSRGRGYEQY	12	10
19	ASSRGRGYEQY	12	1
31	ATWTGGQETQY	10	1
34	ATWTGGQETQY	10	1
33	ATWTGGQETQY	10	1200
14	ASSRDGGFSNEQY	12	1
31	ASSRDGGFSNEQY	12	325
33	ASSRDGGFSNEQY	12	2
35	ASSYIETQY	10	2
34	ASSYIETQY	10	2
33	ASSYIETQY	10	5457
32	ASSYIETQY	10	9
6	ASSLRETQY	10	6
31	ASSLRETQY	10	7
5	ASSYRGGYNEQF	6	274
43	ASSYRGGYNEQF	6	1
37	ASSPGLAASSYEQY	12	1
26	ASSPGLAASSYEQY	12	1
43	ASGLATGLAASSYEQY	12	7
40	ASGLATGLAASSYEQY	12	2
37	ASGLATGLAASSYEQY	12	2
42	ASGLATGLAASSYEQY	12	4935
38	ASGLATGLAASSYEQY	12	3
43	ASRKGQACEQY	12	2110
42	ASRKGQACEQY	12	1
28	ASRKGQACEQY	12	2
40	ASRKGQACEQY	12	1
37	ASSLGPPYNEQF	6	2
42	ASSLGPPYNEQF	6	1
32	ASRPPDSLDYEQY	12	1
31	ASRPPDSLDYEQY	12	176
42	ASILGTGRAEQF	6	2945
43	ASILGTGRAEQF	6	8
42	ASSLDGHGTGAYEQY	12	1
38	ASSLDGHGTGAYEQY	12	79
42	ASSLGGVAGKNEQF	6	1
37	ASSLGGVAGKNEQF	6	3
43	ASNRDLQETQY	10	1
19	ASNRDLQETQY	10	1615
42	ASSQTGGPGNTIY	2	22
43	ASSQTGGPGNTIY	2	3
38	ASSQTGGPGNTIY	2	4
37	ASSQTGGPGNTIY	2	1554
33	ASSEGTSSYEQY	12	1
34	ASSEGTSSYEQY	12	7
41	ASSLAFGTSGRGYEQF	6	1
40	ASSLAFGTSGRGYEQF	6	83
35	ASSDRDTDTQY	8	1
32	ASSDRDTDTQY	8	696
40	ASSVGLAGGQETQY	10	2
6	ASSVGLAGGQETQY	10	32
30	ASSLGRRLAGRGSYNEQF	6	6686
28	ASSLGRRLAGRGSYNEQF	6	14
34	ASSYSSGYNEQF	6	476
32	ASSYSSGYNEQF	6	1
33	ASSYSSGYNEQF	6	7
43	ASSLAMGLAASSYEQY	12	4
40	ASSLAMGLAASSYEQY	12	1
42	ASSLAMGLAASSYEQY	12	3140
40	ASSTPRGGPDTQY	8	185
42	ASSTPRGGPDTQY	8	3
2	ATRVDIQETQY	10	149
33	ATRVDIQETQY	10	2
37	ASSLIGVSTHNEQF	6	2
38	ASSLIGVSTHNEQF	6	4
28	ASSLIGVSTHNEQF	6	5
40	ASSLIGVSTHNEQF	6	11
42	ASSLIGVSTHNEQF	6	44
43	ASSLIGVSTHNEQF	6	14729
43	ASSLDGPGTRAYEQY	12	1
38	ASSLDGPGTRAYEQY	12	52
31	ATWIRGQETQY	10	1
33	ATWIRGQETQY	10	342
32	ATWIRGQETQY	10	1
34	ASWTRGQETQY	10	2
33	ASWTRGQETQY	10	589
26	ASSSGRGYEQY	12	1
19	ASSSGRGYEQY	12	7
30	ASSLNPGDYEQY	12	2
5	ASSLNPGDYEQY	12	4
37	ASSLNPGDYEQY	12	1
28	ASSLNPGDYEQY	12	1
4	ASSLNPGDYEQY	12	1558
42	ASSLNPGDYEQY	12	3
43	ASSRGGRDEQF	6	22
42	ASSRGGRDEQF	6	28
38	ASSRGGRDEQF	6	4598
37	ASSRGGRDEQF	6	3
27	ASSFWREIETQY	10	863
43	ASSFWREIETQY	10	1
30	ASSFWREIETQY	10	1
42	ASSLRGTSIINEQF	6	5
37	ASSLRGTSIINEQF	6	144
14	ASSLSSYEQY	12	3
7	ASSLSSYEQY	12	8
31	ASSLSSYEQY	12	1
6	ASSLSSYEQY	12	26370
42	ASSLSSYEQY	12	2
19	ASSLSSYEQY	12	1
43	ASSLSSYEQY	12	1
8	ASSLSSYEQY	12	1
25	ASSPLAGGVLGTDTQY	8	14
23	ASSPLAGGVLGTDTQY	8	3190
43	ASSPLVVEETQY	10	193
42	ASSPLVVEETQY	10	3
19	ASSGVDSGNTIY	2	1
34	ASSGVDSGNTIY	2	1
14	ASSGVDSGNTIY	2	2602
42	ASSLGGIRSYEQY	12	7
43	ASSLGGIRSYEQY	12	2
37	ASSLGGIRSYEQY	12	424
42	ASSLSTGLAASSYEQY	12	2317
37	ASSLSTGLAASSYEQY	12	1
40	ASSLSTGLAASSYEQY	12	1
43	ASSLSTGLAASSYEQY	12	9
38	ASSLSTGLAASSYEQY	12	2
2	AIMPGLASDEQF	6	14
32	AIMPGLASDEQF	6	1
37	ASSAQETQY	10	7
43	ASSAQETQY	10	1
38	ASSLDAPGTGAYEQY	12	8
42	ASSLDAPGTGAYEQY	12	2
42	ASSSENYEQY	12	1
18	ASSSENYEQY	12	1
23	ASSQGRKYSYEQY	12	2
24	ASSQGRKYSYEQY	12	1
30	ASSQGRKYSYEQY	12	1
25	ASSQGRKYSYEQY	12	720
2	ASSVTIGTQY	10	1
31	ASSVTIGTQY	10	177
33	ASSVTIGTQY	10	2
18	ASSLGGGTDTQY	8	86
6	ASSLGGGTDTQY	8	4
5	ASSPRNRGLGTDTQY	8	4
42	ASSPRNRGLGTDTQY	8	2
4	ASSPRNRGLGTDTQY	8	1292
1	AISGGTGVREQY	12	1
35	AISGGTGVREQY	12	1
2	AISGGTGVREQY	12	382
42	ASSHTGGPGNTIY	2	1
37	ASSHTGGPGNTIY	2	2
37	ASSLSIYEQY	12	2
6	ASSLSIYEQY	12	15
42	ASSLDGPGAGAYEQY	12	3
43	ASSLDGPGAGAYEQY	12	1
38	ASSLDGPGAGAYEQY	12	245
43	ASSFKGEDEQY	12	2
32	ASSFKGEDEQY	12	1
42	ASSFKGEDEQY	12	1
2	ASSFKGEDEQY	12	2
33	ASSFKGEDEQY	12	2791
35	ASSFKGEDEQY	12	1
31	ASSFKGEDEQY	12	2
14	ASRAFSGSDEQF	6	1703
43	ASRAFSGSDEQF	6	2
34	ASSPLGQYEQY	12	1
31	ASSPLGQYEQY	12	1
38	ASSLATGLAASSYEQY	6	2
4	ASSLATGLAASSYEQY	6	1
43	ASSLATGLAASSYEQY	6	10
42	ASSLATGLAASSYEQY	6	3316
37	ASSLATGLAASSYEQY	6	2
37	ASSLGGLAGKNEQL	6	6
43	ASSLGGLAGKNEQL	6	1
28	ASRKRQAYEQY	12	3
42	ASRKRQAYEQY	12	2
43	ASRKRQAYEQY	12	2600
43	ASSWGQGSETQY	10	1
27	ASSWGQGSETQY	10	24
32	ASSYSGLRSEQY	6	2
33	ASSYSGLRSEQY	6	325
42	ASSLGGDTQY	8	34
37	ASSLGGDTQY	8	69
14	VSSETGYEQY	12	7
8	VSSETGYEQY	12	1
43	ASSSPDRVTSTDTQY	8	1
40	ASSSPDRVTSTDTQY	8	150
32	ASSEGLAGGGTDTQY	8	6
35	ASSEGLAGGGTDTQY	8	67
36	ASSEGLAGGGTDTQY	8	13
1	ASSEGLAGGGTDTQY	8	12
1	ASSELGDTQY	8	1
0	ASSELGDTQY	8	1145
35	ASSYVRSGRTEQF	6	1
33	ASSYVRSGRTEQF	6	11
31	ASSYVRSGRTEQF	6	2123
32	ASSYVRSGRTEQF	6	2
37	ASSRQLAGGPPYYEQY	12	5
43	ASSRQLAGGPPYYEQY	12	1
29	ASSLAWEETQY	10	3
43	ASSLAWEETQY	10	15
42	ASSLAQGAFTDTQY	7	1
43	ASSLAQGAFTDTQY	7	1
40	ASSSPNRATSTDTQY	8	128
43	ASSSPNRATSTDTQY	8	1
43	ASSLATGLAASPYEQY	12	13
40	ASSLATGLAASPYEQY	12	1
37	ASSLATGLAASPYEQY	12	6
38	ASSLATGLAASPYEQY	12	7
42	ASSLATGLAASPYEQY	12	7049
40	ASSSANRVTSTDTQY	8	31
43	ASSSANRVTSTDTQY	8	1
31	ASSYGTAYNEQF	6	1739
33	ASSYGTAYNEQF	6	12
43	ASSYGTAYNEQF	6	1
43	ASSSTSSGRGDTQY	8	1
18	ASSSTSSGRGDTQY	8	5004
19	ASSSTSSGRGDTQY	8	1
37	ASSLRRQYTDTQY	8	1361
42	ASSLRRQYTDTQY	8	24
4	ASSLRRQYTDTQY	8	2
43	ASSLRRQYTDTQY	8	6
38	ASSLRRQYTDTQY	8	1
43	ASSLQGSSYNEQF	7	2
42	ASSLQGSSYNEQF	7	12
38	ASSLQGSSYNEQF	7	1
37	ASSLQGSSYNEQF	7	367
14	ASSLQGSSYNEQF	7	1
40	ASSLAFWTSGSGYEQF	6	20
42	ASSLAFWTSGSGYEQF	6	1
43	ASSRTGSSYEQY	12	1
37	ASSRTGSSYEQY	12	3
42	ASSAYGTDTQY	8	19
43	ASSAYGTDTQY	8	9
38	ASSAYGTDTQY	8	2051
37	ASRKGRSYEQY	12	3
43	ASRKGRSYEQY	12	6
42	ASSLATGPVASSYEQY	12	6
43	ASSLATGPVASSYEQY	12	1
33	ASSYGPSVDEQY	12	671
31	ASSYGPSVDEQY	12	2
35	ASSYGPSVDEQY	12	1
31	ASSEARAGGPEQY	12	42
34	ASSEARAGGPEQY	12	1
41	ASSSPNRVTSTDTQY	8	139
43	ASSSPNRVTSTDTQY	8	457
40	ASSSPNRVTSTDTQY	8	98959
42	ASSSPNRVTSTDTQY	8	236
26	ASSSPNRVTSTDTQY	8	1
38	ASSSPNRVTSTDTQY	8	25
37	ASSSPNRVTSTDTQY	8	14
37	ASSYFPRGSQETQY	10	106
42	ASSYFPRGSQETQY	10	4
43	ASSYFPRGSQETQY	10	1
19	ASSLDGPGTGAYEQY	12	4
5	ASSLDGPGTGAYEQY	12	1
38	ASSLDGPGTGAYEQY	12	80701
40	ASSLDGPGTGAYEQY	12	10
6	ASSLDGPGTGAYEQY	12	2
42	ASSLDGPGTGAYEQY	12	778
41	ASSLDGPGTGAYEQY	12	3
23	ASSLDGPGTGAYEQY	12	1
43	ASSLDGPGTGAYEQY	12	305
7	ASSLDGPGTGAYEQY	12	2
37	ASSLDGPGTGAYEQY	12	24
4	ASSLDGPGTGAYEQY	12	4
29	ASSLDGPGTGAYEQY	12	3
44	ASSVGTYTDTQY	8	288
43	ASSVGTYTDTQY	8	1
42	ASSLATRLAASSYEQY	12	2754
38	ASSLATRLAASSYEQY	12	4
40	ASSLATRLAASSYEQY	12	1
43	ASSLATRLAASSYEQY	12	1
37	ASSLATRLAASSYEQY	12	5
2	ASSYSGGTSYEQY	12	1
34	ASSYSGGTSYEQY	12	246
31	ASSYSGGTSYEQY	12	2
40	ASSPQETQY	10	2
42	ASSPQETQY	10	5
28	ASSPQETQY	10	2
43	ASSPQETQY	10	2623
3	ASSPQETQY	10	2
38	ASSQTRSSYNEQF	6	57
43	ASSQTRSSYNEQF	6	1
33	ATRTRGQETQY	10	1390
2	ATRTRGQETQY	10	3
43	ASSPQGSGNTIY	2	1
37	ASSPQGSGNTIY	2	23
41	ASSSQQGIGETQY	10	481
43	ASSSQQGIGETQY	10	2
37	ASSTYDEQF	6	2
42	ASSTYDEQF	6	1
37	ASSSLASRTDTQY	8	96
43	ASSSLASRTDTQY	8	1
42	ASSSLASRTDTQY	8	3
37	ASSIATGLAASSYEQY	12	1
42	ASSIATGLAASSYEQY	12	501
43	ASSIATGLAASSYEQY	12	2
4	ASSIATGLAASSYEQY	12	1
38	ASSIATGLAASSYEQY	12	1
42	ASSFDWRVILGDEQF	6	1
37	ASSFDWRVILGDEQF	6	2
14	ATSRVGGETQY	10	67
10	ATSRVGGETQY	10	73547
42	ASSLDVPGTGAYEQY	12	3
43	ASSLDVPGTGAYEQY	12	1
38	ASSLDVPGTGAYEQY	12	83
43	ASSGAPAGEEEQY	12	13
40	ASSGAPAGEEEQY	12	1377
14	ASRQGSGNTIY	2	6
33	ASRQGSGNTIY	2	1
43	ASNSLWPFVEQY	6	2
19	ASNSLWPFVEQY	6	1
4	ASSTLAGTYNEQF	6	1
19	ASSTLAGTYNEQF	6	329
35	ATCTRGQETQY	10	1
33	ATCTRGQETQY	10	508
31	ATCTRGQETQY	10	2
6	ASSSATGLAASSYEQY	12	1
40	ASSSATGLAASSYEQY	12	1
43	ASSSATGLAASSYEQY	12	5
38	ASSSATGLAASSYEQY	12	5
42	ASSSATGLAASSYEQY	12	4599
4	ASSSATGLAASSYEQY	12	1
37	ASSSATGLAASSYEQY	12	6
35	ASSFQTAAGGDTDTQY	8	25
36	ASSFQTAAGGDTDTQY	8	5
1	ASSFQTAAGGDTDTQY	8	40
42	ASSLATALAASSYEQY	12	448
43	ASSLATALAASSYEQY	12	1
42	ASSLGGLAGKDEQF	6	1
37	ASSLGGLAGKDEQF	6	2
37	ASSLATGLAATSYEQY	12	1
42	ASSLATGLAATSYEQY	12	131
37	ASSLEGRTYNEQF	6	237
42	ASSLEGRTYNEQF	6	4
18	ASSLSRAGGSDTQY	8	2929
19	ASSLSRAGGSDTQY	8	1
43	ASSFSTGGTYNEQF	6	2
42	ASSFSTGGTYNEQF	6	2114
37	ASSLAGAASGNTIY	2	150
38	ASSLAGAASGNTIY	2	1
42	ASSLAGAASGNTIY	2	2
43	ASSLAGAASGNTIY	2	1
37	ASSNYNEQF	6	2
14	ASSNYNEQF	6	1
26	ASSLGESGNTIY	2	2499
42	ASSLGESGNTIY	2	1
41	ASSFSNPSGTSAPGEQY	4	2
43	ASSFSNPSGTSAPGEQY	4	3
40	ASSFSNPSGTSAPGEQY	4	272
6	ASSSGLAGGLVDEQF	6	4786
7	ASSSGLAGGLVDEQF	6	2
43	ASSLATGLAASTYEQY	12	1
42	ASSLATGLAASTYEQY	12	410
38	ASSLGGLAGKNEQF	6	2
43	ASSLGGLAGKNEQF	6	8
37	ASSLGGLAGKNEQF	6	1356
24	ASSLGGLAGKNEQF	6	1
30	ASSLGGLAGKNEQF	6	1
42	ASSLGGLAGKNEQF	6	28
43	ASSFAIGTGGWGNIQY	9	1
37	ASSFAIGTGGWGNIQY	9	1
29	ASSLAREDSRTDTQY	8	806
42	ASSLAREDSRTDTQY	8	1
