41	ASSSRAQGAIREQF	6	2
42	ASSSRAQGAIREQF	6	1
40	ASSSRAQGAIREQF	6	682
19	ASSAGTGVPNEQF	6	1
38	ASSAGTGVPNEQF	6	1
7	ASSAGTGVPNEQF	6	3
21	ASSAGTGVPNEQF	6	1
6	ASSAGTGVPNEQF	6	13814
4	ASSAGTGVPNEQF	6	1
43	ASSAGTGVPNEQF	6	1
19	ASSLSNTGNTIY	2	875
42	ASSLSNTGNTIY	2	1
29	ASSLTDYEQY	12	4
6	ASSLTDYEQY	12	177
17	ASSEYGWGQETQY	10	16028
4	ASSEYGWGQETQY	10	2
19	ASSEYGWGQETQY	10	2
37	ASSLSTGAAGDTIY	2	90
43	ASSLSTGAAGDTIY	2	1
40	ASSLATGQVTDTQY	8	1
43	ASSLATGQVTDTQY	8	4317
4	ASSLATGQVTDTQY	8	1
42	ASSLATGQVTDTQY	8	6
28	ASSLATGQVTDTQY	8	1
5	ASSPGTYNEQF	6	1
18	ASSPGTYNEQF	6	33218
19	ASSPGTYNEQF	6	6
14	ASSPGTYNEQF	6	1
31	ASSPGTYNEQF	6	2
34	ASSGHRKPAYEQY	12	1
31	ASSGHRKPAYEQY	12	1
33	ASSGHRKPAYEQY	12	194
31	ASTPRGSLTDTQY	8	2
33	ASTPRGSLTDTQY	8	481
32	ASTPRGSLTDTQY	8	1
4	ASSPPGTGRAETQY	10	457
5	ASSPPGTGRAETQY	10	2
37	ASSLVASGGSTDTQY	8	4130
4	ASSLVASGGSTDTQY	8	2
38	ASSLVASGGSTDTQY	8	3
43	ASSLVASGGSTDTQY	8	7
30	ASSLVASGGSTDTQY	8	1
42	ASSLVASGGSTDTQY	8	6
6	TSTALGQFGEQY	12	74
7	TSTALGQFGEQY	12	1
37	ASRPYTISGNTIY	2	5
42	ASRPYTISGNTIY	2	1
42	ASSRDRGVHEQY	12	2
37	ASSRDRGVHEQY	12	704
43	ASSRDRGVHEQY	12	1
37	ASSLLSGRNEQF	6	400
38	ASSLLSGRNEQF	6	1
43	ASSLLSGRNEQF	6	2
43	ASSFSQETQY	10	1084
38	ASSFSQETQY	10	1
4	ASSFSQETQY	10	1
6	ASSLYTALAKNIQY	9	1
19	ASSLYTALAKNIQY	9	1012
19	ASSFTGTDTQY	8	40
43	ASSFTGTDTQY	8	8
37	ASSLHGGGTSYEQY	12	4
5	ASSLHGGGTSYEQY	12	10
3	ASSLHGGGTSYEQY	12	4
4	ASSLHGGGTSYEQY	12	5580
42	ASSLHGGGTSYEQY	12	1
13	ASSMSNEQF	6	5136
42	ASSMSNEQF	6	1
29	ASSSTSGRLEQF	6	1
26	ASSSTSGRLEQF	6	14913
37	ASSSTSGRLEQF	6	1
18	ASSLGERGETQY	10	9
42	ASSLGERGETQY	10	1
42	ASSEGDTQY	8	1
31	ASSEGDTQY	8	2
43	ASSEGDTQY	8	1
37	ASSEGDTQY	8	367
23	ASSPQQSGDNEQF	6	2065
25	ASSPQQSGDNEQF	6	2
7	ASRGGHSGRGGNEQF	6	1
6	ASRGGHSGRGGNEQF	6	236
34	ASSYRQGGELF	7	97
31	ASSYRQGGELF	7	1
4	ASSLATGLATSSYEQY	12	1
42	ASSLATGLATSSYEQY	12	96
4	ASSLISYNEQF	6	2
6	ASSLISYNEQF	6	1
37	ASSLPGQSDNEQF	6	1
42	ASSLPGQSDNEQF	6	9
18	ASSPIVGTQY	8	990
19	ASSPIVGTQY	8	1
43	ASTNLANMGYEQY	12	53
38	ASTNLANMGYEQY	12	1
33	ASSYSLGNNEQF	6	7
31	ASSYSLGNNEQF	6	1
24	ASSKGTSGGQETQY	10	2
30	ASSKGTSGGQETQY	10	1
40	ASNLEGNTIY	2	4
43	ASNLEGNTIY	2	1
40	ASSLNGSSYEQY	7	4
43	ASSLNGSSYEQY	7	1
7	ASSFPPGAYEQY	12	6
6	ASSFPPGAYEQY	12	1204
14	ASSPRPYSYEQY	12	6904
6	ASSPRPYSYEQY	12	1
33	ASSPRPYSYEQY	12	2
33	ASNSDVNEQF	6	4
35	ASNSDVNEQF	6	1
1	ASKFSTISYEQY	12	302
33	ASKFSTISYEQY	12	1
37	ASGESDRGGTNEQF	6	1
40	ASGESDRGGTNEQF	6	57
40	ASSLAPGRTDTQY	8	1874
42	ASSLAPGRTDTQY	8	2
43	ASSLAPGRTDTQY	8	6
13	ASSSRGGETQY	10	1
38	ASSSRGGETQY	10	3
37	ASSSRGGETQY	10	5
43	ASSSRGGETQY	10	9299
42	ASSSRGGETQY	10	10
4	ASSSRGGETQY	10	2
40	ASSSRGGETQY	10	1
28	ASSSRGGETQY	10	1
38	ASSLRPTGVVYNEQF	6	3616
43	ASSLRPTGVVYNEQF	6	4
42	ASSLRPTGVVYNEQF	6	2
4	ASSLRPTGVVYNEQF	6	3
37	ASSLRPTGVVYNEQF	6	4
21	ASSRGRGTKNIQY	9	1
29	ASSRGRGTKNIQY	9	1
19	ASSRGRGTKNIQY	9	4345
42	ASSRGRGTKNIQY	9	1
18	ASSRGRGTKNIQY	9	1
4	ASSLSALPEETQY	10	548
37	ASSLSALPEETQY	10	1
5	ASSLSALPEETQY	10	1
29	ASSFVQGTPVFRYNEQF	6	1
30	ASSFVQGTPVFRYNEQF	6	2
26	ASSSTGGAYNEQF	6	4
14	ASSSTGGAYNEQF	6	3
33	ASSLVGNEQF	6	1
19	ASSLVGNEQF	6	6372
35	ASSLVGNEQF	6	1
19	ASSPLPGGNLYYEQY	12	1
18	ASSPLPGGNLYYEQY	12	2887
31	ASSSDVNEQF	6	47
33	ASSSDVNEQF	6	17176
35	ASSSDVNEQF	6	9
32	ASSSDVNEQF	6	7
2	ASSSDVNEQF	6	6
34	ASSSDVNEQF	6	25
6	ASSSDVNEQF	6	3
27	ASSQGGGGNYEQY	12	1
9	ASSQGGGGNYEQY	12	1297
43	ASSPRETQY	10	448
42	ASSPRETQY	10	1
19	ASSSSPAYEQY	12	9
10	ASSSSPAYEQY	12	1
37	ASSLVYGSGGSYNEQF	6	1
43	ASSLVYGSGGSYNEQF	6	1
4	ASSLVYGSGGSYNEQF	6	35
4	ASSLGSGHGTQY	8	1
42	ASSLGSGHGTQY	8	1
37	ASSFGHNEQF	6	1
42	ASSFGHNEQF	6	15
34	ASTSSGQGRNEQF	6	7
32	ASTSSGQGRNEQF	6	2
33	ASTSSGQGRNEQF	6	2679
31	ASTSSGQGRNEQF	6	18
35	ASTSSGQGRNEQF	6	2
33	ASRTGPYEQY	12	1
34	ASRTGPYEQY	12	12
6	ASSLSYTTTYEQY	12	2
19	ASSLSYTTTYEQY	12	1
18	ASSLSYTTTYEQY	12	4860
4	ASSLAHEQY	12	1
37	ASSLAHEQY	12	60
3	ASSLSLLETQY	10	1
37	ASSLSLLETQY	10	28
43	ASSLSLLETQY	10	51546
40	ASSLSLLETQY	10	7
38	ASSLSLLETQY	10	9
42	ASSLSLLETQY	10	15
41	ASSLSLLETQY	10	1
28	ASSLSLLETQY	10	21
30	ASSLSLLETQY	10	2
24	ASSLSLLETQY	10	1
4	ASSLSLLETQY	10	5
37	ASSLMGLANTDTQY	8	1140
43	ASSLMGLANTDTQY	8	1
38	ASSLMGLANTDTQY	8	2
4	ASSLMGLANTDTQY	8	1
43	ASNFTVSEQY	12	76
28	ASNFTVSEQY	12	1
42	ASRLDDSLYNEQF	6	9
37	ASRLDDSLYNEQF	6	1
32	ASSRSGQRAPYEQY	12	2
1	ASSRSGQRAPYEQY	12	1
36	ASSRSGQRAPYEQY	12	1
2	ASSRSGQRAPYEQY	12	1
35	ASSRSGQRAPYEQY	12	4
15	SADYTDTQY	8	72
20	SADYTDTQY	8	1
43	ASSSQGSSGRASEQF	6	19
42	ASSSQGSSGRASEQF	6	5
37	ASSSQGSSGRASEQF	6	5
4	ASSSQGSSGRASEQF	6	5
38	ASSSQGSSGRASEQF	6	4649
37	ASSLVTGLAASSYEQY	12	1
42	ASSLVTGLAASSYEQY	12	127
43	ASSLRGRTDTQY	8	1
42	ASSLRGRTDTQY	8	1
21	ASSQGGNEQY	12	1386
9	ASSQGGNEQY	12	2
43	ASSPTYYEQY	12	1
12	ASSPTYYEQY	12	1
43	ASSFGTGGYEQY	12	1
26	ASSFGTGGYEQY	12	1656
19	ASILAGGSDTQY	8	4
6	ASILAGGSDTQY	8	5
19	ASSLGTTTDTQY	8	3
34	ASSLGTTTDTQY	8	62
26	ASSLRSGGTDTQY	8	6
18	ASSLRSGGTDTQY	8	1
30	ASSLSSSGPYEQY	12	1
27	ASSLSSSGPYEQY	12	4322
4	ASSLGGRASHEQY	12	432
37	ASSLGGRASHEQY	12	2
37	ASSLAGTYNEQF	6	2
43	ASSLAGTYNEQF	6	5
5	ASSVGGIQSGNTIY	2	11
43	ASSVGGIQSGNTIY	2	2
3	ASSVGGIQSGNTIY	2	2
4	ASSVGGIQSGNTIY	2	8966
42	ASSVGGIQSGNTIY	2	1
38	ASSVGGIQSGNTIY	2	1
30	ASSVGGIQSGNTIY	2	1
37	ASSVGGIQSGNTIY	2	6
43	ASSLVGAKETQY	10	3
28	ASSLVGAKETQY	10	9
27	ASSLVGAKETQY	10	5
29	ASSLVGAKETQY	10	10277
24	ASSLVGAKETQY	10	1
6	ATQGSGNTIY	2	1
14	ATQGSGNTIY	2	1
36	ATQGSGNTIY	2	7
2	ATQGSGNTIY	2	16221
1	ATQGSGNTIY	2	1
43	ASSLAGETQY	10	8
18	ASSLAGETQY	10	1
19	ASSQGGTYEQY	12	10971
37	ASSQGGTYEQY	12	2
18	ASSQGGTYEQY	12	1
28	ASSWGIEHYEQY	12	1
29	ASSWGIEHYEQY	12	1163
28	ASSPDSGGGEQY	6	1
25	ASSPDSGGGEQY	6	10
43	ASSPDSGGGEQY	6	3
4	ASSPDSGGGEQY	6	1
24	ASSPDSGGGEQY	6	6631
30	ASSPDSGGGEQY	6	15
43	ASSSGTGVDEQF	6	1
40	ASSSGTGVDEQF	6	308
2	AIRPGSENEQF	6	1837
36	AIRPGSENEQF	6	2
37	VSGTVNFGYEQF	6	1
43	VSGTVNFGYEQF	6	5
42	ASSSTGAREQF	6	113
43	ASSSTGAREQF	6	1
14	ASSEEGGVETQY	10	1
17	ASSEEGGVETQY	10	11860
19	ASSEEGGVETQY	10	1
37	ASSLSSRSSYEQY	12	11
43	ASSLSSRSSYEQY	12	1
31	ASSRQYSPLH	5	3
33	ASSRQYSPLH	5	334
21	ASSPSSYNEQF	6	4
14	ASSPSSYNEQF	6	23
18	ASSPTVPETQY	10	6163
19	ASSPTVPETQY	10	1
14	ASSPTVPETQY	10	3
33	ASSPTVPETQY	10	1
8	ASSPTVPETQY	10	1
6	ASSLGEYNEQF	6	25097
19	ASSLGEYNEQF	6	2
34	ASSLGEYNEQF	6	2
38	ASSLGEYNEQF	6	1
33	ASSLGEYNEQF	6	1
7	ASSLGEYNEQF	6	10
31	ASSLGEYNEQF	6	1
2	AISERAGGLTDTQY	8	1634
36	AISERAGGLTDTQY	8	1
32	AISERAGGLTDTQY	8	1
31	ASSSAGGCNIQY	9	2
34	ASSSAGGCNIQY	9	1
38	AIKVLAGQSPYNEQF	6	1
43	AIKVLAGQSPYNEQF	6	70
40	ASSLVGGFAADTQY	8	2
4	ASSLVGGFAADTQY	8	11
37	ASSLVGGFAADTQY	8	12434
42	ASSLVGGFAADTQY	8	17
30	ASSLVGGFAADTQY	8	1
21	ASSLVGGFAADTQY	8	1
43	ASSLVGGFAADTQY	8	15
38	ASSLVGGFAADTQY	8	4
33	ASSRDYPSYEQY	12	306
35	ASSRDYPSYEQY	12	1
31	ASSRDYPSYEQY	12	2
19	ASSPGTGSYEQY	12	1
29	ASSPGTGSYEQY	12	1
12	ASSPGTGSYEQY	12	4105
9	ASSHPLSSYNEQF	6	1
21	ASSHPLSSYNEQF	6	5251
17	ASSVLAFDEQF	6	245
19	ASSVLAFDEQF	6	1
27	ASSPSVSTNNEQF	6	2
28	ASSPSVSTNNEQF	6	518
30	ASSPSVSTNNEQF	6	1
5	ASSLLYEQY	12	1
4	ASSLLYEQY	12	47
31	ASNLAGGQETQY	10	26
33	ASNLAGGQETQY	10	1
40	ASSLGGNTIY	2	498
43	ASSLGGNTIY	2	2
30	ASSKGTSGSTDTQY	8	1346
28	ASSKGTSGSTDTQY	8	10
27	ASSKGTSGSTDTQY	8	3
4	ASSKGTSGSTDTQY	8	1
29	ASSKGTSGSTDTQY	8	2
31	ASTPGTAADTQY	8	12268
35	ASTPGTAADTQY	8	4
32	ASTPGTAADTQY	8	9
2	ASTPGTAADTQY	8	9
34	ASTPGTAADTQY	8	48
6	ASTPGTAADTQY	8	4
33	ASTPGTAADTQY	8	35
18	ASSYSGTGGYEQF	6	1
34	ASSYSGTGGYEQF	6	3
35	ASSYSGTGGYEQF	6	2
37	ASSYSGTGGYEQF	6	1
32	ASSYSGTGGYEQF	6	4
43	ASSYSGTGGYEQF	6	1
31	ASSYSGTGGYEQF	6	14
6	ASSYSGTGGYEQF	6	1
4	ASSYSGTGGYEQF	6	1
33	ASSYSGTGGYEQF	6	9213
18	ASSLSGGSYNEQF	6	1
19	ASSLSGGSYNEQF	6	18721
43	ASSLILRNEQF	6	1
42	ASSLILRNEQF	6	239
37	ASSLILRNEQF	6	3
18	ASSLGGSYNEQF	6	12
6	ASSLGGSYNEQF	6	6
19	ASTQSGSTDTQY	8	1
6	ASTQSGSTDTQY	8	3885
31	ASSYPRVYNEQF	6	320
33	ASSYPRVYNEQF	6	1
42	ASSLVYGTGGSYNEQF	6	26
4	ASSLVYGTGGSYNEQF	6	311473
14	ASSLVYGTGGSYNEQF	6	1
3	ASSLVYGTGGSYNEQF	6	28
6	ASSLVYGTGGSYNEQF	6	2
37	ASSLVYGTGGSYNEQF	6	191
19	ASSLVYGTGGSYNEQF	6	4
43	ASSLVYGTGGSYNEQF	6	25
38	ASSLVYGTGGSYNEQF	6	7
21	ASSLVYGTGGSYNEQF	6	3
24	ASSLVYGTGGSYNEQF	6	1
30	ASSLVYGTGGSYNEQF	6	92
26	ASSLVYGTGGSYNEQF	6	1
40	ASSLVYGTGGSYNEQF	6	6
28	ASSLVYGTGGSYNEQF	6	4
27	ASSLVYGTGGSYNEQF	6	2
5	ASSLVYGTGGSYNEQF	6	1040
11	ASSLVYGTGGSYNEQF	6	1
18	ASSLVYGTGGSYNEQF	6	1
37	ASSQTGSSYNEQF	7	1
40	ASSQTGSSYNEQF	7	2
41	ASSQTGSSYNEQF	7	74
42	ASTVQGGETQY	10	1
41	ASTVQGGETQY	10	493
27	ASRPGLVTSNEQF	6	575
29	ASRPGLVTSNEQF	6	1
19	ASRPGLVTSNEQF	6	1
27	ASSSPGPGLAGTQETQY	10	307
4	ASSSPGPGLAGTQETQY	10	2
32	ASSYPPDSPGAGSANEQF	6	1
36	ASSYPPDSPGAGSANEQF	6	1
28	ASSFYTSDQETQY	10	1
29	ASSFYTSDQETQY	10	1731
27	ASSFYTSDQETQY	10	1
33	AIHSGNTIY	2	1
35	AIHSGNTIY	2	2
36	AIHSGNTIY	2	4
32	AIHSGNTIY	2	3
2	AIHSGNTIY	2	5087
2	ASSDGLAGIRTDTQY	8	1
32	ASSDGLAGIRTDTQY	8	2
36	ASSDGLAGIRTDTQY	8	4
14	ASSEPSTGSETQY	10	213
6	ASSEPSTGSETQY	10	1
38	ASSLTGGLYNEQF	6	1
43	ASSLTGGLYNEQF	6	2
4	ASSLTGGLYNEQF	6	1
42	ASSLTGGLYNEQF	6	4
37	ASSLTGGLYNEQF	6	1199
26	ASSPGYLNEQF	6	1
12	ASSPGYLNEQF	6	2
4	AISLVYGTGGSYNEQF	6	218
5	AISLVYGTGGSYNEQF	6	1
37	AISLVYGTGGSYNEQF	6	1
31	ASSDRREQY	12	1
2	ASSDRREQY	12	2
4	ASSSQTSRNEQF	6	346
37	ASSSQTSRNEQF	6	1
21	ASSSQTSRNEQF	6	1
3	ASSSQTSRNEQF	6	1
4	ASSLVRDYTNNEQF	6	2
28	ASSLVRDYTNNEQF	6	1
37	ASSLVRDYTNNEQF	6	6
40	ASSLVRDYTNNEQF	6	3
42	ASSLVRDYTNNEQF	6	3
43	ASSLVRDYTNNEQF	6	6869
24	ASSLVRDYTNNEQF	6	1
43	ASSLPGGIYNEQF	6	1
19	ASSLPGGIYNEQF	6	1336
2	ASSWEGGAYEQY	12	5
0	ASSWEGGAYEQY	12	2
1	ASSWEGGAYEQY	12	8440
37	ASSPALREGGTDTQY	8	5
42	ASSPALREGGTDTQY	8	2652
4	ASSPALREGGTDTQY	8	1
43	ASSPALREGGTDTQY	8	1
6	ASSLRLSYEQY	12	1
37	ASSLRLSYEQY	12	1
18	ASSLRLSYEQY	12	3851
0	ASSESFDTQY	8	69
36	ASSESFDTQY	8	1
2	AISESIAGRSGEQF	6	2927
35	AISESIAGRSGEQF	6	1
4	ASSILAGPYNEQF	6	1
37	ASSILAGPYNEQF	6	2
42	ASSILAGPYNEQF	6	250
6	ASSDYRGGNEQF	6	1
33	ASSDYRGGNEQF	6	11
35	ASSDYRGGNEQF	6	2
32	ASSDYRGGNEQF	6	3
34	ASSDYRGGNEQF	6	13
36	ASSDYRGGNEQF	6	1
31	ASSDYRGGNEQF	6	7358
2	ASSDYRGGNEQF	6	1
19	ASSLGLEQF	6	10
6	ASSLGLEQF	6	7
27	ASSLEYNEQF	6	2936
29	ASSLEYNEQF	6	3
28	ASSLEYNEQF	6	6
4	ASSLEYNEQF	6	1
37	ASSQGLGGTDTQY	8	1
21	ASSQGLGGTDTQY	8	4545
31	ASSGGTGTSDEQY	12	693
33	ASSGGTGTSDEQY	12	1
25	ASSPFEGYETQY	10	2
23	ASSPFEGYETQY	10	577
18	ASSPPGGRGSYEQY	12	1
12	ASSPPGGRGSYEQY	12	4376
24	ASSQGTSGGRETQY	10	1
30	ASSQGTSGGRETQY	10	1
43	AISPYTISGNTIY	2	1
37	AISPYTISGNTIY	2	5
8	ASSENRAGGNNEQF	6	1
14	ASSENRAGGNNEQF	6	283
4	ASIGESPETQY	10	4
37	ASIGESPETQY	10	41
30	ASIGESPETQY	10	1
38	ASIGESPETQY	10	4
43	ASIGESPETQY	10	7
42	ASIGESPETQY	10	17798
42	ASSLPAQETQY	10	1
19	ASSLPAQETQY	10	12210
34	ASSSYQDTQY	8	1
6	ASSSYQDTQY	8	195
37	ASSLATGNRGNEQY	12	2
43	ASSLATGNRGNEQY	12	5199
40	ASSLATGNRGNEQY	12	1
42	ASSLATGNRGNEQY	12	2
28	ASSLATGNRGNEQY	12	4
4	ASSLATGNRGNEQY	12	1
42	ASNSAASSYEQY	12	3
43	ASNSAASSYEQY	12	4701
37	ASNSAASSYEQY	12	3
4	ASSLALARERDEQF	6	1
43	ASSLALARERDEQF	6	1
37	ASSLALARERDEQF	6	290
18	ASSWGLGTDTQY	8	1
43	ASSWGLGTDTQY	8	1
19	ASSWGLGTDTQY	8	2936
35	ASSYSGSVGFREQY	6	1
32	ASSYSGSVGFREQY	6	1
14	ASSGLTYNEQF	6	30106
9	ASSGLTYNEQF	6	1
37	ASSTGLAGRRETQY	10	1
27	ASSTGLAGRRETQY	10	731
28	ASSTGLAGRRETQY	10	1
29	ASSLGETQY	10	3
4	ASSLGETQY	10	19
33	ASSYSTGGTYEQY	12	3120
36	ASSYSTGGTYEQY	12	1
31	ASSYSTGGTYEQY	12	7
32	ASSYSTGGTYEQY	12	1
34	ASSYSTGGTYEQY	12	5
35	ASSYSTGGTYEQY	12	1
37	ASTGTSGGLDTQY	8	1287
42	ASTGTSGGLDTQY	8	6
43	ASTGTSGGLDTQY	8	2
7	ASRQGLTDTQY	8	3
6	ASRQGLTDTQY	8	1777
30	ASSPNRGEQF	6	2
40	ASSPNRGEQF	6	4
28	ASSPNRGEQF	6	9
43	ASSPNRGEQF	6	13919
42	ASSPNRGEQF	6	1
27	ASSPNRGEQF	6	2
24	ASSPNRGEQF	6	1
37	ASSPNRGEQF	6	10
34	ASSPNRGEQF	6	1
38	ASSPNRGEQF	6	4
19	ASSFRGGRLQETQY	10	1
17	ASSFRGGRLQETQY	10	1
18	ASSFRGGRLQETQY	10	1835
19	ASSLGGGEITDTQY	8	12212
43	ASSLGGGEITDTQY	8	1
2	AISLNSGGSTDTQY	8	4055
36	AISLNSGGSTDTQY	8	1
32	AISLNSGGSTDTQY	8	3
6	AISLNSGGSTDTQY	8	1
28	ASSSEGGRETQY	10	10
13	ASSSEGGRETQY	10	1
26	ASSHPGRDKSYEQY	12	1
23	ASSHPGRDKSYEQY	12	3
31	ASSPPGAGENEQF	6	3
33	ASSPPGAGENEQF	6	489
34	ASSPPGAGENEQF	6	2
14	ASSNLAGGRTQETQY	10	1
43	ASSNLAGGRTQETQY	10	1
9	ASSQGARGLNTIY	2	1
21	ASSQGARGLNTIY	2	5866
3	ASSQGARGLNTIY	2	1
37	ASSFDRGRFYNEQF	6	1
43	ASSFDRGRFYNEQF	6	1
3	ASSFDRGRFYNEQF	6	179
18	ASSGGHGQVSYEQY	12	2943
19	ASSGGHGQVSYEQY	12	2
18	ASSLRDGRETQY	10	11
24	ASSLRDGRETQY	10	23
37	ASSLGLPWNEQF	6	17762
5	ASSLGLPWNEQF	6	1
27	ASSLGLPWNEQF	6	1
38	ASSLGLPWNEQF	6	5
30	ASSLGLPWNEQF	6	1
42	ASSLGLPWNEQF	6	31
4	ASSLGLPWNEQF	6	12
21	ASSLGLPWNEQF	6	2
40	ASSLGLPWNEQF	6	1
43	ASSLGLPWNEQF	6	43
34	ASSYGPGNYEQY	12	1
31	ASSYGPGNYEQY	12	540
33	ASSYGPGNYEQY	12	1
27	ASTLTRGAYQETQY	10	3958
30	ASTLTRGAYQETQY	10	3
24	ASTLTRGAYQETQY	10	1
16	ATSEITGGPNEQF	6	6
34	ATSEITGGPNEQF	6	1
28	ASSLLSREQY	12	1
37	ASSLLSREQY	12	760
14	ASRLQETQY	10	45
31	ASRLQETQY	10	2
32	ASSERDRGGYNEQF	6	7
35	ASSERDRGGYNEQF	6	16
36	ASSERDRGGYNEQF	6	2
37	ASSLERIPYEQY	12	3
40	ASSLERIPYEQY	12	1
43	ASSLERIPYEQY	12	964
6	ASSLRQGRCNEQF	6	2
7	ASSLRQGRCNEQF	6	1
44	ASSVGRGGPFNEQF	6	732
29	ASSVGRGGPFNEQF	6	1
43	ASSLEDNEQF	6	1
6	ASSLEDNEQF	6	406
29	ASSLEDNEQF	6	1996
14	ASSLEDNEQF	6	1
27	ASSLEDNEQF	6	2
4	ASSLEDNEQF	6	1
32	ASPKMDYSYNEQF	6	1
33	ASPKMDYSYNEQF	6	6
19	ASSLYRDLAYEQY	12	2
18	ASSLYRDLAYEQY	12	3175
4	ASSSQSSYNEQF	6	1
13	ASSSQSSYNEQF	6	1212
32	AISAGTGGGEQF	6	1
2	AISAGTGGGEQF	6	669
18	AISAGTGGGEQF	6	1
35	AISAGTGGGEQF	6	1
31	ASSYPGQGVHEQY	12	1
33	ASSYPGQGVHEQY	12	681
43	ASSLPSSGPYEQY	12	1
27	ASSLPSSGPYEQY	12	9
18	ASSEQGTDTQY	8	7409
38	ASSEQGTDTQY	8	1
4	ASSLFTMGLVDTQY	8	4
37	ASSLFTMGLVDTQY	8	1
19	ASRALSSYNEQF	6	1
14	ASRALSSYNEQF	6	4
26	ASSLTALDNEQY	12	5169
25	ASSLTALDNEQY	12	1
6	ASSDNPYEQY	12	47
21	ASSDNPYEQY	12	1
34	ASLGKNYEQY	3	3
33	ASLGKNYEQY	3	4
32	ASLGKNYEQY	3	1
2	ASLGKNYEQY	3	1
31	ASLGKNYEQY	3	1795
35	ASLGKNYEQY	3	1
38	ASSEGTASYNEQF	6	3855
6	ASSEGTASYNEQF	6	1
21	ASSEGTASYNEQF	6	1
37	ASSEGTASYNEQF	6	8
43	ASSEGTASYNEQF	6	6
42	ASSEGTASYNEQF	6	5
28	ASSEGTASYNEQF	6	1
25	ASSPSKDTQY	8	2
23	ASSPSKDTQY	8	16
28	ASSSVPRDTQY	8	1
29	ASSSVPRDTQY	8	1
30	ASSSVPRDTQY	8	1
27	ASSSVPRDTQY	8	475
4	ASSPTGALPTPNYNEQF	6	2
27	ASSPTGALPTPNYNEQF	6	1
42	ASSPTGALPTPNYNEQF	6	1
37	ASSPTGALPTPNYNEQF	6	316
24	ASTFLLGDTEAF	0	1
28	ASTFLLGDTEAF	0	498
43	ASSSPGSYNEQF	6	2
37	ASSSPGSYNEQF	6	3
42	ASSSPGSYNEQF	6	1
40	ASSSPGSYNEQF	6	2424
41	ASSSPGSYNEQF	6	4
21	ASSRTNPDSYNEQF	6	1
12	ASSRTNPDSYNEQF	6	9493
1	ASSWEGGSYEQY	12	2
26	ASSWEGGSYEQY	12	5
30	ASSGMSSYEQY	12	1
37	ASSGMSSYEQY	12	4
43	ASSGMSSYEQY	12	5072
28	ASSGMSSYEQY	12	1
1	ASSERAGAQSDTQY	8	1
2	ASSERAGAQSDTQY	8	1
36	ASSERAGAQSDTQY	8	1
37	ASSLGFSGQETQY	10	2
19	ASSLGFSGQETQY	10	1
4	ASSLGFSGQETQY	10	2
28	ASSLGFSGQETQY	10	2
42	ASSLGFSGQETQY	10	2
43	ASSLGFSGQETQY	10	2750
28	ASSLGLAGSYNEQF	6	1
43	ASSLGLAGSYNEQF	6	14
36	ASSVGTITDTQY	8	4
14	ASSVGTITDTQY	8	1
0	ASSVGTITDTQY	8	2076
2	AISESSSGYQETQY	10	1628
32	AISESSSGYQETQY	10	1
19	ASSPAGNEQF	6	21302
26	ASSPAGNEQF	6	1
43	ASSPAGNEQF	6	2
33	ASSPAGNEQF	6	2
31	ASSPAGNEQF	6	1
21	ASSPAGNEQF	6	1
18	ASSPAGNEQF	6	1
23	ASCPNKDTQY	8	1
25	ASCPNKDTQY	8	1
43	ASSLTSGTYEQY	12	484
28	ASSLTSGTYEQY	12	1
37	ASSLTSGTYEQY	12	1
42	ASSLTHAQETQY	10	530
38	ASSLTHAQETQY	10	1
31	ASSDSGSGNTIY	2	1
32	ASSDSGSGNTIY	2	1
18	ASSLGHINEQF	6	492
6	ASSLGHINEQF	6	1
37	ASSSQGSSGGASEQF	6	1
38	ASSSQGSSGGASEQF	6	7
37	ASSLEAGRYNEQF	6	1067
42	ASSLEAGRYNEQF	6	7
43	ASSLEAGRYNEQF	6	5
40	ASSLEAGRYNEQF	6	1
42	ASSLAEGLPYNEQF	6	3
38	ASSLAEGLPYNEQF	6	1
43	ASSLAEGLPYNEQF	6	1
37	ASSLAEGLPYNEQF	6	571
43	ASTDLQGAPLQREQF	6	5955
40	ASTDLQGAPLQREQF	6	2
42	ASTDLQGAPLQREQF	6	2
28	ASTDLQGAPLQREQF	6	3
37	ASTDLQGAPLQREQF	6	7
38	ASTDLQGAPLQREQF	6	4
43	ASSPYNEQF	6	2
19	ASSPYNEQF	6	13
28	ASSSEPTYEQY	12	1
29	ASSSEPTYEQY	12	2
10	ATSITGGADTQY	8	768
14	ATSITGGADTQY	8	1
24	ASSQGGNEQF	6	8
9	ASSQGGNEQF	6	3
4	ASSLAYGTGGSYNEQF	6	767
37	ASSLAYGTGGSYNEQF	6	1
37	ASSYRGGTYEQY	12	1
33	ASSYRGGTYEQY	12	4
24	ASSQDLVRSSYNEQF	6	164
30	ASSQDLVRSSYNEQF	6	1
2	AISEASVPYNEQF	6	2429
33	AISEASVPYNEQF	6	1
35	AISEASVPYNEQF	6	1
30	ASSSGGQAEGTQY	10	1
29	ASSSGGQAEGTQY	10	498
43	ASSLEGPYNEQF	6	3
18	ASSLEGPYNEQF	6	32
33	ASCTALSYEQY	12	791
32	ASCTALSYEQY	12	1
31	ASCTALSYEQY	12	2
8	ASSLGRGNEQF	6	12
19	ASSLGRGNEQF	6	7
37	ASSLGRGNEQF	6	2
31	ASSLKETQY	10	2
19	ASSLKETQY	10	1384
6	ASSLKETQY	10	1
43	ASSQERGLHYEQY	12	1
21	ASSQERGLHYEQY	12	13412
44	ASSQERGLHYEQY	12	1
42	ASSPPNREETQY	10	2
37	ASSPPNREETQY	10	1422
2	AIRQEIYEQY	12	270
32	AIRQEIYEQY	12	1
33	ASSLTGGPYEQY	12	2
43	ASSLTGGPYEQY	12	1
43	ASSPPTRAYEQY	12	24
28	ASSPPTRAYEQY	12	1
21	ASSPLGDYSYEQY	12	3139
14	ASSPLGDYSYEQY	12	1
1	ASTGQVTYEQY	12	3357
0	ASTGQVTYEQY	12	4
29	ASSLPREQF	6	36
28	ASSLPREQF	6	1
32	AISEGTGVYEQF	6	2
33	AISEGTGVYEQF	6	1
2	AISEGTGVYEQF	6	1666
5	ASSFPQSGYSWDEQY	12	1
37	ASSFPQSGYSWDEQY	12	13
38	ASSFPQSGYSWDEQY	12	3
42	ASSFPQSGYSWDEQY	12	3
43	ASSFPQSGYSWDEQY	12	9460
4	ASSFPQSGYSWDEQY	12	2
40	ASSFPQSGYSWDEQY	12	1
28	ASSFPQSGYSWDEQY	12	4
36	ASSPPPGQPDSYEQY	12	1
35	ASSPPPGQPDSYEQY	12	1
28	ASSPVDSYEQY	12	12
4	ASSPVDSYEQY	12	4
37	ASSPVDSYEQY	12	6
42	ASSPVDSYEQY	12	3
40	ASSPVDSYEQY	12	3
43	ASSPVDSYEQY	12	5882
38	ASSPVDSYEQY	12	2
12	ASSPGTSSGNTIY	2	2
6	ASSPGTSSGNTIY	2	16
43	AIKVLAGQSSYDEQF	6	34
5	AIKVLAGQSSYDEQF	6	1
5	ASSLGSARETQY	10	2
4	ASSLGSARETQY	10	837
40	ASSLANMVGLNEQF	6	162
41	ASSLANMVGLNEQF	6	1
6	ASSLGTGSYEQY	12	1
12	ASSLGTGSYEQY	12	3
14	ASRQTSGGAYEQF	6	689
31	ASRQTSGGAYEQF	6	1
31	ASSPPTGAYEQY	12	1
43	ASSPPTGAYEQY	12	74320
5	ASSPPTGAYEQY	12	1
28	ASSPPTGAYEQY	12	157
34	ASSPPTGAYEQY	12	1
41	ASSPPTGAYEQY	12	1
30	ASSPPTGAYEQY	12	1
19	ASSPPTGAYEQY	12	4
29	ASSPPTGAYEQY	12	2
38	ASSPPTGAYEQY	12	22
37	ASSPPTGAYEQY	12	66
40	ASSPPTGAYEQY	12	33
4	ASSPPTGAYEQY	12	17
42	ASSPPTGAYEQY	12	25
43	ASSQTNEQF	6	1
21	ASSQTNEQF	6	9342
4	ASSQTNEQF	6	2
28	ASSLVAGGPYNEQL	6	1
43	ASSLVAGGPYNEQL	6	336
37	ASSLVAGGPYNEQL	6	1
17	ASSDDGTGRDEQF	6	3461
33	ASSDDGTGRDEQF	6	1
6	ASSFVGGVYEQY	12	4329
7	ASSFVGGVYEQY	12	2
32	ASSRRWTSLHEQF	6	2
33	ASSRRWTSLHEQF	6	1188
31	ASSRRWTSLHEQF	6	1
2	ATQDRSETQY	10	698
36	ATQDRSETQY	10	3
6	ASGFQGLTSGNTGELF	7	1
7	ASGFQGLTSGNTGELF	7	145
4	ASRKGLAYEQY	12	1
43	ASRKGLAYEQY	12	548
31	ASRDRTGGVYEQY	12	8
35	ASRDRTGGVYEQY	12	1
34	ASRDRTGGVYEQY	12	927
2	ASRDRTGGVYEQY	12	2
19	ASSIVQGTQY	8	22826
6	ASSIVQGTQY	8	1
33	ASSRKGGPVETQY	10	4
34	ASSRKGGPVETQY	10	1
7	ASGGAVQDEQF	6	1
6	ASGGAVQDEQF	6	3542
42	ASSPLIAVSYNEQF	6	899
37	ASSPLIAVSYNEQF	6	2
18	ASSVLGSHQETQY	10	1
44	ASSVLGSHQETQY	10	118
27	ASSLAIASGTDTQY	8	1
28	ASSLAIASGTDTQY	8	206
41	ASSMDRGPSYEQY	12	1223
37	ASSMDRGPSYEQY	12	4
40	ASSMDRGPSYEQY	12	4
43	ASSMDRGPSYEQY	12	7
42	ASSMDRGPSYEQY	12	1
43	ASSLAGPYNEQF	6	2924
37	ASSLAGPYNEQF	6	1
18	ASSLAGPYNEQF	6	2
37	ASRGGGNTIY	2	1
4	ASRGGGNTIY	2	1252
41	ASSVDRGPSYEQY	12	4
37	ASSVDRGPSYEQY	12	1
38	ASSPGLAGGNEQF	6	1
26	ASSPGLAGGNEQF	6	2
25	ASSQDLRKRGSRDTQY	8	1
23	ASSQDLRKRGSRDTQY	8	281
42	ASSLMMGQGRNEQF	6	1
43	ASSLMMGQGRNEQF	6	1662
33	ASSYLGGWTDTQY	8	252
34	ASSYLGGWTDTQY	8	1
4	ASSFGTGYEQY	12	23
6	ASSFGTGYEQY	12	3
43	ASSPQRGGYNEQF	6	449
37	ASSPQRGGYNEQF	6	1
37	ASSLDGSSYEQY	7	2
40	ASSLDGSSYEQY	7	3859
43	ASSLDGSSYEQY	7	14
43	ASSPRKGANEQF	6	1
6	ASSPRKGANEQF	6	2
28	ASSLGLAGASWKETQY	10	2
29	ASSLGLAGASWKETQY	10	251
39	ASSPPLAGVADTQY	8	1
43	ASSPPLAGVADTQY	8	1
6	ASSPPLAGVADTQY	8	8287
42	ASSLGQSRELF	7	1
43	ASSLGQSRELF	7	333
37	ASSHPPRETQY	10	274
43	ASSHPPRETQY	10	1
2	ATLTRGQETQY	10	1
33	ATLTRGQETQY	10	19
18	ASSLPQWGDQETQY	10	2
19	ASSLPQWGDQETQY	10	22219
24	ASSLPQWGDQETQY	10	1
43	ASSRAYEQY	12	4
21	ASSRAYEQY	12	1
33	ASSRAYEQY	12	1
43	ASSLTGGYNEQF	6	351
26	ASSLTGGYNEQF	6	1
12	ASSLTGGYNEQF	6	3
37	ASSRSAGDEQY	6	1168
4	ASSRSAGDEQY	6	2
43	ASSSPLKGRVNIQY	9	1915
37	ASSSPLKGRVNIQY	9	2
42	ASSSPLKGRVNIQY	9	1
5	ASSQGVLGSGEQF	6	4
4	ASSQGVLGSGEQF	6	4345
30	ASSQGVLGSGEQF	6	1
37	ASSQGVLGSGEQF	6	4
19	ASSSRETQY	10	2
43	ASSSRETQY	10	2
13	ASSPPAGAYEQY	12	1
43	ASSPPAGAYEQY	12	197
18	ASSPPMDYEQY	12	1
12	ASSPPMDYEQY	12	1603
21	ASSQQSSGNTIY	2	3533
43	ASSQQSSGNTIY	2	1
30	ASSLLWVQETQY	10	2
29	ASSLLWVQETQY	10	3
37	ASSLLWVQETQY	10	1
43	ASSLLWVQETQY	10	3
28	ASSLLWVQETQY	10	2127
32	ASSDQGGSDTQY	8	3470
35	ASSDQGGSDTQY	8	2
33	ASRQVSGNTIY	2	1
14	ASRQVSGNTIY	2	15
19	ASSFRRGTDTQY	8	3842
31	ASSFRRGTDTQY	8	1
22	AWSGGSSYNEQF	6	6811
19	AWSGGSSYNEQF	6	1
19	ASSPGSTGGHEQY	12	3054
29	ASSPGSTGGHEQY	12	1
32	AISAGLAGGETQY	10	4
35	AISAGLAGGETQY	10	5
36	AISAGLAGGETQY	10	5
2	AISAGLAGGETQY	10	8514
37	ASSLAGGDETQY	10	999
42	ASSLAGGDETQY	10	5
4	ASSLAGGDETQY	10	2
28	ASSLKTGRLSSGNTIY	2	1
43	ASSLKTGRLSSGNTIY	2	227
1	ASSYPPQGSSYEQY	7	3
36	ASSYPPQGSSYEQY	7	11
32	ASSYPPQGSSYEQY	7	3
35	ASSYPPQGSSYEQY	7	11
33	ASSLGGSTDTQY	8	17
19	ASSLGGSTDTQY	8	1
31	ASSLGGSTDTQY	8	5587
34	ASSLGGSTDTQY	8	13
32	ASSLGGSTDTQY	8	8
2	ATRGTSGREGNEQF	6	2135
32	ATRGTSGREGNEQF	6	2
36	ATRGTSGREGNEQF	6	1
14	ASSEAEDSSYEQY	12	8500
8	ASSEAEDSSYEQY	12	1
2	AISPRPRGYEQY	12	768
35	AISPRPRGYEQY	12	1
4	ASSFRPGETQY	10	1
37	ASSFRPGETQY	10	178
5	ASSPSLTDYNEQF	6	16
28	ASSPSLTDYNEQF	6	7
37	ASSPSLTDYNEQF	6	3
4	ASSPSLTDYNEQF	6	16
3	ASSPSLTDYNEQF	6	8520
43	ASSPSLTDYNEQF	6	12
35	ASSNRPRLTQETQY	4	1
36	ASSNRPRLTQETQY	4	1
43	ASSFTYGYT	1	2
37	ASSFTYGYT	1	127
38	ASSFTYGYT	1	1
42	ASSTRDYGAGEQY	12	1
37	ASSTRDYGAGEQY	12	1
21	ASSRLDSITDTQY	8	1
9	ASSRLDSITDTQY	8	3146
18	ASSPTRDSETQY	10	1
29	ASSPTRDSETQY	10	16
37	ASSLVSGTRTDTQY	8	21
38	ASSLVSGTRTDTQY	8	5
43	ASSLVSGTRTDTQY	8	9
4	ASSLVSGTRTDTQY	8	2
42	ASSLVSGTRTDTQY	8	5779
40	ASSLVSGTRTDTQY	8	1
25	ASSPGLAGGPDEQF	6	1
23	ASSPGLAGGPDEQF	6	13
43	ASIVRRDEQF	6	1
19	ASIVRRDEQF	6	1401
43	ASSPQTGSYEQY	12	1
29	ASSPQTGSYEQY	12	1
26	ASSPQTGSYEQY	12	2
4	ASSQRLGGTQY	8	367
37	ASSQRLGGTQY	8	1
43	ASSLSGNEQF	6	1
28	ASSLSGNEQF	6	1
42	ASSLGGAHNEQF	6	487
37	ASSLGGAHNEQF	6	4
19	ASSLSRNEQF	6	1266
18	ASSLSRNEQF	6	1
21	ASSGPSPHEQF	6	1
44	ASSGPSPHEQF	6	421
35	ATHRDRATDTQY	8	1
32	ATHRDRATDTQY	8	5
36	ATHRDRATDTQY	8	2
31	ATHRDRATDTQY	8	1
2	ATHRDRATDTQY	8	3626
34	ASSSRTRQETQY	10	249
31	ASSSRTRQETQY	10	3
33	ASSSRTRQETQY	10	2
42	ASSLDYRRDEQF	6	2
37	ASSLDYRRDEQF	6	737
5	ASSLVYCTGGSYNEQF	6	2
4	ASSLVYCTGGSYNEQF	6	176
32	ASSELQGARSTDTQY	8	3
35	ASSELQGARSTDTQY	8	9
36	ASSELQGARSTDTQY	8	3
23	ASSQEPGVGYNEQF	6	2
25	ASSQEPGVGYNEQF	6	2
30	ASSQEPGVGYNEQF	6	4
24	ASSQEPGVGYNEQF	6	1445
36	AISQLQGNYGYT	1	1
2	AISQLQGNYGYT	1	187
30	ASSQGTSGGQETQY	10	7
25	ASSQGTSGGQETQY	10	4
24	ASSQGTSGGQETQY	10	3443
4	ASRRRQGSYNEQF	6	1
18	ASRRRQGSYNEQF	6	4808
6	ASRRRQGSYNEQF	6	1
19	ASRRRQGSYNEQF	6	3
34	ASSPGAGEGNTIY	2	5
33	ASSPGAGEGNTIY	2	2
6	ASSPGAGEGNTIY	2	1
31	ASSPGAGEGNTIY	2	3210
32	ASSPGAGEGNTIY	2	1
6	ASSLVEETQY	10	1
29	ASSLVEETQY	10	2
37	ATSTGNSPLH	5	2
43	ATSTGNSPLH	5	53
1	ASSELGTTINEQF	6	1033
0	ASSELGTTINEQF	6	1
2	ASSELGTTINEQF	6	1
42	ASSQGCRGTKNIQY	9	43
37	ASSQGCRGTKNIQY	9	1
28	ASSVEGGRETQY	10	7
13	ASSVEGGRETQY	10	15
19	ASSLGSGDTDTQY	8	30
18	ASSLGSGDTDTQY	8	1
10	ATSTPDHRNEQF	6	1383
14	ATSTPDHRNEQF	6	1
30	ASSLQLAGDFTDTQY	8	3
24	ASSLQLAGDFTDTQY	8	1261
30	ASSKGTSRSTDTQY	8	3
4	ASSKGTSRSTDTQY	8	19
43	ASSLARMAGVEAYEQY	12	8
30	ASSLARMAGVEAYEQY	12	1
38	ASSLARMAGVEAYEQY	12	3
4	ASSLARMAGVEAYEQY	12	1
42	ASSLARMAGVEAYEQY	12	5
37	ASSLARMAGVEAYEQY	12	4706
8	ASSLWGSGRLSSYNEQF	6	1
7	ASSLWGSGRLSSYNEQF	6	1
6	ASSLWGSGRLSSYNEQF	6	13271
19	ASSGTSGLFSANEQF	6	1
14	ASSGTSGLFSANEQF	6	1107
43	ASSLEEYNEQF	6	1
6	ASSLEEYNEQF	6	5
23	ASSPNKGTQY	8	10
25	ASSPNKGTQY	8	1
12	ASSPSDTQY	8	3
4	ASSPSDTQY	8	1
5	ASSLVYGTRGSYNEQF	6	1
4	ASSLVYGTRGSYNEQF	6	178
42	AIKVLAGQSSYNEQF	6	18
40	AIKVLAGQSSYNEQF	6	9
28	AIKVLAGQSSYNEQF	6	9
43	AIKVLAGQSSYNEQF	6	34362
3	AIKVLAGQSSYNEQF	6	1
4	AIKVLAGQSSYNEQF	6	4
38	AIKVLAGQSSYNEQF	6	8
37	AIKVLAGQSSYNEQF	6	24
42	ASSLATGLAASSCEQY	12	87
5	ASSLATGLAASSCEQY	12	1
19	ASSLMEANNSPLH	5	1
37	ASSLMEANNSPLH	5	3
42	ASSLMEANNSPLH	5	870
43	ASSLMEANNSPLH	5	1
16	ASSLARDEQF	6	1
43	ASSLARDEQF	6	8
35	ASSYPSSNYAHSPLH	5	1
2	ASSYPSSNYAHSPLH	5	1
1	ASSYTRTSAGTDTQY	8	2
35	ASSYTRTSAGTDTQY	8	23
36	ASSYTRTSAGTDTQY	8	10
32	ASSYTRTSAGTDTQY	8	7
27	ASSQAAGGRTYNEQF	6	1
24	ASSQAAGGRTYNEQF	6	65
21	ASSDTGSDTQY	8	1
38	ASSDTGSDTQY	8	3
4	ASSDTGSDTQY	8	2
42	ASSDTGSDTQY	8	12
37	ASSDTGSDTQY	8	6094
43	ASSDTGSDTQY	8	7
43	ASSALGETQY	10	96
37	ASSALGETQY	10	1
37	ASSLATGLAAGSYEQY	12	2
42	ASSLATGLAAGSYEQY	12	489
38	ASSLATGLAAGSYEQY	12	1
14	ASSPDTDTQY	8	4
13	ASSPDTDTQY	8	5
38	ASIFKGSYEQY	12	1
42	ASIFKGSYEQY	12	3
25	ASSQDRGYEQY	12	2
23	ASSQDRGYEQY	12	924
43	ASSLGTDTQY	8	1
4	ASSLGTDTQY	8	44
34	ASSRSGSGEGTQY	10	4
32	ASSRSGSGEGTQY	10	3
35	ASSRSGSGEGTQY	10	2
33	ASSRSGSGEGTQY	10	1829
31	ASSRSGSGEGTQY	10	5
26	ASSSTSGGYEQY	12	1
9	ASSSTSGGYEQY	12	1
43	ASSLSGGAYEQY	12	1
21	ASSLSGGAYEQY	12	872
19	ASSPPGVSYNEQF	6	1
29	ASSPPGVSYNEQF	6	2673
27	ASSPPGVSYNEQF	6	1
33	ASTPSGREYEQY	12	2
34	ASTPSGREYEQY	12	1
31	ASTPSGREYEQY	12	308
19	ASSISSQGNEQF	6	27809
34	ASSISSQGNEQF	6	1
27	ASSWQLGEDEQF	6	1
26	ASSWQLGEDEQF	6	5473
27	ASSFSETQY	10	26
43	ASSFSETQY	10	1
28	ASSSSGGEQY	12	1
43	ASSSSGGEQY	12	2198
42	ASSSSGGEQY	12	3
43	ASSIGTGGYEQY	12	1
26	ASSIGTGGYEQY	12	2
31	ASSGEGGRTDTQY	8	452
32	ASSGEGGRTDTQY	8	1
33	ASSGGARTDTQY	8	3
31	ASSGGARTDTQY	8	2472
32	ASSGGARTDTQY	8	4
34	ASSGGARTDTQY	8	5
42	ASSTPARRGAPSYNEQF	6	1280
40	ASSTPARRGAPSYNEQF	6	1
38	ASSTPARRGAPSYNEQF	6	1
43	ASSTPARRGAPSYNEQF	6	3
37	ASSTPARRGAPSYNEQF	6	3
42	ASSITGGSVYEQY	12	3
43	ASSITGGSVYEQY	12	1
4	ASSITGGSVYEQY	12	1
37	ASSITGGSVYEQY	12	811
31	ASSLTSGPYEQY	12	1
33	ASSLTSGPYEQY	12	306
43	ASSPRRDGSYNEQF	6	2699
37	ASSPRRDGSYNEQF	6	3
28	ASSPRRDGSYNEQF	6	1
43	ASSFTGEPLAKNIQY	9	1
42	ASSFTGEPLAKNIQY	9	9
42	ASSLVNREVAGEQF	6	402
43	ASSLVNREVAGEQF	6	1
37	ASSLVNREVAGEQF	6	3
21	ASSQQGADTQY	8	2
38	ASSQQGADTQY	8	3
2	AISDRGAYEQY	12	2475
33	AISDRGAYEQY	12	2
6	ASSLRGGEITDTQY	8	2
19	ASSLRGGEITDTQY	8	16543
18	ASSLRGGEITDTQY	8	1
44	ASRGLAGGNSYNEQF	6	1
6	ASRGLAGGNSYNEQF	6	2045
7	ASRGLAGGNSYNEQF	6	1
2	ASRGLAGGNSYNEQF	6	1
26	ASSLAGWTSGTYNEQF	6	6481
38	ASSLAGWTSGTYNEQF	6	1
2	AISASGRGQETQY	10	7067
36	AISASGRGQETQY	10	4
35	AISASGRGQETQY	10	5
33	AISASGRGQETQY	10	2
32	AISASGRGQETQY	10	4
18	ASSLTSGNYEQY	12	5
43	ASSLTSGNYEQY	12	2
30	ASSLKGGRSYNEQF	6	2
27	ASSLKGGRSYNEQF	6	711
28	ASSLKGGRSYNEQF	6	1
31	VSSLPGQGTDTQY	8	6
32	VSSLPGQGTDTQY	8	1
26	ASSLAVGWSYEQY	12	1628
19	ASSLAVGWSYEQY	12	1
19	ASSQGLDHLYEQY	12	1
21	ASSQGLDHLYEQY	12	1444
1	ASSVDTSYEQY	12	3756
34	ASSVDTSYEQY	12	1
43	ASSVDTSYEQY	12	1
29	ASSLSGTGPYEQY	12	1
42	ASSLSGTGPYEQY	12	2
37	ASSLSGTGPYEQY	12	191
41	ASSPTSSYNEQF	6	1
19	ASSPTSSYNEQF	6	1
5	TSSLVYGTGGSYNEQF	6	1
4	TSSLVYGTGGSYNEQF	6	168
6	ASSLGTGFYEQY	12	3993
7	ASSLGTGFYEQY	12	1
6	ASCRGTAGEQY	12	7547
31	ASCRGTAGEQY	12	1
31	ASSDYRGGDEQF	6	49
34	ASSDYRGGDEQF	6	1
9	ASSRAYSGRNEQF	6	1988
43	ASSRAYSGRNEQF	6	1
37	ASTGSGDSNEQF	6	1
17	ASTGSGDSNEQF	6	102
19	ASSFAGIDTQY	8	9
43	ASSFAGIDTQY	8	19
5	ASSLTDRTTAHTDTQY	8	16
4	ASSLTDRTTAHTDTQY	8	8482
37	ASSLTDRTTAHTDTQY	8	4
2	ASSPMTDTQY	8	1
1	ASSPMTDTQY	8	390
32	ASNSGTASYEQY	12	1
31	ASNSGTASYEQY	12	237
33	ASNSGTASYEQY	12	1
19	ASSPLHNEQF	6	4
6	ASSPLHNEQF	6	3
18	ASSLSPPTGPSEYEQY	12	6643
19	ASSLSPPTGPSEYEQY	12	2
29	ASSRHGTAKGETQY	10	1692
27	ASSRHGTAKGETQY	10	1
28	ASSRHGTAKGETQY	10	2
2	ASSDSPEQF	6	1
1	ASSDSPEQF	6	1603
30	ASSPGLAGGGDTQY	8	14
26	ASSPGLAGGGDTQY	8	2
5	ASSPSPTDYNEQF	6	1
3	ASSPSPTDYNEQF	6	245
5	ASSENWGLSYEQY	12	1
42	ASSENWGLSYEQY	12	1
43	ASSENWGLSYEQY	12	534
32	AIGLRADTQY	8	1
2	AIGLRADTQY	8	1782
36	AIGLRADTQY	8	1
32	AIGLSGTYEQY	12	1
2	AIGLSGTYEQY	12	3
43	ASTAAGLLGEQY	12	2
19	ASTAAGLLGEQY	12	18748
18	ASTAAGLLGEQY	12	1
43	ASSSTGSSYNEQF	7	1
41	ASSSTGSSYNEQF	7	3227
37	ASSSTGSSYNEQF	7	1
40	ASSSTGSSYNEQF	7	4
38	ASSSTGSSYNEQF	7	1
30	ASSQTGGFSQETQY	10	1
24	ASSQTGGFSQETQY	10	417
6	ASSTSDPGAYEQY	12	5875
7	ASSTSDPGAYEQY	12	4
38	ASSPRPYNEQF	6	6
4	ASSPRPYNEQF	6	11
4	ASSLDPGQGSSPLH	5	1076
43	ASSLDPGQGSSPLH	5	1
5	ASSLDPGQGSSPLH	5	1
36	ASAHYAGTSGGPYNEQF	6	1
32	ASAHYAGTSGGPYNEQF	6	11512
35	ASAHYAGTSGGPYNEQF	6	1
42	ASSVGGTSGSYEQY	12	1
19	ASSVGGTSGSYEQY	12	2902
36	ASSYSGLAGVAEQF	6	6
35	ASSYSGLAGVAEQF	6	22
32	ASSYSGLAGVAEQF	6	1
14	ASSEGGEQY	12	1
19	ASSEGGEQY	12	1669
23	ASSPNKDTQY	8	9499
4	ASSPNKDTQY	8	2
29	ASSPNKDTQY	8	1
24	ASSPNKDTQY	8	1
30	ASSPNKDTQY	8	1
25	ASSPNKDTQY	8	269
7	ASSLGVLLVGNTIY	2	4
6	ASSLGVLLVGNTIY	2	7336
43	ASSLTPYGLAVQETQY	10	308
4	ASSLTPYGLAVQETQY	10	1
43	ASSFVGLLETQY	10	1
37	ASSFVGLLETQY	10	358
30	ASSFVGLLETQY	10	1
42	ASSPLLRDSFEQY	12	1
19	ASSPLLRDSFEQY	12	4419
18	ASSPLLRDSFEQY	12	1
8	TSVPAVPGGGGLNEQF	6	1
6	TSVPAVPGGGGLNEQF	6	9463
31	TSVPAVPGGGGLNEQF	6	1
21	ASSPTGLGYNEQF	6	1294
40	ASSPTGLGYNEQF	6	1
5	ASSLGATNYNEQF	6	3
30	ASSLGATNYNEQF	6	1
4	ASSLGATNYNEQF	6	3173
43	ASSLTEETQY	10	950
37	ASSLTEETQY	10	1
40	ASSLTEETQY	10	1
19	ASSLTEETQY	10	1
36	AISVGEDTQY	8	2
2	AISVGEDTQY	8	566
42	ASSLGVTNEQY	6	1
37	ASSLGVTNEQY	6	121
37	ASSQDRGGSYEQY	12	1
25	ASSQDRGGSYEQY	12	1
27	ASSQDRGGSYEQY	12	1
24	ASSQDRGGSYEQY	12	807
6	ASSPRGLAGGTDTQY	8	3564
7	ASSPRGLAGGTDTQY	8	2
32	ASSPRGLAGGTDTQY	8	1
19	ASSLLYNEQF	6	2
6	ASSLLYNEQF	6	1
26	ASSLGRGFYEQY	12	2
6	ASSLGRGFYEQY	12	1
24	ASSHFGTSGNDEQF	6	1
30	ASSHFGTSGNDEQF	6	1
40	ASSPGTGVDEQF	6	9608
4	ASSPGTGVDEQF	6	1
37	ASSPGTGVDEQF	6	8
41	ASSPGTGVDEQF	6	9
42	ASSPGTGVDEQF	6	3
43	ASSPGTGVDEQF	6	24
42	ASQGGGGETQY	10	1
43	ASQGGGGETQY	10	946
37	ASQGGGGETQY	10	2
8	ASSLDRTETDTQY	8	1
26	ASSLDRTETDTQY	8	19723
42	ASSGTSGPHNEQF	6	1
37	ASSGTSGPHNEQF	6	921
43	ASSGTSGPHNEQF	6	5
26	ASSLGLTDTQY	8	1
4	ASSLGLTDTQY	8	2
43	ASSLGGTGGYEQY	12	1
5	ASSLGGTGGYEQY	12	55
3	ASSLGGTGGYEQY	12	1
38	ASSLGGTGGYEQY	12	1
30	ASSLGGTGGYEQY	12	1
37	ASSLGGTGGYEQY	12	3
4	ASSLGGTGGYEQY	12	7194
42	ASSLRDRGIQETQY	10	1
43	ASSLRDRGIQETQY	10	1
37	ASSLRDRGIQETQY	10	99
32	ASSYGASGANVLT	11	1
31	ASSYGASGANVLT	11	1
34	ASSYGASGANVLT	11	104
37	ASSLYQGYQETQY	10	545
43	ASSLYQGYQETQY	10	2
42	ASSLYQGYQETQY	10	3
26	ASSLGGLAKNIQY	9	3116
43	ASSLGGLAKNIQY	9	1
14	ASNPRSYNEQF	6	20
4	ASNPRSYNEQF	6	4
14	ASSLGSGGTYEQY	12	1
7	ASSLGSGGTYEQY	12	1
6	ASSLGSGGTYEQY	12	3707
4	ASSPRGHQETQY	10	1
9	ASSPRGHQETQY	10	1
37	ASIIGGGYNEQF	6	1
42	ASIIGGGYNEQF	6	243
19	ASSSGGAYNEQF	6	1
26	ASSSGGAYNEQF	6	13
19	ASSLEVEQF	6	1
6	ASSLEVEQF	6	7
18	ASRLAGGSDTQY	8	1
6	ASRLAGGSDTQY	8	1744
6	ASSFWGSYEQY	12	18092
7	ASSFWGSYEQY	12	9
37	ASSLHKAGANVLT	11	253
38	ASSLHKAGANVLT	11	1
32	AISSRGTDTQY	8	4
35	AISSRGTDTQY	8	1
43	AISSRGTDTQY	8	1
36	AISSRGTDTQY	8	3
2	AISSRGTDTQY	8	4821
5	ASRGLAGNTDTQY	8	4
4	ASRGLAGNTDTQY	8	1959
37	ASRGLAGNTDTQY	8	1
19	ASSFGGRDTQY	8	4962
6	ASSFGGRDTQY	8	1
43	ASSLGAQETQY	10	3
27	ASSLGAQETQY	10	4
37	ASSLGAQETQY	10	1
29	ASSLGAQETQY	10	14102
12	ASSLGAQETQY	10	6
28	ASSLGAQETQY	10	8
19	ASSLGAQETQY	10	1
43	ASSLVQGTPVFRYNEQF	6	1
27	ASSLVQGTPVFRYNEQF	6	2
28	ASSLVQGTPVFRYNEQF	6	9
30	ASSLVQGTPVFRYNEQF	6	6343
26	ASSLASNEQF	6	3
43	ASSLASNEQF	6	6
43	ASSRAGRRNSGNTIY	2	1
42	ASSRAGRRNSGNTIY	2	17
18	ASSLTGNYNEQF	6	2900
19	ASSLTGNYNEQF	6	1
19	ASSSGRYEQY	12	844
9	ASSSGRYEQY	12	1
10	ASGQGKPGNTIY	2	653
14	ASGQGKPGNTIY	2	1
32	ASSFRDRVDTQY	8	1
18	ASSFRDRVDTQY	8	2416
19	ASSFRDRVDTQY	8	2
28	ASSLRQGGHEQY	12	273
19	ASSLRQGGHEQY	12	1
30	ASSLRQGGHEQY	12	1
37	VSSSGLAGGETQY	10	1
4	VSSSGLAGGETQY	10	81
23	ASSQDQTYNEQF	6	2439
24	ASSQDQTYNEQF	6	1
25	ASSQDQTYNEQF	6	8
4	ASSLVHGTGGSYNEQF	6	392
5	ASSLVHGTGGSYNEQF	6	2
18	ATSEIAGGPNEQF	6	1
16	ATSEIAGGPNEQF	6	11232
38	ATSEIAGGPNEQF	6	1
8	ASSERNTIY	2	1
14	ASSERNTIY	2	5368
37	ASSERNTIY	2	1
43	ASSLALSSYEQY	12	125
4	ASSLALSSYEQY	12	1
37	ASSLALSSYEQY	12	1
18	ASSKGWISAQETQY	10	2517
19	ASSKGWISAQETQY	10	1
34	ASGMGGIDTQY	8	7
31	ASGMGGIDTQY	8	1
21	ASSPPGQGYSYNEQF	6	390
32	ASSPPGQGYSYNEQF	6	1
6	ASRRDLDNEQF	6	7483
7	ASRRDLDNEQF	6	2
31	ASRRDLDNEQF	6	1
43	ASSLMAGAYNEQF	6	1
38	ASSLMAGAYNEQF	6	31
37	ASRLGLAGDNEQF	6	85
42	ASRLGLAGDNEQF	6	1
37	ASSLDSYEQY	12	1
42	ASSLDSYEQY	12	8
26	ASSSRTGAYEQY	12	1
40	ASSSRTGAYEQY	12	1
43	ASSPPLFWGIDTQY	8	2
28	ASSPPLFWGIDTQY	8	1
15	SVSRQETQY	10	2
20	SVSRQETQY	10	1980
19	ASSWLAGGEQF	6	8340
6	ASSWLAGGEQF	6	1
21	ASSSRTGYNEQF	6	3
26	ASSSRTGYNEQF	6	6
42	ASSLATGLVASSYEQY	12	92
40	ASSLATGLVASSYEQY	12	1
37	ASRPSGGDTQY	8	1
43	ASRPSGGDTQY	8	259
33	ASRHPGQGYHEQY	12	457
35	ASRHPGQGYHEQY	12	1
31	ASRHPGQGYHEQY	12	1
5	ASSFLADTQY	8	30
4	ASSFLADTQY	8	33
32	AISKDRQQETQY	10	2
2	AISKDRQQETQY	10	2823
28	ASSLVYGTGGPYNEQF	6	1
4	ASSLVYGTGGPYNEQF	6	1151
5	ASSLVYGTGGPYNEQF	6	5
13	ASSPGTAQETQY	10	411
19	ASSPGTAQETQY	10	1
37	ASSLNGRRYEQY	12	5
43	ASSLNGRRYEQY	12	4314
4	ASSLNGRRYEQY	12	1
40	ASSLNGRRYEQY	12	3
28	ASSLNGRRYEQY	12	2
37	ASSVGQGGSYEQY	12	1
43	ASSVGQGGSYEQY	12	1
5	ASSLWGAETQY	10	1
4	ASSLWGAETQY	10	210
43	ASSPEVGYNEQF	6	1
25	ASSPEVGYNEQF	6	11
30	ASSPEVGYNEQF	6	11
24	ASSPEVGYNEQF	6	7401
37	ASSPEVGYNEQF	6	1
23	ASSPEVGYNEQF	6	1
28	ASSPEVGYNEQF	6	2
40	ASSPGTGVDEQY	6	4
41	ASSPGTGVDEQY	6	1
17	ASSEEGEVETQY	10	6
23	ASSEEGEVETQY	10	1
19	ASSQGAGSSYNEQF	6	1
27	ASSQGAGSSYNEQF	6	1
9	ASSQGAGSSYNEQF	6	7628
4	ASSQGAGSSYNEQF	6	1
6	ASSLEENEQF	6	1
29	ASSLEENEQF	6	1
30	ASSLVQGTPVLRYNEQF	6	21
27	ASSLVQGTPVLRYNEQF	6	1
27	ASSLGRGAEQF	6	1
8	ASSLGRGAEQF	6	12541
18	ASSLGRGAEQF	6	2
40	ASSLGRGAEQF	6	1
14	ASSLGRGAEQF	6	3
19	ASSLGRGAEQF	6	1
44	ASSLGRGAEQF	6	2
31	AIPKRDYSYNEQF	6	1
33	AIPKRDYSYNEQF	6	5
31	SVEGSTDTQY	8	1
20	SVEGSTDTQY	8	23644
42	ASSLVYVTGGSYNEQF	6	1
4	ASSLVYVTGGSYNEQF	6	173
27	ASSSDTDTQY	8	2
14	ASSSDTDTQY	8	20
28	ASSSDTDTQY	8	891
6	ASSFGLAGGFDEQF	6	1145
18	ASSFGLAGGFDEQF	6	1
42	ASSSLAFADNEQF	6	42
4	ASSSLAFADNEQF	6	32
5	ASSSLAFADNEQF	6	1
38	ASSSLAFADNEQF	6	13
27	ASSSLAFADNEQF	6	1
37	ASSSLAFADNEQF	6	30962
30	ASSSLAFADNEQF	6	5
32	ASSSLAFADNEQF	6	1
24	ASSSLAFADNEQF	6	1
43	ASSSLAFADNEQF	6	42
28	ASSSLAFADNEQF	6	1
4	ASSLRSYNEQF	6	13
5	ASSLRSYNEQF	6	1
10	ATSRVGGEEQY	12	874
14	ATSRVGGEEQY	12	1
4	ASSLVYATGGSYNEQF	6	33
5	ASSLVYATGGSYNEQF	6	1
32	AIRVDIQETQY	10	2
2	AIRVDIQETQY	10	1723
18	ASRLAGYNEQF	6	11
13	ASRLAGYNEQF	6	5
0	ASSEGQGGPYEQY	12	1
1	ASSEGQGGPYEQY	12	39
43	ASSSAASSYEQY	12	6
40	ASSSAASSYEQY	12	1
38	ASSPGQGRDEQF	6	1
19	ASSPGQGRDEQF	6	16
4	ASSLLGLVVHEQY	12	1
19	ASSLLGLVVHEQY	12	1415
43	ASSLFAGRRDTYYNEQF	6	35
28	ASSLFAGRRDTYYNEQF	6	1
42	ASSPWFGGQETQY	10	27
37	ASSPWFGGQETQY	10	1
41	ASSKEAGVSNEQF	6	1
37	ASSKEAGVSNEQF	6	1030
19	ASSKEAGVSNEQF	6	1
42	ASSKEAGVSNEQF	6	7
43	ASSKEAGVSNEQF	6	2
4	ASSKEAGVSNEQF	6	3
38	ASSKEAGVSNEQF	6	2
33	ASRGTESYGYT	1	5
32	ASRGTESYGYT	1	2
30	ASSLDVAGIRTDTQY	8	2
28	ASSLDVAGIRTDTQY	8	371
34	ASRDRAGGVYEQY	12	1
32	ASRDRAGGVYEQY	12	1
38	ASSLGGLALIGNEQF	6	1
42	ASSLGGLALIGNEQF	6	9
4	ASSLGGLALIGNEQF	6	6
43	ASSLGGLALIGNEQF	6	9
37	ASSLGGLALIGNEQF	6	9604
7	ASNYGGAGETQY	10	1
6	ASNYGGAGETQY	10	216
7	ASSSRGDRYNEQF	6	1
6	ASSSRGDRYNEQF	6	2381
14	ASSSRGDRYNEQF	6	1
28	ASSRNPGTVAETQY	10	248
25	ASSRNPGTVAETQY	10	1
19	ASRGTSTDTQY	8	3
44	ASRGTSTDTQY	8	2
43	ASSEAGTGKASEQY	12	1
6	ASSEAGTGKASEQY	12	1
1	ASSEAGTGKASEQY	12	4
35	ASSEAGTGKASEQY	12	12
36	ASSEAGTGKASEQY	12	3
32	ASSEAGTGKASEQY	12	3
27	ASSFRGGVQETQY	10	8427
28	ASSFRGGVQETQY	10	4
23	ASSFRGGVQETQY	10	1
29	ASSFRGGVQETQY	10	6
30	ASSFRGGVQETQY	10	4
25	ASSLFCTSGRAFSYNEQF	6	1
23	ASSLFCTSGRAFSYNEQF	6	13
28	ASRKGQAYEQY	12	2
37	ASRKGQAYEQY	12	1
43	ASRKGQAYEQY	12	3150
4	ASRKGQAYEQY	12	1
6	ASSQVLGQYNEQF	6	1
24	ASSQVLGQYNEQF	6	30
25	ASSQVLGQYNEQF	6	1
5	ASNLVYGTGGSYNEQF	6	3
4	ASNLVYGTGGSYNEQF	6	627
3	ASRKAGGEYNEQF	6	759
5	ASRKAGGEYNEQF	6	12
4	ASRKAGGEYNEQF	6	1
2	ASSLVEEETQY	10	1
34	ASSLVEEETQY	10	2
32	ASSLVEEETQY	10	1
18	ASSLVEEETQY	10	1
7	ASSLVEEETQY	10	3
31	ASSLVEEETQY	10	2
6	ASSLVEEETQY	10	12731
42	ASSRTDSQETQY	10	1755
37	ASSRTDSQETQY	10	5
43	ASSRTDSQETQY	10	3
21	ASSRTDSQETQY	10	1
6	ASSRTDSQETQY	10	1
19	ASSLGGPYNEQF	6	7
18	ASSLGGPYNEQF	6	26343
21	ASSLGGPYNEQF	6	1
37	ASSLGGPYNEQF	6	1
31	ASSLGGPYNEQF	6	2
16	ATSEIEGGPNEQF	6	4
17	ATSEIEGGPNEQF	6	1
32	AISGVGGGEDTQY	8	7
35	AISGVGGGEDTQY	8	3
36	AISGVGGGEDTQY	8	2
2	AISGVGGGEDTQY	8	5767
36	ASSYLRLAGGNNEQF	6	3
14	ASSYLRLAGGNNEQF	6	1
35	ASSYLRLAGGNNEQF	6	1
2	ASSYLRLAGGNNEQF	6	1
1	ASSYLRLAGGNNEQF	6	4
35	ASSPPSGQPDSYEQY	12	2
36	ASSPPSGQPDSYEQY	12	1
4	ASSQDLAGGSLEQY	12	1
21	ASSQDLAGGSLEQY	12	2711
43	ASSSRTSLDTQY	8	17
37	ASSSRTSLDTQY	8	27
42	ASSSRTSLDTQY	8	7956
35	ASSYGREDEQF	6	1
34	ASSYGREDEQF	6	12
43	ASSPPTEAYEQY	12	20
37	ASSPPTEAYEQY	12	1
44	ASSSPSVRSDTQY	8	1
43	ASSSPSVRSDTQY	8	2
30	ASSLEAAGILGNIQY	9	17
27	ASSLEAAGILGNIQY	9	3
28	ASSLEAAGILGNIQY	9	2639
29	ASSLEAAGILGNIQY	9	1
2	ASRRDLLETQY	10	7
31	ASRRDLLETQY	10	1
14	ATSRVFPGSTDTQY	8	1
10	ATSRVFPGSTDTQY	8	1015
38	ASSSWADSYEQY	12	1
43	ASSSWADSYEQY	12	1368
42	ASSSWADSYEQY	12	1
31	AISDYRGGNEQF	6	4
2	AISDYRGGNEQF	6	1
38	ASSLNGGEQF	6	1
26	ASSLNGGEQF	6	10115
40	ASSLNGGEQF	6	1
4	ASSLNGGEQF	6	1
7	ASGLGTGVDEQF	6	297
6	ASGLGTGVDEQF	6	1
43	ASSDRASYNEQF	6	4550
40	ASSDRASYNEQF	6	3
37	ASSDRASYNEQF	6	6
28	ASSSGGPTYEQY	12	1
30	ASSSGGPTYEQY	12	22
19	ASIPDLSYEQY	12	1
14	ASIPDLSYEQY	12	1224
2	ASSEMPGQQETQY	10	1
32	ASSEMPGQQETQY	10	4896
19	ASSYGGGRETQY	10	1
31	ASSYGGGRETQY	10	7
6	ASSYGGGRETQY	10	1
33	ASSYGGGRETQY	10	3461
14	ASSYGGGRETQY	10	1
34	ASSYGGGRETQY	10	5
5	ASIQSDSTDTQY	8	1
4	ASIQSDSTDTQY	8	207
35	ASSYSRDYRAPYEQY	12	1
1	ASSYSRDYRAPYEQY	12	2
6	ASSFGTGHEQY	12	5235
7	ASSFGTGHEQY	12	1
4	ASSLFTMGLVGTQY	8	540
5	ASSLFTMGLVGTQY	8	3
37	ASSLFTMGLVGTQY	8	2
18	ASTSVGLGAYEQY	12	4719
19	ASTSVGLGAYEQY	12	1
33	ASSPPGAGNTIY	2	1
12	ASSPPGAGNTIY	2	1058
37	ASSFFSGNTIY	2	1
43	ASSFFSGNTIY	2	192
28	ASSLAGGYNEQF	6	1
19	ASSLAGGYNEQF	6	1
2	ATRESTGARRETQY	10	319
36	ATRESTGARRETQY	10	2
37	TSSLSTGAAGNTIY	2	20
30	TSSLSTGAAGNTIY	2	1
37	ASSQGPPFGDTQY	8	1887
42	ASSQGPPFGDTQY	8	2
38	ASSQGPPFGDTQY	8	1
38	ASSSQGSSWRASEQF	6	4
43	ASSSQGSSWRASEQF	6	1
43	ASSLEGTGAYEQY	12	1
37	ASSLEGTGAYEQY	12	764
30	ASSLEGTGAYEQY	12	1
34	ASSYSGRTTDTQY	8	5
31	ASSYSGRTTDTQY	8	11
17	ASSYSGRTTDTQY	8	1
33	ASSYSGRTTDTQY	8	3188
34	ASSPTIVETQY	10	2247
33	ASSPTIVETQY	10	6
31	ASSPTIVETQY	10	5
35	ASSPTIVETQY	10	2
32	ASSPTIVETQY	10	1
33	ASSYRGGAYEQY	12	4216
31	ASSYRGGAYEQY	12	9
19	ASSYRGGAYEQY	12	1
32	ASSYRGGAYEQY	12	7
35	ASSYRGGAYEQY	12	2
34	ASSYRGGAYEQY	12	2
36	ASSYPGSVGFREQY	12	2
35	ASSYPGSVGFREQY	12	1
32	ASSPLTRGPSTDTQY	8	4
35	ASSPLTRGPSTDTQY	8	8
1	ASSPLTRGPSTDTQY	8	6
23	ASSQNTDTQY	8	93
25	ASSQNTDTQY	8	1
36	ASSPGGRANSYEQY	12	1
32	ASSPGGRANSYEQY	12	1
35	ASSPGGRANSYEQY	12	3
19	ASSLWAGSPDTQY	8	14535
6	ASSLWAGSPDTQY	8	1
33	ASSLWAGSPDTQY	8	2
27	ASSSGEPTYEQY	12	1
28	ASSSGEPTYEQY	12	6
30	ASSSGEPTYEQY	12	842
38	ASTIKGDRGVHEQY	12	1
43	ASTIKGDRGVHEQY	12	4
37	ASTIKGDRGVHEQY	12	1405
42	ASTIKGDRGVHEQY	12	3
30	ASTIKGDRGVHEQY	12	1
4	ASSFVTGAEQF	6	2
43	ASSFVTGAEQF	6	2
37	ASSFVTGAEQF	6	1909
43	ASSPATGAYEQY	12	26
38	ASSPATGAYEQY	12	1
15	SAWTGSDTQY	8	805
20	SAWTGSDTQY	8	1
43	ASSTRDHGPGEQY	12	1
37	ASSTRDHGPGEQY	12	22
32	ASSYSSDPLYIQY	9	1
34	ASSYSSDPLYIQY	9	203
43	ASSFGGFGQQETQY	10	2469
28	ASSFGGFGQQETQY	10	1
37	ASSFGGFGQQETQY	10	2
18	ASSPPGTEQF	6	1
43	ASSPPGTEQF	6	1
42	ASSPPGTEQF	6	409
37	ASSPPGTEQF	6	5
38	ASSPPGTEQF	6	1
4	ASSSFTTSGGAYDEQF	6	957
42	ASSSFTTSGGAYDEQF	6	1
37	ASSSFTTSGGAYDEQF	6	1
5	ASSSFTTSGGAYDEQF	6	1
38	ASSFGAMAAYEQY	12	1
37	ASSFGAMAAYEQY	12	7
28	ASSFGAMAAYEQY	12	2
43	ASSFGAMAAYEQY	12	4150
40	ASSFGAMAAYEQY	12	2
42	ASSFGAMAAYEQY	12	2
3	ASSFGAMAAYEQY	12	1
6	ASSDRGRRRNTIY	2	2
14	ASSDRGRRRNTIY	2	1377
3	ASSLARSSSTDTQY	8	230
4	ASSLARSSSTDTQY	8	1
2	AISSGTGLSRETQY	10	1559
32	AISSGTGLSRETQY	10	1
18	ASSPDSGDSYNEQF	6	11374
19	ASSPDSGDSYNEQF	6	2
35	ASSSSGGALYEQY	12	2
8	ASSSSGGALYEQY	12	1
42	ASSSSGGALYEQY	12	1
6	ASSSSGGALYEQY	12	1
18	ASSSSGGALYEQY	12	1
33	ASSSSGGALYEQY	12	4326
34	ASSSSGGALYEQY	12	12
4	ASSSSGGALYEQY	12	1
37	ASSSSGGALYEQY	12	1
2	ASSSSGGALYEQY	12	1
32	ASSSSGGALYEQY	12	3
31	ASSSSGGALYEQY	12	13
30	ASSLVKGTPVFRYNEQF	6	2
37	ASSLVKGTPVFRYNEQF	6	1
4	ASSLGGRGGYEQY	12	4
26	ASSLGGRGGYEQY	12	1
36	ASSYFGGPYEQY	12	1
33	ASSYFGGPYEQY	12	12
32	ASSYFGGPYEQY	12	5
6	ASSYFGGPYEQY	12	1
34	ASSYFGGPYEQY	12	19
31	ASSYFGGPYEQY	12	10082
19	ASSYFGGPYEQY	12	1
37	ASSTRDYGPREQY	12	66
42	ASSTRDYGPREQY	12	1
31	ASSSIAETYEQY	12	866
2	ASSSIAETYEQY	12	1
33	ASSSIAETYEQY	12	1
32	ASSSIAETYEQY	12	1
37	ASSLQYGYNEQF	6	3
42	ASSLQYGYNEQF	6	900
18	ASSRTSGSYNEQF	6	1
28	ASSRTSGSYNEQF	6	1
43	ASSRTSGSYNEQF	6	45
33	ATTGTSSYNEQF	6	17
2	ATTGTSSYNEQF	6	2
35	ATTGTSSYNEQF	6	2
31	ATTGTSSYNEQF	6	9847
34	ATTGTSSYNEQF	6	17
32	ATTGTSSYNEQF	6	9
6	ASSLVEYNEQF	6	9
18	ASSLVEYNEQF	6	5
24	ASSQDFTVVDTQY	8	981
30	ASSQDFTVVDTQY	8	2
37	ASSQDFTVVDTQY	8	1
33	ASSYETGPYEQY	12	99
31	ASSYETGPYEQY	12	1
38	ASSWDLKETQY	10	2
37	ASSWDLKETQY	10	1287
43	ASSWDLKETQY	10	3
42	ASSWDLKETQY	10	5
36	ASSPPDRLSTDTQY	8	2
32	ASSPPDRLSTDTQY	8	2
35	ASSPPDRLSTDTQY	8	1
43	ASSLVRNEQF	6	4
19	ASSLVRNEQF	6	2
34	ASSYYRGTYEQY	12	1
31	ASSYYRGTYEQY	12	118
37	ASSLMAGTTYEQY	12	3
43	ASSLMAGTTYEQY	12	1970
38	ASSLMAGTTYEQY	12	1
40	ASSLMAGTTYEQY	12	1
5	ASSTCGGGTDTQY	8	220
19	ASSTCGGGTDTQY	8	1
28	ASIPPTGAYEQY	12	2
43	ASIPPTGAYEQY	12	88
19	ASSPGQGCDEQF	6	6
38	ASSPGQGCDEQF	6	1
43	ASSLTTGLAASSYEQY	12	1
37	ASSLTTGLAASSYEQY	12	2
42	ASSLTTGLAASSYEQY	12	361
27	ASSLPAGQAYNEQF	6	217
37	ASSLPAGQAYNEQF	6	3
43	ASSLIYGTGGSYNEQF	6	1
5	ASSLIYGTGGSYNEQF	6	1
4	ASSLIYGTGGSYNEQF	6	354
43	ASSSPSGRSDTQY	8	5443
28	ASSSPSGRSDTQY	8	4
37	ASSSPSGRSDTQY	8	4
44	ASSFRVRDGEQY	12	1
26	ASSFRVRDGEQY	12	94
28	ASSMEGGRETQY	10	2
13	ASSMEGGRETQY	10	1
2	AISARGTLGTDTQY	8	1725
32	AISARGTLGTDTQY	8	2
37	ASSPPTAGETQY	10	1
43	ASSPPTAGETQY	10	324
14	ASNPSSYNEQF	6	11573
8	ASNPSSYNEQF	6	2
34	ASSHAYEQY	12	2
31	ASSHAYEQY	12	3
42	ASSHAYEQY	12	1
2	ASSHAYEQY	12	1
35	ASSHAYEQY	12	3
33	ASSHAYEQY	12	1102
4	ASSLVYGTGGSDNEQF	6	79
37	ASSLVYGTGGSDNEQF	6	1
7	ASTRDSSSNEQF	6	1
6	ASTRDSSSNEQF	6	1902
43	ASSPDRGDRSGNTIY	2	2
19	ASSPDRGDRSGNTIY	2	21686
25	ASRQGGADTQY	8	1
26	ASRQGGADTQY	8	1925
43	ASSLALGAGTQYNEQF	6	1
37	ASSLALGAGTQYNEQF	6	38
35	ASRTTGASTDTQY	8	3
34	ASRTTGASTDTQY	8	3
33	ASRTTGASTDTQY	8	1376
31	ASRTTGASTDTQY	8	6
19	ASSLARNEQF	6	1
27	ASSLARNEQF	6	2
28	ASSLARNEQF	6	4
42	ASSLARNEQF	6	6
4	ASSLARNEQF	6	2
37	ASSLARNEQF	6	8
40	ASSLARNEQF	6	5
43	ASSLARNEQF	6	10524
38	ASSLARNEQF	6	3
30	ASSFTGTGKETQY	10	2
27	ASSFTGTGKETQY	10	1155
7	ASSLGGIGDTQY	8	1
6	ASSLGGIGDTQY	8	589
43	ASSLGTGGYEQY	12	3975
4	ASSLGTGGYEQY	12	1
26	ASSLGTGGYEQY	12	8
28	ASSLGTGGYEQY	12	1
21	ASSQDGGRGNEQF	6	160
37	ASSQDGGRGNEQF	6	7
6	ASSRGTSGSYEQY	12	550
2	ASSRGTSGSYEQY	12	1
37	ASKIQGGETQY	10	1
4	ASKIQGGETQY	10	729
37	ASSQRGEAKNIQY	9	1
24	ASSQRGEAKNIQY	9	123
19	ASSSPTSGATDTQY	8	2471
18	ASSSPTSGATDTQY	8	1
36	ASSELRLAGVTNEQF	6	8
1	ASSELRLAGVTNEQF	6	4
32	ASSELRLAGVTNEQF	6	1
2	ASSELRLAGVTNEQF	6	1
35	ASSELRLAGVTNEQF	6	13
32	ASSESGTGSYNEQF	6	1447
19	ASSESGTGSYNEQF	6	1
43	ASSSQQVGFGYT	1	333
37	ASSSQQVGFGYT	1	1
28	ASSSQQVGFGYT	1	1
43	ASSDPRLNTEAF	0	1
14	ASSDPRLNTEAF	0	20
35	TSVPAVPPLRQGCSYNEQF	6	1
14	TSVPAVPPLRQGCSYNEQF	6	1
27	ASSLGSGLSSYEQY	12	176
30	ASSLGSGLSSYEQY	12	1
40	ASSSRDRGVTGVNEQY	12	469
43	ASSSRDRGVTGVNEQY	12	3
32	AISGAGRNYEQY	12	1
2	AISGAGRNYEQY	12	182
25	ASTGGATEQF	6	1
26	ASTGGATEQF	6	24198
1	AIRGDIPPNEQF	6	2
33	AIRGDIPPNEQF	6	1
2	AIRGDIPPNEQF	6	24715
32	AIRGDIPPNEQF	6	20
36	AIRGDIPPNEQF	6	25
35	AIRGDIPPNEQF	6	4
31	AIRGDIPPNEQF	6	3
5	ASSLVYGTGGSYSEQF	6	3
4	ASSLVYGTGGSYSEQF	6	395
4	ASSSVYGTGGPYNEQF	6	1
5	ASSSVYGTGGPYNEQF	6	1
37	ASSLADSLYNEQF	6	1
43	ASSLADSLYNEQF	6	1
42	ASSLADSLYNEQF	6	27
40	ASSLADSLYNEQF	6	1
43	ASSPPSYNEQF	6	1
4	ASSPPSYNEQF	6	3
35	ASSYSAMPGTDTQY	8	18
6	ASSYSAMPGTDTQY	8	1
37	ASSYSAMPGTDTQY	8	1
1	ASSYSAMPGTDTQY	8	16
32	ASSYSAMPGTDTQY	8	10
36	ASSYSAMPGTDTQY	8	4
19	ASSLRAQETQY	10	3
29	ASSLRAQETQY	10	22
6	ASSVQETQY	10	7
31	ASSVQETQY	10	1
19	ASSSTVYEQY	12	547
43	ASSSTVYEQY	12	1
34	ASSYRGNEQF	6	12
19	ASSYRGNEQF	6	2
44	ASSYRGNEQF	6	1
32	ASSYRGNEQF	6	3
33	ASSYRGNEQF	6	18
31	ASSYRGNEQF	6	9764
35	ASSYRGNEQF	6	1
17	ASSYRGNEQF	6	1
14	ASSYRGNEQF	6	2
2	ASSYRGNEQF	6	1
8	ASSSTSGSYNEQF	6	4
26	ASSSTSGSYNEQF	6	2
4	ASSLATGLAANSYEQY	12	1
42	ASSLATGLAANSYEQY	12	243
26	ASSSGTGGYEQY	12	6
43	ASSSGTGGYEQY	12	3
31	ASSSGQVSLNEQF	6	1
6	ASSSGQVSLNEQF	6	9028
2	AISPPLGREGKSDTQY	8	11
35	AISPPLGREGKSDTQY	8	4
6	ASGRRRYQETQY	10	1889
7	ASGRRRYQETQY	10	1
31	ASSSIAETYEQY	6	2
34	ASSSIAETYEQY	6	1
34	ASSSLDRDEQY	12	773
31	ASSSLDRDEQY	12	5
33	ASSSLDRDEQY	12	1
25	ASSQVGYTDTQY	1	3
24	ASSQVGYTDTQY	1	377
42	ASSFGGRGLETQY	10	1
43	ASSFGGRGLETQY	10	1572
5	ASSLGPNQETQY	10	25
0	ASSLGPNQETQY	10	1
37	ASSATGGLAGGRNEQY	12	1
43	ASSATGGLAGGRNEQY	12	172
37	ASSLGVYNEQF	6	2
6	ASSLGVYNEQF	6	6
30	ASGLEAAGILGNIQY	9	1
28	ASGLEAAGILGNIQY	9	2
7	ASSLAGGDYEQY	12	1
6	ASSLAGGDYEQY	12	629
38	ASSLAGGDYEQY	12	1
19	ASSSLYEQY	12	10
34	ASSSLYEQY	12	3
43	ASSSLYEQY	12	1
26	ASSLAPVISSYNEQF	6	4642
28	ASSLAPVISSYNEQF	6	1
41	ASSLEGNTIY	2	5
43	ASSLEGNTIY	2	11
40	ASSLEGNTIY	2	4450
42	ASSLEGNTIY	2	1
4	ASSLEGNTIY	2	1
29	ASSPGAQETQY	10	28
12	ASSPGAQETQY	10	3507
32	TSVPENDGYQETQY	10	5
31	TSVPENDGYQETQY	10	8
34	TSVPENDGYQETQY	10	6
2	TSVPENDGYQETQY	10	1
35	TSVPENDGYQETQY	10	3
33	TSVPENDGYQETQY	10	4746
42	ASNLATGLAASSYEQY	12	34
43	ASNLATGLAASSYEQY	12	1
14	ASSGAGSDTQY	8	1446
6	ASSGAGSDTQY	8	1
21	ASSQVASGSRNEQF	6	1
9	ASSQVASGSRNEQF	6	350
37	ASSCYSGGARNEQF	6	10
43	ASSCYSGGARNEQF	6	1
26	ASSFSAGLAYEQY	12	5476
25	ASSFSAGLAYEQY	12	1
42	ASSFSAGLAYEQY	12	1
43	ASSESGSSYNEQF	6	2
41	ASSESGSSYNEQF	6	390
40	ASSESGSSYNEQF	6	1
17	ASSKTSGRITDTQY	8	39515
43	ASSKTSGRITDTQY	8	1
18	ASSKTSGRITDTQY	8	5
19	ASSKTSGRITDTQY	8	1
14	ASSASYEQY	12	2899
8	ASSASYEQY	12	1
14	ASSDYYEQY	12	11
43	ASSDYYEQY	12	3
37	ASSDYYEQY	12	961
29	ASSLGDRGETQY	10	1
37	ASSLGDRGETQY	10	4
42	ASSLGDRGETQY	10	1275
4	ASSLGDRGETQY	10	2
7	ASSVSSGSTDTQY	8	1
44	ASSVSSGSTDTQY	8	1679
4	ASSQGYRGTKNIQY	9	1
43	ASSQGYRGTKNIQY	9	6
29	ASSQGYRGTKNIQY	9	1
38	ASSQGYRGTKNIQY	9	3
42	ASSQGYRGTKNIQY	9	6342
37	ASSQGYRGTKNIQY	9	13
19	ASSLVQGSYNEQF	6	1
26	ASSLVQGSYNEQF	6	476
14	ASSLATELAASSYEQY	12	1
43	ASSLATELAASSYEQY	12	1
42	ASSLATELAASSYEQY	12	365
27	ASSSTRDSETQY	10	1
29	ASSSTRDSETQY	10	6699
28	ASSSTRDSETQY	10	5
42	ASSSTRDSETQY	10	1
42	VSSLLGQIPTDTQY	8	2987
37	VSSLLGQIPTDTQY	8	14
38	ASSSFRLAGAADTQY	8	3
4	ASSSFRLAGAADTQY	8	3
5	ASSSFRLAGAADTQY	8	1
43	ASSSFRLAGAADTQY	8	1
37	ASSSFRLAGAADTQY	8	1803
42	ASSSFRLAGAADTQY	8	1
19	ASSSGGLAKNIQY	9	83
26	ASSSGGLAKNIQY	9	4
19	ASSPAGSGNTIY	2	2
43	ASSPAGSGNTIY	2	50
44	ASSLGRGEQF	6	4
27	ASSLGRGEQF	6	341
29	ASSLSGGSTDTQY	8	1140
27	ASSLSGGSTDTQY	8	2
28	ASSLSGGSTDTQY	8	1
14	ASSGDRRETQY	10	5791
42	ASSGDRRETQY	10	1
34	ASRTGSYEQY	12	4808
6	ASRTGSYEQY	12	1
31	ASRTGSYEQY	12	23
33	ASRTGSYEQY	12	10
32	ASRTGSYEQY	12	1
5	ASSRYRYTDTQY	8	9
28	ASSRYRYTDTQY	8	1
38	ASSFKGSYEQY	12	2
43	ASSFKGSYEQY	12	3
42	ASSFKGSYEQY	12	1645
37	ASSFKGSYEQY	12	2
4	ASSLGPGNEQF	6	1
14	ASSLGPGNEQF	6	3
6	ASSLGPGNEQF	6	1
21	ASSLGPGNEQF	6	2
8	ASSLGPGNEQF	6	10402
17	ASSDSGDNSPLH	5	1362
4	ASSDSGDNSPLH	5	1
14	ASSHPGKPYEQY	12	1
6	ASSHPGKPYEQY	12	8
4	ASSLVYSTGGSYNEQF	6	293
5	ASSLVYSTGGSYNEQF	6	5
25	ASSQDLGSPPGEQY	12	1
23	ASSQDLGSPPGEQY	12	1086
43	ASSADISSYEQY	12	1
12	ASSADISSYEQY	12	3751
38	ASSFGLAGETQY	10	1
42	ASSFGLAGETQY	10	1
37	ASSFGLAGETQY	10	1
28	ASSFGLAGETQY	10	2
43	ASSFGLAGETQY	10	2525
4	ATARQSSYNEQF	6	1
13	ATARQSSYNEQF	6	1384
26	ASSLTGTGLYEQY	12	4907
28	ASSLTGTGLYEQY	12	1
18	AISEGTSGVTDTQY	8	1
32	AISEGTSGVTDTQY	8	5
36	AISEGTSGVTDTQY	8	4
2	AISEGTSGVTDTQY	8	6875
35	AISEGTSGVTDTQY	8	4
31	ASSYESRGTYEQY	12	852
34	ASSYESRGTYEQY	12	1
7	ASSWGGGIQY	9	5
6	ASSWGGGIQY	9	8155
19	ASSWGGGIQY	9	1
34	ASESRGRGEETQY	10	2
33	ASESRGRGEETQY	10	1
31	ASESRGRGEETQY	10	224
38	ASSLGGSGGYNEQF	6	4
37	ASSLGGSGGYNEQF	6	1
31	ASRYTSSYNEQF	6	1
33	ASRYTSSYNEQF	6	240
37	VSSLLSVKGNNEQF	6	1
43	VSSLLSVKGNNEQF	6	14
37	ASSLVVGRPDEQF	6	4866
43	ASSLVVGRPDEQF	6	7
42	ASSLVVGRPDEQF	6	10
5	ASSLVVGRPDEQF	6	1
4	ASSLVVGRPDEQF	6	5
43	ASSLALSGGMTGEETQY	10	2
4	ASSLALSGGMTGEETQY	10	1819
37	ASSLALSGGMTGEETQY	10	3
14	ATSEGDRGQETQY	10	4
10	ATSEGDRGQETQY	10	2640
19	ASSFSGRWNEQF	6	1
18	ASSFSGRWNEQF	6	768
34	ASSPQGAEIEQY	12	4113
6	ASSPQGAEIEQY	12	1
32	ASSPQGAEIEQY	12	2
31	ASSPQGAEIEQY	12	19
33	ASSPQGAEIEQY	12	10
35	ASSYRGGSSYEQY	12	2
32	ASSYRGGSSYEQY	12	1
33	ASSYRGGSSYEQY	12	1124
31	ASSYGDRSNEQY	12	3
6	ASSYGDRSNEQY	12	1
34	ASSYGDRSNEQY	12	921
33	ASSYGDRSNEQY	12	2
32	ASSYGDRSNEQY	12	1
2	AISDRREQY	12	2495
35	AISDRREQY	12	1
32	AISDRREQY	12	2
31	AISDRREQY	12	2
36	AISDRREQY	12	3
42	ASSSGRADTQY	8	4
38	ASSSGRADTQY	8	1
33	AIRAMGERNEQY	12	1
2	AIRAMGERNEQY	12	1495
42	ASSPSGGRGVQDTQY	8	2
38	ASSPSGGRGVQDTQY	8	2780
43	ASSPSGGRGVQDTQY	8	7
37	ASSPSGGRGVQDTQY	8	5
4	ASSFGLARHEQY	12	3
5	ASSFGLARHEQY	12	1
37	ASSFGLARHEQY	12	1897
43	ASSFGLARHEQY	12	7
42	ASSFGLARHEQY	12	4
1	AISESMAASGNNEQF	6	1
36	AISESMAASGNNEQF	6	7
32	AISESMAASGNNEQF	6	5
2	AISESMAASGNNEQF	6	5710
43	ASRRTASGTQY	8	195
4	ASRRTASGTQY	8	1
28	ASRRTASGTQY	8	1
43	ASSLDSGVQGTQY	8	2
37	ASSLDSGVQGTQY	8	232
4	ASSLDSGVQGTQY	8	1
31	ASSYSMGTYEQY	12	1319
33	ASSYSMGTYEQY	12	2
28	ASSILGDRSYEQY	12	2
43	ASSILGDRSYEQY	12	651
6	ASETGSVQETQY	10	1
31	ASETGSVQETQY	10	579
32	ASETGSVQETQY	10	1
31	ATLATGNYEQY	12	1
33	ATLATGNYEQY	12	1
43	ASSLWGGSSSYEQY	12	167
40	ASSLWGGSSSYEQY	12	1
43	ASSSGQGTGANVLT	11	1
40	ASSSGQGTGANVLT	11	153
32	ASSELGSSTDTQY	8	4
31	ASSELGSSTDTQY	8	1263
18	ASSLGSGGTDTQY	8	457
19	ASSLGSGGTDTQY	8	1
43	ASSLGPGGAANYGYT	1	3
37	ASSLGPGGAANYGYT	1	168
43	ASSLVYGTEGSYNEQF	6	1
4	ASSLVYGTEGSYNEQF	6	120
4	ASSLDPSGKETQY	10	1414
5	ASSLDPSGKETQY	10	2
37	ASSLDPSGKETQY	10	4
26	ASSLAGNEQF	6	1
43	ASSLAGNEQF	6	5
19	ASSLAGNEQF	6	25
29	ASSPPLWGTDTQY	8	175
38	ASSPPLWGTDTQY	8	1
13	ASSFLEVGKNIQY	9	2526
19	ASSFLEVGKNIQY	9	1
30	ASSLLFSAGVSYEQY	12	1
28	ASSLLFSAGVSYEQY	12	745
4	ASSRTGGRGTQY	10	3
34	ASSRTGGRGTQY	10	10
3	ASARGFTDTQY	8	1
40	ASARGFTDTQY	8	1
42	ASARGFTDTQY	8	2
37	ASARGFTDTQY	8	4
43	ASARGFTDTQY	8	2428
25	ASSQDMSGRTEAF	0	1
23	ASSQDMSGRTEAF	0	1
24	ASSQDMSGRTEAF	0	671
31	ASSVGQKETQY	10	2935
34	ASSVGQKETQY	10	4
32	ASSVGQKETQY	10	3
33	ASSVGQKETQY	10	6
2	ASSVGQKETQY	10	1
6	ASSAFRGRSYEQY	12	6912
43	ASSAFRGRSYEQY	12	1
37	ASSAFRGRSYEQY	12	1
7	ASSAFRGRSYEQY	12	4
6	ASSLGWGNEQF	6	1
19	ASSLGWGNEQF	6	7668
40	ASSLGWGNEQF	6	1
19	ASSLATGLAASSYEQY	12	1
6	ASSLATGLAASSYEQY	12	2
40	ASSLATGLAASSYEQY	12	2
27	ASSLATGLAASSYEQY	12	3
4	ASSLATGLAASSYEQY	12	29
43	ASSLATGLAASSYEQY	12	72
38	ASSLATGLAASSYEQY	12	41
42	ASSLATGLAASSYEQY	12	84345
37	ASSLATGLAASSYEQY	12	194
9	ASSLATGLAASSYEQY	12	1
19	ASSQVGTYEQY	12	8
21	ASSQVGTYEQY	12	3
13	ASSSRDRGRGFLYEQY	12	6899
43	ASSSRDRGRGFLYEQY	12	1
37	ASSSVYTDTQY	8	1
43	ASSSVYTDTQY	8	152
43	ASSLTYALSGSHNEQF	6	3761
40	ASSLTYALSGSHNEQF	6	1
38	ASSLTYALSGSHNEQF	6	2
28	ASSLTYALSGSHNEQF	6	4
42	ASSLTYALSGSHNEQF	6	2
37	ASSLTYALSGSHNEQF	6	5
42	ASSLVYGAGGSYNEQF	6	1
4	ASSLVYGAGGSYNEQF	6	765
6	ASSLRGNEQF	6	2241
19	ASSLRGNEQF	6	2
7	ASSLRGNEQF	6	2
14	ASSNYYEQY	12	1
37	ASSNYYEQY	12	1
25	ASSQSGTWDEQY	12	1
23	ASSQSGTWDEQY	12	322
38	ASSSQGSIGRASEQF	6	1
37	ASSSQGSIGRASEQF	6	1
23	ASSLAANSETQY	10	2166
25	ASSLAANSETQY	10	3
26	ASIGWGQGINEQF	6	3
21	ASIGWGQGINEQF	6	1
42	ASSLAAGLAASSYEQY	12	337
37	ASSLAAGLAASSYEQY	12	1
6	ASTLGHSNEQF	6	1793
31	ASTLGHSNEQF	6	1
18	ASTLGHSNEQF	6	1
42	ASSPTTGAYEQY	12	1
43	ASSPTTGAYEQY	12	30
42	ASSLRWSGDTQY	8	1
37	ASSLRWSGDTQY	8	37
19	ASSLGLAGAYNEQF	6	1
43	ASSLGLAGAYNEQF	6	13426
28	ASSLGLAGAYNEQF	6	2
42	ASSLGLAGAYNEQF	6	9
24	ASSLGLAGAYNEQF	6	1
40	ASSLGLAGAYNEQF	6	3
38	ASSLGLAGAYNEQF	6	3
3	ASSLGLAGAYNEQF	6	2
5	ASSLGLAGAYNEQF	6	1
18	ASSLGLAGAYNEQF	6	1
29	ASSLGLAGAYNEQF	6	1
37	ASSLGLAGAYNEQF	6	22
21	ASSRLAAYNEQF	6	3237
4	ASSRLAAYNEQF	6	1
4	ASSPYAISGNTIY	2	1
37	ASSPYAISGNTIY	2	9
19	ASSVLGNEQF	6	4
2	ASSVLGNEQF	6	1
18	ASSVLGNEQF	6	21491
42	ASSVLGNEQF	6	1
33	ASSVLGNEQF	6	1
5	ASSVDRVGQRTKEETQY	10	9
4	ASSVDRVGQRTKEETQY	10	4050
43	ASSVDRVGQRTKEETQY	10	1
42	ASSVDRVGQRTKEETQY	10	1
37	ASSVDRVGQRTKEETQY	10	3
37	ASSSGRHEQF	6	1
4	ASSSGRHEQF	6	5
43	ASSSGRHEQF	6	1
5	ASSSGRHEQF	6	605
19	ASSSGRHEQF	6	1
28	ASSSGRHEQF	6	1
18	ASSVGLAWNQETQY	10	1
1	ASSVGLAWNQETQY	10	4
36	ASSVGLAWNQETQY	10	1
35	ASSVGLAWNQETQY	10	4
14	ASREGAYEQY	12	3299
8	ASREGAYEQY	12	1
33	ASGGANQETQY	10	100
34	ASGGANQETQY	10	1
35	ASGGANQETQY	10	3
19	ASSLLGNEQF	6	6
18	ASSLLGNEQF	6	25
36	ASFGTDVFLAKNIQY	9	15
35	ASFGTDVFLAKNIQY	9	8
1	ASFGTDVFLAKNIQY	9	1
43	ASSLRVSSYNEQF	6	2
29	ASSLRVSSYNEQF	6	6
30	ASSLRVSSYNEQF	6	3
23	ASSLRVSSYNEQF	6	1
8	ASSLRVSSYNEQF	6	1
27	ASSLRVSSYNEQF	6	3
28	ASSLRVSSYNEQF	6	6259
43	ASRPPGTEQF	6	1
42	ASRPPGTEQF	6	1
19	ASSFLETQY	10	4838
33	ASSFLETQY	10	1
31	ATGRAANTGELF	7	210
34	ATGRAANTGELF	7	1
35	ASSRRDSGYEQY	12	1
34	ASSRRDSGYEQY	12	1560
32	ASSRRDSGYEQY	12	4
36	ASSRRDSGYEQY	12	1
31	ASSRRDSGYEQY	12	6
33	ASSRRDSGYEQY	12	5
21	ASSSWGGITDTQY	8	1
40	ASSSWGGITDTQY	8	1
42	ASSSWGGITDTQY	8	15
43	ASSSWGGITDTQY	8	18
5	ASSSWGGITDTQY	8	1
37	ASSSWGGITDTQY	8	9213
4	ASSSWGGITDTQY	8	10
38	ASSSWGGITDTQY	8	3
31	ASSPLGLAGIEQF	6	1266
33	ASSPLGLAGIEQF	6	3
19	ASSPLGLAGIEQF	6	1
37	ASSFWTSGETQY	10	4
5	ASSFWTSGETQY	10	2
43	ASSFWTSGETQY	10	2
4	ASSFWTSGETQY	10	2311
29	ASSFWTSGETQY	10	1
43	ASSSRGGTYEQY	12	4
42	ASSSRGGTYEQY	12	1
37	ASSSRGGTYEQY	12	1173
4	ASSSRGGTYEQY	12	1
19	ASSSRGGTYEQY	12	1
25	ASSPTGYNEQF	6	6
26	ASSPTGYNEQF	6	2192
34	ASSYGLGKTGELF	7	73
33	ASSYGLGKTGELF	7	1
27	ASSFGDTQY	8	1
6	ASSFGDTQY	8	1
40	ASSARDTGTQY	8	1
43	ASSARDTGTQY	8	477
32	AIKRGEGSSGNTIY	7	3
35	AIKRGEGSSGNTIY	7	1
2	AIKRGEGSSGNTIY	7	2727
8	ASSLEARSGEQF	6	1
6	ASSLEARSGEQF	6	2646
42	ASSYYTDTQY	8	2
43	ASSYYTDTQY	8	1
37	ASSYYTDTQY	8	24
19	ASSSRDRVSYNEQF	6	2
18	ASSSRDRVSYNEQF	6	4685
9	ASSKGGTSGVSYNEQF	6	1
6	ASSKGGTSGVSYNEQF	6	1
32	ASSKGGTSGVSYNEQF	6	1
7	ASNTLGTDTQY	8	3
6	ASNTLGTDTQY	8	3533
18	ASNTLGTDTQY	8	1
18	ASTPGRGRGNIQY	9	1
14	ASTPGRGRGNIQY	9	2181
18	ASSAGAGSFTDTQY	8	202
19	ASSAGAGSFTDTQY	8	1
15	SVDPGQGRNEQY	12	1
20	SVDPGQGRNEQY	12	16052
42	ASERLSGEARGDTQY	8	5
43	ASERLSGEARGDTQY	8	1
36	ASRRDSKTVNTDTQY	8	1
32	ASRRDSKTVNTDTQY	8	1
35	ASRRDSKTVNTDTQY	8	4
2	ASRRDSKTVNTDTQY	8	1
8	ASRGGGETQY	10	2
44	ASRGGGETQY	10	9511
32	AISKDSQQETQY	10	1
2	AISKDSQQETQY	10	5
33	ATGTSGVGTGELF	7	1
31	ATGTSGVGTGELF	7	88
10	ATSREASGSVDTQY	8	888
14	ATSREASGSVDTQY	8	1
14	ASSETSGEQETQY	10	4251
8	ASSETSGEQETQY	10	1
43	ASSPVGLAGVGEQY	12	1
41	ASSPVGLAGVGEQY	12	44
34	ASSLGVEQF	6	1
31	ASSLGVEQF	6	1
6	ASSLGVEQF	6	10220
7	ASSLGVEQF	6	4
37	ASSSRGGAYEQY	12	1
33	ASSSRGGAYEQY	12	3
35	ASSGLDRGGTDTQY	8	8
32	ASSGLDRGGTDTQY	8	3
6	ASSGLDRGGTDTQY	8	2
1	ASSGLDRGGTDTQY	8	2
36	ASSGLDRGGTDTQY	8	2
43	ASSPRDFTDTQY	8	31
38	ASSPRDFTDTQY	8	1
21	ASSRGQGETQY	10	1
38	ASSRGQGETQY	10	2
28	ASSRGQGETQY	10	3
43	ASSRGQGETQY	10	4815
37	ASSRGQGETQY	10	2
42	ASSRGQGETQY	10	2
31	ASSFSQGLREQY	12	1
19	ASSFSQGLREQY	12	773
42	ASSVAPGPLYEQY	12	1
21	ASSVAPGPLYEQY	12	1
44	ASSVAPGPLYEQY	12	3335
43	ASRSWTSQGETQY	10	3913
30	ASRSWTSQGETQY	10	1
37	ASRSWTSQGETQY	10	4
42	ASRSWTSQGETQY	10	1
4	ASSPSGTGVAKNIQY	9	286
5	ASSPSGTGVAKNIQY	9	3
43	ASSMDRGSSYEQY	12	1
41	ASSMDRGSSYEQY	12	2
18	ASSLEGGRETQY	10	2
27	ASSLEGGRETQY	10	9
43	ASSLEGGRETQY	10	5
29	ASSLEGGRETQY	10	7
28	ASSLEGGRETQY	10	9594
25	ASSLEGGRETQY	10	3
30	ASSLEGGRETQY	10	15
42	ASSTGTGFETQY	10	3
37	ASSTGTGFETQY	10	1038
38	ASSTGTGFETQY	10	1
6	ASSLTASGDNEQF	6	8872
33	ASSLTASGDNEQF	6	1
7	ASSLTASGDNEQF	6	4
38	ASSSTGIHSYEQY	12	2
42	ASSSTGIHSYEQY	12	12
37	ASSSTGIHSYEQY	12	3359
43	ASSSTGIHSYEQY	12	8
19	ASSRRQNSYNEQF	6	20296
18	ASSRRQNSYNEQF	6	1
37	ASSLMGASTDTQY	8	1
38	ASSLMGASTDTQY	8	57
3	ASSQGDRTRNEQF	6	140
4	ASSQGDRTRNEQF	6	1
21	ASSLTNEQF	6	4
19	ASSLTNEQF	6	77
4	ASSGGQGFQETQY	10	1
19	ASSGGQGFQETQY	10	9681
31	ASSGGQGFQETQY	10	1
18	ASSGGQGFQETQY	10	1
35	ASSYSGTGPQGTYEQY	12	9
32	ASSYSGTGPQGTYEQY	12	2
1	ASSYSGTGPQGTYEQY	12	1
6	ASSLGSSYNSPLH	5	4
19	ASSLGSSYNSPLH	5	423
6	ASSFPFGEQY	12	7209
19	ASSFPFGEQY	12	1
35	AISVNDNEQF	6	1
19	AISVNDNEQF	6	1
2	AISVNDNEQF	6	570
42	ASSLVALGETQY	10	2446
37	ASSLVALGETQY	10	10
43	ASSLVALGETQY	10	2
4	ASSLVALGETQY	10	3
38	ASSLVALGETQY	10	1
31	ASSSYNEQF	6	39
14	ASSSYNEQF	6	2
26	ASSQGRGSGNTIY	2	1
19	ASSQGRGSGNTIY	2	1
16	ATSAASGSRNEQF	6	8688
18	ATSAASGSRNEQF	6	1
6	ASSLVAGGPYNEQF	6	1
42	ASSLVAGGPYNEQF	6	9
28	ASSLVAGGPYNEQF	6	6
5	ASSLVAGGPYNEQF	6	2
43	ASSLVAGGPYNEQF	6	12321
4	ASSLVAGGPYNEQF	6	2
38	ASSLVAGGPYNEQF	6	2
37	ASSLVAGGPYNEQF	6	10
1	ASSLVAGGPYNEQF	6	1
40	ASSLVAGGPYNEQF	6	2
3	ASSLVAGGPYNEQF	6	1
26	ASSLNRGEQF	6	3
43	ASSLNRGEQF	6	17
37	ASSLDLTNEQF	6	1
30	ASSLDLTNEQF	6	1
27	ASSLDLTNEQF	6	1425
36	AISTSPHTDTQY	8	1
2	AISTSPHTDTQY	8	1558
43	ASSFLLAAASTDTQY	8	1
42	ASSFLLAAASTDTQY	8	38
37	ASSPRLAPTDTQY	8	1
42	ASSPRLAPTDTQY	8	10
18	ASSFPPQGETYEQY	12	740
19	ASSFPPQGETYEQY	12	1
6	ASSPTGVNEQF	6	1
21	ASSPTGVNEQF	6	120
35	ASSLTSGRYNEQF	6	1
33	ASSLTSGRYNEQF	6	8
32	ASSYRYTYEQY	12	4
31	ASSYRYTYEQY	12	1588
33	ASSYRYTYEQY	12	4
8	ASSRSSGNNEQF	6	1
14	ASSRSSGNNEQF	6	1320
35	ASRGLGQGLYNEQF	6	3
36	ASRGLGQGLYNEQF	6	2
7	ASGAGVSTDTQY	8	16
6	ASGAGVSTDTQY	8	1
34	ASSYRGTQETQY	10	8
32	ASSYRGTQETQY	10	28
19	ASSYRGTQETQY	10	1
31	ASSYRGTQETQY	10	8279
35	ASSYRGTQETQY	10	1
33	ASSYRGTQETQY	10	10
37	ASSLGSGGGVAKNIQY	9	391
43	ASSLGSGGGVAKNIQY	9	2
31	ASSLLREQY	12	2374
33	ASSLLREQY	12	4
32	ASSLLREQY	12	1
34	ASSLLREQY	12	5
4	ASSLVYGTGGAYNEQF	6	69
37	ASSLVYGTGGAYNEQF	6	1
26	ASSLAGTGEYEQY	12	963
42	ASSLAGTGEYEQY	12	1
27	ASSSGRAYNEQF	6	1
26	ASSSGRAYNEQF	6	18380
42	ASSSGRAYNEQF	6	1
34	ASRIGQGSEQY	12	1
33	ASRIGQGSEQY	12	112
27	ASSLPHEQL	6	1
29	ASSLPHEQL	6	22
37	ASSLGTSGETQY	8	2
42	ASSLGTSGETQY	8	1
31	AISGQVLAKNIQY	9	3
2	AISGQVLAKNIQY	9	1
43	ASSLGRGTEAF	0	99
28	ASSLGRGTEAF	0	1
31	ASGAKLYEQY	12	2
35	ASGAKLYEQY	12	1
33	ASGAKLYEQY	12	671
9	ASSPRSYNEQF	6	1
29	ASSPRSYNEQF	6	1
37	ASSPRSYNEQF	6	5
4	ASSPRSYNEQF	6	9607
5	ASSPRSYNEQF	6	18
42	ASSPRSYNEQF	6	2
28	ASSPRSYNEQF	6	1
38	ASSPRSYNEQF	6	1
4	ASSRIVGLPMAYEQF	6	1
37	ASSRIVGLPMAYEQF	6	778
42	ASSRIVGLPMAYEQF	6	3
6	ASSLAGGSDTQY	8	1
19	ASSLAGGSDTQY	8	2924
31	ASSKRDSYNEQF	6	8
3	ASSKRDSYNEQF	6	1
24	ASSPDSGGGEQY	12	6
25	ASSPDSGGGEQY	12	1
19	ASSSAGTDTQY	8	49
41	ASSSAGTDTQY	8	1
19	ASSSPDRSLAKNIQY	9	7279
35	ASSSPDRSLAKNIQY	9	1
37	ASRPGQPVQETQY	10	156
42	ASRPGQPVQETQY	10	1
34	ASSYSKSYNEQF	6	19
6	ASSYSKSYNEQF	6	2
33	ASSYSKSYNEQF	6	29
32	ASSYSKSYNEQF	6	10
18	ASSYSKSYNEQF	6	1
2	ASSYSKSYNEQF	6	1
14	ASSYSKSYNEQF	6	1
31	ASSYSKSYNEQF	6	14396
42	ASSLPPRLGYEQY	12	1
43	ASSLPPRLGYEQY	12	1304
35	AISGLAGANQETQY	10	2
2	AISGLAGANQETQY	10	9346
36	AISGLAGANQETQY	10	5
32	AISGLAGANQETQY	10	8
13	ASSPRTAQETQY	10	1
33	ASSPRTAQETQY	10	1
43	ASSDTGLDTQY	8	1
37	ASSDTGLDTQY	8	123
18	ASSPYFQPSYEQY	12	1
6	ASSPYFQPSYEQY	12	40
35	ASSPAGLAGANEQF	6	1
36	ASSPAGLAGANEQF	6	3
1	ASSPAGLAGANEQF	6	1
32	ASSPAGLAGANEQF	6	3
42	ASSLVGGFSADTQY	8	1
37	ASSLVGGFSADTQY	8	9
32	ASSSAPMTSPAYEQY	12	2
36	ASSSAPMTSPAYEQY	12	1
35	ASSSAPMTSPAYEQY	12	3
1	ASSSAPMTSPAYEQY	12	4
37	ASSLVAGGSSGNEQF	6	614
43	ASSLVAGGSSGNEQF	6	1
28	ASSLVAGGSSGNEQF	6	1
12	ASSQQRQETQY	10	1
43	ASSQQRQETQY	10	1
42	ASSSIRGPTDTQY	8	1
4	ASSSIRGPTDTQY	8	46
36	ASSYLLAGGPSIAKNIQY	9	3
32	ASSYLLAGGPSIAKNIQY	9	2
43	ASSLEALPKYNEQF	6	42
38	ASSLEALPKYNEQF	6	5
41	ASSLEALPKYNEQF	6	46
42	ASSLEALPKYNEQF	6	4
4	ASSLEALPKYNEQF	6	1
14	ASSLEALPKYNEQF	6	1
37	ASSLEALPKYNEQF	6	22
40	ASSLEALPKYNEQF	6	27726
6	ASRGERLAGETQY	10	2777
7	ASRGERLAGETQY	10	3
21	ASRGERLAGETQY	10	1
19	ASTPGTAQETQY	10	3961
33	ASTPGTAQETQY	10	1
31	ASPKRDYSYNEQF	6	22
32	ASPKRDYSYNEQF	6	7
33	ASPKRDYSYNEQF	6	11169
34	ASPKRDYSYNEQF	6	22
35	ASPKRDYSYNEQF	6	7
6	ASPKRDYSYNEQF	6	1
19	ASSLTGSGNTIY	2	7
43	ASSLTGSGNTIY	2	6
31	ASSPGQGLSYEQY	12	945
32	ASSPGQGLSYEQY	12	1
26	ASSPGQGLSYEQY	12	1
33	ASSPGQGLSYEQY	12	1
30	ASSPEAGYNEQF	6	1
24	ASSPEAGYNEQF	6	9
38	ASSLSTGAAGNTIY	2	2
4	ASSLSTGAAGNTIY	2	2
21	ASSLSTGAAGNTIY	2	1
37	ASSLSTGAAGNTIY	2	5005
43	ASSLSTGAAGNTIY	2	7
42	ASSLSTGAAGNTIY	2	13
34	ASSDDGRTTDTQY	8	1
35	ASSDDGRTTDTQY	8	2
31	ASSDDGRTTDTQY	8	317
35	ASSQKGGPVETQY	10	1
33	ASSQKGGPVETQY	10	2275
31	ASSQKGGPVETQY	10	5
32	ASSQKGGPVETQY	10	2
34	ASSQKGGPVETQY	10	3
38	ASSLGSTYTYSEQF	6	14
37	ASSLGSTYTYSEQF	6	1
2	AISESSAPSREQY	12	2835
36	AISESSAPSREQY	12	2
35	AISESSAPSREQY	12	30
37	ASSSMTSLDTQY	8	1
42	ASSSMTSLDTQY	8	4
33	ASSERTASTDTQY	8	3
34	ASSERTASTDTQY	8	2
32	ASSERTASTDTQY	8	1
2	ASSERTASTDTQY	8	2
35	ASSERTASTDTQY	8	1
31	ASSERTASTDTQY	8	1095
38	ASSLARGLAASSYEQY	12	1
42	ASSLARGLAASSYEQY	12	32
0	ASSEQQGNPYEQY	12	2037
36	ASSEQQGNPYEQY	12	4
37	ASSLTGISGNTIY	2	992
42	ASSLTGISGNTIY	2	1
37	ASSLLGREQY	12	3
19	ASSLLGREQY	12	25
25	ASSPFWTSGRAFSYNEQF	6	1
23	ASSPFWTSGRAFSYNEQF	6	537
5	ASSLALAGRPGNEQF	6	1
37	ASSLALAGRPGNEQF	6	5921
42	ASSLALAGRPGNEQF	6	9
38	ASSLALAGRPGNEQF	6	4
43	ASSLALAGRPGNEQF	6	4
40	ASSLALAGRPGNEQF	6	2
4	ASSLALAGRPGNEQF	6	6
30	ASSRTSLAGVTDTQY	8	5
28	ASSRTSLAGVTDTQY	8	1
29	ASSRTSLAGVTDTQY	8	1
27	ASSRTSLAGVTDTQY	8	5388
42	ASSRTSLAGVTDTQY	8	1
4	ASSRTSLAGVTDTQY	8	4
43	ASSFQGARNEQF	6	2
37	ASSFQGARNEQF	6	2
4	ASSFQGARNEQF	6	7
28	ASSFQGARNEQF	6	1
5	ASSFQGARNEQF	6	1605
32	ASSGQVLAKNIQY	9	10
31	ASSGQVLAKNIQY	9	9205
33	ASSGQVLAKNIQY	9	13
34	ASSGQVLAKNIQY	9	19
35	ASSGQVLAKNIQY	9	3
6	ASSLRQGRYNEQF	6	1817
7	ASSLRQGRYNEQF	6	3
6	ASSLFNTGIEQY	12	422
34	ASSLFNTGIEQY	12	1
30	ASSQEREAGRDTQY	8	2
24	ASSQEREAGRDTQY	8	530
25	ASSQEREAGRDTQY	8	1
19	ASSQIGRGPYNEQF	6	1
9	ASSQIGRGPYNEQF	6	2531
29	ASSPPTGSYEQY	12	1
43	ASSPPTGSYEQY	12	64
4	ASSLLADTQY	8	1
43	ASSLLADTQY	8	1
37	ASSLLADTQY	8	1381
29	ASSRRQGNNEQF	6	1819
27	ASSRRQGNNEQF	6	2
37	ASSRRQGNNEQF	6	1
0	ASSGEGVTDTQY	8	46
31	ASSGEGVTDTQY	8	1
18	ASTPQDDNEQF	6	471
19	ASTPQDDNEQF	6	1
27	ASSVEYNEQF	6	5
14	ASSVEYNEQF	6	2
31	ASRRTGNSETQY	10	804
33	ASRRTGNSETQY	10	1
35	AIKTSGSDEQY	12	1
2	AIKTSGSDEQY	12	1652
18	ASSVVGNEQF	6	9
19	ASSVVGNEQF	6	3
7	ASSDGGAGETQY	10	1
6	ASSDGGAGETQY	10	2
32	AISRENEQF	6	1
2	AISRENEQF	6	3499
31	AISRENEQF	6	1
31	ASTPDGLAGNEQF	6	1
21	ASTPDGLAGNEQF	6	4
6	ASTPDGLAGNEQF	6	20973
7	ASTPDGLAGNEQF	6	8
43	ASSFPDTYEQY	12	579
37	ASSFPDTYEQY	12	1
43	ASSLGGHYNEQF	6	1
18	ASSLGGHYNEQF	6	13
33	ASSSGQGGFEQY	6	150
31	ASSSGQGGFEQY	6	1
33	AISRSGSGEGTQY	10	1
31	AISRSGSGEGTQY	10	1
25	ASSQGLAGFSDTQY	8	5
23	ASSQGLAGFSDTQY	8	2575
44	ASSVATGGYEQY	12	382
4	ASSVATGGYEQY	12	1
4	ASSIWTSGGSTDTQY	8	629
5	ASSIWTSGGSTDTQY	8	1
37	ASSTRDYGPGEQY	12	9228
17	ASSTRDYGPGEQY	12	1
42	ASSTRDYGPGEQY	12	4
40	ASSTRDYGPGEQY	12	1
38	ASSTRDYGPGEQY	12	4
43	ASSTRDYGPGEQY	12	15
4	ASSTRDYGPGEQY	12	3
5	ASSTRDYGPGEQY	12	2
34	ASSLPGADTQY	8	1
27	ASSLPGADTQY	8	3
18	ASSLRGSGYEQY	12	44
8	ASSLRGSGYEQY	12	1
31	ASSFRGGEYNEQF	6	2412
32	ASSFRGGEYNEQF	6	5
35	ASSFRGGEYNEQF	6	2
34	ASSFRGGEYNEQF	6	2
18	ASSFRGGEYNEQF	6	2
33	ASSFRGGEYNEQF	6	5
18	ASSPGAYNEQF	6	138
12	ASSPGAYNEQF	6	1
34	ASSQGNIQY	9	1
33	ASSQGNIQY	9	3
31	ASSQGNIQY	9	915
42	ASSLGAGLISYEQY	12	2343
4	ASSLGAGLISYEQY	12	1
37	ASSLGAGLISYEQY	12	10
43	ASSLGAGLISYEQY	12	7
38	ASSLAGGNETQY	10	1
37	ASSLAGGNETQY	10	2
37	ASSLRLGGPANIQY	9	408
42	ASSLRLGGPANIQY	9	1
21	ASSRTGNEQY	12	1
7	ASSRTGNEQY	12	4
6	ASSRTGNEQY	12	4222
29	ASSLEDDEQF	6	2
6	ASSLEDDEQF	6	1
33	ASSRGLATDTQY	8	2
31	ASSRGLATDTQY	8	55
25	ASSQGSGTSRIDTQY	8	7
23	ASSQGSGTSRIDTQY	8	1539
4	ASSLVPGAFETQY	10	72
30	ASSLVPGAFETQY	10	1
6	ASSKAGVRMGTDTQY	8	3185
7	ASSKAGVRMGTDTQY	8	1
32	AISGREDTQY	8	19
35	AISGREDTQY	8	3
2	AISGREDTQY	8	12141
36	AISGREDTQY	8	5
31	AISGREDTQY	8	2
34	AISGREDTQY	8	2
28	ASSHRLAGTYEQY	12	1
40	ASSHRLAGTYEQY	12	1
43	ASSHRLAGTYEQY	12	472
28	ASTLRTAGSETQY	10	1
29	ASTLRTAGSETQY	10	3138
27	ASTLRTAGSETQY	10	4
43	ASTLRTAGSETQY	10	1
29	ASSLDRGTSGTYEQY	12	532
28	ASSLDRGTSGTYEQY	12	1
37	ASSSPGQGHGYT	1	1
43	ASSSPGQGHGYT	1	22
38	ASSPDHWNNEQF	6	1
37	ASSPDHWNNEQF	6	460
40	ASSPDHWNNEQF	6	1
43	ASSPDHWNNEQF	6	3
42	ASSPDHWNNEQF	6	3
37	ASSLKGAGSDTQY	8	4
42	ASSLKGAGSDTQY	8	1
37	ASSLSPRNEQF	6	2
38	ASSLSPRNEQF	6	2277
42	ASSLSPRNEQF	6	1
25	ASSHPGRDKRYEQY	12	5
23	ASSHPGRDKRYEQY	12	1690
32	AIREEKGTQY	10	3
35	AIREEKGTQY	10	1
2	AIREEKGTQY	10	3974
14	ASSGETSGGSYEQY	12	101
4	ASSGETSGGSYEQY	12	1
33	ASSGAGYNEQF	6	3617
2	ASSGAGYNEQF	6	1
34	ASSGAGYNEQF	6	3
31	ASSGAGYNEQF	6	18
7	ASSQVAGEQF	6	1
18	ASSQVAGEQF	6	1
21	ASSQVAGEQF	6	15450
25	ASSQDASQETQY	10	924
23	ASSQDASQETQY	10	2
30	ASSQDASQETQY	10	2
24	ASSQDASQETQY	10	1
4	ASSRDWAGANVLT	11	1
37	ASSRDWAGANVLT	11	119
26	ASSFLGAGVRNEQF	6	23030
29	ASSFLGAGVRNEQF	6	1
43	ASSLLGQIPTDTQY	8	8
4	ASSLLGQIPTDTQY	8	5
38	ASSLLGQIPTDTQY	8	8
42	ASSLLGQIPTDTQY	8	6300
37	ASSLLGQIPTDTQY	8	19
43	AIKVLAGQSSYNEQL	6	429
4	AIKVLAGQSSYNEQL	6	1
35	ASSYSIRTDKETQY	10	16
36	ASSYSIRTDKETQY	10	1
6	ASSRTGIVYNEQF	6	1
18	ASSRTGIVYNEQF	6	4897
43	ASSLGSYEQY	12	5
4	ASSLGSYEQY	12	5
42	ASSLGSYEQY	12	4948
37	ASSLGSYEQY	12	15
38	ASSLGSYEQY	12	3
4	ASSRTGGRETQY	10	483
33	ASSRTGGRETQY	10	5
5	ASSRTGGRETQY	10	2
31	ASSRTGGRETQY	10	2
34	ASSRTGGRETQY	10	1451
32	ASSRTGGRETQY	10	1
31	ASSYLGNEQY	12	1
33	ASSYLGNEQY	12	759
34	ASSYLGNEQY	12	2
30	ASSFGGVNEQF	6	1
27	ASSFGGVNEQF	6	154
28	ASSGEGGRETQY	10	1
13	ASSGEGGRETQY	10	1
26	ASSLSGGTYEQY	12	1
19	ASSLSGGTYEQY	12	16
30	ASSSTSGGFPIQETQY	10	1
29	ASSSTSGGFPIQETQY	10	2
28	ASSSTSGGFPIQETQY	10	2
27	ASSSTSGGFPIQETQY	10	683
31	AISESASQETQY	10	1
2	AISESASQETQY	10	6077
32	AISESASQETQY	10	3
37	ASSLVGHYNEQF	6	4
43	ASSLVGHYNEQF	6	2215
38	ASSLVGHYNEQF	6	3
40	ASSLVGHYNEQF	6	3
38	ASSLAQFNEQF	6	1
37	ASSLAQFNEQF	6	5
39	ASSLAQFNEQF	6	1
42	ASSLAQFNEQF	6	809
37	ASSPRRGRGDYEQY	12	4
42	ASSPRRGRGDYEQY	12	946
4	ASSLVYGTGGPHNEQF	6	3
5	ASSLVYGTGGPHNEQF	6	1
5	ASSQEGSYEQY	12	114
4	ASSQEGSYEQY	12	1
28	ASSFGGGRETQY	10	1
33	ASSFGGGRETQY	10	1
32	ASSYSKSYNEQL	6	2
31	ASSYSKSYNEQL	6	3820
34	ASSYSKSYNEQL	6	7
33	ASSYSKSYNEQL	6	3
31	ARTPGTAADTQY	8	5
34	ARTPGTAADTQY	8	1
29	ASSLVQETQY	10	2707
4	ASSLVQETQY	10	1
19	ASSSTSGAVRVDTQY	8	9045
14	ASSSTSGAVRVDTQY	8	1
24	ASSPPLFWGTDTQY	8	1
40	ASSPPLFWGTDTQY	8	1
4	ASSPPLFWGTDTQY	8	2
38	ASSPPLFWGTDTQY	8	1
43	ASSPPLFWGTDTQY	8	2641
37	ASSPPLFWGTDTQY	8	3
4	ASSLGSTYTYNEQF	6	2
37	ASSLGSTYTYNEQF	6	5
42	ASSLGSTYTYNEQF	6	6
19	ASSLGSTYTYNEQF	6	1
38	ASSLGSTYTYNEQF	6	6377
43	ASSLGSTYTYNEQF	6	5
8	ASSVKSPYREGAKNIQY	9	2
6	ASSVKSPYREGAKNIQY	9	2
14	ASSVKSPYREGAKNIQY	9	8150
31	ATWTRGQETQY	10	45
34	ATWTRGQETQY	10	19
2	ATWTRGQETQY	10	5
32	ATWTRGQETQY	10	13
33	ATWTRGQETQY	10	18899
36	ATWTRGQETQY	10	1
35	ATWTRGQETQY	10	8
27	ASSLESLGKETQY	10	107
4	ASSLESLGKETQY	10	1
37	ASLPGLAAGSYEQY	12	2
43	ASLPGLAAGSYEQY	12	1260
28	ASLPGLAAGSYEQY	12	1
40	ASLPGLAAGSYEQY	12	1
34	ASSMGLVDTDTQY	8	4
31	ASSMGLVDTDTQY	8	849
33	ASSMGLVDTDTQY	8	2
8	ASGTDTDTQY	8	1
14	ASGTDTDTQY	8	317
34	ASSYSGSGNTIY	2	2
31	ASSYSGSGNTIY	2	1423
32	ASSYSGSGNTIY	2	2
6	ASSYSGSGNTIY	2	1
33	ASSYSGSGNTIY	2	3
2	ASSLQETQY	10	1
31	ASSLQETQY	10	5631
33	ASSLQETQY	10	3
34	ASSLQETQY	10	6
32	ASSLQETQY	10	1
33	ASSRNGSGEGTQY	10	1
31	ASSRNGSGEGTQY	10	1
42	ASSLGVNTEQY	6	1
37	ASSLGVNTEQY	6	4
36	ASSQLSTDTVTDTQY	8	4
32	ASSQLSTDTVTDTQY	8	131
1	ASSQLSTDTVTDTQY	8	2
35	ASSQLSTDTVTDTQY	8	7
5	ASSSRQAKNIQY	9	1
4	ASSSRQAKNIQY	9	568
20	SVGLGYNSYNEQF	6	15283
15	SVGLGYNSYNEQF	6	1
19	ASSLSSGSAYEQY	12	183
37	ASSLSSGSAYEQY	12	2
33	ATRRDLLETQY	10	1
2	ATRRDLLETQY	10	49
43	ASSLKKGVWRGYNEQF	6	1693
38	ASSLKKGVWRGYNEQF	6	1
40	ASSLKKGVWRGYNEQF	6	1
37	ASSLKKGVWRGYNEQF	6	2
35	ASSSAGGWNIQY	9	1
2	ASSSAGGWNIQY	9	1
32	ASSSAGGWNIQY	9	13
31	ASSSAGGWNIQY	9	6191
33	ASSSAGGWNIQY	9	21
34	ASSSAGGWNIQY	9	9
5	ASSGTSGGFNEQF	6	1
37	ASSGTSGGFNEQF	6	5418
42	ASSGTSGGFNEQF	6	7
4	ASSGTSGGFNEQF	6	1
43	ASSGTSGGFNEQF	6	13
28	ASSGTSGGFNEQF	6	1
8	ASSPPWAGGGEQY	12	2
14	ASSPPWAGGGEQY	12	3021
43	ASRPRYNEQF	6	28
42	ASRPRYNEQF	6	25
29	ASRPRYNEQF	6	1
4	ASRPRYNEQF	6	5
5	ASRPRYNEQF	6	4
37	ASRPRYNEQF	6	12925
9	ASSQAGTASYEQY	12	392
6	ASSQAGTASYEQY	12	1
19	ASRPTGYEQY	12	7445
37	ASRPTGYEQY	12	1
34	ASSPGGTGNTIY	2	1605
31	ASSPGGTGNTIY	2	1
33	ASSPGGTGNTIY	2	2
19	ASKPQGAMIDTQY	8	3997
33	ASKPQGAMIDTQY	8	1
6	ASSLRSYEQY	12	1
42	ASSLRSYEQY	12	4
37	ASRPLYNEQF	6	9
6	ASRPLYNEQF	6	2
19	ASGLAGGSDTQY	8	9
6	ASGLAGGSDTQY	8	3
19	ASSSGAGGSHEQF	6	6293
14	ASSSGAGGSHEQF	6	1
0	ASSEGQGGSYEQY	12	1017
1	ASSEGQGGSYEQY	12	3
36	ASSEGQGGSYEQY	12	3
34	TSVPAGPDRTDTQY	8	1
35	TSVPAGPDRTDTQY	8	1
31	TSVPAGPDRTDTQY	8	3
33	TSVPAGPDRTDTQY	8	3919
35	ASSYSGSIGFREQY	12	1
32	ASSYSGSIGFREQY	12	1
37	ASSLSAGVRGTQY	8	1
43	ASSLSAGVRGTQY	8	1
43	ASSLRTDTQY	8	201
34	ASSLRTDTQY	8	1
18	ASSEDRGLYEQY	12	4111
19	ASSEDRGLYEQY	12	1
23	ASSPGTGAYEQY	12	490
43	ASSPGTGAYEQY	12	2
6	ASSPRQGANEQF	6	679
7	ASSPRQGANEQF	6	1
18	ASSEGGLGVETQY	10	1
8	ASSEGGLGVETQY	10	2
14	ASSEGGLGVETQY	10	11150
33	ASSFRGGSADTQY	8	1
19	ASSFRGGSADTQY	8	3
18	ASSFRGGSADTQY	8	13482
41	ASSLREGRNEQF	6	2
40	ASSLREGRNEQF	6	688
13	ASSLREGRNEQF	6	1
42	ASSLREGRNEQF	6	2
37	ASSPGTGTYEQY	12	3
12	ASSPGTGTYEQY	12	4
33	ASNKRESYNEQF	6	1
31	ASNKRESYNEQF	6	1
37	ASSLSVAGGLGNIQY	9	1202
4	ASSLSVAGGLGNIQY	9	2
43	ASSLSVAGGLGNIQY	9	5
42	ASSLSVAGGLGNIQY	9	1
40	ASSSGLTEQY	12	1
43	ASSSGLTEQY	12	1
21	ASSEGARGLNTIY	2	1
6	ASSEGARGLNTIY	2	1
31	ATAGQGAETQY	10	1
19	ATAGQGAETQY	10	6632
43	ASSLAGGKETQY	10	1
38	ASSLAGGKETQY	10	334
38	ASSQVRTDTQY	8	5518
21	ASSQVRTDTQY	8	1
37	ASSQVRTDTQY	8	3
42	ASSQVRTDTQY	8	3
43	ASSQVRTDTQY	8	3
2	AISESRQGSYEQY	12	311
35	AISESRQGSYEQY	12	1
33	ASSYRLDKDIQY	9	1
34	ASSYRLDKDIQY	9	21
38	ASSPGTILRNEQF	6	2
43	ASSPGTILRNEQF	6	8
4	ASSPGTILRNEQF	6	4
42	ASSPGTILRNEQF	6	11
37	ASSPGTILRNEQF	6	7035
19	ASSPGTILRNEQF	6	1
38	ASSFIAGFTDTQY	8	1
42	ASSFIAGFTDTQY	8	9
30	ASSFIAGFTDTQY	8	1
4	ASSFIAGFTDTQY	8	2
28	ASSFIAGFTDTQY	8	1
43	ASSFIAGFTDTQY	8	3
37	ASSFIAGFTDTQY	8	1804
42	ASSQGYRGAKNIQY	9	7
43	ASSQGYRGAKNIQY	9	1
31	ASSRALLGSYEQY	12	722
32	ASSRALLGSYEQY	12	3
33	ASSRALLGSYEQY	12	1
43	ASSRALLGSYEQY	12	1
34	ARSYRLDKNIQY	9	4
33	ARSYRLDKNIQY	9	1
43	ASSLGGTGRNTIY	2	210
40	ASSLGGTGRNTIY	2	1
35	ASSYSGSVGFREQY	12	72
32	ASSYSGSVGFREQY	12	16
1	ASSYSGSVGFREQY	12	99
6	ASSYSGSVGFREQY	12	1
36	ASSYSGSVGFREQY	12	22
21	ASSQSPGRGEQF	6	3808
42	ASSQSPGRGEQF	6	1
4	ASSQTGTGGNNEQF	6	5
38	ASSQTGTGGNNEQF	6	8983
5	ASSQTGTGGNNEQF	6	1
40	ASSQTGTGGNNEQF	6	2
37	ASSQTGTGGNNEQF	6	11
7	ASSQTGTGGNNEQF	6	1
43	ASSQTGTGGNNEQF	6	16
44	ASSQTGTGGNNEQF	6	1
42	ASSQTGTGGNNEQF	6	13
3	ASSQTGTGGNNEQF	6	1
7	ASSPPGGHEQY	12	4
18	ASSPPGGHEQY	12	1
6	ASSPPGGHEQY	12	4496
43	ASSLYTQETQY	10	1
19	ASSLYTQETQY	10	20709
4	ASSLYTQETQY	10	1
6	ASSDFAGVHPYNEQF	6	2
32	ASSDFAGVHPYNEQF	6	21182
35	ASSDFAGVHPYNEQF	6	5
14	ASSDFAGVHPYNEQF	6	1
1	ASSEFPYEQY	12	1121
2	ASSEFPYEQY	12	1
31	ASKRGLAVYNEQF	6	1315
34	ASKRGLAVYNEQF	6	17
8	ATKTNPAGTDTQY	8	1
14	ATKTNPAGTDTQY	8	306
18	ASSQGSSNEQF	6	1
21	ASSQGSSNEQF	6	3132
33	ASGRQSSNSPLH	5	2
34	ASGRQSSNSPLH	5	1
31	ASGRQSSNSPLH	5	647
6	ASSSYFQPSYEQY	12	10733
19	ASSSYFQPSYEQY	12	1
7	ASSSYFQPSYEQY	12	5
15	SVTVGLAGPYNEQF	6	2
20	SVTVGLAGPYNEQF	6	568590
32	ASPSSGQGRNEQF	6	1
33	ASPSSGQGRNEQF	6	1
1	ASGVGSSYNEQF	6	2758
31	ASGVGSSYNEQF	6	1
43	ASSSRTSGGNEQF	6	1
4	ASSSRTSGGNEQF	6	652
5	ASSSRTSGGNEQF	6	1
8	ASSLVQGVPYEQY	12	78
6	ASSLVQGVPYEQY	12	1
28	AIKVLAGQSYYNEQF	6	1
43	AIKVLAGQSYYNEQF	6	13
40	ASSPGLAEETQY	10	1
43	ASSPGLAEETQY	10	2
24	ASSPGQGGSYEQY	12	467
30	ASSPGQGGSYEQY	12	2
2	AISAGGRGQETQY	10	7
32	AISAGGRGQETQY	10	1
23	ASHRDNSYEQY	12	1
30	ASHRDNSYEQY	12	29
24	ASHRDNSYEQY	12	8025
25	ASHRDNSYEQY	12	10
27	ASHRDNSYEQY	12	1
19	ASSLGPLDTQY	8	182
26	ASSLGPLDTQY	8	1
28	ASSVGAQETQY	10	3
29	ASSVGAQETQY	10	5
41	ASSLALYPGRDEQY	12	1
40	ASSLALYPGRDEQY	12	5
5	ASSLISGAEETQY	10	1
4	ASSLISGAEETQY	10	354
37	ASSLISGAEETQY	10	1
26	ASSPQSEDEQF	6	12482
43	ASSPQSEDEQF	6	1
0	ASSAGPSGGIQY	9	2598
36	ASSAGPSGGIQY	9	6
19	AISRGNEQF	6	1
2	AISRGNEQF	6	6
37	ASSLGGSWRYNEQF	6	248
43	ASSLGGSWRYNEQF	6	1
38	ASSFWEGAYEQY	12	1
37	ASSFWEGAYEQY	12	2043
19	ASSFWEGAYEQY	12	1
37	ASSSHPGGSYNEQF	6	884
42	ASSSHPGGSYNEQF	6	1
31	ASSLKASGDNEQF	6	1
6	ASSLKASGDNEQF	6	9
31	ASSRPSYEQY	12	188
43	ASSRPSYEQY	12	2
34	ASSRPSYEQY	12	3
6	ASIPLLRPNEQY	12	6
26	ASIPLLRPNEQY	12	1
32	ASSYPPDSQGAGSANEQF	6	6
1	ASSYPPDSQGAGSANEQF	6	2
36	ASSYPPDSQGAGSANEQF	6	1
43	ASSNLAGGRPQETQY	10	834
37	ASSNLAGGRPQETQY	10	2
26	ASSLGESSYNEQF	6	5
38	ASSLGESSYNEQF	6	1
43	ASSLGESSYNEQF	6	97
31	AIRTRGGSGNEQF	6	1
32	AIRTRGGSGNEQF	6	1
6	AIRTRGGSGNEQF	6	1
33	AIRTRGGSGNEQF	6	1
2	AIRTRGGSGNEQF	6	1985
14	ASSQVRTYEQY	12	1
21	ASSQVRTYEQY	12	12661
19	ASSQVRTYEQY	12	1
27	ASSLGDTQY	8	469
12	ASSLGDTQY	8	5
43	ASSLGDTQY	8	33
42	ASSPGQGGDEQF	6	11
43	ASSPGQGGDEQF	6	7
38	ASSPGQGGDEQF	6	4029
19	ASSPGQGGDEQF	6	2
27	ASSPGQGGDEQF	6	1
37	ASSPGQGGDEQF	6	6
4	ASSSGTGNSNEQF	6	1
43	ASSSGTGNSNEQF	6	400
28	ASSSGTGNSNEQF	6	1
37	ASSSGTGNSNEQF	6	2
8	ASIDRQTQETQY	10	1
14	ASIDRQTQETQY	10	19025
4	ASNPNGASGRASNEQF	6	3
42	ASNPNGASGRASNEQF	6	13
38	ASNPNGASGRASNEQF	6	2
43	ASNPNGASGRASNEQF	6	10
37	ASNPNGASGRASNEQF	6	13210
30	ASNPNGASGRASNEQF	6	1
28	ASNPNGASGRASNEQF	6	1
18	ASSLEGQLSYEQY	12	1
6	ASSLEGQLSYEQY	12	4559
7	ASSLEGQLSYEQY	12	1
43	ASRAGHVETQY	10	2274
37	ASRAGHVETQY	10	5
42	ASRAGHVETQY	10	1
40	ASRAGHVETQY	10	1
8	ASSGTSKDKNIQY	9	1
14	ASSGTSKDKNIQY	9	8155
43	ASSVQVAKNIQY	9	1
14	ASSVQVAKNIQY	9	3128
4	ASSLVYGTGDSYNEQF	6	151
5	ASSLVYGTGDSYNEQF	6	1
34	ASRPTSLNEQF	6	2
33	ASRPTSLNEQF	6	1
32	ASRPTSLNEQF	6	1
31	ASRPTSLNEQF	6	906
29	ASSLAAQETQY	10	1
19	ASSLAAQETQY	10	14
5	ASSLEGTGSWNEQF	6	15
42	ASSLEGTGSWNEQF	6	1
5	ASSSRPTPYEQY	12	3
37	ASSSRPTPYEQY	12	3
4	ASSSRPTPYEQY	12	4607
24	ASSSRPTPYEQY	12	1
37	ASSLSSGSSYEQY	12	12
19	ASSLSSGSSYEQY	12	1
17	ASSPGDTQY	8	1
12	ASSPGDTQY	8	10834
24	ASSQRQGAAGGGNEQF	6	1139
25	ASSQRQGAAGGGNEQF	6	1
1	ASGAKGTAFYEQY	12	692
0	ASGAKGTAFYEQY	12	1
5	ASSYPPDNEQF	6	158
4	ASSYPPDNEQF	6	1
29	ASSSGGQAEETQY	10	2989
28	ASSSGGQAEETQY	10	2
43	ASSSGGQAEETQY	10	1
27	ASSSGGQAEETQY	10	3
43	ASSQSTSYEQY	12	624
42	ASSQSTSYEQY	12	2
19	ASSFRETQY	10	1
43	ASSFRETQY	10	628
42	ASSLGGRGETQY	10	3
18	ASSLGGRGETQY	10	15913
19	ASSLGGRGETQY	10	3
31	ASSLGGRGETQY	10	1
34	AISPGLAGVDEQF	6	1
2	AISPGLAGVDEQF	6	4322
32	AISPGLAGVDEQF	6	3
42	AISPGLAGVDEQF	6	1
14	ATSREYGVVGDTQY	8	5
10	ATSREYGVVGDTQY	8	5381
26	ASSLDYEQY	12	1
29	ASSLDYEQY	12	3
4	ASSLDYEQY	12	1
30	ASSLDYEQY	12	2
43	ASSLDYEQY	12	4
28	ASSLDYEQY	12	3625
44	ASRGDGETQY	10	7
31	ASRGDGETQY	10	30
26	ASSLTSGIYNEQF	6	9
38	ASSLTSGIYNEQF	6	1
6	ASTRGGGPYEQY	12	1
19	ASTRGGGPYEQY	12	22
31	ASSYTSFREQY	12	549
32	ASSYTSFREQY	12	7
30	ASSLSLYEQY	12	2
28	ASSLSLYEQY	12	759
43	ASSFRTDTQY	8	1
6	ASSFRTDTQY	8	2
31	ASRRTGPQRETQY	10	3
33	ASRRTGPQRETQY	10	743
32	ASRRTGPQRETQY	10	1
4	ASSRTGTDTQY	8	1
32	ASSRTGTDTQY	8	3171
2	ASTSGRAGETQY	10	10
32	ASTSGRAGETQY	10	1
9	ASSQNAGYNEQF	6	715
34	ASSQNAGYNEQF	6	1
33	ASKTGTTTDTQY	8	1
31	ASKTGTTTDTQY	8	250
34	ASGYRYTYEQY	12	1
31	ASGYRYTYEQY	12	2
24	ASHRGNSYEQY	12	45
25	ASHRGNSYEQY	12	1
42	ASSLPPTSGRAAEQY	12	596
43	ASSLPPTSGRAAEQY	12	3
40	ASSSGTSGTGTQY	8	366
43	ASSSGTSGTGTQY	8	3
24	ASSLGLAGGVRNEQF	6	1
26	ASSLGLAGGVRNEQF	6	426
6	ASSPLLRPNEQY	12	5131
7	ASSPLLRPNEQY	12	3
23	ASSPGTGVYEQY	12	1
44	ASSPGTGVYEQY	12	1
41	ASSAGQNSPLH	5	1
43	ASSAGQNSPLH	5	2
40	ASSAGQNSPLH	5	1751
33	ASSEAGGANIQY	9	2
31	ASSEAGGANIQY	9	711
34	ASSEAGGANIQY	9	3
33	ASSYWGSSDTQY	7	32
31	ASSYWGSSDTQY	7	1
18	ASSSGTGYNEQF	6	1
42	ASSSGTGYNEQF	6	1
19	ASSSGTGYNEQF	6	1
26	ASSSGTGYNEQF	6	7613
27	ASSLEHNEQF	6	4
29	ASSLEHNEQF	6	2
43	ASISTRGKINEQF	6	172
3	ASISTRGKINEQF	6	1
2	AISSDVNEQF	6	2
33	AISSDVNEQF	6	11
19	ASSLPPSLGDGYEQY	12	1
42	ASSLPPSLGDGYEQY	12	355
37	ASSLPPSLGDGYEQY	12	6
43	ASSLPPSLGDGYEQY	12	1
14	ASNLDTVNEQF	6	8372
6	ASNLDTVNEQF	6	1
40	ASSLGQGAYNEQF	6	5
26	ASSLGQGAYNEQF	6	3
1	ASSESGDTQY	8	1
0	ASSESGDTQY	8	285
36	ASSESEGRSDTQY	8	11
0	ASSESEGRSDTQY	8	6421
1	ASSESEGRSDTQY	8	13
4	ASSRLAGDNEQF	6	1
37	ASSRLAGDNEQF	6	289
37	ASSLSASGNHNEQF	6	1767
42	ASSLSASGNHNEQF	6	4
4	ASSLSASGNHNEQF	6	2
30	ASSLVRGTPVFRYNEQF	6	17
28	ASSLVRGTPVFRYNEQF	6	1
18	ASSGASAYEQY	12	10103
19	ASSGASAYEQY	12	4
31	ASSGASAYEQY	12	1
6	ASSGASAYEQY	12	2
37	ASSRRHGDGAETQY	10	1
43	ASSRRHGDGAETQY	10	246
43	ASSAPTGAYEQY	12	35
28	ASSAPTGAYEQY	12	1
19	ASSVSNEQF	6	1
13	ASSVSNEQF	6	5
27	ASSLALEETQY	10	1
29	ASSLALEETQY	10	267
28	ASSLALEETQY	10	1
31	ASSYDRYNEQF	6	2
33	ASSYDRYNEQF	6	904
35	ASSYDRYNEQF	6	1
34	ASSYDRYNEQF	6	2
43	ASSQQGQETQY	10	2018
37	ASSQQGQETQY	10	2
4	ASSQQGQETQY	10	3
38	ASSQQGQETQY	10	2
42	ASSQQGQETQY	10	1
37	ASSLSGGSSYEQY	7	6
42	ASSLSGGSSYEQY	7	1
43	ASSRYRDTDTQY	8	2
3	ASSRYRDTDTQY	8	8
37	ASSRYRDTDTQY	8	6
4	ASSRYRDTDTQY	8	63
5	ASSRYRDTDTQY	8	10944
28	ASSRYRDTDTQY	8	6
42	ASSQAGRRNSGNTIY	2	10075
43	ASSQAGRRNSGNTIY	2	13
37	ASSQAGRRNSGNTIY	2	24
38	ASSQAGRRNSGNTIY	2	2
40	ASSQAGRRNSGNTIY	2	1
43	ASSLSGEQY	12	7
18	ASSLSGEQY	12	2
26	ASSLTGYNEQF	6	1
6	ASSLTGYNEQF	6	822
37	ASSLVSGRSSYEQY	12	185
42	ASSLVSGRSSYEQY	12	1
4	ASSLRAPAGGPNEQF	6	7
37	ASSLRAPAGGPNEQF	6	8122
43	ASSLRAPAGGPNEQF	6	19
26	ASSLRAPAGGPNEQF	6	1
40	ASSLRAPAGGPNEQF	6	1
38	ASSLRAPAGGPNEQF	6	5
42	ASSLRAPAGGPNEQF	6	21
4	ASSPRTYNEQF	6	2
18	ASSPRTYNEQF	6	156
37	ASSSRPTPHEQY	12	1
4	ASSSRPTPHEQY	12	4
14	ASSEGQGAKNIQY	9	1
31	ASSEGQGAKNIQY	9	3
33	ASSEGQGAKNIQY	9	1002
34	ASSEGQGAKNIQY	9	2
31	ASSLPSYEQY	12	1
43	ASSLPSYEQY	12	8
4	ASSPPWGAYEQY	12	1
37	ASSPPWGAYEQY	12	658
19	ASSVGRGEQF	6	1
44	ASSVGRGEQF	6	3192
42	ASSLGQGGSYEQY	12	1
30	ASSLGQGGSYEQY	12	1
37	ASSLGQGGSYEQY	12	2603
43	ASSLGQGGSYEQY	12	5
4	ASSLGQGGSYEQY	12	4
42	ASSLSSGSSYEQY	7	19
43	ASSLSSGSSYEQY	7	5
4	ASSLSSGSSYEQY	7	2
40	ASSLSSGSSYEQY	7	1
38	ASSLSSGSSYEQY	7	2
29	ASSLSSGSSYEQY	7	1
37	ASSLSSGSSYEQY	7	5143
37	ASSQGTSRSTDTQY	8	8
4	ASSQGTSRSTDTQY	8	9846
3	ASSQGTSRSTDTQY	8	1
42	ASSQGTSRSTDTQY	8	3
30	ASSQGTSRSTDTQY	8	1
5	ASSQGTSRSTDTQY	8	42
40	ASSQGTSRSTDTQY	8	1
19	ASSQGTSRSTDTQY	8	1
4	ASSPPVLDTQY	8	140
37	ASSPPVLDTQY	8	1
6	ASSLGGGPRNEQF	6	3997
7	ASSLGGGPRNEQF	6	1
19	ASSQGRTYEQY	12	2
7	ASSQGRTYEQY	12	1
21	ASSQGRTYEQY	12	5
37	ASSLGLPWNEQL	6	35
4	ASSLGLPWNEQL	6	1
16	ATSDDNEQF	6	15549
18	ATSDDNEQF	6	1
30	ASSFTGIDTQY	8	1
42	ASSFTGIDTQY	8	2
38	ASSFTGIDTQY	8	1
43	ASSFTGIDTQY	8	8571
28	ASSFTGIDTQY	8	1
24	ASSFTGIDTQY	8	1
37	ASSFTGIDTQY	8	5
40	ASSFTGIDTQY	8	2
43	ASSLRAPAEGPNEQF	6	1
37	ASSLRAPAEGPNEQF	6	9
4	ASSLTGGRETQY	10	1
38	ASSLTGGRETQY	10	1
31	ASTDGPQTYNEQF	4	1
7	ASTDGPQTYNEQF	4	1
6	ASTDGPQTYNEQF	4	3233
4	ASSLVYGTGGSHNEQF	6	548
5	ASSLVYGTGGSHNEQF	6	3
34	ASSYSRGDTQY	8	5
31	ASSYSRGDTQY	8	3346
32	ASSYSRGDTQY	8	2
6	ASSYSRGDTQY	8	4
12	ASSRTGGSYEQY	12	14
6	ASSRTGGSYEQY	12	1
33	ASSSGVNEQF	6	36
31	ASSSGVNEQF	6	1
43	ASSQAQGQETQY	10	1
21	ASSQAQGQETQY	10	111
33	ASSGTGGRETQY	10	2
34	ASSGTGGRETQY	10	2
19	ASSLRGEQY	12	1
18	ASSLRGEQY	12	3157
44	ASSLGLAGVNEQF	6	2279
37	ASSLGLAGVNEQF	6	1
41	ASSERLLASGEQF	6	44
43	ASSERLLASGEQF	6	14
37	ASSERLLASGEQF	6	3
42	ASSERLLASGEQF	6	2
40	ASSERLLASGEQF	6	6692
4	ASSERLLASGEQF	6	1
19	ASSSVGGATYNEQF	6	3
18	ASSSVGGATYNEQF	6	3735
8	ASSLGPDNEQF	6	4
26	ASSLGPDNEQF	6	2
37	ASSLGGLAGIEQY	12	222
42	ASSLGGLAGIEQY	12	1
3	ASRPMTSGTTTYNEQF	6	1
4	ASRPMTSGTTTYNEQF	6	9888
5	ASRPMTSGTTTYNEQF	6	18
30	ASRPMTSGTTTYNEQF	6	1
37	ASRPMTSGTTTYNEQF	6	2
19	ASRPMTSGTTTYNEQF	6	1
42	ASSFSKAGGGNNEQF	6	21
37	ASSFSKAGGGNNEQF	6	6891
43	ASSFSKAGGGNNEQF	6	16
5	ASSFSKAGGGNNEQF	6	2
4	ASSFSKAGGGNNEQF	6	10
28	ASSFSKAGGGNNEQF	6	1
34	ASSDGSSYNEQF	7	1
31	ASSDGSSYNEQF	7	832
33	ASSDGSSYNEQF	7	1
14	ASSVEAGDYEQY	12	1
44	ASSVEAGDYEQY	12	5361
43	ASSFSRAGGGNNEQF	6	1
37	ASSFSRAGGGNNEQF	6	79
37	ASSPQAGGPRDEQF	6	1654
4	ASSPQAGGPRDEQF	6	1
28	ASSPQAGGPRDEQF	6	1
42	ASSPQAGGPRDEQF	6	2
43	ASSPQAGGPRDEQF	6	6
38	ASSPQAGGPRDEQF	6	1
36	ATTPNSTVSLGETQY	10	1
0	ATTPNSTVSLGETQY	10	427
43	ASSPYTISGNTIY	2	3
30	ASSPYTISGNTIY	2	3
37	ASSPYTISGNTIY	2	4237
4	ASSPYTISGNTIY	2	2
5	ASSPYTISGNTIY	2	1
42	ASSPYTISGNTIY	2	3
9	ASSPHGGTQY	8	8759
19	ASSPHGGTQY	8	1
43	ASSLGTSGDTQY	8	9
42	ASSLGTSGDTQY	8	9
37	ASSLGTSGDTQY	8	5916
28	ASSLGTSGDTQY	8	1
4	ASRSSGNTIY	2	2
37	ASRSSGNTIY	2	1391
42	ASRSSGNTIY	2	3
38	ASRSSGNTIY	2	2
43	ASRSSGNTIY	2	1
17	ASSELISTDTQY	8	5791
19	ASSELISTDTQY	8	1
4	ASSLVYGTGGSYDEQF	6	363
42	ASSLVYGTGGSYDEQF	6	1
10	ATSSRWGGEGETQY	10	7643
14	ATSSRWGGEGETQY	10	7
37	ASSLGYEQY	12	2
28	ASSLGYEQY	12	6
43	ASSLGYEQY	12	1800
29	ASSLGYEQY	12	1
38	ASSLGYEQY	12	1
36	AIRGDVPPNEQF	6	1
2	AIRGDVPPNEQF	6	43
21	ASSRGLAGAYNEQF	6	3
43	ASSRGLAGAYNEQF	6	6
4	ASSQVAGYEQF	6	1
7	ASSQVAGYEQF	6	1
21	ASSQVAGYEQF	6	7373
18	ASSGGTSGRGETQY	10	8471
19	ASSGGTSGRGETQY	10	4
2	ASSGGTSGRGETQY	10	1
37	ASSQQTTDTQY	8	8
14	ASSQQTTDTQY	8	1
43	ASSQQTTDTQY	8	9
38	ASSQQTTDTQY	8	3604
42	ASSQQTTDTQY	8	8
3	ASSSRMAGNTIY	2	1
5	ASSSRMAGNTIY	2	11
4	ASSSRMAGNTIY	2	5793
42	ASSSRMAGNTIY	2	1
30	ASSSRMAGNTIY	2	2
37	ASSSRMAGNTIY	2	5
31	ASSLGGRTDTQY	8	5
19	ASSLGGRTDTQY	8	12
6	ASSSSSYEQY	12	27
31	ASSSSSYEQY	12	3
4	VSSLVYGTGGSYNEQF	6	380
5	VSSLVYGTGGSYNEQF	6	1
37	VSSLVYGTGGSYNEQF	6	1
29	ASSSLGRNTYEQY	12	889
43	ASSSLGRNTYEQY	12	2
26	ASSQGSGNTIY	2	2
14	ASSQGSGNTIY	2	9
23	ASSQTPGDLTFYEQY	12	1911
25	ASSQTPGDLTFYEQY	12	4
42	ASSYGTGLRDTIY	2	1
43	ASSYGTGLRDTIY	2	144
32	AITDRVNYGYT	1	1
2	AITDRVNYGYT	1	56
43	ASSLGQGRRDEQF	6	3
42	ASSLGQGRRDEQF	6	6
4	ASSLGQGRRDEQF	6	1
37	ASSLGQGRRDEQF	6	1970
31	ASSLQQGRSEQY	12	2
7	ASSLQQGRSEQY	12	3
21	ASSLQQGRSEQY	12	1
19	ASSLQQGRSEQY	12	2
6	ASSLQQGRSEQY	12	6184
25	ASSQDRVDRRAAPYEQY	12	771
24	ASSQDRVDRRAAPYEQY	12	1
44	ASSVGYGDNEQF	6	19719
6	ASSVGYGDNEQF	6	1
19	ASSVGYGDNEQF	6	1
14	ASSVGYGDNEQF	6	1
21	ASSVGYGDNEQF	6	1
4	ASSVGYGDNEQF	6	1
14	ASSQGEETQY	10	1
19	ASSQGEETQY	10	11697
17	ASSQGEETQY	10	1
41	ASSLDSGVGDTQY	8	1
40	ASSLDSGVGDTQY	8	2180
9	ASSPMGPSYEQY	12	1820
14	ASSPMGPSYEQY	12	1
33	ASSKFPGQETQY	10	1
43	ASSKFPGQETQY	10	1
43	ASSPPTGACEQY	12	46
28	ASSPPTGACEQY	12	1
29	ASSLLNTIY	2	1183
28	ASSLLNTIY	2	1
27	ASSLLNTIY	2	1
2	ATRGASGREGNEQF	6	4
35	ATRGASGREGNEQF	6	1
31	ASGQGNIQY	9	6
43	ASGQGNIQY	9	1
21	ASSPRGSGTGQETQY	10	4
44	ASSPRGSGTGQETQY	10	13142
38	ASSPNAGNEQF	6	1
37	ASSPNAGNEQF	6	494
42	ASSPNAGNEQF	6	3
4	ASSVGGTQSGNTIY	2	9
43	ASSVGGTQSGNTIY	2	1
36	ASNKRDSYNEQF	6	1
35	ASNKRDSYNEQF	6	3
32	ASNKRDSYNEQF	6	3
34	ASNKRDSYNEQF	6	9
31	ASNKRDSYNEQF	6	6960
33	ASNKRDSYNEQF	6	17
6	ASNKRDSYNEQF	6	1
37	ASNKRDSYNEQF	6	1
29	ASSLPHEQF	6	8861
43	ASSLPHEQF	6	1
4	ASSLPHEQF	6	1
27	ASSLPHEQF	6	5
28	ASSLPHEQF	6	5
4	ASSLGGLAGETQY	10	1
37	ASSLGGLAGETQY	10	25
19	ASSWEGALGINEQF	6	1
18	ASSWEGALGINEQF	6	1246
1	ASSKDLSSYNEQF	6	8
36	ASSKDLSSYNEQF	6	17
0	ASSKDLSSYNEQF	6	9074
28	ASSPGDSSYNEQF	6	1
43	ASSPGDSSYNEQF	6	193
19	ASSLLTGKRTDTQY	8	1
6	ASSLLTGKRTDTQY	8	5316
7	ASSLLTGKRTDTQY	8	3
23	ASGLFWTSGRAFSYNEQF	6	27
25	ASGLFWTSGRAFSYNEQF	6	1
21	ASSVDPSRETQY	10	1
44	ASSVDPSRETQY	10	561
42	ASSSGLAMGNEQF	6	1
37	ASSSGLAMGNEQF	6	1
43	ASSSGLAMGNEQF	6	1454
19	ASSNPLKETQY	10	1
18	ASSNPLKETQY	10	3231
36	ASKERGGSSYEQY	7	1
33	ASKERGGSSYEQY	7	6
34	ASKERGGSSYEQY	7	9
35	ASKERGGSSYEQY	7	2
31	ASKERGGSSYEQY	7	3010
31	ASSRDGGFSNEQY	12	1090
33	ASSRDGGFSNEQY	12	5
32	ASSRDGGFSNEQY	12	3
34	ASSRDGGFSNEQY	12	2
31	ASSLRETQY	10	7
29	ASSLRETQY	10	104
19	ASSLRETQY	10	1
19	ASSLPGQGENEQF	6	1
42	ASSLPGQGENEQF	6	14
28	ASSYRGGYNEQF	6	2
3	ASSYRGGYNEQF	6	3
4	ASSYRGGYNEQF	6	8
5	ASSYRGGYNEQF	6	2454
4	ASSLDSGRTGSEQY	12	480
3	ASSLDSGRTGSEQY	12	1
43	ASSSRASLDTQY	8	1
42	ASSSRASLDTQY	8	46
43	ASSLTGGTYEQY	12	1
19	ASSLTGGTYEQY	12	1
6	ASSLNRGYEQY	12	1056
14	ASSLNRGYEQY	12	1
19	ASTFGGEGGTQY	8	1
18	ASTFGGEGGTQY	8	835
42	ASSLVSGARTDTQY	8	17
4	ASSLVSGARTDTQY	8	1
37	ASGLATGLAASSYEQY	12	1
42	ASGLATGLAASSYEQY	12	114
38	ASGLATGLAASSYEQY	12	1
28	ASSSETGPTETQY	10	65
30	ASSSETGPTETQY	10	1
5	ASSGYRDTDTQY	8	1276
28	ASSGYRDTDTQY	8	2
3	ASSGYRDTDTQY	8	1
4	ASSGYRDTDTQY	8	2
43	ASSGYRDTDTQY	8	1
43	ASSLDWAASGYEQY	12	361
37	ASSLDWAASGYEQY	12	1
28	ASSLDWAASGYEQY	12	3
38	ASSFGQFSYEQY	12	1
37	ASSFGQFSYEQY	12	558
43	ASSFGQFSYEQY	12	1
3	ASSWGDRGPDTQY	8	1
43	ASSWGDRGPDTQY	8	1424
37	ATGTHNEQF	6	1
43	ATGTHNEQF	6	182
28	ATGTHNEQF	6	1
42	ASSFTRDEQF	6	6
37	ASSFTRDEQF	6	1393
38	VSGTVNLGYEQF	6	3
42	VSGTVNLGYEQF	6	1
37	VSGTVNLGYEQF	6	4
43	VSGTVNLGYEQF	6	13548
28	VSGTVNLGYEQF	6	4
37	ASSFRQGLEETQY	10	1
43	ASSFRQGLEETQY	10	141
5	ASSTYGGGTDTQY	8	69
4	ASSTYGGGTDTQY	8	1
2	AIRDSAGETQY	10	694
32	AIRDSAGETQY	10	1
35	AIRDSAGETQY	10	1
36	AIRDSAGETQY	10	2
31	ASSYGASDSETQY	10	5
32	ASSYGASDSETQY	10	1
33	ASSYGASDSETQY	10	1209
6	TSVPAVPGGGSLNEQF	6	4
18	TSVPAVPGGGSLNEQF	6	1
30	ASSLSAGVRDTQY	8	1
19	ASSLSAGVRDTQY	8	1
43	ASSLSAGVRDTQY	8	2
37	ASSLSAGVRDTQY	8	915
14	ASSLSAGVRDTQY	8	1
4	ASSLSAGVRDTQY	8	3
1	ASSDRVAGGGDTQY	8	1
32	ASSDRVAGGGDTQY	8	1
4	ASGLVYGTGGSYNEQF	6	500
5	ASGLVYGTGGSYNEQF	6	2
19	ASSPGQTYEQY	12	2
12	ASSPGQTYEQY	12	1
31	ASSGRQGVETQY	10	83
33	ASSGRQGVETQY	10	2
41	ASSLALAGGHEQF	6	18
40	ASSLALAGGHEQF	6	1
33	ASSSNVNEQF	6	8
31	ASSSNVNEQF	6	1
34	ASSSTPQETQY	10	489
32	ASSSTPQETQY	10	1
35	ASSSTPQETQY	10	1
31	ASSSTPQETQY	10	1
33	ASSSTPQETQY	10	3
1	ASSWEGGAYEQY	7	7
2	ASSWEGGAYEQY	7	1
13	ASSLKRGYEQY	12	3
6	ASSLKRGYEQY	12	1
37	ASSSTGIRSYEQY	12	6
42	ASSSTGIRSYEQY	12	1
4	ASSLAMGLAASSYEQY	12	1
40	ASSLAMGLAASSYEQY	12	1
42	ASSLAMGLAASSYEQY	12	444
37	ASSLAMGLAASSYEQY	12	2
26	ASSVGTGGYEQY	12	2
43	ASSVGTGGYEQY	12	3
19	ASSGGNEQF	6	2
17	ASSGGNEQF	6	217
4	ASSLDPGVQETQY	10	3
19	ASSLDPGVQETQY	10	1
33	ASSEEQGAKNIQY	9	5
2	ASSEEQGAKNIQY	9	1
5	ASRLADSLYNEQF	6	1
38	ASRLADSLYNEQF	6	9
42	ASRLADSLYNEQF	6	23283
37	ASRLADSLYNEQF	6	41
43	ASRLADSLYNEQF	6	14
4	ASRLADSLYNEQF	6	6
41	ASRLADSLYNEQF	6	1
21	ASSPPSYEQY	12	1
28	ASSPPSYEQY	12	4
40	ASSPPSYEQY	12	6
42	ASSPPSYEQY	12	2
29	ASSPPSYEQY	12	1
37	ASSPPSYEQY	12	12
43	ASSPPSYEQY	12	13755
43	ASSLSPLETQY	10	130
28	ASSLSPLETQY	10	1
37	ASSLSPLETQY	10	2
31	ASSLGTYNEQF	6	1
18	ASSLGTYNEQF	6	18
6	ASSLWDRGWGTDTQY	8	389
7	ASSLWDRGWGTDTQY	8	1
40	ASSTPRGGPDTQY	8	8
43	ASSTPRGGPDTQY	8	1
21	ASSLWGTSGGYNEQF	6	1
4	ASSLWGTSGGYNEQF	6	1
18	ASSFTGYSYEQY	12	886
6	ASSFTGYSYEQY	12	1
7	ASSLEYGVGSLYEQY	12	1
6	ASSLEYGVGSLYEQY	12	486
43	ASSQTSGRADEQF	6	566
42	ASSQTSGRADEQF	6	1
37	ASSSVAFADNEQF	6	5
43	ASSSVAFADNEQF	6	1
37	ASSSLVFADNEQF	6	215
40	ASSSLVFADNEQF	6	1
43	ASSSLVFADNEQF	6	2
37	ASSSHVLKETQY	10	1
28	ASSSHVLKETQY	10	1
43	ASSSHVLKETQY	10	291
43	ASSLIGVSTHNEQF	6	714
37	ASSLIGVSTHNEQF	6	1
43	ASSLLSVKGNNEQF	6	17972
42	ASSLLSVKGNNEQF	6	7
40	ASSLLSVKGNNEQF	6	4
4	ASSLLSVKGNNEQF	6	1
37	ASSLLSVKGNNEQF	6	11
28	ASSLLSVKGNNEQF	6	13
19	ASSSSYEQY	12	1
14	ASSSSYEQY	12	2
6	ASSLGSTVEQY	12	1
19	ASSLGSTVEQY	12	6749
4	ASSLRPEGQGAYEQY	7	1
37	ASSLRPEGQGAYEQY	7	3
42	ASSLRPEGQGAYEQY	7	1462
34	ASRMGGIDTQY	8	4161
32	ASRMGGIDTQY	8	7
31	ASRMGGIDTQY	8	16
33	ASRMGGIDTQY	8	5
28	ASGLSLLETQY	10	1
43	ASGLSLLETQY	10	80
1	ASSDWTSGINEQF	6	15
33	ASSDWTSGINEQF	6	1
23	ASSQDGQSTDTQY	8	1320
25	ASSQDGQSTDTQY	8	7
43	ASSLTQGAKDTQY	8	1
37	ASSLTQGAKDTQY	8	203
32	ASERDSNSYEQY	12	2
31	ASERDSNSYEQY	12	2261
34	ASERDSNSYEQY	12	2
33	ASERDSNSYEQY	12	5
43	ASSPRGTSTNEQF	6	1
42	ASSPRGTSTNEQF	6	3
5	AISFGTGSEQY	12	1
4	AISFGTGSEQY	12	1
31	ASSLPGQGTDTQY	8	1562
32	ASSLPGQGTDTQY	8	2
34	ASSLPGQGTDTQY	8	4
12	ASSPTGGYNEQF	6	2385
43	ASSPTGGYNEQF	6	1
32	ASSLAGAETQY	10	1
18	ASSLAGAETQY	10	44
4	ASSRYSGDRGDTQY	8	3
5	ASSRYSGDRGDTQY	8	530
3	ASSRYSGDRGDTQY	8	2
28	ASSRYSGDRGDTQY	8	1
26	ASSSTGLGYNEQF	6	2
21	ASSSTGLGYNEQF	6	3
30	ASSQGGAPLLGDTQY	8	1
25	ASSQGGAPLLGDTQY	8	297
41	ASSPGTGDNEQF	6	90
40	ASSPGTGDNEQF	6	1
19	ASTPRPNSYNEQF	6	2
33	ASTPRPNSYNEQF	6	1
18	ASTPRPNSYNEQF	6	17044
21	ASTPRPNSYNEQF	6	1
10	ATSPVAGTSYNEQF	6	12530
14	ATSPVAGTSYNEQF	6	6
6	ASSFAGTDTQY	8	1
18	ASSFAGTDTQY	8	1
33	ASSFAGTDTQY	8	1
34	ASSFAGTDTQY	8	1
19	ASSFAGTDTQY	8	35208
18	ASSFTAKETQY	10	2007
19	ASSFTAKETQY	10	1
20	SAPREGGTDTQY	8	92
15	SAPREGGTDTQY	8	3
37	ASSLVGGFTADTQY	8	10
30	ASSLVGGFTADTQY	8	1
18	ASSGVDSGNTIY	2	1
14	ASSGVDSGNTIY	2	9
42	ASSPKGAGSDTQY	8	8
30	ASSPKGAGSDTQY	8	2
38	ASSPKGAGSDTQY	8	1
4	ASSPKGAGSDTQY	8	2
43	ASSPKGAGSDTQY	8	4
37	ASSPKGAGSDTQY	8	4731
29	ASRSQGYEQY	12	2
27	ASRSQGYEQY	12	711
4	ASRSQGYEQY	12	1
25	ASSLTVGGGDTQY	8	2
24	ASSLTVGGGDTQY	8	380
19	ASSLRDGQETQY	10	3
18	ASSLRDGQETQY	10	11921
33	ASSLRDGQETQY	10	1
24	ASSLRDGQETQY	10	1
43	ASSLSTGLAASSYEQY	12	1
42	ASSLSTGLAASSYEQY	12	24
4	ASSPATQSHNEQF	6	3
5	ASSPATQSHNEQF	6	1026
37	ASSPATQSHNEQF	6	2
43	ASSPATQSHNEQF	6	1
7	ASGLLRDYQGDEQF	6	3184
6	ASGLLRDYQGDEQF	6	4
42	ASSLQPNEQF	6	1714
37	ASSLQPNEQF	6	9
31	ASSQREGAIYEQY	12	3
34	ASSQREGAIYEQY	12	136
3	ASSLDGNTIY	2	1
40	ASSLDGNTIY	2	4
7	ASSDNSYEQY	12	8
6	ASSDNSYEQY	12	8960
36	AISEPAGTTDTQY	8	4
32	AISEPAGTTDTQY	8	3
35	AISEPAGTTDTQY	8	2
33	AISEPAGTTDTQY	8	2
2	AISEPAGTTDTQY	8	9637
19	ASSLPRNEQF	6	4
43	ASSLPRNEQF	6	4
37	ASSWVGRQGAIEQF	6	406
43	ASSWVGRQGAIEQF	6	1
7	ASGLLRKRVCYVYEQY	12	1801
6	ASGLLRKRVCYVYEQY	12	6
43	ASSLGGYNEQF	6	6
4	ASSLGGYNEQF	6	2
19	ASSLGGYNEQF	6	1
6	ASSLGGYNEQF	6	106
44	ASSNERAAHTDTQY	8	22582
6	ASSNERAAHTDTQY	8	2
43	ASSSGHVNTIY	2	14154
28	ASSSGHVNTIY	2	6
42	ASSSGHVNTIY	2	4
30	ASSSGHVNTIY	2	1
40	ASSSGHVNTIY	2	1
37	ASSSGHVNTIY	2	11
26	ASSSGHVNTIY	2	1
43	ASSLSGQGDSPLH	5	649
28	ASSLSGQGDSPLH	5	1
37	ASIPSSGRNYEQY	12	1
44	ASIPSSGRNYEQY	12	4
43	ASSLATGLAASSYEQY	6	1
42	ASSLATGLAASSYEQY	6	261
38	ASSLATGLAASSYEQY	6	1
36	ATTSGRAGETQY	10	2
2	ATTSGRAGETQY	10	8382
32	ATTSGRAGETQY	10	2
31	ATTSGRAGETQY	10	1
6	ATTSGRAGETQY	10	2
42	ASSLVQAASSYNSPLH	5	103
38	ASSLVQAASSYNSPLH	5	1
24	ASSQSRLAPYNEQF	6	134
25	ASSQSRLAPYNEQF	6	1
4	ASSLDYGTGGSYNEQF	6	23
5	ASSLDYGTGGSYNEQF	6	1
43	ASSRDISYEQY	12	2
3	ASSRDISYEQY	12	1
37	ASSLGGDTQY	8	2
42	ASSLGGDTQY	8	2
28	ASSLGGDTQY	8	1
43	ASSLGGDTQY	8	1712
38	ASSLGGDTQY	8	2
42	ASSNDRIQETQY	10	2
43	ASSNDRIQETQY	10	96
37	ASSWETDTQY	8	1
4	ASSWETDTQY	8	1300
37	ASSFLGTGSYNEQF	6	1
43	ASSFLGTGSYNEQF	6	205
37	ASLGLAGTYEQY	12	3
43	ASLGLAGTYEQY	12	1
34	ASTYGGLGNTIY	2	1
33	ASTYGGLGNTIY	2	155
37	ASSFGTGSEQY	12	1
5	ASSFGTGSEQY	12	5
4	ASSFGTGSEQY	12	1508
8	ASSDWGPLDEQY	12	2
14	ASSDWGPLDEQY	12	51
25	ASSQVVFSGNEQF	6	1
23	ASSQVVFSGNEQF	6	113
43	ASSRSGRTYNEQF	6	1
5	ASSRSGRTYNEQF	6	2
21	ASSRSGRTYNEQF	6	5104
14	ASTEAGTAYNEQF	6	4809
8	ASTEAGTAYNEQF	6	1
31	ASSLHVGNTIY	2	1
33	ASSLHVGNTIY	2	118
31	ASSYSTDTQY	8	586
19	ASSYSTDTQY	8	1
12	ASSPPSGTETQY	10	110
44	ASSPPSGTETQY	10	1
34	ASSAGTDTQY	8	75
31	ASSAGTDTQY	8	1
31	ASSSSGGSLYEQY	12	1
33	ASSSSGGSLYEQY	12	1
6	ASSYRLDKNIQY	9	1
34	ASSYRLDKNIQY	9	10477
32	ASSYRLDKNIQY	9	7
35	ASSYRLDKNIQY	9	2
31	ASSYRLDKNIQY	9	27
2	ASSYRLDKNIQY	9	3
33	ASSYRLDKNIQY	9	34
4	ASSPTGSGNTIY	2	1
3	ASSPTGSGNTIY	2	1
40	ASSPTGSGNTIY	2	1
37	ASSPTGSGNTIY	2	8
30	ASSPTGSGNTIY	2	1
28	ASSPTGSGNTIY	2	4
43	ASSPTGSGNTIY	2	5741
42	ASSPTGSGNTIY	2	2
38	ASSPTGSGNTIY	2	3
6	ASSFRGSYEQY	12	80
42	ASSFRGSYEQY	12	4
6	ASSKTGVRMGTDTQY	8	2
7	ASSKTGVRMGTDTQY	8	1
4	ASSLRSWAETFSYEQY	12	1
29	ASSLRSWAETFSYEQY	12	315
42	ASSLATGLAASPYEQY	12	352
37	ASSLATGLAASPYEQY	12	4
43	ASSLATGLAASPYEQY	12	2
23	ASSPGLAGREQY	12	1
26	ASSPGLAGREQY	12	1646
19	ASSLQGMSSTDTQY	8	1279
18	ASSLQGMSSTDTQY	8	1
2	ASSVRGGADTQY	8	1
32	ASSVRGGADTQY	8	1117
26	ASSFRASGVDTQY	8	1
42	ASSFRASGVDTQY	8	1
29	ASSFRASGVDTQY	8	1
27	ASSFRASGVDTQY	8	1698
28	ASSFRASGVDTQY	8	6
6	ASSPRTGGLYEQY	12	3
33	ASSPRTGGLYEQY	12	2049
31	ASSPRTGGLYEQY	12	6
14	ASSPRTGGLYEQY	12	1
33	ASSYSIISGNTIY	2	108
31	ASSYSIISGNTIY	2	2
12	ASSRGDTQY	8	7
13	ASSRGDTQY	8	46
38	ASSSGDRGTQY	10	1
37	ASSSGDRGTQY	10	6
43	ASSSGDRGTQY	10	1
42	ASSSGDRGTQY	10	2940
43	ASSLGSYEQY	6	1
42	ASSLGSYEQY	6	118
1	ASTDFQETQY	10	1196
31	ASTDFQETQY	10	1
34	ASSLGLGFSDTQY	8	1
32	ASSLGLGFSDTQY	8	1
31	ASSLGLGFSDTQY	8	495
33	ASSLGLGFSDTQY	8	2
4	ASRPTSGSPRETQY	10	1
28	ASRPTSGSPRETQY	10	3
29	ASRPTSGSPRETQY	10	1
27	ASRPTSGSPRETQY	10	585
24	ASRPTSGSPRETQY	10	1
12	ASSPTGAGNTIY	2	1
43	ASSPTGAGNTIY	2	1
32	ASSYSKTSGSPYEQY	12	2
1	ASSYSKTSGSPYEQY	12	3
30	ASSSYSGGARNEQF	6	5
42	ASSSYSGGARNEQF	6	23
4	ASSSYSGGARNEQF	6	20
38	ASSSYSGGARNEQF	6	8
43	ASSSYSGGARNEQF	6	25
37	ASSSYSGGARNEQF	6	17536
24	ASSSYSGGARNEQF	6	1
25	ASSLFWTSGRAFSYNEQF	6	23
30	ASSLFWTSGRAFSYNEQF	6	1
23	ASSLFWTSGRAFSYNEQF	6	11310
28	ASSLFWTSGRAFSYNEQF	6	1
42	ASSFDGTSGDTQY	8	3003
37	ASSFDGTSGDTQY	8	2
4	ASSRDRVAKNIQY	9	1
37	ASSRDRVAKNIQY	9	8
38	ASSRDRVAKNIQY	9	1
42	ASSRDRVAKNIQY	9	2343
43	ASSLRSTYTYNEQF	6	1
38	ASSLRSTYTYNEQF	6	637
38	ASSLAGTGASYRYEQY	12	2
42	ASSLAGTGASYRYEQY	12	2
4	ASSLAGTGASYRYEQY	12	4
37	ASSLAGTGASYRYEQY	12	2057
43	ASSLAGTGASYRYEQY	12	2
21	ASSQEVRSGEQF	6	2818
42	ASSQEVRSGEQF	6	1
33	ASSYGASGTDTQY	8	3
34	ASSYGASGTDTQY	8	3
31	ASSYGASGTDTQY	8	1301
19	ASSHPGQPYEQY	12	1
7	ASSHPGQPYEQY	12	8
6	ASSHPGQPYEQY	12	4627
42	ASSSPNRVTSTDTQY	8	2
43	ASSSPNRVTSTDTQY	8	5
40	ASSSPNRVTSTDTQY	8	2494
41	ASSSPNRVTSTDTQY	8	2
37	ASSLPGQGDNEQF	6	19
38	ASSLPGQGDNEQF	6	5
43	ASSLPGQGDNEQF	6	4
42	ASSLPGQGDNEQF	6	19954
4	ASSLPGQGDNEQF	6	2
19	ASSLPGQGDNEQF	6	1
37	ASSSALTGGGSYEQY	12	1
40	ASSSALTGGGSYEQY	12	2
28	ASSSALTGGGSYEQY	12	2
43	ASSSALTGGGSYEQY	12	1171
19	ASSLVVGQGGETQY	10	1
18	ASSLVVGQGGETQY	10	2680
19	ASSPPGANQETQY	10	1733
34	ASSPPGANQETQY	10	1
6	ASSSRGTDTQY	8	132
2	ASSSRGTDTQY	8	5
37	ASSFGTGSNEQY	12	921
43	ASSFGTGSNEQY	12	3
42	ASSFGTGSNEQY	12	1
43	ASSEGELGVETQY	10	1
2	ASSEGELGVETQY	10	1
14	ASSEGELGVETQY	10	3427
31	ASSRGNEQY	12	96
6	ASSRGNEQY	12	1
43	ASSLDGPGTGAYEQY	12	2
38	ASSLDGPGTGAYEQY	12	71
4	ASSLVYGTGCSYNEQF	6	365
37	ASSLVYGTGCSYNEQF	6	1
31	ASRTSWARGETQY	10	1262
32	ASRTSWARGETQY	10	3
33	ASRTSWARGETQY	10	1
19	ASSHREAKNIQY	9	1
21	ASSHREAKNIQY	9	122
37	ASSFTSGRIDTQY	8	341
43	ASSFTSGRIDTQY	8	1
37	ASSLATRLAASSYEQY	12	1
4	ASSLATRLAASSYEQY	12	1
42	ASSLATRLAASSYEQY	12	55
34	ASRTGSHEQY	12	5
33	ASRTGSHEQY	12	1
42	ASSQGLAGNNEQF	6	1
9	ASSQGLAGNNEQF	6	1
24	ASSQGLAGNNEQF	6	1210
30	ASSQGLAGNNEQF	6	1
25	ASSQGLAGNNEQF	6	1
38	ASSLTRDEQF	6	3
37	ASSLTRDEQF	6	1
43	ASSLGHEQY	12	2
28	ASSLGHEQY	12	1
37	ASSLGHEQY	12	2
37	ASSLERGRQNEQF	6	1
43	ASSLERGRQNEQF	6	1
26	ASSLERGRQNEQF	6	9316
37	ASSADTVYEQY	12	1
43	ASSADTVYEQY	12	2113
19	ASSPQETQY	10	8
43	ASSPQETQY	10	1
18	ASSPQETQY	10	320
31	ASSPQETQY	10	12
2	AISLAGVWYEQF	6	1725
32	AISLAGVWYEQF	6	4
41	ASSSRTGSGEQY	12	1
37	ASSSRTGSGEQY	12	2
38	ASSSRTGSGEQY	12	1
40	ASSSRTGSGEQY	12	4115
43	ASSSRTGSGEQY	12	18
18	ASSSNAWEQY	12	1
19	ASSSNAWEQY	12	2381
30	ASSLFYGTGGSYNEQF	6	1
5	ASSLFYGTGGSYNEQF	6	1
4	ASSLFYGTGGSYNEQF	6	205
44	ASSYSYGSDTQY	8	1
31	ASSYSYGSDTQY	8	3
33	ASSYSYGSDTQY	8	1217
42	ASSSLASRTDTQY	8	1
30	ASSSLASRTDTQY	8	1
37	ASSSLASRTDTQY	8	478
4	ASSSLASRTDTQY	8	1
6	ASSLGAGFYEQY	12	9
7	ASSLGAGFYEQY	12	1
29	ASSSMGSGGFYNEQF	6	1
43	ASSSMGSGGFYNEQF	6	728
30	ASSSTGVHSYEQY	12	1
37	ASSSTGVHSYEQY	12	12
28	ASSFTVSEQY	12	1
37	ASSFTVSEQY	12	4
40	ASSFTVSEQY	12	1
43	ASSFTVSEQY	12	1591
19	ASSLVTGTAQETQY	10	1
3	ASSLVTGTAQETQY	10	1
42	ASSLVTGTAQETQY	10	3
4	ASSLVTGTAQETQY	10	6107
5	ASSLVTGTAQETQY	10	11
37	ASSLVTGTAQETQY	10	4
4	VSSLGLPWNEQF	6	1
37	VSSLGLPWNEQF	6	15
29	ASSLGSQETQY	10	8
4	ASSLGSQETQY	10	1
6	ASSEGTYEQY	12	3116
31	ASSEGTYEQY	12	15
42	ASSGLASKNIQY	9	11
38	ASSGLASKNIQY	9	3
4	ASSGLASKNIQY	9	6
37	ASSGLASKNIQY	9	4565
43	ASSGLASKNIQY	9	7
30	ASSGLASKNIQY	9	3
5	ASSLVAGDKGSEQF	6	1
42	ASSLVAGDKGSEQF	6	14
27	ASSLVAGDKGSEQF	6	1
30	ASSLVAGDKGSEQF	6	3
43	ASSLVAGDKGSEQF	6	16
28	ASSLVAGDKGSEQF	6	1
37	ASSLVAGDKGSEQF	6	9639
4	ASSLVAGDKGSEQF	6	12
38	ASSLVAGDKGSEQF	6	1
25	ASSQEAYRTYEQY	12	9
23	ASSQEAYRTYEQY	12	5173
21	ASRLVYGTGGSYNEQF	6	1
4	ASRLVYGTGGSYNEQF	6	196
37	ASRLVYGTGGSYNEQF	6	2
37	ASRLRGRTDTQY	8	10
42	ASRLRGRTDTQY	8	3583
39	ASRLRGRTDTQY	8	1
43	ASRLRGRTDTQY	8	1
42	ASSLANRGRRTDTQY	8	1
43	ASSLANRGRRTDTQY	8	231
28	ASSLANRGRRTDTQY	8	1
1	ASRDGSVYEQY	12	5
2	ASRDGSVYEQY	12	1
31	ASSWGSSYNEQF	7	1
19	ASSWGSSYNEQF	7	1976
4	ASSFYDGAYEQY	12	1
42	ASSFYDGAYEQY	12	216
37	ASSFYDGAYEQY	12	5
43	ASSLARSSYNEQF	6	2
4	ASSLARSSYNEQF	6	4
3	ASSLARSSYNEQF	6	461
37	ASSLGVTTEQY	6	8304
44	ASSLGVTTEQY	6	1
30	ASSLGVTTEQY	6	1
4	ASSLGVTTEQY	6	1
38	ASSLGVTTEQY	6	1
6	ASSLGVTTEQY	6	1
28	ASSLGVTTEQY	6	1
42	ASSLGVTTEQY	6	10
42	ASSLGHDEQF	6	209
37	ASSLGHDEQF	6	2
19	ASSLVANEQF	6	1
37	ASSLVANEQF	6	3
18	ASSLGGAYNEQF	6	1
19	ASSLGGAYNEQF	6	946
33	ASPKRDYSCNEQF	6	219
31	ASPKRDYSCNEQF	6	1
8	ASRAPGGRAHEQF	6	2
37	ASRAPGGRAHEQF	6	1
6	ASRAPGGRAHEQF	6	1
14	ASRAPGGRAHEQF	6	8660
28	ASSLEDSHIEQF	6	1
29	ASSLEDSHIEQF	6	216
37	ASSSLADSYNEQF	6	1
4	ASSSLADSYNEQF	6	1
42	ASSSLADSYNEQF	6	183
24	ASHRDNYYEQY	12	3
30	ASHRDNYYEQY	12	2
30	ASSLAGGPSSETQY	10	9
43	ASSLAGGPSSETQY	10	1
6	ASSFRDRVLNEQF	6	1
18	ASSFRDRVLNEQF	6	6765
19	ASSFRDRVLNEQF	6	2
37	ASSQDGGRANEQF	6	6919
43	ASSQDGGRANEQF	6	10
24	ASSQDGGRANEQF	6	1
4	ASSQDGGRANEQF	6	9
30	ASSQDGGRANEQF	6	2
42	ASSQDGGRANEQF	6	13
9	ASSQDGGRANEQF	6	1
38	ASSQDGGRANEQF	6	3
19	ASSQDGGRANEQF	6	1
33	ASSSDRGREQY	12	399
31	ASSSDRGREQY	12	1
8	ASRQGSGNTIY	2	4
37	ASRQGSGNTIY	2	1
14	ASRQGSGNTIY	2	19081
6	ASRQGSGNTIY	2	1
41	ASSSLSSGDTQY	8	1
4	ASSSLSSGDTQY	8	2
37	ASSSLSSGDTQY	8	6
43	ASSSLSSGDTQY	8	4
40	ASSSLSSGDTQY	8	3674
42	ASSLAREVTHIQY	9	58
37	ASSLAREVTHIQY	9	2
33	ASSYWGRGLETQY	10	376
31	ASSYWGRGLETQY	10	2
30	ASSLKVSSYNEQF	6	1
28	ASSLKVSSYNEQF	6	1
38	ASSLGPRNEQF	6	6
37	ASSLGPRNEQF	6	5
12	ASSLRDRGYEQY	12	1
19	ASSLRDRGYEQY	12	3
5	ASSLVYGTVGSYNEQF	6	1
4	ASSLVYGTVGSYNEQF	6	142
33	ASSYSKSYDEQF	6	1
31	ASSYSKSYDEQF	6	18
19	ASSLAGTDTQY	8	67
26	ASSLAGTDTQY	8	391
42	ASSSATGLAASSYEQY	12	331
43	ASSSATGLAASSYEQY	12	1
35	AISKADTQY	8	1
2	AISKADTQY	8	5269
32	AISKADTQY	8	3
33	AISKADTQY	8	2
36	AISKADTQY	8	3
35	ASSPGVNIQY	9	1
31	ASSPGVNIQY	9	7
33	ASSPGVNIQY	9	7
32	ASSPGVNIQY	9	4
19	ASSPGVNIQY	9	1
34	ASSPGVNIQY	9	2252
37	AISFSKAGGGNNEQF	6	9
42	AISFSKAGGGNNEQF	6	1
6	ASSLRRFEQY	12	1571
7	ASSLRRFEQY	12	1
40	ASSLVLYPGRDEQY	12	2240
43	ASSLVLYPGRDEQY	12	5
41	ASSLVLYPGRDEQY	12	4
37	ASSLVLYPGRDEQY	12	2
42	ASSLVLYPGRDEQY	12	1
33	ASSAEEATYNEQF	6	1
32	ASSAEEATYNEQF	6	2
34	ASSAEEATYNEQF	6	4
31	ASSAEEATYNEQF	6	4937
18	ASSAEEATYNEQF	6	1
43	ASERLSGGARGDTQY	8	1
37	ASERLSGGARGDTQY	8	2
42	ASERLSGGARGDTQY	8	713
4	ASERLSGGARGDTQY	8	1
43	ASSFGRGTSGRNEQF	6	1
37	ASSFGRGTSGRNEQF	6	545
18	ASPYPSRANPDEQF	6	23530
19	ASPYPSRANPDEQF	6	2
6	ASPYPSRANPDEQF	6	1
42	ASSKQTGTGKNIQY	9	3
19	ASSKQTGTGKNIQY	9	1
43	ASSKQTGTGKNIQY	9	7
37	ASSKQTGTGKNIQY	9	1019
42	ASSISLLETQY	10	1
43	ASSISLLETQY	10	3
42	ASSLWEGTSVTYEQY	12	1
43	ASSLWEGTSVTYEQY	12	96
40	ASSLWEGTSVTYEQY	12	1
3	ASSRSLAGVSYNEQF	6	1486
43	ASSRSLAGVSYNEQF	6	3
5	ASSRSLAGVSYNEQF	6	4
28	ASSRSLAGVSYNEQF	6	1
27	ASSRSLAGVSYNEQF	6	1
18	ASSRSLAGVSYNEQF	6	1
4	ASSRSLAGVSYNEQF	6	3
33	AISDRDRSYNEQF	6	1
2	AISDRDRSYNEQF	6	2368
36	AISDRDRSYNEQF	6	1
19	AISDRDRSYNEQF	6	1
32	AISDRDRSYNEQF	6	1
14	AITTPGTRKGETQY	10	1
8	AITTPGTRKGETQY	10	1
19	ASRLAGGSSSTDTQY	8	4388
18	ASRLAGGSSSTDTQY	8	1
26	ASCGGTSNSYEQY	12	1
14	ASCGGTSNSYEQY	12	1327
7	ASSLSSGDREVYEQY	12	5
6	ASSLSSGDREVYEQY	12	12120
6	ASSLNRGDEQY	12	1
12	ASSLNRGDEQY	12	4
38	ASSISTNSPLH	5	893
42	ASSISTNSPLH	5	1
43	ASSISTNSPLH	5	1
17	ASSLTTSSGRETQY	10	1
24	ASSLTTSSGRETQY	10	1
28	ASSLTTSSGRETQY	10	6
43	ASSLTTSSGRETQY	10	5759
42	ASSLTTSSGRETQY	10	2
37	ASSLTTSSGRETQY	10	4
40	ASSLTTSSGRETQY	10	2
28	ASSMGQVNYEQY	12	2
29	ASSMGQVNYEQY	12	3318
27	ASSMGQVNYEQY	12	2
26	ASSQVGTGSYEQY	7	3834
28	ASSQVGTGSYEQY	7	1
35	AIRRDLLETQY	10	1
32	AIRRDLLETQY	10	10
31	AIRRDLLETQY	10	3
36	AIRRDLLETQY	10	8
2	AIRRDLLETQY	10	20627
37	ASSLSRAYEQY	12	1
41	ASSLSRAYEQY	12	1
40	ASSLSRAYEQY	12	904
43	ASSLSRAYEQY	12	1
37	ASSLGTYPSTDTQY	8	1
42	ASSLGTYPSTDTQY	8	1
4	ASSLGTYPSTDTQY	8	145
30	ASSLVLAGGLEQY	12	1
4	ASSLVLAGGLEQY	12	97
28	ASSSTGKGDTQY	8	1
43	ASSSTGKGDTQY	8	192
27	ASSSTGKGDTQY	8	1
37	ASSSTGKGDTQY	8	4
7	ASSSGRDSAEQY	12	2
6	ASSSGRDSAEQY	12	1065
34	ASSYSETQY	10	1
33	ASSYSETQY	10	343
37	ASSPRAANEQF	6	582
42	ASSPRAANEQF	6	3
