0	ASADRDEQF	6	2	65
0	ASSAGPSGGIQY	9	2598	1
0	ASSAVFGQGRETQY	10	1	1205
0	ASSDPRAGSSYNEQF	7	5	2
0	ASSEIAGRTDTQY	8	1	7
0	ASSELGDEQF	6	7	1
0	ASSERVGDSYEQY	12	2	3
0	ASSESFDTQY	8	69	32
0	ASSESGLAYEQY	12	1	1
0	ASSESRGGTDTQY	8	4	1
0	ASSESVIRDTASTDTQY	8	10	1364
0	ASSQDRDSYEQY	12	12	3374
0	ASSRGTAYEQY	12	2	1328
0	ASSWEQLGEQF	6	5	1
0	ATTPNSTVSLGETQY	10	427	6
1	ASGVGSSYNEQF	6	2758	3
1	ASREMATSGGRRETQY	10	3	1
1	ASRKAGTGGLETQY	10	1	2342
1	ASRVAGGPSEQY	12	1	60
1	ASSDGHTDTQY	8	2	1
1	ASSDPGGAFYNEQF	6	10	2
1	ASSDSPEQF	6	1603	2
1	ASSELGTTINEQF	6	1033	418
1	ASSEPNSRDLFGEQF	6	1	785
1	ASSERTGSTDTQY	8	3	1
1	ASSESLRRGSYEQF	6	1	856
1	ASSESRTVFSYEQY	12	12	3
1	ASSESSGSSKNEQF	6	1159	2
1	ASSGRLDSTDTYNEQF	6	27	7
1	ASSSQGAGNTIY	2	15	4
1	ASSVDTSYEQY	12	3756	1
1	ASSVGTRYDEQF	6	111	111
1	ASSVGTSMDEQF	6	17	15881
1	ASSWEGGAYEQY	12	8440	5
1	ASSWEGGDYEQY	12	3	1
1	ASTDFQETQY	10	1196	10
1	ASTDRTGSGNTIY	2	2	1
1	ASVLKYWTGETQY	10	16	733
1	ATATGASYEQY	12	159	1
1	ATQDSKETQY	10	5	413
1	ATQGSKETQY	10	1	1
1	TSSELGTTINEQF	6	1	1
10	ASSGGRTYNEQF	6	14	12
10	ASSRVGGETQY	10	4	1
10	ATRPRQSSYNEQF	6	1	1
10	ATRRQGPLTGNTIY	2	2	1228
10	ATSGSGRTYEQY	12	1	45
10	ATSGVGGETQY	10	1	4
10	ATSIMENIQY	9	449	27
10	ATSIMGNIQY	9	2	1
10	ATSNLRGATQETQY	10	3	142
10	ATSPVAGTSYNEQF	6	12530	2
10	ATSQDEVYEQY	12	253	1
10	ATSRAGGETQY	10	2	1
10	ATSRAGQSSGNTIY	2	1	2
10	ATSRASTGYGETQY	10	2	1911
10	ATSRDDSIYNEQF	6	5	2
10	ATSRDFASAYEQF	6	5	5
10	ATSRDFRTGGGDEQF	6	1	1560
10	ATSRDQEGSGEDTQY	8	13	8
10	ATSRDQGGDEQY	12	5	4
10	ATSRDSATPGEQY	12	2	3308
10	ATSRDWAGTTDTQY	8	2	1
10	ATSREGQAYEQY	12	9	6
10	ATSREPSQETQY	10	4	2996
10	ATSRESGLGADTQY	8	1	1119
10	ATSRESSYNEQF	6	9	8
10	ATSRGGLAGANEQF	6	1	4829
10	ATSRGRRGLETQY	10	322	7
10	ATSRGYNEQF	6	15	2
10	ATSRPGQGYNEQF	6	1278	12
10	ATSRRVDYEQY	12	4	1
10	ATSRSLDTQY	8	2	566
10	ATSRVASTDTQY	8	4	2
10	ATSRVGGEEQY	12	874	666
10	ATSRVGGETQY	10	1041	1875
10	ATSSGGGKSYEQY	12	8	1
10	ATSSSRAYEQF	6	1	1
10	ATSTPDHRNEQL	6	5	1
10	ATSTRVNEQF	6	5	161
10	ATSTWGQSNEQF	6	5	4
10	ATTLRGGRTDTQY	8	1	1
10	ATTPGLEPTYEQY	12	1	1
10	ATTSSPDYNEQF	6	2	3142
10	ATTSSPDYNEQL	6	2	402
11	ASSQSWTGTYEQY	12	1	2557
12	ASALGTGFAEQF	6	3	2
12	ASFISVGASGNTIY	2	6	2
12	ASSEGTGTSYEQY	12	2	1
12	ASSERLAGALGTDTQY	8	1	819
12	ASSFSDNEQF	6	677	6
12	ASSGTGTYNEQF	6	4	6483
12	ASSKASAYNEQF	6	1	8232
12	ASSKPGRTYEQY	12	6	1074
12	ASSKQGQPNIQY	9	1	1
12	ASSLISGPTDTQY	8	1	1
12	ASSLKGTSGSSSYNEQF	6	1	114
12	ASSLKRGGETQY	10	3	5
12	ASSLLTSGGHNEQF	6	17	17
12	ASSLNKGDEQY	12	5509	1
12	ASSLRDRDYEQY	12	354	1
12	ASSPAGETQY	10	15	3
12	ASSPDKLDIQY	9	2	843
12	ASSPDRLDIQY	9	8	25669
12	ASSPEAVGGEQY	12	2	212
12	ASSPEGLLNDEQF	6	1	2103
12	ASSPEGRDNEQF	6	4	2
12	ASSPGAMRTDTQY	8	1	215
12	ASSPGAQETQY	10	3507	2
12	ASSPGAVYEQY	12	1	3618
12	ASSPGDTQY	8	10834	2
12	ASSPGGGVNYEQY	12	330	5
12	ASSPGLADTDTQY	8	2	1919
12	ASSPGLNQETQY	10	2	3
12	ASSPGNSGSYEQY	12	8	6
12	ASSPGQRGEQY	12	1	2376
12	ASSPLGGISGNTIY	2	3	4
12	ASSPLGPAGGPNEQF	6	11	1140
12	ASSPLQGAFTDTQY	8	5	1
12	ASSPLQGSWGEQF	6	9	12515
12	ASSPLTGEQY	12	1	5532
12	ASSPLTRNNEQF	6	7	755
12	ASSPLTSGTPGDEQF	6	4	1
12	ASSPNAQTKNIQY	9	20135	4
12	ASSPNRQHNEQF	6	10	8
12	ASSPPDKTYEQY	12	147	3
12	ASSPPEVYEQY	12	1	93
12	ASSPPGASYNEQF	6	2	3236
12	ASSPPGLAGDNEQF	6	1	4
12	ASSPPGLAGYEQY	12	3	223
12	ASSPPGRGREETQY	10	12	600
12	ASSPPGRSTDTQY	8	8	6627
12	ASSPPGSTDTQY	8	4	2
12	ASSPPGSYEQY	12	3	4
12	ASSPPGTGIYEQY	12	2	2851
12	ASSPPGTGPSNEQF	6	3	1802
12	ASSPPGTGSENEQF	6	2	140
12	ASSPPKPSYEQY	12	166	2
12	ASSPPRGNEQF	6	69	406
12	ASSPPRKGPSEQY	12	1044	1
12	ASSPPSEGKNIQY	9	1	45
12	ASSPPSESKNIQY	9	14	25570
12	ASSPPSGKGWNEQF	6	2	1
12	ASSPPSIGTQY	10	1	46
12	ASSPPSPADEQY	12	4	2
12	ASSPPTSSGIHEQY	12	163	154
12	ASSPPTSSGINEQY	12	4	1
12	ASSPPVRGDVIEQF	6	9	1
12	ASSPQEEQY	12	1	1
12	ASSPQGETQY	10	11	3
12	ASSPQLEYEQY	12	9	263
12	ASSPQSGGSYNEQF	6	2	8892
12	ASSPREGAYEQY	12	1	1904
12	ASSPRGAPSTDTQY	8	3	1
12	ASSPRGQGANEQY	12	1	113
12	ASSPRLATLTPYNEQF	6	1	1227
12	ASSPRQGGTDTQY	8	514	1
12	ASSPRRGGGETQY	10	7	3
12	ASSPRRIQGNEQF	6	11	7
12	ASSPSDGAMTDTQY	8	3	282
12	ASSPSDRKQETQY	10	1	2
12	ASSPSTGEVNIQY	9	2	2
12	ASSPTGFMMNIQY	9	357	317
12	ASSPTGNSFEQY	12	22	25
12	ASSPTGTVTDTQY	8	3	1
12	ASSPTLQARGGEQY	12	8	3151
12	ASSPTQGAPGNTIY	2	1	117
12	ASSPVGQGTSGEQY	12	279	6
12	ASSPVRDTDTQY	8	2	936
12	ASSPVRLADTRHYNEQF	6	2603	15
12	ASSPYESTDTQY	8	18	456
12	ASSPYTGGADTQY	8	2746	1
12	ASSRDGNTIY	2	5	3
12	ASSRDRGDIQY	9	3	3
12	ASSRGDRAYEQY	12	361	2
12	ASSRGDRRYEQY	12	3584	2
12	ASSRGQDYEQY	12	6	321
12	ASSRNPSVADTQY	8	2	1
12	ASSRTNPDSYNEQF	6	9493	1
12	ASSSDRPISGNTIY	2	3	1
12	ASSSGDLTFYEQY	12	5	1141
12	ASSSGVYRGLSTDTQY	8	1	118
12	ASSSKTGNYEQY	12	3098	4
12	ASSSRGDTQY	8	2	1
12	ASSSTPTDSYEQY	12	1	395
12	ASSSYRTGENEQF	6	15	4
12	ASSVGGLETQY	10	5	2
13	ARLGWDEQF	6	1	1
13	ARSIGSSYNEQF	7	2	1
13	ASAGGGRVNNEQF	6	3	2
13	ASGVTDTQY	8	6	1
13	ASIRDNRGNNEQF	6	9	970
13	ASKDRTTYEQY	12	3	1
13	ASKMSSPQETQY	10	1275	1
13	ASKWTSGNYNEQF	6	1	5
13	ASKWTSGSYNEQF	7	120	24540
13	ASNRGRGGQETQY	10	4	2
13	ASRALAGGPGEQY	12	10	6160
13	ASRGTSGAYNEQF	6	25	3427
13	ASRLAGYNEQF	6	5	435
13	ASRLAGYNEQL	6	1	6
13	ASRLTSGSYNEQF	6	583	166
13	ASRPLAGPGHIQY	9	105	1
13	ASSDLGTSSSYNEQF	6	4	1
13	ASSFLEVGKNIQY	9	2526	1
13	ASSGGPSYEQY	12	1326	1
13	ASSIDRANTGELF	7	2	9
13	ASSIDRLAGVGNEQF	6	17	2
13	ASSIDSGGKNIQY	9	4	4
13	ASSIDSMTSAYEQY	12	12	4
13	ASSIEGGRETQY	10	2650	2
13	ASSIEGRTSSEQF	6	1	1
13	ASSIETGTREQY	12	1	1760
13	ASSIGDGHNEQF	6	5018	1
13	ASSIGGSGEETQY	10	27	16
13	ASSIGGSYNEQF	6	6	7
13	ASSIGSPYNEQF	6	2	8
13	ASSIGSSHNEQF	7	2	6
13	ASSIGSSYNEQF	6	4	1
13	ASSIGSSYNEQF	7	1012	5937
13	ASSIIAGTGNEQF	6	1	3
13	ASSINPGGQGHNEQF	6	2	1
13	ASSIQLARGTDTQY	8	163	2
13	ASSIQSSGRAFYEQY	12	1	3765
13	ASSIRRERRDEQF	6	4	2703
13	ASSIRSSYNEQF	6	2	7
13	ASSISDHEQY	12	2	3609
13	ASSISSGSHNEQF	6	7	1490
13	ASSITADQETQY	10	672	8
13	ASSITGAGSYNEQF	6	4	1
13	ASSITGTGSYNEQF	6	1116	19
13	ASSIVGVSSYNEQF	6	1	3587
13	ASSIWSSYNEQF	6	1	3
13	ASSKASGSLETQY	10	1	3
13	ASSKGRRSTDTQY	8	29	13
13	ASSKGTGVAKNIQY	9	1	564
13	ASSKLQETQY	10	1	928
13	ASSKTSGSLETQY	10	6	1566
13	ASSKTSGSLETQY	7	1	2010
13	ASSLAEIYNEQF	6	14	805
13	ASSLWDPGSYNEQF	6	1	1
13	ASSLWTDQETQY	10	10341	2
13	ASSMDAGVSGNTIY	2	1	323
13	ASSMEGQMSSYNEQF	6	2	2
13	ASSMGTVQETQY	10	942	1
13	ASSMTSGSLETQY	7	3	9
13	ASSPAGPRETQY	10	2	447
13	ASSPDNYEQY	12	4	3
13	ASSPDTDTQY	8	5	10
13	ASSPIADPEETQY	10	2	1
13	ASSPLQGGETQY	10	1	1249
13	ASSPRTSGENIQY	9	60	1
13	ASSPRYGQETQY	10	1	3711
13	ASSPTSGWQETQY	10	2	13
13	ASSPWDRVQEETQY	10	1	42
13	ASSQDFRAGGPTDTQY	8	1	75
13	ASSRLAGGETQY	10	254	5
13	ASSRLAGSYNEQF	6	2	2498
13	ASSRRTGADPGELF	7	1	3
13	ASSSGLAGGSYNEQF	6	1	203
13	ASSSIRGLRNNEQF	6	6	3
13	ASSSRRSYNEQF	6	1	275
13	ASSSSGDYPQETQY	10	22	75
13	ASSTAGTRSYEQY	12	3	53
13	ASSTDRGWNEQF	6	1	69
13	ASSTFPGQGNNEQF	6	8	10
13	ASSTGTGDGFRKNIQY	9	1	36
13	ASSTGTTIYNEQF	6	1	1
13	ASSTTGFGNEQF	6	2	1
13	ASSVTSGVYNEQF	6	3	3
13	ASSWDRGRGNTIY	2	19	555
13	ASSYCGSPGTQY	8	14	1
13	ATGQSVYNEQF	6	61	860
13	ATGYSSTDTQY	8	5113	2
13	ATTSGVNEQY	12	78	34
14	AISRSSGNNEQF	6	1	1
14	ASAGASTDTQY	8	1	18
14	ASAPISGAYNEQF	6	4842	7
14	ASARGSYEQY	12	39	20
14	ASASSKETQY	10	6	3
14	ASCGGTSNSYEQY	12	1327	2
14	ASGLAGYEQY	12	2	1
14	ASGVAATGRTDTQY	8	2	3
14	ASGWAQALQNEQF	6	10	2
14	ASIDRQTQETQY	10	19025	2
14	ASIGRQTQETQY	10	23	1
14	ASISGRGGYNEQF	6	1	145
14	ASKLAGGQETQY	10	4	5
14	ASKLDTYEQY	12	1	1251
14	ASKREHQETQY	10	8	2
14	ASKTSGYEQY	12	5	5246
14	ASKWDSSYNEQF	6	4	3
14	ASLQGLFSYEQY	12	3	6
14	ASNIGYNEQF	6	68	24
14	ASNPDRGERNEQF	6	11	1
14	ASNPGPTEQF	6	2	1
14	ASPLSGDTQY	8	10	1
14	ASRADDGETQY	10	29	24
14	ASRAGDSYNEQF	6	1	1080
14	ASRALSSYNEQF	6	4	2392
14	ASRASGPAYEQY	12	100	7
14	ASRDTEYSEQY	12	1	859
14	ASREGGGYEQY	12	1	2489
14	ASREGGSYEQY	7	7	6774
14	ASREGQYNEQF	6	19	13
14	ASRELGSDTQY	8	2	1843
14	ASREVQMSADWGQETQY	10	1	611
14	ASRFEGSFETQY	10	2	4
14	ASRGLAGEQY	12	1	2986
14	ASRGLAGTLEQY	12	7	928
14	ASRITYEQY	12	3	1
14	ASRLAENYEQY	12	3	3721
14	ASRQGSGNTIY	2	19081	2
14	ASRRGGGTYNEQF	6	2	1
14	ASRRSGLEETQY	10	1	363
14	ASRRTGDETQY	10	17	636
14	ASRRTGGETQY	10	1	2
14	ASRRTGSPQETQY	10	3	2359
14	ASRSRAPYEQY	12	11	157
14	ASRSSGRVGGEQF	6	6	126
14	ASRTPGTSNEQY	12	3	3481
14	ASRTTSGRTDTQY	8	5	7147
14	ASRVAEEAYNEQF	6	1	212
14	ASSAELADTQY	8	1	1
14	ASSAMGRGSNEQY	12	4	1
14	ASSAPSGNTIY	2	2	2
14	ASSAPTSANQETQY	10	1	4284
14	ASSARTSYNEQF	6	2	1
14	ASSAVDTQY	8	48	73
14	ASSDGTVNEQY	12	2	2725
14	ASSDLAGDILSKNIQY	9	9	6325
14	ASSDNGYNEQF	6	20	8
14	ASSDQGLMTDTQY	8	3	1401
14	ASSDRAEGPYEQY	12	1	1931
14	ASSDRAGSNSPLH	5	1685	2
14	ASSDRGRRRNTIY	2	1377	3
14	ASSDSAATDTQY	8	4	4
14	ASSDVETRVFNEQF	6	4	8422
14	ASSDYYEQY	12	11	5996
14	ASSDYYEQY	6	1	2
14	ASSEAEDSSYEQY	12	8500	2
14	ASSEAGTTYEQY	12	3	4
14	ASSEALRETQY	10	1	1
14	ASSEALTGGTEAF	0	1	15
14	ASSEAPAGRPPYEQY	12	1	81
14	ASSEARGISGNTIY	2	3	29
14	ASSEDKGEQF	6	21	468
14	ASSEEGTSSNEQF	6	4	7795
14	ASSEEVLAGGNEQF	6	1	948
14	ASSEGHLGGTDTQY	8	6	1
14	ASSEGLAYEQY	12	4	1
14	ASSEGPTGSSYEQY	7	2	3737
14	ASSEGQYNEQF	6	2	5905
14	ASSEGRLATYNEQF	6	832	1
14	ASSEGTSGLYNEQF	6	1	201
14	ASSEGYRVIGEQY	12	1	2999
14	ASSEIGGTGVTYEQY	12	9	339
14	ASSELGNTIY	2	3	1
14	ASSERGNSYNEQF	6	377	8
14	ASSERTSEWADTQY	8	13	3
14	ASSESGGQYNEQF	6	1390	1
14	ASSETGYEQY	12	12	4
14	ASSETRDYQETQY	10	9	204
14	ASSETSASYEQY	12	1	92
14	ASSETSGEQETQY	10	4251	1
14	ASSEVEETQY	10	77	40
14	ASSFREGYNEQF	6	4	2
14	ASSFYNEQF	6	1	1
14	ASSGAGSDTQY	8	1446	1
14	ASSGDSYEQF	6	4	5867
14	ASSGEGQETQY	10	7	1
14	ASSGGGLLGNIQY	9	6	6
14	ASSGGTSPYNEQF	6	3	207
14	ASSGLTYNEQF	6	30106	14
14	ASSGPSGGREISDEQF	6	7	2
14	ASSGRQGGYEQY	12	215	2
14	ASSGTTGETQY	10	3	9368
14	ASSIGDTYYEQY	12	1	1
14	ASSIRSRDTQY	8	6	2
14	ASSKGVSSTDTQY	8	1	1
14	ASSLAGGPYEQF	6	3467	1
14	ASSLGFGGREDIQY	9	2	1445
14	ASSLGTPSDTQY	8	8	3
14	ASSLHGPSSGNTIY	2	2	4219
14	ASSLLGLAGLTDTQY	8	2	936
14	ASSLLTSQETQY	10	1	1
14	ASSLTYEQY	12	2	18
14	ASSNRDRGPYEQY	12	5	419
14	ASSNYNEQF	6	477	398
14	ASSNYYEQY	12	1	2
14	ASSPGSAKNIQY	9	4840	1
14	ASSPRRLAGQSPYNEQF	6	1	2
14	ASSQDRSYEQY	12	3	3
14	ASSQNRPGGGDAYEQY	12	30	10
14	ASSQQQTYEQY	12	4	86
14	ASSREDQGLGNTIY	2	20	2
14	ASSRGQGSDEQY	12	39	11
14	ASSRLQGASETQY	10	5	8110
14	ASSRQGGSYEQY	12	1	1
14	ASSRSSGNNEQF	6	1320	4
14	ASSSLTGNEQF	6	6	1
14	ASSVAATGRTDTQY	8	1	1056
14	ASSVEGANEQY	12	4	2
14	ASSVESGSSDTQY	8	13	10195
14	ASSVKSPYREGAKNIQY	9	8150	1
14	ASSVLGTPADTQY	8	64	1
14	ASSVSLGQGYQETQY	10	876	1
14	ASSVSSGGTNEQF	6	5	1
14	ASSVVETQY	10	11	1
14	ASSVWGLPDTQY	8	1	2573
14	ASSWINEQF	6	4	1
14	ASTEAGTAYNEQF	6	4809	1
14	ASTGGQETQY	10	268	6
14	ASTGGRSSYEQY	12	1	1301
14	ASTGPDRETQY	10	5	1
14	ASTSQGPYNSPLH	5	2	315
14	ASTSSSYNEQF	6	14	3
14	ASTVDPGGENIQY	9	9	2
14	ASTVGDPSNEQF	6	2	1586
14	ASTVLAGYNEQF	6	9	12946
14	ASVGAGETQY	10	6	4
14	ASYGQISGNIQY	9	397	2
14	ATGGSGIVEQF	6	5	330
14	ATGLADYYEQY	12	14	8783
14	ATHRDRDPSYEQY	12	4	4
14	ATKTNPAGTDTQY	8	306	2
14	ATRTGSSYEQY	7	2	1651
14	VSRSRAPYEQY	12	1	9
15	SAAAGLEYNEQF	6	1	46
15	SAANGDTINNEQF	6	5	9542
15	SAAPGNEQF	6	7	2
15	SAASGGRNYEQY	12	5	6
15	SAASYTFTYEQY	1	3	1472
15	SAATGTKYEQY	12	294	1
15	SADDREAKNIQY	9	9	171
15	SADESTDTQY	8	4	79
15	SADGGRETQY	10	6	4
15	SADGQGSYEQY	12	2	3320
15	SADGTDHNEQF	6	1	8
15	SADGTDYNEQF	6	442	2362
15	SADGTEYNEQF	6	1	1
15	SADGTGYNEQF	6	1	7
15	SADLGLASSYEQY	12	5	3
15	SADPGTSRDTQY	8	2	16
15	SADRGRETQY	10	2817	331
15	SADRTSGRYNEQF	6	2	1570
15	SADSVETQY	10	5	2
15	SAEGGIDEQY	12	1	381
15	SAEGPSYNEQF	6	263	9
15	SAEGRERETQY	10	3	1380
15	SAEGTDYNEQF	6	2	2
15	SAEIVGGGPYNEQF	6	1	1063
15	SAESQGDNYNEQF	6	2	389
15	SAGGLARLDTQY	8	1	1
15	SAGGLKETQY	10	7	8073
15	SAGGLLDEQF	6	2	1
15	SAGGNNEQF	6	25	5
15	SAGGSGNTIY	2	3	2143
15	SAGGTDYNEQF	6	3	4
15	SAGLAGGYNEQF	6	1	1
15	SAGLAGRPLGYNEQF	6	1	3136
15	SAGLAGSKDTQY	8	1	1
15	SAGLAGSTDTQY	8	3	5128
15	SAGQPGLAREQY	12	1	217
15	SAGRNSYEQY	12	6	2
15	SAGTLAGLTDTQY	8	562	1
15	SAGVGYEQY	12	3	3
15	SAHLGVTDTQY	8	1	3286
15	SAHPGIAKNIQY	9	44792	3
15	SAHREGSTDTQY	8	5	3
15	SAHTGYQETQY	10	14	2
15	SAIGTDGETQY	10	1121	1
15	SAIIAGGAQETQY	10	323	2
15	SAIKVSYEQY	12	7	2
15	SAIPGQGNNEQF	6	4	1
15	SAIRDRVTYNEQF	6	10	21223
15	SAIRLAGVGGRGTQY	10	12	1209
15	SAIRQETQY	10	2	1
15	SAIRVETQY	10	17	7
15	SAITSGTTDTQY	8	10	6251
15	SAKDNGNTIY	2	1	1
15	SAKDTWETQY	10	16982	5
15	SAKGSGGKETQY	10	13	9
15	SAKGSSGGSYNEQF	6	3	8084
15	SAKKIGPYEQY	12	2	3747
15	SAKLAGYYNEQF	6	3	2
15	SAKSSYNEQF	6	2	1
15	SAKVAGLYEQY	12	2	333
15	SALEASGGHYNEQF	6	10	3
15	SALEGAGEETQY	10	3	1
15	SALGLGETQY	10	4	4
15	SALKNAGDVTDTQY	8	5682	2
15	SALLGAADNEQF	6	6	1
15	SALNGQPPYNEQF	6	17778	1
15	SALSGQANNEQF	6	1	5603
15	SALTSDSTDTQY	8	4	2643
15	SAMDLTYEQY	12	2	91
15	SAMGIAGSSYEQY	12	20	4152
15	SAMGVAGENIQY	9	2	1
15	SAMSPRVTDEQY	12	3	3041
15	SANGGFGFTDTQY	8	205	3
15	SANHPGQGSYEQY	12	846	224
15	SANQQREQY	12	1	1193
15	SANRDRGRNEQF	6	3	1
15	SANSGGRNYEQY	12	1	1
15	SANSLAGGFDEQY	12	11	9
15	SAPADTYEQY	12	1	451
15	SAPALAGGRHEQF	6	1	2937
15	SAPDGTGVSPLH	5	2	12
15	SAPDLRVGYEQY	12	1022	1
15	SAPFQKGEQY	12	2	2114
15	SAPFTLYEQY	12	2	6
15	SAPGEGDIYEQY	12	5	5144
15	SAPGHTDEQF	6	15	3
15	SAPGHTNEQF	6	10048	2
15	SAPGLAGGGGYNEQF	6	1	4412
15	SAPGPGGSYNEQF	6	21	5
15	SAPGQGARETQY	10	3753	1
15	SAPGQTNEQF	6	5	3
15	SAPHGSQGRNPYEQY	12	8	5
15	SAPIFGTQGETQY	10	7	298
15	SAPKEAPYEQY	12	535	215
15	SAPLAAATDTQY	8	1934	664
15	SAPLAAATGTQY	8	2	1
15	SAPLAPQETQY	10	11	9952
15	SAPLASATDTQY	8	4	2
15	SAPLEAATDTQY	8	4	1
15	SAPPLAGFTDTQY	8	36	763
15	SAPQGGSLNEQF	6	5	2
15	SAPSASGRMIRNEQF	6	3	4582
15	SAPSVLGYNEQF	6	4	1
15	SAPSVSTDTQY	8	1626	1
15	SAPTGGTETQY	10	2	1806
15	SAPVEVTDTQY	8	11	1
15	SAQGGGTDTQY	8	226	3
15	SAQGTSGHTDTQY	8	7	1039
15	SAQIGTSGNIQY	9	15	4
15	SAQPGGASAYEQY	12	3	389
15	SAQSNFPSYNEQF	6	3	7
15	SAQTSGRSTDTQY	8	17417	1
15	SARAGETQY	10	4	1
15	SARAGPSYEQY	12	3719	1
15	SARAGTEGETQY	10	4	294
15	SARALTSGSYNEQF	6	2	1
15	SARALTSGTYNEQF	6	2	10039
15	SARALTSSSYEQY	12	1	1734
15	SARASGSTDTQY	8	12	170
15	SARDAIAGVGFGEQF	6	4	3843
15	SARDFRASTDTQY	8	5	503
15	SARDGGPQETQY	10	25	10
15	SARDGQELSETQY	10	4287	1
15	SARDGTSGPRRETQY	10	1	1332
15	SARDIGQGKYEQY	12	1	157
15	SARDIGSRSYNSPLH	5	1	308
15	SARDIPGVPTDTQY	8	2	27
15	SARDLAGHIQY	9	6	7408
15	SARDLGLGETQY	10	89	1
15	SARDLQLEYTDTQY	8	1400	75
15	SARDLRRAGGRYEQY	12	3748	1
15	SARDMGADTIY	2	1	272
15	SARDMGREHFSYEQY	12	3	1
15	SARDMLAGSFDEQF	6	1	472
15	SARDPASPYNEQF	6	6	10797
15	SARDPGLAKETQY	10	5	7683
15	SARDPHPGSTDTQY	8	4	2976
15	SARDPLAGHYNEQF	6	12	8962
15	SARDPLAVHYNEQF	6	2	5
15	SARDPRGAYNEQF	6	1	630
15	SARDPRGTGIEQY	12	160	1
15	SARDPSGRFYEQY	12	2	1678
15	SARDPTATGGKETQY	10	17	5
15	SARDPYGQETQY	10	2	3500
15	SARDRAGGTQY	10	1	511
15	SARDRAGRQTNEQF	6	7	3
15	SARDREGSSYEQY	12	9	2
15	SARDRGLGETQY	10	2549	1
15	SARDRGSGTYEQY	12	2	437
15	SARDRGSYEQY	12	1	3
15	SARDRGVSGNTIY	2	21	14319
15	SARDRGYNEQF	6	14	11
15	SARDRPTSGSYNEQF	6	1138	1
15	SARDRVRGGETQY	10	2531	1
15	SARDSGAYNEQF	6	1070	1
15	SARDSGGAGETQY	10	4	1
15	SARDSGLGDGETQY	10	4	1
15	SARDSGRARRTDTQY	8	413	2
15	SARDSPRAAFYEQY	12	3	2
15	SARDTGGGYNEQF	6	2	377
15	SARDVTGADYNEQF	6	23	361
15	SARDWAGGDYEQY	12	5204	1
15	SARDWDSGSTDTQY	8	23	4618
15	SARDWRGKNIQY	9	3	4882
15	SARDYRTSLYEQY	12	382	3
15	SAREADSYNEQF	6	3	2
15	SAREAGSYNEQF	6	179	1
15	SAREAPEVYNEQF	6	10	16052
15	SAREGGPGNTIY	2	525	5
15	SAREGGSYNSPLH	5	8	2
15	SAREGRGLETQY	10	1	1390
15	SAREIRYNEQF	6	347	3
15	SARELAKNIQY	9	3	9455
15	SAREPGLGNYNEQF	6	9	7546
15	SARERDTKPYEQY	12	2311	2
15	SARERLAGDQETQY	10	411	1
15	SARETSGSLHEQY	12	12	4052
15	SAREVVGADTQY	8	4	1
15	SARGDSNNEQF	6	533	3
15	SARGDYTDTQY	8	15525	2
15	SARGGAGYTDTQY	1	1	836
15	SARGGETQY	10	1	1917
15	SARGGTSAYEQY	12	1	355
15	SARGGVETQY	10	30	9
15	SARGINYIQY	9	1	4
15	SARGLAERGEQY	12	5	5636
15	SARGLAGNYNEQF	6	5	320
15	SARGLARGRQETQY	10	27	15
15	SARGLSGRASIEQF	6	9	233
15	SARGQPAYEQY	12	1	1
15	SARGQSTDTQY	8	2	2
15	SARGQVKETQY	10	20634	4
15	SARGSGAGQYNEQF	6	3	1
15	SARGSGGQETQY	10	1	1
15	SARGTGGANNEQF	6	2	1
15	SARGTGGLDEQY	12	2	1
15	SARGTSGRAGETQY	10	1	718
15	SARGTSNEQF	6	12	26934
15	SARGVVAGTDTQY	8	19	359
15	SARGWSLNEQF	6	10	5
15	SARIDRSEQY	12	1	401
15	SARILQGAAYNEQF	6	3	109
15	SARIPGLANEQF	6	3	2877
15	SARISGPTDTQY	8	391	1
15	SARKAGSYNEQF	6	1	1071
15	SARKAQSSHNEQF	6	2	442
15	SARKGQYNSPLH	5	15	1
15	SARKIAGGAYSYEQY	12	2	1604
15	SARKNGDTQY	8	2924	14
15	SARKQQETQY	10	4211	27
15	SARKRQETQY	10	110	2
15	SARLAGSSYNEQF	6	1	5258
15	SARLEGSGRYEQF	6	3	2
15	SARLGLQETQY	10	5	3
15	SARLPQGGNEQY	12	3019	1
15	SARLSSYNEQF	6	23	25107
15	SARLTSGRAYEQY	12	3	9460
15	SARPASGFNEQF	6	3450	2
15	SARPGITDTQY	8	17	3
15	SARPGLGWDEQF	6	2	2506
15	SARPGRVTYEQY	12	2	1621
15	SARPGVSGFYEQY	12	2	2303
15	SARPLSGGETQY	10	3	6634
15	SARPNRGSRNEQF	6	8	11555
15	SARPPAGTQY	8	37583	7
15	SARPPGLQETQY	10	16	726
15	SARPQDREHEQF	4	12	4
15	SARPVLAKNIQY	9	1421	1
15	SARQERTTYNEQF	6	5	9146
15	SARRAEAETQY	10	1	834
15	SARREREDRLTDTQY	8	1	1095
15	SARRGMGAKNIQY	9	3	2390
15	SARRGSSGQETQY	10	2	879
15	SARRLIAGGYNEQF	6	3	2
15	SARRRDRSSYEQY	12	1120	1
15	SARSDQSSYEQY	12	4	9
15	SARSGAMVYEQF	6	10	13
15	SARSGSSYNSPLH	7	1	173
15	SARSPLGQETQY	10	1	3
15	SARSPSNEQF	6	2	4676
15	SARTARRADTQY	8	1	183
15	SARTGPREQY	12	2156	1
15	SARTGRETQY	10	12	1
15	SARTRDTYEQY	12	11	7
15	SARTSGRLGYNEQF	6	1	1
15	SARTSWQNEQY	12	3	2288
15	SARTTGQGGTDTQY	8	2	573
15	SARVASAPSYEQY	12	1	793
15	SARVDQGFYEQY	12	2	3
15	SARVFGRGGAYEQY	12	1740	1
15	SARVGRKGDNEQF	6	12	12208
15	SARVGTSGNTIY	2	1	358
15	SARVNFLAGVSNEQF	6	15459	2
15	SARVNSYSGNTIY	2	5965	1
15	SARVPLGQQETQY	10	11742	1
15	SARVPSGRKGTQY	10	2	2
15	SARVPSGYNSPLH	5	1	155
15	SARVSETQY	10	6	4
15	SARVTGYNEQF	6	11	2
15	SARVVADTQY	8	2	2058
15	SARWSRIPNEQF	6	15863	1
15	SASAEGSGGYNEQF	6	1639	7
15	SASAISGGPYNEQF	6	12	6
15	SASASGKIPYEQY	12	1	7
15	SASDFSRDTHEQY	12	12375	1
15	SASDGGPSSYNEQF	6	1	2
15	SASDLAGSYNEQF	6	2	387
15	SASDRASSTDTQY	8	4	1
15	SASDRGYGNTIY	2	3	1
15	SASDRYEQY	12	3	1
15	SASEGAVDTQY	8	1	11
15	SASEPAGVFTDTQY	8	2631	1
15	SASFGGRGSYNEQF	6	3	2382
15	SASGLAGVNEQF	6	1	2
15	SASGLFGTDTQY	8	90	1
15	SASGSGGLNNEQF	6	2	2
15	SASGTGGGHEQF	6	2	2157
15	SASGTLNEQF	6	1	1561
15	SASGTPTDTQY	8	7	3293
15	SASGTSGTDTQY	8	1	216
15	SASGVAGIAKNIQY	9	7	3
15	SASGVRIADTQY	8	8	1
15	SASHGGRGNEQF	6	848	1
15	SASIGTSGNNEQF	6	6	5266
15	SASIRGLAKNIQY	9	2	1
15	SASKVPSSYEQY	12	1	1
15	SASLAGDTDTQY	8	17	527
15	SASLAGGTDTQY	8	1	1
15	SASLGGRESGEQY	12	2078	1
15	SASLSGGSYNEQF	6	7	2
15	SASPDGLLETQY	10	1	1
15	SASPKVGVGSYNEQF	6	1	8
15	SASPLAGGGKNIQY	9	6	3276
15	SASPLAGGGSYNEQF	6	5	4
15	SASPLAGTTYNEQF	6	831	4
15	SASPLPPAIVTDTQY	8	1	39
15	SASPLVGTTYNEQF	6	42	1
15	SASRGTGEQY	12	7	9909
15	SASRQETQY	10	1135	1680
15	SASRQGARNEQF	6	15	1
15	SASRRETQY	10	3	3
15	SASRSGSYNEQF	6	9	1409
15	SASSGFQETQY	10	3	2
15	SASSGGRNYEQY	12	1	4
15	SASSGRGTDTQY	8	4	1796
15	SASSGTGSYNEQF	6	11	7
15	SASSPETQY	10	15	2945
15	SASSQETQY	10	1	3
15	SASSSGQGRQETQY	10	1214	8
15	SASTAGGPPSYEQY	12	9	6600
15	SASTEGEETQY	10	2154	1
15	SASTTGTAIAKNIQY	9	674	2
15	SASVGQETQY	10	8	7163
15	SASVGRGSNEQF	6	391	589
15	SASYLGVKETQY	10	7	1
15	SASYRGETQY	10	5	9
15	SATARDTQY	8	1	2610
15	SATDYRVGETQY	10	23441	17
15	SATGGGRNYEQY	12	3	5
15	SATGTESSYEQY	12	1	1
15	SATGTRSYEQY	12	4	708
15	SATGTSGVDSTDTQY	8	1	74
15	SATIGGRNYEQY	12	2	1
15	SATPDTTYEQY	12	2	999
15	SATPEGQVETQY	10	1	1
15	SATPGLAGGPREQF	6	5	3039
15	SATRLAGGPGPETQY	10	4	2592
15	SATRTSGQETQY	10	4	3
15	SATRVLAGGGFYEQY	12	1	101
15	SATSEGRNYEQY	12	3	1
15	SATSGERNYEQY	12	4	3
15	SATSGGRKYEQY	12	1	6
15	SATSGGRNHEQY	12	3	5
15	SATSGGRNYEQY	12	2317	3761
15	SATSGGRNYEQY	6	1	2
15	SATSGGRSYEQY	12	3	11
15	SATSGGWNYEQY	12	4	3
15	SATSGNIMNEQF	6	2	3138
15	SATSGVRNYEQY	12	2	3
15	SATSLTDTQY	8	3	3
15	SATTLEGAYNEQF	6	5	1
15	SATTSGRARDTQY	8	2	145
15	SAVDISSTDTQY	8	4	2
15	SAVPNREQY	12	29	28
15	SAWTSGNQETQY	10	12	20265
15	SAWTSTREVPYEQY	12	5	1
15	SAWVGNQETQY	10	1792	2
15	SAYQVSGRLNEQF	6	5	6041
15	SAYWDRTDTQY	8	5	1
15	SVDRGIRPYEQY	12	32	1
15	SVNPGQGAFEQY	12	4	2
15	SVRGGSHNEQF	6	5	5648
15	SVRTGSDEQF	6	6	1
15	SVTVTYNEQF	6	1	1
16	AIAQAGGNEQF	6	6	113
16	ATASRGEQY	12	2	1358
16	ATGAAGTGGRYNEQF	6	3	1
16	ATGLEGFDEQF	6	1	2
16	ATGLKGFDEQF	6	1123	3109
16	ATGLKGFDEQL	6	3	7
16	ATGLKGLDEQF	6	2	1
16	ATGLKGSDEQF	6	1	1
16	ATGPKGFDEQF	6	1	2
16	ATGRGRTTDHHEQF	6	1	2
16	ATREGDEQF	6	20	5
16	ATRGEPTETQY	10	6	2
16	ATSAASGSRNEQF	6	8688	2
16	ATSAGSISYEQY	12	19	13
16	ATSASQPGLAADTQY	8	2052	6
16	ATSASQPGLTADTQY	8	8	1
16	ATSDAAWTGSRDEQY	12	10	5795
16	ATSDDNEQF	6	15549	4
16	ATSDFFDSQETQY	10	3	1
16	ATSDFQGRNEQF	6	9	2
16	ATSDGDEQY	12	1	1
16	ATSDLFWSEQF	6	7	1
16	ATSDLGGVAGGNEQF	6	4	1
16	ATSDLGQSTDTQY	8	9	2
16	ATSDLPGSYNEQF	6	10	302
16	ATSDLPGSYNEQL	6	1	14
16	ATSDLQPGSDTQY	8	2	1
16	ATSDLSGRGDEQF	6	9642	1
16	ATSDLVNEQF	6	3	6
16	ATSDLWDLISSCNEQF	6	1	1
16	ATSDPGQGTSYEQY	12	6	3
16	ATSDPGSHYEQY	12	38	1013
16	ATSDPPADTQY	8	9	8168
16	ATSDPTESLYNEQF	6	11414	2
16	ATSDPTESLYSEQF	6	15	1
16	ATSDPTSGAPYEQY	12	7	4
16	ATSDPTTDTQY	8	25	425
16	ATSDQSGPSSYNEQF	6	1	2
16	ATSDRRTSDTQY	8	4	2
16	ATSDRTDTQY	8	4	2
16	ATSDRTGHNEQF	6	1	1
16	ATSDSLAGVYNEQF	6	10	1
16	ATSDSRDTRTDTQY	8	10	1
16	ATSDTRPTSVAPYNEQF	6	1653	2
16	ATSDYSRETTDTQY	8	14	5
16	ATSEAGVTDTQY	8	6683	1
16	ATSEGDEQY	12	7	783
16	ATSEGDSPFRDNEQF	6	1	1
16	ATSEGQPDTQY	8	1	1408
16	ATSEIAGGPNEQF	6	11232	4
16	ATSEQGELGEQY	12	2	274
16	ATSGQSYGNEQF	6	2	1
16	ATSGVLGRAQETQY	10	9	5
16	ATSGWTSGGDNEQF	6	16544	3
16	ATSLRGYDEQY	12	1	5
16	ATSPGANNEQF	6	2	1
16	ATSRGHNEQF	6	2	4884
16	ATSTSGGLDNEQF	6	5	3
16	ATSVSGGYEQY	12	3	3002
16	ATVLKGFDEQF	6	1	2
17	ASIQAGGPYEQY	12	1	616
17	ASKVGGSYEQY	12	5	4
17	ASRLGKNEQF	6	3	270
17	ASRRGGSQETQY	10	83	36262
17	ASRRGGTQETQY	10	1	4
17	ASRTGQGETQY	10	5	1
17	ASSARTSGSYEQF	7	1	6736
17	ASSAVGAKNIQY	9	5	1
17	ASSAYYEQY	12	3	1
17	ASSDPSGVYEQY	12	4	6199
17	ASSDSSRGHHEQY	12	7	1340
17	ASSDWGRNEQF	6	3	2
17	ASSEAGPLASGKETQY	10	5	200
17	ASSEEGGVETQY	10	11860	2
17	ASSEGGRSNEQF	6	1438	11
17	ASSELISTDTQY	8	5791	3
17	ASSELRFGDTQY	8	3	2697
17	ASSEPRAGGYNEQF	6	8	3
17	ASSESGQGAVKNIQY	9	6	3
17	ASSEVLRETQY	10	6	5
17	ASSEWGGRQGGTEQY	12	4	2290
17	ASSEWGSSDSYEQY	12	1	1458
17	ASSEYGWGQETQY	10	16028	3
17	ASSGRTSGRTRSNEQF	6	7	1203
17	ASSKTSGRITDTQY	8	39515	10
17	ASSLAGGGWNIQY	9	1	469
17	ASSPGLHTDTQY	8	18013	2
17	ASSPRAQYEQY	12	1906	2
17	ASSVAGDMNEQF	6	11	2
17	ASSVLAFDEQF	6	245	3
17	ASTSGGGEQF	6	1	1
17	ATLDAGGLNEQF	6	1	1
18	ARRRGGGNTIY	2	2	463
18	ASAIHRGDTQY	8	1	1
18	ASFAASYEQY	12	29	8253
18	ASGFSGLAGYNEQF	6	7	9372
18	ASGLAGAETQY	10	1	756
18	ASIPLYFNEQF	6	7	1
18	ASPHPTGGYEQY	12	1	1
18	ASPYPSRANPDEQF	6	23530	4
18	ASREAGVGDTQY	8	1	35
18	ASREGRGTDTQY	8	1	1
18	ASRETGWYEQY	12	3	2
18	ASRGLARGYEQY	12	4	2654
18	ASRLAGYNEQF	6	11	598
18	ASRPDYSYNEQF	6	484	1
18	ASRPRGLGNTIY	2	40	8087
18	ASRRPSGSMNEQF	6	1	88
18	ASRRRQGSYDEQF	6	8	1
18	ASSDGTYTYEQY	12	1	1308
18	ASSFGGPKNIQY	9	2	2330
18	ASSFGGWNEQF	6	1	688
18	ASSFKREGRYEQY	12	2379	1
18	ASSFLLSIYEQY	12	2	6295
18	ASSFPGTGGAGNTIY	2	1	1
18	ASSFRGGRLQETQY	10	1835	1
18	ASSFRGPKETQY	10	1	2
18	ASSFRGTGDEQY	12	1	1973
18	ASSGASAYEQY	12	10103	1
18	ASSGGQGFQETQY	10	1	850
18	ASSGSGTGQETQY	10	3	2030
18	ASSHRGQLNGEQY	12	3	5296
18	ASSHRTGAYNEQF	6	7	4
18	ASSKDRVGHEQY	12	2	1041
18	ASSKGVRIYEQY	12	5	3
18	ASSKVTGRGPHEQY	12	1	3
18	ASSLAGAETQY	10	44	51517
18	ASSLALAGGPFNEQF	6	1	1698
18	ASSLDRSSGNTIY	2	1	134
18	ASSLEQNYEQY	12	628	1
18	ASSLEVPYNEQF	6	8	2
18	ASSLFAGKPQETQY	10	1	2335
18	ASSLFTGQETQY	10	2	1265
18	ASSLGAGFEQY	12	5	1
18	ASSLGGPYNEQF	6	26343	4
18	ASSLGGRGETQY	10	15913	5
18	ASSLGLFSDTQY	8	1	2
18	ASSLGPAGQGYEQY	12	2	2
18	ASSLGRQWETQY	10	2	1018
18	ASSLGTTSTDTQY	8	1	99
18	ASSLIAGAPYNEQF	6	362	1
18	ASSLIGRHQETQY	10	2	7951
18	ASSLLGLAGGRNEQF	6	2	3
18	ASSLLWDSGINSYEQY	12	1	229
18	ASSLNSPNSPLH	5	1	1495
18	ASSLPAAGGIQETQY	10	3	1
18	ASSLRFPGSGHEQY	12	193	86
18	ASSLRGEQY	12	3157	1
18	ASSLRIPLAGGYEQY	12	2	792
18	ASSLRLFSDTQY	8	186	367
18	ASSLRRMPSGTTSYEQY	12	4	4794
18	ASSLRSLSSPSYNEQF	6	2	1
18	ASSLRVRDTQETQY	10	2523	1
18	ASSLSGAWEQY	12	253	3
18	ASSLSGRVRWEINEQF	6	8	1
18	ASSLSNGGVEQF	6	4	1
18	ASSLSNRRDEQF	6	49	14
18	ASSLSPLAGGLKDEQF	6	3	2642
18	ASSLSRTTYEQY	12	1	5186
18	ASSLSSLAGGTDEQF	6	1	1
18	ASSLSSQNEQF	6	1	1
18	ASSLSTSGFGNEQF	6	5	10630
18	ASSLTGNYNEQF	6	2900	1
18	ASSLTNSYEQY	12	5	5541
18	ASSLTPGQNNEQF	6	13	5
18	ASSLVEYNEQF	6	5	1
18	ASSLVLDTQY	8	6	2
18	ASSLWGDQPQH	4	1	1
18	ASSLWGFAAHYEQY	12	1	2
18	ASSLWGSGYSYNEQF	6	1	298
18	ASSLYASGSTDTQY	8	1615	1
18	ASSLYQGFQDEQY	12	7	7945
18	ASSLYRADTQY	8	14	3152
18	ASSMGLAGVIGEQY	12	3	4011
18	ASSPAISYEQY	12	3	3249
18	ASSPARLAGTHEQY	12	1	71
18	ASSPARLAGTYEQY	12	4	1703
18	ASSPATLLEGQETQY	10	1	4948
18	ASSPDSGDSYNEQF	6	11374	2
18	ASSPGGIYEQY	12	6	4
18	ASSPGTYNEQF	6	33218	3
18	ASSPLAGARNEQF	7	8	803
18	ASSPLHFNEQF	6	3	1
18	ASSPLLRGLEETQY	10	38	14
18	ASSPLPGGNLYYEQY	12	2887	1
18	ASSPLYFDEQF	6	2	75
18	ASSPLYFNEQF	6	3593	2007
18	ASSPLYFNEQL	6	7	6
18	ASSPLYLNEQF	6	9	9
18	ASSPLYSNEQF	6	12	2
18	ASSPPYFNEQF	6	16	4
18	ASSPQETQY	10	320	1
18	ASSPQGLGHNEQF	6	1	1
18	ASSPQGLGYNEQF	6	2	252
18	ASSPRGGRETQY	10	5	2
18	ASSPTVPETQY	10	6163	2
18	ASSQPDRSNEQF	6	10	20417
18	ASSQPDRSNEQL	6	1	49
18	ASSRGARDYNEQF	6	4	1
18	ASSRGGGVKNIQY	9	5	11310
18	ASSRPDRSNEQF	6	1	907
18	ASSRQGRRETQY	10	784	1
18	ASSRTGIVYNEQF	6	4897	1
18	ASSSGGNRANEQF	6	2	1
18	ASSSGLAGAENEQF	6	5	1
18	ASSSGLYEQY	12	2	3250
18	ASSSLYFNEQF	6	2	3
18	ASSSPQGAIYNEQF	6	6	13785
18	ASSSTEATTFDEQF	6	1	4
18	ASSSTEATTFNEQF	6	16	1361
18	ASSSTGETETQY	10	1	1
18	ASSSTGTGAYNEQF	6	1	2
18	ASSSTSEDEQY	12	8	4
18	ASSSYGLAGDNEQF	6	1	1
18	ASSWRGQETQY	10	1	1
18	ASSYLDRGLHEQY	12	5	1605
18	ASTFGGEGGTQY	8	835	2
18	ASTFSGTGKYFLSYNEQF	6	5	2512
18	ASTLTGTGSREQY	12	5	4864
18	ASTNRAPYEQY	12	2	2
18	ASTPGLASGGNNEQF	6	1	521
18	ASTPRPNSYNEQF	6	17044	1
18	ATGKTRAPTNEQF	6	4	1
18	ATHIRGLAGSTDTQY	8	4	1115
18	ATTPGQRKETQY	10	2	1
18	VSSPLYFNEQF	6	1	2
19	AIETSGRSPGYEQF	6	1	1
19	ARGGGGSIAKNIQY	9	2	4
19	ASAIQGLGEKLF	3	1	89
19	ASDSWASGTYNEQF	6	1	55
19	ASFRDRRETQY	10	9789	2
19	ASFSGAGTGNTIY	2	3775	2
19	ASGFVGTNQETQY	10	4	14
19	ASGGGGPIAKNIQY	9	1	2
19	ASGGGGSIAKNIQY	9	1202	4015
19	ASGGGGSMAKNIQY	9	3	2
19	ASGGGGYIAKNIQY	9	1	2
19	ASGGGQGFQETQY	10	8	7
19	ASGGHGFQETQY	10	8	1
19	ASGGRGSIAKNIQY	9	1	4
19	ASGLSGQGIYEQY	12	6	1
19	ASGPPDRPKNIQY	9	1	7
19	ASGRGFSGNTIY	2	9	102
19	ASGSGQGGQEETQY	10	1	1
19	ASGSNKPYEQY	12	3	1
19	ASGTGTYEQY	12	6	1
19	ASHRDNEQF	6	2	3086
19	ASIFVGTNQETQY	10	6	2
19	ASIGGGAIGYEQY	12	3	1
19	ASIGGNYNEQF	6	2	1097
19	ASIGGQGFQETQY	10	1	1
19	ASIKGGDGNTIY	2	13548	1
19	ASILTRGSYEQY	12	4	4
19	ASIPQLVADTQY	8	2445	1
19	ASIQLIPGNTIY	2	299	1
19	ASIQLISGNTIY	2	52	204
19	ASITRRGFNEQF	6	1	1
19	ASKAGSSSTDTQY	8	1	1
19	ASKARGSLRYEQY	12	1	1271
19	ASKGRDYSGSYEQY	12	1	1
19	ASKKRGNEQF	6	1	16
19	ASKNRGPYEQY	12	5	2
19	ASKPGQESYEQY	12	1	263
19	ASKPQGAMIDTQY	8	3997	1
19	ASKSASEAAGEYNEQF	6	2	1
19	ASLGEPRNIQY	9	11	11744
19	ASLNGGGRGYNEQF	6	2	2333
19	ASNELAGGHEQF	6	3	2
19	ASNGDRGDYEQY	12	9	723
19	ASNGGGSGGAYNEQF	6	3	1
19	ASNPGLAGALYEQY	12	6	3423
19	ASNPPGRSYEQY	12	11764	2
19	ASNQRGGLNEQF	6	12	3
19	ASNSPAERNTIY	2	2	1695
19	ASNSPGQGIGDTQY	8	1	172
19	ASQRSASVYEQY	12	1	2294
19	ASRAAGGGYNEQF	6	1	1835
19	ASRAGTANYNEQF	6	3155	1
19	ASRAGTGKAETQY	10	5	1
19	ASRGAGGYYNEQF	6	4	5379
19	ASRGGQGFQETQY	10	5	4
19	ASRGLASYNEQF	6	5	5757
19	ASRGTASYEQY	12	3	1
19	ASRGVKGENEQY	12	2	1518
19	ASRHGQGGSPLH	5	31	7
19	ASRILAGGYNEQF	6	10987	4
19	ASRKAAGVLDTQY	8	57	9081
19	ASRLAGEWYEQY	12	1	498
19	ASRLAGGSSSTDTQY	8	4388	2
19	ASRLAGGYNEQF	6	2	2
19	ASRLLANTDTQY	8	9	13513
19	ASRLRIHYEQY	12	4215	1
19	ASRMSSDYEQY	12	1	1393
19	ASRNPGFSDTQY	8	11416	2
19	ASRPNLYEQY	12	5	4
19	ASRPTGYEQY	12	7445	3
19	ASRQGGQETQY	10	3	1
19	ASRQPWSEQF	6	4	4
19	ASRRGGVFGDTQY	8	1	1
19	ASRRHVQETQY	10	2	3
19	ASRRLAGGYNEQF	6	7	9281
19	ASRSLAGGYNEQF	6	2	10
19	ASRSLAGSYTDTQY	8	2	1
19	ASRSLHEQY	12	533	1
19	ASRTLAGITDTQY	8	38	11
19	ASRTSRRRADTQY	8	2784	1
19	ASRTVYQNEQF	6	6	2
19	ASRTWSVSNNEQF	6	2	2
19	ASRVTSTDTQY	8	14067	1
19	ASRWRNTDTQY	8	3	3
19	ASSAEETQY	10	1	14
19	ASSAQDTNEQF	6	2	2
19	ASSARASGKRDEQF	6	1	1
19	ASSATLGANRDREGNEQF	6	2	2897
19	ASSATSSYNEQF	6	89	1
19	ASSDRDEQY	12	1	177
19	ASSDTRGGGANVLT	11	2	1045
19	ASSEGQGFQETQY	10	6	3
19	ASSEHDDTQY	8	6776	1
19	ASSFAGTDTQY	8	35208	3
19	ASSFAGTNQETQY	10	5	11
19	ASSFAQAYEQY	12	3	104
19	ASSFFGTNQETQY	10	2	5
19	ASSFFMDEQY	12	2	1234
19	ASSFGGRETQY	10	5	1
19	ASSFGGTNQETQY	10	1	3
19	ASSFGKSWSDEQF	6	1	13
19	ASSFGQSWSDEQF	6	6	17998
19	ASSFHPPSQETQY	10	1	1
19	ASSFIGTNQETQY	10	4	2
19	ASSFKTGNYNEQF	6	5	343
19	ASSFLAVSSGNTIY	2	9319	2
19	ASSFLSGTDTQY	8	12	10370
19	ASSFLSGTGTQY	8	1	490
19	ASSFPGGRGNSCEQY	12	11	1
19	ASSFPGLAKNIQY	9	2	2
19	ASSFQGGSVVSNEQF	6	3	4273
19	ASSFQRGETQY	10	1	2222
19	ASSFRLDRRPNEQF	6	921	1
19	ASSFSGLSYEQF	6	6	18671
19	ASSFSQSSGRANYEQY	12	8	3
19	ASSFSRGRYTDTQY	8	1	1
19	ASSFSRQVWETQY	10	5	7589
19	ASSFSSPYEQY	12	34	14
19	ASSFVAGTDTQY	8	1	1080
19	ASSFVETNQETQY	10	2	2
19	ASSFVGANQETQY	10	7	6
19	ASSFVGAREQY	12	1	3196
19	ASSFVGINQETQY	10	2	5
19	ASSFVGKNQETQY	10	4	7
19	ASSFVGTDQETQY	10	7	8
19	ASSFVGTKQETQY	10	7	5
19	ASSFVGTNKETQY	10	5	1
19	ASSFVGTNQDTQY	10	8	9
19	ASSFVGTNQETQY	10	6242	6710
19	ASSFVGTNQGTQY	10	14	17
19	ASSFVGTNRETQY	10	4	4
19	ASSFVGTSQETQY	10	2	293
19	ASSFVGYEQY	12	57	21
19	ASSFVMNNEQF	6	1	7358
19	ASSFVRTNQETQY	10	3	1
19	ASSFVVTNQETQY	10	7	2
19	ASSFVWTNQETQY	10	2	2
19	ASSFWDRRGTQY	10	12	1
19	ASSFWYNEQF	6	304	2
19	ASSFYRGVGVKSYHEQY	12	8	5
19	ASSGEQGFQETQY	10	4	7
19	ASSGGEGFQETQY	10	2	1
19	ASSGGHGFQETQY	10	4	2
19	ASSGGKGFQETQY	10	9	3
19	ASSGGQAFQETQY	10	3	2
19	ASSGGQCFQETQY	10	12	2
19	ASSGGQDFQETQY	10	3	3
19	ASSGGQGFEETQY	10	2	1
19	ASSGGQGFHETQY	10	2	6
19	ASSGGQGFKETQY	10	5	4
19	ASSGGQGFQDTQY	10	10	7
19	ASSGGQGFQETQY	10	9681	7355
19	ASSGGQGFQGTQY	10	15	5
19	ASSGGQGFRETQY	10	6	9
19	ASSGGQGLQETQY	10	27	25
19	ASSGGQGSQETQY	10	173	6
19	ASSGGQSFQETQY	10	18	3
19	ASSGGQVFQETQY	10	4	2
19	ASSGGRGFQETQY	10	11	7
19	ASSGGSEQY	12	25	10995
19	ASSGHGFQETQY	10	334	4
19	ASSGQARYEQY	12	1	1
19	ASSGRQGFQETQY	10	3	6
19	ASSGRSDTEQY	12	6	9271
19	ASSGTAGTGPYEQY	12	1650	1
19	ASSGVLQGGTDTQY	8	2	114
19	ASSGVQGFQETQY	10	5	6
19	ASSHRGQNEQF	6	1	7
19	ASSHRGRNEQF	6	9	14040
19	ASSHRLLAKNIQY	9	3	1271
19	ASSIGGSAQLYEQY	12	1	73
19	ASSINGDTQY	8	5	2
19	ASSISPTYEQY	12	4	1
19	ASSISSQGNEQF	6	27809	3
19	ASSIVQGTQY	8	22826	12
19	ASSKLQGSAETQY	10	1	3041
19	ASSLADNDNSPLH	5	1	536
19	ASSLADTVYNEQF	6	10	4
19	ASSLAGSGNTIY	2	3263	87
19	ASSLAGSYEQY	12	1	1
19	ASSLAGTGLSHEQY	12	1	274
19	ASSLAGVSYNEQF	6	2	1
19	ASSLAGYEQY	12	1	847
19	ASSLATGLAASSYEQY	12	1	2
19	ASSLATSGSYEQY	12	1	1550
19	ASSLEAKNIQY	9	1	2098
19	ASSLEATTYEQY	12	1049	367
19	ASSLEEGQVAKNIQY	9	11	6
19	ASSLEISETQY	10	2	1
19	ASSLERGFGSTDTQY	8	1589	4
19	ASSLFHFPDRVTIQY	9	1	2
19	ASSLFRPVESSYNEQF	6	5	2
19	ASSLFWGTRNNEQF	6	2	1
19	ASSLGDRAGSEQY	12	3	1
19	ASSLGGAGIYEQY	12	1	1
19	ASSLGGARIYEQY	12	1	3203
19	ASSLGGRRGEQY	12	1157	1
19	ASSLGGTVETQY	10	4	1987
19	ASSLGLGTGQETQY	10	6353	1
19	ASSLGLHNEQF	6	9	3
19	ASSLGLHYEQY	12	1	1
19	ASSLGSGDTDTQY	8	30	11
19	ASSLGSTGANVLT	11	1	130
19	ASSLGTGWEETQY	10	1	1
19	ASSLGTPNEQF	6	33	17
19	ASSLGTTFYNEQF	6	1	2350
19	ASSLGTVGSNEQF	6	1	1
19	ASSLGYYNEQF	6	8	2
19	ASSLIRGGSRNEQF	6	5	10988
19	ASSLIWASGKNEQF	6	1	4775
19	ASSLKETQY	10	1384	4
19	ASSLKGALDEQY	12	1	4868
19	ASSLLGLGNIQY	9	8	4
19	ASSLLGREQY	12	25	8883
19	ASSLLPGQGIYEQY	12	1	1
19	ASSLLRREQY	12	1	5
19	ASSLLSPNEQF	6	1	1101
19	ASSLLTGAIYEQY	12	1	3457
19	ASSLPAQETQY	10	12210	2
19	ASSLPGQFYEQF	6	6	2
19	ASSLPGTGKQETQY	10	1	2862
19	ASSLPIGGREQY	12	2	2
19	ASSLPMTGGGAKNIQY	9	4	2
19	ASSLPQWGDQETQY	10	22219	4
19	ASSLQGHEQF	6	1	3299
19	ASSLQGRFYEQY	12	4	876
19	ASSLQGSTDTQY	8	1	1
19	ASSLQLAVEGEQY	12	3	1
19	ASSLQTETQY	10	6	2
19	ASSLRDTQY	8	180	1
19	ASSLRGAREQY	12	3	1
19	ASSLRGGEITDTQY	8	16543	2
19	ASSLRGHEQF	6	655	8
19	ASSLRLDTQY	8	1752	2
19	ASSLRMDEQY	12	2	2
19	ASSLRQGAYEQY	12	1	1
19	ASSLSGDTIY	2	1	1
19	ASSLSGGSYNEQF	6	18721	3
19	ASSLSGGVTDTQY	8	1	644
19	ASSLSGLSYEQF	6	1	52
19	ASSLSGQGAQETQY	10	7551	1
19	ASSLSGQRGIKETQY	10	6	2
19	ASSLSPSILAGGLNEQF	6	1642	1
19	ASSLSQGTYEQY	12	4	9322
19	ASSLSSGGIPYNEQF	6	2	1
19	ASSLSTGWGNNEQF	6	5	4
19	ASSLTAQETQY	10	14	271
19	ASSLTESGVFLNEQF	6	5297	2
19	ASSLTGGLTDTQY	8	2	883
19	ASSLTGTASYEQY	12	1	2234
19	ASSLVGGYEQY	12	3	822
19	ASSLVGKADTQY	8	1	205
19	ASSLVGTNQETQY	10	8	22
19	ASSLVGYEQY	12	1	4
19	ASSLVLAGTQETQY	10	19	5
19	ASSLVNLYEQY	12	1	1
19	ASSLVRFSYEQY	12	1	458
19	ASSLWAGSPDTQY	8	14535	1
19	ASSLWDMYEQY	12	2	2
19	ASSLWTDYQETQY	10	33	542
19	ASSLWTPGNTIY	2	15	3
19	ASSLYDTQY	8	1	2175
19	ASSLYHRDRGRYEQY	12	452	9
19	ASSLYTALAKNIQY	9	1012	8
19	ASSMGPGRLYEQY	12	1219	1
19	ASSMGQGARTDTQY	8	1556	2
19	ASSNLDRGSVNTIY	2	1	87
19	ASSNSGIESDTQY	8	6	4271
19	ASSPAGNEQF	6	21302	1
19	ASSPAGTGSGNTIY	2	2	1
19	ASSPANIQY	9	1	2
19	ASSPDRGDRSGNTIY	2	21686	2
19	ASSPDWTASTDTQY	8	3	3767
19	ASSPGADTQY	8	2	1489
19	ASSPGLAGETQY	10	1228	1
19	ASSPGQGGQEETQY	10	2	3
19	ASSPGQGWDEQF	6	9059	4
19	ASSPHPGTQY	10	1	1
19	ASSPIADLAKNIQY	9	2736	12
19	ASSPKYGQSSYNEQF	6	487	4
19	ASSPLAGVGYEQY	12	226	1
19	ASSPLGNTIY	2	2	1
19	ASSPLPGLAGYNEQF	6	4	8191
19	ASSPMGLAVTSSYEQY	12	4	3315
19	ASSPNKPYEQY	12	2	7
19	ASSPPDRPKNIQY	9	2	5658
19	ASSPPGALETQY	10	4	4
19	ASSPPHNEQF	6	54	19
19	ASSPPRGGETQY	10	7	1
19	ASSPPWEGTDTQY	8	6650	2
19	ASSPQETQY	10	8	6772
19	ASSPQGGEGYNEQF	6	9	13120
19	ASSPRAFYEQY	12	240	3
19	ASSPRARYSYEQY	12	7	5
19	ASSPRDRQETQY	10	6	2
19	ASSPRQGKSYNEQF	6	6612	1
19	ASSPRQGPSDEQF	6	1	3429
19	ASSPRRGLARQETQY	10	5761	1
19	ASSPRVLHEQF	6	25	10
19	ASSPSDRRANIQY	9	1041	7
19	ASSPSGGGPGNTIY	2	1	55
19	ASSPSGGQDEQF	6	1	1414
19	ASSPSGKSSYNEQF	6	1	1324
19	ASSPSGYRNTIY	2	1	2589
19	ASSPSPDRSTDTQY	8	1320	1
19	ASSPTGTGLYNEQF	6	30	34555
19	ASSPTGTSGDNEQF	6	3	6028
19	ASSPTRAVTGTQY	8	2926	1
19	ASSPTSGRDTQY	8	5	9790
19	ASSPTTLLTYEQY	12	3	2
19	ASSPTVGEQY	12	2	1954
19	ASSPVVRPLQETQY	10	86	3
19	ASSPYNEQF	6	13	19986
19	ASSQERPYEQY	12	1	1
19	ASSQGEETQY	10	11697	3
19	ASSQGGTYEQY	12	10971	9
19	ASSQIGPWETQY	10	6	7372
19	ASSQPAVPGNEQF	6	1	1774
19	ASSQPRTSGSGAEQY	12	2	2435
19	ASSRGGAYEQY	12	36	1
19	ASSRGQGFQETQY	10	10	4
19	ASSRHSTNIQY	9	13	1
19	ASSRLAGGYEQY	12	5	5436
19	ASSRLVGGGNEQF	6	1	63
19	ASSRNRQGPNIQY	9	1	813
19	ASSRREAKNIQY	9	2	300
19	ASSRRLAGPNEQF	6	2	1
19	ASSRRQNSYNEQF	6	20296	2
19	ASSRSLGEQY	12	6	1
19	ASSRTAKETQY	10	3	9864
19	ASSSDKPYEQY	12	2	7
19	ASSSERGFGSTDTQY	8	1	1
19	ASSSFGAGGEQF	6	1061	1
19	ASSSGGAHIYEQY	12	2	3772
19	ASSSGKGGQEETQY	10	2	3
19	ASSSGQGDTQY	8	5	3609
19	ASSSGQGGQEETQY	10	1441	1885
19	ASSSGQGGQGETQY	10	4	3
19	ASSSGQGGREETQY	10	1	2
19	ASSSGRGGQEETQY	10	2	4
19	ASSSGTEGNTIY	2	4	2909
19	ASSSNAWEQY	12	2381	1
19	ASSSNKPCEQY	12	2	2
19	ASSSNKPHEQY	12	2	1
19	ASSSNKPYEQY	12	2280	2012
19	ASSSNKPYEQY	6	1	1
19	ASSSNKSYEQY	12	1	2
19	ASSSNNPYEQY	12	3	2
19	ASSSNRPYEQY	12	3	5
19	ASSSPDRSLAKNIQY	9	7279	2
19	ASSSPEGRYNEQF	6	6	12330
19	ASSSPGASGVNEQF	6	1	2500
19	ASSSPGLAGADTQY	8	3	1
19	ASSSPIRRTGNEQF	6	8	12667
19	ASSSPTGGADTQY	8	1	1
19	ASSSPTSGATDTQY	8	2471	1
19	ASSSQGAPYNEQF	6	3	2
19	ASSSQVTSGRNEQF	6	5	2
19	ASSSQVVRGNEQF	6	4	4303
19	ASSSRDRGFYEQY	12	443	10
19	ASSSRETQY	10	2	4357
19	ASSSRGQGYAEQF	6	4	8357
19	ASSSRLAGRHPLIPPEQY	12	820	4
19	ASSSRLHYNEQF	6	352	1
19	ASSSRPYEQY	12	1	1
19	ASSSRQGGQEETQY	10	1	2
19	ASSSSKPYEQY	12	5	3
19	ASSSSPTYEQY	12	7218	2
19	ASSSSRRPAGNTIY	2	2697	1
19	ASSSSTDTQY	8	319	4
19	ASSSSYEQY	12	1	1
19	ASSSTGTGRYHEQF	6	1	3181
19	ASSSTSGGRNIQY	9	2	1
19	ASSSVGTNQETQY	10	6	8
19	ASSSVQGGQEETQY	10	1	1
19	ASSSYSGRSYNEQF	6	4	7726
19	ASSTGTYEQY	12	4699	2
19	ASSTLAGRSYNEQF	6	14732	36
19	ASSTLTGVTGNTIY	2	1	1
19	ASSTRRGFNEQF	6	1	1
19	ASSTRTSVSAIQY	9	14	4
19	ASSTSASGNTIY	2	266	36
19	ASSVGQGFQETQY	10	7	2
19	ASSVGTGGNTIY	2	2	1
19	ASSVVGTNQETQY	10	1	2
19	ASSWDRDNSPLH	5	512	5
19	ASSWGQGFQETQY	10	4	4
19	ASSYLSGTDTQY	8	2	748
19	ASSYLVRGDEQF	6	1	213
19	ASSYLVRGNEQF	6	4	7796
19	ASSYPGASSYNEQF	6	17	9320
19	ASSYPVQETQY	10	4	6074
19	ASSYRDRDIQY	9	5	3
19	ASSYRGLAEQY	12	4082	1
19	ASSYSGGAYEQY	12	2	1
19	ASTAAGLLGEQY	12	18748	1
19	ASTAAGLLGEQY	6	214	2
19	ASTATYEQY	12	3	786
19	ASTAVGLLGEQY	12	25	1
19	ASTEDKNIQY	9	7882	3
19	ASTGLAGGNEQF	6	2	9098
19	ASTGQGHGEQF	6	3	1
19	ASTGQTGEQY	12	3	2573
19	ASTLDTDTQY	8	1	198
19	ASTLGGTYNEQF	6	6	32
19	ASTMGSHSYEQY	12	1	2
19	ASTNGGRETQY	10	2412	1
19	ASTPGGGQHNEQF	6	1	43
19	ASTPGQGISGETQY	10	2	426
19	ASTPMGTSDLYEQY	12	1	3597
19	ASTPRTNEQF	6	1	598
19	ASTQGGAYNEQF	6	2	2654
19	ASTSFGGGDSGNTIY	2	7	1
19	ASTSLYNEQF	6	2	3
19	ASTTNQGVRETQY	10	5	6
19	ASVASGGASTDTQY	7	1	1
19	ASVGLGTYSPLH	5	1	3111
19	ASYPTRVDRFTDTQY	8	4	1
19	ATGHRDSSEQY	12	7645	1
19	ATLQNRDTQY	8	4	1
19	ATNPINEQF	6	4	1
19	ATRGKIWTSGSKETQY	10	1	5667
19	ATSRFGVDYNEQF	6	3	1848
19	TSSSGQGGNSPLH	5	1	1
19	TSSSNKPYEQY	12	1	1
19	TSSTLAGRSYNEQF	6	3	1
19	TSVPAAGGTGAEETQY	10	1	363
19	TSVPAEEGKAGSYEQY	12	2	1
19	VSGGGGSIAKNIQY	9	2	2
19	VSSGGQGFQETQY	10	2	4
2	AIAASGYTDTQY	8	4	1
2	AIAGDKGGETQY	10	5	3
2	AIGKSGGNEQY	12	3	3
2	AIGPPETQY	10	4	7570
2	AIHSGNTIY	2	5087	1
2	AIKGEGEQY	6	21	2
2	AIKLAGANNEQF	6	6	1
2	AIKTSGSDEQY	12	1652	7
2	AIMPGQGIGTDTQY	8	4	1
2	AINERRGETQY	10	2	4
2	AIRADIQETQY	10	1	2
2	AIRDRGRASYEQY	12	1	100
2	AIRGNNEQF	6	11	17554
2	AIRGNNEQL	6	1	35
2	AIRGTGGDYNEQF	6	394	2
2	AIRLYSSNPSTDTQY	8	1	1
2	AIRPGLASDEQF	6	959	768
2	AIRPGLASGEQF	6	2	3
2	AIRPGPASDEQF	6	4	5
2	AIRRDLLETQY	10	20627	1
2	AIRTRGGSGNEQF	6	1985	21
2	AIRVDIQETQY	10	1723	1956
2	AIRVDIQETQY	9	1	2
2	AIRVDIRETQY	10	5	1
2	AISAELAGAYEQY	12	8	2
2	AISAGDEQY	12	550	1
2	AISAGGSRSTDTQY	8	1	567
2	AISAPSTDTQY	8	6	2
2	AISDDYEQY	12	6	4
2	AISDGYDEQF	6	2	3078
2	AISDPDRAKNIQY	9	1	4508
2	AISDQGEGYNEQF	6	2	6198
2	AISDQGEQY	12	2	7981
2	AISDRGAYEQY	12	2475	1
2	AISDTSGSNEQF	6	18	5151
2	AISEAQGAYNSPLH	5	1	1440
2	AISEDSNEQF	6	7	9268
2	AISEGETGRTDTQY	8	4	3
2	AISEGGRASPYEQY	12	2	1055
2	AISEGPSGRAAYEQY	12	2	251
2	AISEGQGLWEQY	12	1	81
2	AISEGSGIKYEQY	12	1	2
2	AISEKDLTSYNEQF	6	9	1
2	AISENAGAGETQY	10	1	89
2	AISEPPTRRTDTQY	8	5	4886
2	AISERNEQF	6	381	8
2	AISERQAADTQY	8	2	1
2	AISERTDTQY	8	9	1
2	AISESDRGGETQY	10	3	3
2	AISESGGGNEQF	6	3	36
2	AISESQGTDTQY	8	6	109
2	AISESSARTDTQY	8	2	291
2	AISETLAGGASYNEQF	6	2	1
2	AISEVQYNEQF	6	4	5
2	AISEWNVGDEQF	6	2	1
2	AISGAGTGKETQY	10	1	1
2	AISGDNEYQETQY	10	6	10
2	AISGGMYNEQF	6	33	27
2	AISGLAGANQETQY	10	9346	2
2	AISGREDTQY	8	12141	1
2	AISGSFQRDGNEQF	6	11	283
2	AISGTSGRSYEQY	12	2	3149
2	AISKDRQQETQY	10	2823	2
2	AISLNSGGSTDTQY	8	4055	2
2	AISMGPGEQY	12	4	2
2	AISPGQGRGKNIQY	9	6	2
2	AISPGQGYEQY	12	7	2
2	AISPPLGREGKSDTQY	8	11	12035
2	AISPPSNEQF	6	8	2
2	AISPTGLRNEQY	12	1	2
2	AISSGGGADTQY	8	1	6
2	AISSGGGTDTQY	8	306	531
2	AISTETRYNEQF	6	5	5783
2	AISTSPATEQF	6	1	2496
2	AISVASGRYEQF	6	1	1
2	AISVGGRYNEQF	6	1	179
2	AISVKGNNEQF	6	1	3
2	AISVTERERADTQY	8	2	1607
2	AITSSSYEQY	12	1	1
2	AIVDGGSSYEQY	12	6	13224
2	ASSELGTTINEQF	6	1	1
2	ATNRDRETQY	10	129	232
2	ATQDRSETQY	10	698	1
2	ATQGSGNTIY	2	16221	1
2	ATRVDIQETQY	10	1	1
2	TSVPSEPGLPTTYEQY	12	4	1
20	SAADGGLRETQY	10	1	1
20	SAAGLAGVKTDTQY	8	6	5158
20	SAARGDTQY	8	7669	1
20	SAARRAGQETQY	10	4	8675
20	SADLSSYNEQL	6	1	5
20	SADSPSNEQF	10	2920	1
20	SAEGVGDYNEQF	6	2	3131
20	SAENGRLAGVNEQF	6	2	188
20	SAETGQETQY	10	5	3
20	SAEYRETQY	10	1	14
20	SAFSGQGGEQF	6	1	391
20	SAGASGSTDTQY	8	1	1236
20	SAGDGKNIQY	9	6	21329
20	SAGDRTYEQY	12	5	2
20	SAGPQETQY	10	2	437
20	SAGQELPSGRNEQF	6	4869	1
20	SAGQGLAKNIQY	9	3	2
20	SAGRGDEQY	12	4	1
20	SAGTGGNEQF	6	13	5
20	SAGVTSYEQY	12	1	1855
20	SAHLAGGFNEQF	6	2048	1
20	SAHPRLAGTYNEQF	6	13	15876
20	SAKGQTGTDTQY	8	5	3
20	SALGGEETQY	10	7	8
20	SALGGTYNEQF	6	1	326
20	SALHATPPYEQY	12	11275	4
20	SALLGKGGEQF	6	1	1
20	SALSGQGGEQF	6	436	507576
20	SALSGQGGEQL	6	1	1689
20	SALSGQRGEQF	6	2	542
20	SALSGQVGEQF	6	1	131
20	SALSVAGEYEQY	12	13	11024
20	SALSVQGGEQF	6	1	292
20	SALTNAGFGEQF	6	4	2027
20	SANMVERTDTQY	8	22	14382
20	SANRVGDTQY	8	10	14566
20	SAPRGGETQY	10	377	2
20	SAPSPLTPDTQY	8	1218	2
20	SAQRGTSTETQY	10	6	4627
20	SARGAGGYNEQF	6	914	20
20	SARGGGSSYEQY	7	2	31
20	SARGTGGRDEQY	12	4	1
20	SARTGTTTDTQY	8	10	3
20	SARTGTYNEQF	6	1	108
20	SARTTGTSSTDTQY	8	2	6249
20	SASEGYEQY	12	2	6217
20	SASGQGLAKNIQY	9	1	1307
20	SASPAGETQY	10	9	2
20	SASSGQGGEQF	6	5	2255
20	SATAQLKQEIQETQY	10	2	2
20	SATDWTQETQY	10	3911	2
20	SATLPGKQETQY	10	2655	1
20	SATPSGRGPETQY	10	2	7511
20	SATRGTSGRPGETQY	10	5146	1
20	SATVELGNTIY	2	3	2
20	SAVTRDSYNEQF	6	3	1403
20	SAWDRGETQY	10	2121	1
20	SAWDRGTNIQY	9	5	830
20	SAWTGGSYEQY	12	116	2
20	SAWTTDTGELF	7	1	3
20	SAYLLAGGPDTQY	8	2	1054
20	SAYRDQTDTQY	8	1	1
20	SVADQLPGNTIY	2	1	11
20	SVADQLSGNTIY	2	15	4402
20	SVAEGLSGNTIY	2	2	5022
20	SVAGGSTDTQY	8	5	3118
20	SVAGLAGAISYEQY	7	2	4588
20	SVAGREVEQY	12	6841	3
20	SVAGRLQETQY	10	2	1316
20	SVAGTSPVAEQY	12	2	1
20	SVAGTVSPYEQY	12	5	9235
20	SVAGWGGSGTDTQY	8	2	47
20	SVAHTSTDTQY	8	1	910
20	SVAISNEQF	6	19	7
20	SVALGTAQETQY	10	301	1
20	SVANGGNEQF	6	1	1604
20	SVANPGTRYEQY	12	2	280
20	SVAPEGGISYNEQF	6	2	1
20	SVAPRSGETQY	10	4	4312
20	SVAQGNYEQY	12	3	1
20	SVARDSPLYNEQF	6	1	810
20	SVARDYEQY	12	5	16346
20	SVASGTDTQY	8	21	2
20	SVASQSSYEQY	12	7782	1
20	SVATPNSYEQY	12	4	4
20	SVATQGSYNEQF	6	4	64
20	SVATSGGGEQF	6	4	4029
20	SVAVGLAGPYNEQY	6	2	1
20	SVDASTRDTQY	8	13	7
20	SVDDPETYEQY	12	5	2
20	SVDELAVTDTQY	8	1	1
20	SVDEVGRNEQY	12	6732	1
20	SVDFGTSGEYEQY	12	1	843
20	SVDGLAVTDTQY	8	483	292
20	SVDGNTDTQY	8	2	1
20	SVDGQGAGNEQF	6	5851	1
20	SVDGQGANIQY	9	3	6909
20	SVDGRSSYEQY	12	1	2
20	SVDGRTNEQF	6	5	600
20	SVDGSGSYEQY	12	2	1124
20	SVDLDFLGRAETQY	10	5	10538
20	SVDLGDRDDEQF	6	1083	4
20	SVDPGGYGGYEQY	12	2	1716
20	SVDPGQGRNEQY	12	16052	5
20	SVDPGVETQY	10	2339	3
20	SVDPLGSTSGVYNEQF	6	4	2
20	SVDQAGGNEQF	6	3	2
20	SVDRGLAGSSDTQY	8	5	95
20	SVDRGNEQY	12	1	1236
20	SVDRGQGNEQY	12	1	1
20	SVDRGQYNEQF	12	4	3705
20	SVDRQRKDSGANVLT	11	2	26
20	SVDRSVGINEQF	6	58	213
20	SVDSGSSGNTIY	2	3	2166
20	SVDSGTDTQY	8	442721	80
20	SVDSGTYEQY	12	1	2
20	SVDSSTDTQY	8	4	1
20	SVDTGAYNEQF	6	1	1
20	SVDTGGAGNIQY	9	1	981
20	SVDTPMKDEQY	12	8	1
20	SVDVTGQANNEQF	6	95	57224
20	SVDVTGRGSGNTIY	2	2	2217
20	SVDVTRQANNEQF	6	1	66
20	SVDWTATDTQY	8	5	1
20	SVDYQGNQETQY	10	5	1
20	SVEAGDREPTYEQY	12	6	2049
20	SVEAGGTDTQY	8	1	1
20	SVEAGPTTNEQY	12	1	2064
20	SVEAGRSTDTQY	8	1	2
20	SVEAGSRTDTQY	8	1	74
20	SVEATGDETQY	10	12232	3
20	SVEATGTYEQY	12	2	707
20	SVEDGGRGNIQY	9	3	1
20	SVEDHLGQGYEQY	12	5	1
20	SVEDKRNEQF	6	1	308
20	SVEDMGYREHNEQF	6	5446	2
20	SVEDPLAGTSYNEQF	6	2	3
20	SVEDPRGPQETQY	10	1694	1
20	SVEDPRTTSGNTDTQY	8	8	1
20	SVEDQRLGYEQY	12	15	1221
20	SVEDQRLVYEQY	12	1	3
20	SVEDSTRGYEQY	12	5	5
20	SVEDTGVYNEQF	6	6	9280
20	SVEDVGGEQY	12	3	1
20	SVEDVLAGTSYNEQF	6	2	833
20	SVEDWVRTAPGTQY	10	1	755
20	SVEEDNYNEQF	6	31	36518
20	SVEEGDMPSPDTQY	8	12330	1
20	SVEEGGGLAGYNEQF	6	2	1875
20	SVEEGNEQF	6	24	11
20	SVEEIGNGDTQY	8	47	21033
20	SVEEQGTYNEQF	6	34	25
20	SVEERNEQF	6	3	5083
20	SVEEVGNGDTQY	8	1	30
20	SVEGAAYNEQF	6	1	428
20	SVEGAGDYNEQF	6	3	1759
20	SVEGAGGYNEQF	6	2	2
20	SVEGETSGPAYNEQF	6	1	3128
20	SVEGGGDYNEQF	6	22	264
20	SVEGGGGYNEQF	6	30981	7
20	SVEGGLSEADTQY	8	7	1
20	SVEGLGDYNEQF	6	1	338
20	SVEGLGSYEQY	7	11	16855
20	SVEGLTYEQY	12	5	14001
20	SVEGPGAYNEQF	6	1	65
20	SVEGRVNQETQY	10	19	13
20	SVEGSGAYNEQF	6	45	50260
20	SVEGSPGGGNTIY	2	3	1
20	SVEGSTDTQY	8	23644	5
20	SVEGTQDSYNEQF	6	4	3
20	SVEGTSGFSYEQY	12	7	2247
20	SVEGTVTYNEQF	6	7	3
20	SVEGVGDDNEQF	6	2	122
20	SVEGVGDHNEQF	6	1	1792
20	SVEGVGDYDEQF	6	1	1110
20	SVEGVGDYNEQF	6	727	855403
20	SVEGVGDYSEQF	6	2	1387
20	SVEGVGGYNEQF	6	20	2378
20	SVEGVGYYNEQF	6	2	800
20	SVEGVRDYNEQF	6	1	632
20	SVEIASYEQY	12	4	1
20	SVEITGPGETQY	10	5	2
20	SVEKGQTNTGELF	7	1	41
20	SVEKIHNEQF	6	2	1
20	SVEKQGYEQY	12	1	1556
20	SVELAAGPSYEQY	12	2963	1
20	SVELAGNTDTQY	8	6	2
20	SVELGSSYEQY	7	1	3788
20	SVELQDYEQY	12	3	2549
20	SVELSHILPYEQY	12	2	2
20	SVELVNEQF	6	6	14961
20	SVELWERETQY	10	292997	84
20	SVENGGDIQY	9	10	7
20	SVENWTQDTQY	8	9	909
20	SVEPASGKTDTQY	8	1	317
20	SVEPGGPDTQY	8	4	5928
20	SVEPPEPGATYNEQF	6	3	2
20	SVEPRGLGNEQF	6	7	12573
20	SVEPRSPYNEQF	6	7	1
20	SVEPSGSRYNEQF	6	2	1457
20	SVEQSSYEQY	12	1	1
20	SVERARDEQF	6	5	3
20	SVERASSYNEQF	6	2	3223
20	SVERGDSDNEQF	6	3	1
20	SVERGETQY	10	22	5
20	SVERGTGAYNEQF	6	1	1
20	SVERQGYTGELF	7	399	104
20	SVERQQETQY	10	10	3
20	SVERRTGISSYEQY	12	1	2
20	SVERTASGYNEQF	6	4	2043
20	SVERTDYEQY	12	2	1390
20	SVERWGGTKNIQY	9	11	5
20	SVESDRDYNEQF	6	6	4799
20	SVESPELGATYNEQF	6	1	1
20	SVESPEPGATYNEQF	6	420	303
20	SVESRREWNEQF	6	5	5942
20	SVETGAHNEQF	6	3	1
20	SVETGAYNEQF	6	740	952
20	SVETGAYNEQF	7	1	3
20	SVETGAYSEQF	6	5	1
20	SVETGGKETQY	10	8	10
20	SVETGNSYNEQF	6	1	3
20	SVETGSGGETQY	10	3	1
20	SVETSQSTDTQY	8	4	2
20	SVEVLSSYEQY	12	3	7396
20	SVEVNQETQY	10	14	9
20	SVEVQGISTDTQY	8	3	1
20	SVEVTGQANNEQF	6	1	84
20	SVEVVGGRRDEQY	12	7664	3
20	SVEVWTSSDNEQF	6	19580	1
20	SVEWDLKAYEQY	12	8598	1
20	SVEWEFNEQF	6	1	345
20	SVEWFTNTDTQY	8	1	1094
20	SVEYDSTDTQY	8	1	41
20	SVEYGTFYNEQF	6	1938	14
20	SVEYRETQY	10	1	8002
20	SVGELDVEQF	6	8	8
20	SVGFGAGGDYNEQF	6	928	3
20	SVGFRQGTQY	8	4	2
20	SVGGDLWETQY	10	1	3
20	SVGGGPAYEQY	12	1	414
20	SVGGSGRAAFETQY	10	1	657
20	SVGGTGKGWQETQY	10	2	3998
20	SVGGVALSHTDTQY	8	8	6484
20	SVGGVSSYNEQF	6	21465	2
20	SVGLGTSGNEQF	6	7	3804
20	SVGLGYNSYNEQF	6	15283	3
20	SVGLLRNEQF	6	10	358
20	SVGPGSTDTQY	8	4	6
20	SVGPQEETQY	10	11	17092
20	SVGQGAGDTQY	8	5	1950
20	SVGQGGDTQY	8	27	8
20	SVGQGQSSYNEQF	6	1	1248
20	SVGQTYEQY	12	966	1
20	SVGQWNEQF	6	1	4443
20	SVGRDGNEQF	6	8	2
20	SVGRDYSTDTQY	8	1	226
20	SVGRGAKNIQY	9	8	1
20	SVGRQQETQY	10	15	365
20	SVGSGGETQY	10	1	2728
20	SVGSGQRNIQY	9	38	2286
20	SVGSGTDTQY	8	1755	2
20	SVGTGLVNQETQY	10	18	13700
20	SVGTGTGNEQF	6	1	1
20	SVGTRRKPDTQY	8	1	13
20	SVGTSEAGETQY	10	3291	1
20	SVGVGREDTQY	8	22	526
20	SVGVGTYEQY	12	403	4
20	SVGVLLPANEQF	6	1	1
20	SVGVSGGAWNEQF	6	8	1
20	SVGYGQRNIQY	9	1	4
20	SVHGLAGASSYNEQF	6	11	8180
20	SVHGTSYEQY	12	10	9785
20	SVHMGPTYEQY	12	1	2
20	SVHNAADTQY	8	1	376
20	SVIAGGGEQF	6	5	2454
20	SVIHPAGDEQF	6	9	998
20	SVIQPAGDEQF	6	1	2
20	SVITSGSYEQY	12	5466	1
20	SVKASRTGGLDNEQF	6	15655	5
20	SVKGVGDYNEQF	6	2	673
20	SVKITGVGNTIY	2	1	174
20	SVKLGSGSSTDTQY	8	7	2
20	SVKQRGEYNEQF	6	5	3
20	SVKSTGLNIQY	9	6	2
20	SVLAGSNSPLH	5	2	544
20	SVLDEIGVNEQF	6	9	262
20	SVLDGQASYEQY	12	423	671
20	SVLDPRNEQF	6	1	2
20	SVLDVQASYEQY	12	1	2
20	SVLGFSGSADTQY	8	1	1
20	SVLGNNEQF	6	8	451
20	SVLLAGDEQF	6	2	1
20	SVLPRDRSYEQY	12	1570	1
20	SVLTSRETQY	10	4	2
20	SVPGAYEQY	12	7630	2
20	SVPGGGRYNEQF	6	13	13
20	SVPGNSYEQY	12	5	3
20	SVPGTGGADTQY	8	13717	2
20	SVPGTPLEGGRKAEQY	12	1	1597
20	SVPLAGRTDTQY	8	1	5089
20	SVPQGNRLDTQY	8	3	1
20	SVPRVAVTDTQY	8	1	2161
20	SVQDRDLNYEQY	12	3	6
20	SVQDSGSTDTQY	8	4	1
20	SVQEIGNGDTQY	8	1	4
20	SVQENTGELF	7	1	243
20	SVQETGIGNTIY	2	3	2
20	SVQGGTLYNEQF	6	6	8694
20	SVQGHPDTQY	8	15	4
20	SVQGLAVYNEQF	6	14	17655
20	SVQPNSYEQY	12	2	1
20	SVQQGLAGSYEQY	12	2	2
20	SVQTRGGIMSEQY	12	6	4683
20	SVRADQDTQY	10	5	1
20	SVRADQETQY	10	2436	1301
20	SVRADQGTQY	10	5	2
20	SVRADRETQY	10	5	1
20	SVRAGPSYNEQF	6	7	4812
20	SVRAGQETQY	10	3	3
20	SVRDRGADTQY	8	8822	2
20	SVREDRGGEQY	12	2	1
20	SVRGLAGLSTDTQY	8	4	6010
20	SVRKAEGVYNEQF	6	8233	2
20	SVRLAGVTDTQY	8	4	2181
20	SVRQGGSGEQF	6	5257	2
20	SVRRGTKEQY	12	10	2
20	SVRRGTNEQY	12	13067	1
20	SVRRTTNEQF	6	3	1
20	SVRSPPGNTIY	2	16	2
20	SVRTGNYEQY	12	6	6611
20	SVRTGTSGSLEQF	6	2	1
20	SVRTGTTTDTQY	8	1047	737
20	SVRTGTTTGTQY	8	2	1
20	SVRTSGDNEQF	6	4872	2
20	SVRTYYNEQF	6	1	1
20	SVRVLTSYEQY	12	1	100
20	SVRVTGGINEQF	6	1	583
20	SVSGGGETQY	10	4	1612
20	SVSGKGTYEQY	12	1	3864
20	SVSGSWVGETQY	7	1	1
20	SVSGTGVLSYEQY	12	2564	1
20	SVSQGAKNIQY	9	6	6996
20	SVSQGDHEQY	12	41	23
20	SVSRGGGNEQF	6	1	1
20	SVSVGLAGPYNEQF	6	310	1
20	SVSVLGTDTQY	8	7	5692
20	SVSWMGQVSYNEQF	6	25	4
20	SVTESAYEQY	12	1798	2
20	SVTGLSSYEQY	12	1	870
20	SVTGTGTQY	8	1	143
20	SVTGTSAYNEQF	6	597	1
20	SVTPGKAGGDTQY	8	484	4
20	SVTRGLHYEQY	12	676	1
20	SVTVGLAGPYDEQF	6	871	1
20	SVTVGLAGPYNEQF	6	568590	119
20	SVTVGLAGPYNEQL	6	1704	1
20	SVTVGLAGPYSEQF	6	942	1
20	SVTVGLVGPYNEQF	6	1103	3
20	SVVDYNEQF	6	19	2
20	SVVGGDQETQY	10	18	17840
20	SVVGISTDTQY	8	1	1
20	SVVGSTDTQY	8	5	615
20	SVVKDRGIEQY	12	380	1
20	SVVLAGDEQY	12	1	136
20	SVVLAGGKEETQY	10	17	11884
20	SVVLLASGRELNEQF	6	8	9587
20	SVVNDGDTIY	2	1	5
20	SVVNDGNTIY	2	86	2127
20	SVVPISGNEQF	6	8	13238
20	SVVRDGSYEQY	12	4898	2
20	SVVRGGSGTDTQY	8	4	77
20	SVVRRAGATNEQF	6	7	8099
20	SVVSGGPSYEQY	4	11480	5
20	SVVSSGSYYNEQF	7	7	9298
20	SVVSSPYEQY	12	1	2018
20	SVVVFRSSYEQY	12	340	1
20	SVVVSGRVNEQF	6	8	1
20	SVVYPGGGNYNEQF	6	1	1568
20	SVWDSGSEETQY	10	14	13848
20	SVWDWSSYNEQF	6	15	24272
20	SVWGRQETQY	10	1	787
20	SVWTSLNSYNEQF	6	8	14380
20	SVWVRSSYEQY	12	4	5055
20	SVYAGRSYEQY	12	1	734
21	ASGRTDQETQY	10	5	1
21	ASRSDSYEQY	12	2	5931
21	ASSGPERGRNEQF	6	5	1
21	ASSHGSQTPLSGRSGEQY	12	13	310
21	ASSHGVKGSEQY	12	3	1
21	ASSHLRSGTRGYNEQF	6	9	2
21	ASSHQGRTDTQY	8	2	2
21	ASSKPPGRETQY	10	5	7117
21	ASSLEPGTSGRTDTQY	8	1	1
21	ASSLGEAGNYNEQF	6	280	1
21	ASSLGGAINEQF	6	4	2
21	ASSLGNEQF	6	19	3
21	ASSLGPAGEGEETQY	10	7	854
21	ASSLGSYNEQF	7	6	2
21	ASSLRLAGGQETQY	10	1	1399
21	ASSLRTSGRVETQY	10	3	43
21	ASSLSDSTGNEQF	6	17	11623
21	ASSLYNEQF	6	1	1
21	ASSPGDGSGTFLADTQY	8	1	3173
21	ASSPGLAGKKTDTQY	8	4	3579
21	ASSPHNAPDTQY	4	7	2
21	ASSPHRGTGRVDEQF	6	4	2
21	ASSPNRGYEQY	12	3	3494
21	ASSPPGQGYSYNEQF	6	390	4
21	ASSPQGAISYNEQF	6	5	2
21	ASSPQGSETQY	10	1	1
21	ASSPQSSGGPYEQY	12	184	1
21	ASSPRTGRSYNEQF	6	3	4190
21	ASSPSDGSYEQY	12	3	2
21	ASSPSGGAKNIQY	9	1	1
21	ASSPSSYNEQF	6	4	1
21	ASSPTGLGHNEQF	6	6	3
21	ASSPTGLGYNEQF	6	1294	615
21	ASSPTGLGYNEQL	6	8	2
21	ASSPWTGRSYNEQF	6	7	4990
21	ASSQAAQGTQY	8	18	170
21	ASSQAGGRATDTQY	8	1	14
21	ASSQASNEQF	6	3	3
21	ASSQDFGGTAGEQF	6	1	1397
21	ASSQDILAGSYNEQF	6	6	2
21	ASSQDLASGIYEQY	12	1	2830
21	ASSQDRQNTIY	2	1	1
21	ASSQDRTSRQETQY	10	1	1
21	ASSQDRVTYNEQF	6	10	8182
21	ASSQDSRMSEQF	6	1	351
21	ASSQDSRVSEQF	6	22	10167
21	ASSQDTDTQY	8	1	1698
21	ASSQEEGIAGPAEQY	12	2	83
21	ASSQEIAGGPETQY	10	1	290
21	ASSQERGLHYEQY	12	13412	1
21	ASSQETGGYNEQF	6	13	1
21	ASSQETSGENEQF	6	188	1
21	ASSQFYIQY	9	2	1
21	ASSQGAGGYNEQF	6	293	1
21	ASSQGDWTSGRKGNEQF	6	3	105
21	ASSQGFGRDWPYEQY	12	320	1
21	ASSQGGEETQY	10	1	2
21	ASSQGGNEQY	12	1386	6
21	ASSQGGTLNEQF	6	4	1
21	ASSQGLAGAVTTDTQY	8	22	5506
21	ASSQGLDHLYEQY	12	1444	2
21	ASSQGSGSYSETQY	10	2	2722
21	ASSQGTLAGGPGNEQF	6	365	2
21	ASSQGTSGRYEQY	12	2	1
21	ASSQGYEQY	12	3	2184
21	ASSQIQGGRETQY	10	1	1
21	ASSQLSLAGTYEQY	12	1	1
21	ASSQPEPLGEQF	6	3	3
21	ASSQPGQTYEQY	12	3	1561
21	ASSQQGSYEQY	12	965	2
21	ASSQQQWGGLAKNIQY	9	13	5
21	ASSQRGEETQY	10	25	898
21	ASSQRSGRDNEQF	6	2	3406
21	ASSQRVNEQF	6	1	1
21	ASSQTNEQF	6	9342	1
21	ASSQTYEQY	12	6269	1
21	ASSQVAGEQF	6	15450	43
21	ASSQVEFGGFYEQY	12	3	2265
21	ASSQVGSRLYNEQF	6	4	1
21	ASSQVIGDEQF	6	3	1
21	ASSQVRVPPYEQY	12	13	8095
21	ASSRAYEQY	12	1	1
21	ASSRGLAGAYNEQF	6	3	4969
21	ASSRKLAASSYEQY	12	1	1023
21	ASSRSGRTYNEQF	6	5104	1
21	ASSRTYEQY	12	571	751
21	ASSSGDPYNEQF	6	18	6
21	ASSSRTVQETQY	10	2	7703
21	ASSSTGLGYNEQF	6	3	3
21	ASSTLAQDEQY	12	5	1
21	ASSYTVAYEQY	12	1	3610
21	ASTAGNEQF	6	3	3
21	ASTRDYLSSYNEQF	6	8	2
21	VSSQVAGEQF	6	267	1
21	VSSRTYEQY	12	1	1
22	AWIGGQGLHSPLH	5	1	370
22	AWNLIGTDTQY	8	4	4972
22	AWSADRGDEQF	6	6	5
22	AWSAGVNNEQF	6	12	21
22	AWSDSYNEQF	6	5	13507
22	AWSFGTLSTDTQY	8	3314	1
22	AWSGGGTQY	8	4	1
22	AWSGTSGIFDTQY	8	1	127
22	AWSPHMGLLETQY	10	207	3
22	AWSQQGNVYEQY	12	1701	19
22	AWSSGASTDTQY	8	15	11171
22	AWSSGLAGGTDTQY	8	356	1
22	AWSSTGTQY	8	34401	7
22	AWSVAWGGLLAKNIQY	9	4	2
22	AWSVLSYEQY	12	3717	3
22	AWSVPPQMRETQY	10	7	5
22	AWSVQGYEQY	12	844	1
22	AWSVYRASGISLGWETQY	10	5	78
22	AWTASTDTQY	8	160	82
23	ASQFRENSGNTIY	2	3	2
23	ASREETGAGSYEQY	12	3	1
23	ASSEEGEVETQY	10	1	1
23	ASSHRTGGEGDTQY	8	4	48
23	ASSHSRLAGLRQETQY	10	2	1
23	ASSLAANSETQY	10	2166	1
23	ASSLFWTSGRAFSYNEQF	6	11310	2
23	ASSLWTSGRGSNEQF	6	2	1063
23	ASSPGLAGGPDEQF	6	13	1
23	ASSPGTGSTDTQY	8	6	1
23	ASSPHRAVSYNEQF	6	17	930
23	ASSPHSRGDYNEQF	6	68	47
23	ASSPNKDTQY	8	9499	1
23	ASSPQQSGDNEQF	6	2065	1
23	ASSPTSDSSYEQY	12	23	8
23	ASSQAPGRETQY	10	16	8092
23	ASSQDAGGPNIQY	9	1	3
23	ASSQDASQETQY	10	2	1
23	ASSQDEGRETQY	10	16	9191
23	ASSQDGNTIY	2	4	1
23	ASSQDLGSPPGEQY	12	1086	2
23	ASSQDLNKETQY	10	373	1
23	ASSQDRGTSGRDTQY	8	3	7
23	ASSQEDMGLPVNEQF	6	34	22
23	ASSQESGYYEQY	12	3	4359
23	ASSQETGSYIQY	9	13	11
23	ASSQETSWNEQF	6	3	1
23	ASSQEVPSAYEQY	12	3	1
23	ASSQGAAGGLNNEQF	6	2	2
23	ASSQGDRVTETQY	10	571	1
23	ASSQGEGRETQY	10	1	24
23	ASSQGERYEQY	12	35	1
23	ASSQGLRGLHNEQF	6	8	4
23	ASSQLLTDTQY	8	1	1
23	ASSQNLGQLYSYEQY	12	41	19
23	ASSQPGTRHYLEQF	6	1	1
23	ASSQRAGAGGPDTQY	8	3	1
23	ASSQTPEHSQETQY	10	1	3
23	ASSQTPGDLTFYEQY	12	1911	1
23	ASSQTPGHSQETQY	10	15	2048
23	ASSQVEGDGLFEQY	12	4	1
23	ASSQVGTSGGSRSSYNEQF	6	1	1
23	ASSQVGVGIQY	9	4	2
23	ASSQVMKGDDETQY	10	2	3
23	ASSRDEGRETQY	10	1	29
23	ASTDGLAETQY	10	1	281
24	ASHRDNSYEQY	12	8025	2
24	ASRPLGQTTNEQF	6	1	1
24	ASSHFGTSGNDEQF	6	1	4700
24	ASSPDPYGKDTQY	8	1	1
24	ASSPDSGGGEQY	6	6631	1
24	ASSPKREGSRNEQF	6	1	7786
24	ASSPSDRGNYNEQF	6	8	1
24	ASSPTGLAGFSYEQY	12	3	1
24	ASSQAPGDEQF	6	5	3
24	ASSQAWGASGGRDEQF	6	3	1
24	ASSQDEGGREGYEQY	12	4	1061
24	ASSQDPPGKRSYEQY	12	1	1
24	ASSQDRVDRRAAPYEQY	12	1	1
24	ASSQDYRREQY	12	1	1
24	ASSQEKTTDTQY	8	8	536
24	ASSQELPDPGNTIY	2	5	1
24	ASSQGLASYEQY	12	5	5016
24	ASSQGTGTTDTQY	8	28	11
24	ASSQGTSGGQETQY	10	3443	1
24	ASSQQADTQY	8	2	1094
24	ASSQRGTSAPDTQY	8	2	1
24	ASSQVGGPDQETQY	10	1	1527
24	ASSQVGYTDTQY	1	377	5
24	ASSQVLGQYNEQF	6	30	22
24	ASSQVQGRGTDTQY	8	1	26
24	ASSRTSFSTDTQY	8	1	23
25	ASGQDASQETQY	10	1	4
25	ASGQDRVDRRAAPYEQY	12	1	2
25	ASSQDASQDTQY	10	3	1
25	ASSQDASQETQY	10	924	528
25	ASSQDASQGTQY	10	3	2
25	ASSQDASRETQY	10	1	1
25	ASSQDRVDRLAAPYEQY	12	2	1
25	ASSQDRVDRRAAPYEQY	12	771	190
25	ASSQDRVDRRSAPYEQY	12	1	1
25	ASSQGASQETQY	10	4	1
25	ASSQGRKYSYEQY	12	3	2
25	ASSQGRVDRRAAPYEQY	12	2	2
25	ASSQKAEINEQF	6	160	1
26	ARSPLAGDNEQF	6	1	4
26	ARSWQLGEDEQF	6	6	2
26	ASGGGTGSTDTQY	8	71	1
26	ASGRTSGPSYNEQF	6	5	9380
26	ASGWQLGEDEQF	6	5	11
26	ASITSRDNEQF	6	16	5
26	ASKGRGHSYNEQF	6	210	88
26	ASLALPAGERTDTQY	8	3	1401
26	ASNSGTYNEQF	6	6	3
26	ASRAGGQTYNEQF	6	1399	1
26	ASRFGEDTQY	8	2	914
26	ASRGHDEQY	12	1	11
26	ASRLEGTRGPYEQY	12	1	485
26	ASRLNRDSYEQY	12	1	3094
26	ASRPRPNSYEQY	12	2	1
26	ASRSGLEGRINEQF	6	2	1
26	ASRTGPRNIDTQY	8	2	3415
26	ASRTSEYNEQF	6	18	4
26	ASRWQLGEDEQF	6	2	1
26	ASSALSSGNTIY	2	1	1
26	ASSAVGHQDTIY	2	2	1
26	ASSCQLGEDEQF	6	4	1
26	ASSDGGLDTQY	8	618	1
26	ASSDKASGFYNEQF	6	3	2098
26	ASSDMSGRAVHEQF	6	1	2010
26	ASSDSSGGIYNEQF	6	1	3
26	ASSEGSRQRINEQF	6	1	1981
26	ASSEGSRQRVNEQF	6	1	21
26	ASSESNGISYNEQF	6	6	1
26	ASSESSGISYNEQF	6	17797	4
26	ASSETRPSSTDTQY	8	7	2
26	ASSFEGSFSTDTQY	8	2	1
26	ASSFGGGAYEQY	12	2	2471
26	ASSFGSGRTDTQY	8	4	158
26	ASSFLDRNNEQF	6	3	2851
26	ASSFLGAGVRNEQF	6	23030	3
26	ASSFNGGEQF	6	5	1
26	ASSFNRGEQF	6	4	2156
26	ASSFPPMGGESYNEQF	6	14	2
26	ASSFQLAGGPAGGNEQF	6	4	56
26	ASSFRVRDGEQY	12	94	2
26	ASSFSADTQY	8	4	1
26	ASSFTGAGQGANNEQF	6	3	1
26	ASSFTGPDTQY	8	1	629
26	ASSFVGPHTDTQY	8	765	353
26	ASSFWTSGSNEQF	6	20	11
26	ASSGDFPGTDTQY	8	6	2
26	ASSHGTASTDTQY	8	1	1
26	ASSIAASPGEQY	12	5	5
26	ASSISGTGTYEQY	12	1	156
26	ASSKGGGSYEQY	12	2	1
26	ASSLAAGGLGEQF	6	2	1
26	ASSLAAGSYEQY	12	1	1
26	ASSLAAGVNIQY	9	3	1287
26	ASSLAANEQF	6	133	2
26	ASSLAFAGGSYNEQF	6	3	3945
26	ASSLAGDNEQF	6	1	6487
26	ASSLAGNNEQF	6	1	3334
26	ASSLAGRSYEQY	12	3	4244
26	ASSLAGSFSGNTIY	7	10	7
26	ASSLAGTINEQF	6	139	1
26	ASSLAGVHNEQF	6	14	18
26	ASSLARMSYNEQF	6	9	2
26	ASSLAWNLKNIQY	9	3	2
26	ASSLDAKNIQY	9	2	6
26	ASSLDGAYEQY	12	14	1
26	ASSLDGTGRDIQY	9	1	6671
26	ASSLDLDPTDTQY	8	3	1
26	ASSLDPGGSSYNEQF	6	3	2
26	ASSLDPGSSYNEQF	6	8	5
26	ASSLDPSSGAYNEQF	6	18	4
26	ASSLDQGIQYEQY	12	5	3
26	ASSLDRSTDTQY	8	1	2
26	ASSLDRTETDTQY	8	19723	3
26	ASSLDSGRNSPLH	5	6	2925
26	ASSLEAGPDEQF	6	3	10964
26	ASSLEARTDTQY	8	6	3240
26	ASSLEGLGGYNEQF	6	3	2
26	ASSLEGVSYNEQF	6	2	3030
26	ASSLELAGPTDTQY	8	12	1808
26	ASSLELSYNEQF	6	5	3
26	ASSLEPGSGNTIY	2	1	1029
26	ASSLEPVAYNEQF	6	1	1
26	ASSLEQSTDTQY	8	20	8824
26	ASSLESGGTYEQY	12	2	3
26	ASSLESGRNSPLH	5	1	3
26	ASSLESGSYNEQF	6	4	5
26	ASSLGDGGDTQY	8	11	4394
26	ASSLGDITDTQY	8	646	8
26	ASSLGDRGQADTQY	8	2877	1
26	ASSLGFRDYEQY	12	1600	486
26	ASSLGFREYEQY	12	4	1
26	ASSLGGDKNIQY	9	4	3
26	ASSLGGGGPLREQF	6	15	3042
26	ASSLGGINEQF	6	2	1
26	ASSLGGLAKNIQY	9	3116	1
26	ASSLGGLNFDEQF	6	2	1
26	ASSLGGQGRNEQF	6	2287	1
26	ASSLGGSRLRSYEQY	12	5	2
26	ASSLGGSVSYNEQF	6	6	9240
26	ASSLGGTSALNEQF	6	1	2878
26	ASSLGHSSYNEQF	6	6	4
26	ASSLGLAGGVRNEQF	6	426	4
26	ASSLGPAGEQY	12	3542	1
26	ASSLGPGGEQY	12	1	1
26	ASSLGPPDTQY	8	5142	1
26	ASSLGQGAYNEQF	6	3	6430
26	ASSLGRSTDTQY	8	1	3690
26	ASSLGRTSGSNEQF	6	2	1
26	ASSLGTGIYNEQF	6	92	2
26	ASSLGTSGGNEQF	6	2	1
26	ASSLGTYGNEQF	6	1	1046
26	ASSLGVWGSYNEQF	6	1	3
26	ASSLHAVSYNEQF	6	6	3
26	ASSLHQGYEQY	12	1	1
26	ASSLIEGRGEQY	12	11	3182
26	ASSLNQGAYYEQY	12	1	2943
26	ASSLNRDINEQY	12	178	1
26	ASSLNRGEQF	6	3	13
26	ASSLNRGTSKNIQY	9	4	1
26	ASSLPAGGKAPYEQY	12	260	7
26	ASSLPGASSGNEQF	6	7	90
26	ASSLPTQGDEQF	6	2	5
26	ASSLQGKETQY	10	158	3
26	ASSLQTGTDTQY	8	5	4
26	ASSLRAGDNNEQF	6	2	4282
26	ASSLRAGGTDTQY	8	6017	3
26	ASSLRDPPNEQY	12	2	1
26	ASSLRTNEQF	6	3	182
26	ASSLSFSSGTHEQF	6	4	3875
26	ASSLSTADNEQF	6	4	1
26	ASSLSTGGGNEQF	6	1	170
26	ASSLSTGTGTYNEQF	6	3	4154
26	ASSLSVLAGVGTDTQY	8	1	168
26	ASSLTALDNEQY	12	5169	1
26	ASSLTGASYEQY	12	1	923
26	ASSLTGTGLYEQY	12	4907	2
26	ASSLTIEGDWESYNEQF	6	37	10
26	ASSLTSGIYNEQF	6	9	445
26	ASSLVAYSGETQY	10	1	57
26	ASSLVLGLETDTQY	8	6	144
26	ASSLWGNEQF	6	1	198
26	ASSMGLAGGHNEQF	6	10	6
26	ASSMLTDTQY	8	3	2
26	ASSNGLSPTDTQY	8	2	2734
26	ASSNLVGGGEQY	12	2528	1
26	ASSNTGSYEQY	12	5	4295
26	ASSPGEARSYNEQF	6	1	4
26	ASSPGEGHDEQY	12	1	988
26	ASSPGGYLYNEQF	6	1	2
26	ASSPGLVGEQF	6	2	1015
26	ASSPGQVEWEQY	12	3	1
26	ASSPGRGSGSSYEQY	12	526	1
26	ASSPGVTYNEQF	6	2	5278
26	ASSPIADLHYEQF	6	4	7577
26	ASSPIQGSYNEQF	6	4	4
26	ASSPLAGDNEQF	6	6	7454
26	ASSPLSGQGNEQF	6	5	1
26	ASSPPSPLSTDTQY	8	14	5613
26	ASSPQSEDEQF	6	12482	3
26	ASSPRLTSGVVYNEQF	6	3172	1
26	ASSPTGCNEQF	6	1	2
26	ASSPTGTEYNEQF	6	3	4
26	ASSPTGYNEQF	6	2192	214
26	ASSPTGYNEQL	6	4	1
26	ASSPTSGSNEQF	6	1	2709
26	ASSPVNGEQF	6	1	2
26	ASSPVQSSYNEQF	6	8	3
26	ASSPVSSYNEQF	6	9	9960
26	ASSQDRGTYNEQF	6	4	684
26	ASSQGGNNEQF	6	4	122
26	ASSQGGPRDTQY	4	4	39
26	ASSQGRGSGNTIY	2	1	2034
26	ASSQGSGNTIY	2	2	1
26	ASSQTSGSYNEQF	7	13	390
26	ASSQVGTGSYEQY	7	3834	1
26	ASSRDPGNTIY	2	19	2
26	ASSRDPSSYEQY	12	5	1
26	ASSREGADTQY	8	2	884
26	ASSRGTSGLSSYNEQF	6	5	1871
26	ASSRQLGEDEQF	6	8	5
26	ASSRRGSDEQF	6	2	7398
26	ASSRSGQGYNEQF	6	3	7186
26	ASSRTGTDITDTQY	8	3	1513
26	ASSSDPGTGKAEQF	6	4007	2
26	ASSSEGDTQY	8	2	636
26	ASSSGLAGYVEQY	12	1	279
26	ASSSGLVSYNEQF	6	2	2481
26	ASSSGQAYNEQF	6	25	6
26	ASSSGQGTYEQY	12	1	60
26	ASSSGRAYNEQF	6	18380	3
26	ASSSGRTYNEQF	6	13	3
26	ASSSGTGGPYNEQF	6	15	6
26	ASSSGTGYNEQF	6	7613	1
26	ASSSIGPRPKIYNEQF	6	14	4
26	ASSSLLAGSYNEQF	6	2	1
26	ASSSPGRGGYNEQF	6	6	3
26	ASSSRTGAYEQY	12	1	2
26	ASSSSPGQKKGKDTQY	8	8	4
26	ASSSTGADYNEQF	6	15661	2
26	ASSSTGDETQY	10	1	38
26	ASSSTGLGYNEQF	6	2	3738
26	ASSTGDLTNEQF	6	2	6762
26	ASSVGARGSNEQF	6	154	4
26	ASSVGAYNEQF	6	3	5
26	ASSVGLAGPETQY	10	1	638
26	ASSVRLLSTDTQY	8	4645	2
26	ASSVVGHQDTIY	2	531	123
26	ASSWAGGFGNEQF	6	10	8
26	ASSWHLGEDEQF	6	1	1
26	ASSWMGGEDTQY	8	18	9
26	ASSWPPGGENYNEQF	6	27	20235
26	ASSWQLEEDEQF	6	1	288
26	ASSWQLGDDEQF	6	2	3
26	ASSWQLGEDEQF	6	5473	3981
26	ASSWQLGEDEQL	6	7	9
26	ASSWQLGEGEQF	6	7	2
26	ASSWQLGENEQF	6	2	1
26	ASSWQLGKDEQF	6	3	9
26	ASSWQLREDEQF	6	3	6
26	ASSWRLGEDEQF	6	8	5
26	ASSYFDTGRDEQY	12	2	4176
26	ASSYLAGTTYNEQF	6	2	436
26	ASSYNTDRGSIQY	9	1	641
26	ASSYTSGGYNEQF	6	1	1
26	ASTAGGVRDTQY	8	186	74
26	ASTAGGVRGTQY	8	3	1
26	ASTDHNEQF	6	30	7518
26	ASTDTGIYTDTQY	8	7	1
26	ASTEHNEQF	6	1	6
26	ASTGGATEQF	6	24198	1
26	ASTLGLAGEYEQY	12	2	1
26	ASTLTSGGYSYEQY	12	3	2
26	ASTPVGTSVSGELF	7	1	37
26	ASTTDGLARDEQF	6	2	2
26	ASTTYQGHDTQY	8	5	54
26	TSSWQLGEDEQF	6	3	4
26	VSSWQLGEDEQF	6	1	4
27	ASRPASGEDTQY	8	1	4063
27	ASRPGLVTSNEQF	6	575	2
27	ASSFDRGSTDTQY	8	34	22
27	ASSFRASGVDTQY	8	1698	1
27	ASSFWREIETQY	10	6	4
27	ASSGLAGDRDTQY	8	11	2312
27	ASSKTGTAEDTQY	8	10	6
27	ASSLAQGYQETQY	10	2	1
27	ASSLEAGFSYEQY	12	4	95
27	ASSLEYNEQF	6	2936	1
27	ASSLGAGFSYEQY	12	1	14
27	ASSLGTNSYNEQF	6	4	3
27	ASSLKGGRSYNEQF	6	711	16
27	ASSLPAGQAYNEQF	6	217	1
27	ASSLSSSGPYEQY	12	4322	4
27	ASSPAGQPYNEQF	6	3	6
27	ASSPGTSGSQETQY	10	1	956
27	ASSPTAKETQY	10	2	1621
27	ASSQGQELPTIY	2	1	585
27	ASSQLAGGQETQY	10	3	1
27	ASSQSQGSEQY	12	1	63
27	ASSRDREGEQY	12	1	32
27	ASSRETGVHNEQF	6	68	50
27	ASSRGGSFLSYNEQF	6	3	80
27	ASSRGGTNYEQY	12	9	2
27	ASSTAGSTKNIQY	9	2	2
27	ASSYKPGLAGGDTQY	8	2102	2
27	ASTPNTGTAITDTQY	8	22	908
28	ASSFFAISYNEQF	6	4	1
28	ASSFMSGRTDTQY	8	4	2713
28	ASSHPGGGVYEQY	12	11	1
28	ASSLASDETQY	10	3	2
28	ASSLDGSTGELF	7	1	720
28	ASSLDRGNNEQF	6	2	3
28	ASSLDSPNSGNTIY	2	7	2
28	ASSLDYEQY	12	3625	1
28	ASSLELAGGRDTQY	8	2	1
28	ASSLFAGRRDTYYNEQF	6	1	79
28	ASSLGAVEQF	6	197	286
28	ASSLGGLVYNEQF	6	4	1
28	ASSLGRGRSITDTQY	8	68	92
28	ASSLPGGYNEQF	6	11	3
28	ASSLSGNEQF	6	1	15
28	ASSLTTGDQETQY	10	4	9647
28	ASSLTTGGQETQY	10	1	124
28	ASSLVEVSIYNEQF	6	3	201
28	ASSLVLAGDNEQF	6	4	1271
28	ASSLVPYEQY	12	1	480
28	ASSLVSGSYEQY	12	9	4
28	ASSLWTSEEETQY	10	1	2051
28	ASSLYPLNRLNRDQETQY	10	4	2
28	ASSPGTGGETQY	10	45	13
28	ASSPGTGGGTQY	10	7	5
28	ASSQRDEQY	12	217	165
28	ASSRDSKNIQY	9	6	1
28	ASSRLDTSTDTQY	8	3	1171
28	ASSRQEGSGNTIY	2	8	8516
28	ASSRQGERENEQF	6	3	1
28	ASSSDLFGDTQY	8	3	1
28	ASSSPLGEAIETQY	10	18	13
28	ASTPPTLSTDTQY	8	8	1
28	ASTPQGPYEQY	12	2	3
28	ATTRALSSYEQY	12	1	1262
29	ASKESRPDTDTQY	8	1	1
29	ASRPTGTYNEQF	6	28	7476
29	ASSDGSSFSLYNEQF	6	697	13
29	ASSFEGDGKQETQY	10	2	1164
29	ASSFTTQETQY	10	1	3884
29	ASSGSGLAGVFPEQF	6	1	2213
29	ASSHGTGENEQF	6	14	9
29	ASSLAREETQY	10	19	271
29	ASSLEGISGNTIY	2	3	398
29	ASSLEPTYEQY	12	772	1
29	ASSLESSSGRIGNIQY	9	1	1782
29	ASSLGAQETQY	10	14102	2
29	ASSLGLARNEQF	6	19	7
29	ASSLGLGSYNEQF	6	11	5
29	ASSLGQRETQY	10	3	1
29	ASSLGYEQY	12	1	1
29	ASSLISALPGSYEQY	12	588	1
29	ASSLPGRAVETQY	10	5	2659
29	ASSLQGAFYNEQF	6	3	3
29	ASSLRAGTDTQY	8	3	1
29	ASSLRLSTGNTIY	2	2	811
29	ASSLRPRGTQY	10	3	3
29	ASSLTDYEQY	12	4	1590
29	ASSLVGSYEQY	12	1	1
29	ASSLVQETQY	10	2707	1
29	ASSLVVGQWGQDEQY	12	3	1
29	ASSLVVQVSNEQF	6	5	4
29	ASSPRTFWFNYEQY	12	1	2
29	ASSPTGNHEQY	12	1847	3
29	ASSRHGTAKGETQY	10	1692	21
29	ASSSRTGYGNEQF	6	5	5
29	ASSSRWETQY	10	12	233
29	ASSSSGRQETQY	10	4	1
29	ASSWLANEQF	6	1	2487
29	ASSYDRTLSYEQY	12	5	2
29	ASSYGTSSEQY	12	2	170
29	ASTLRTAGSETQY	10	3138	1
29	ASTPGLAASTDTQY	8	1	26
3	ASISTRGKINEQF	6	1	6
3	ASSFEPSNEQF	6	3	2984
3	ASSKRDSYNEQF	6	1	1
3	ASSLARSSYNEQF	6	461	3
3	ASSLTDREQY	12	15	550
3	ASSPGTSGTQETQY	10	1	598
3	ASSPRLGAPGGNEQF	6	50	371
3	ASSRLDDRIYEQY	12	238	3
3	ASSSGTGIGYEQY	12	19	18
3	ASSSQTGTDTQY	8	32	15
3	ASSTRRSPLGGNEQF	6	5	4484
3	ASSVGQLYTGELF	7	4	24
3	ATQRGGTDTQY	8	50	11
30	ASRARPLGGVTDTQY	8	2	1779
30	ASSHFGTSGNDEQF	6	1	10
30	ASSLAGANSYEQY	12	1	1947
30	ASSLGRRLAGRGSYNEQF	6	3	2
30	ASSLRTSGPLGDEQF	6	3	3989
30	ASSSGEPTYEQY	12	842	3
30	ASSSGTNPRDTQY	8	4	2
30	ASSYAPTSGRTTHEQF	6	1	459
31	AILRGTSSYNEQF	6	5	7594
31	AIRPTSLNEQF	6	1	1
31	ASCQVGGAGDTQY	8	47	300
31	ASCQVGGEGDTQY	8	1	2
31	ASCTALSYEQY	12	2	3
31	ASERDSNSYEQY	12	2261	1
31	ASGRDGGFSNEQY	12	1	2
31	ASGRDGTSGNTIY	2	1	1
31	ASIIGTVNEQF	6	17	5
31	ASKRGLAVDNEQF	6	2	1
31	ASKRGLAVYNEQF	6	1315	4685
31	ASKRGLAVYNEQL	6	9	1483
31	ASKRGLAVYSEQF	6	3	4
31	ASKRGLEVYNEQF	6	1	6
31	ASKRGLVVYNEQF	6	1	7
31	ASKRRLAVYNEQF	6	1	4
31	ASKSGLAVYNEQF	6	1	4
31	ASNKRDSYNEQF	6	6960	1
31	ASNLAESSYEQY	12	2	1557
31	ASNRLSYNEQF	6	1	452
31	ASRAAGEADTQY	8	1	253
31	ASRDRTGGVYEQY	12	8	2
31	ASRDSGNRETQY	10	2	6531
31	ASRHLAISYEQY	12	2	1794
31	ASRLGSATDTQY	8	3	1268
31	ASRLLAGGHNEQF	6	6	1
31	ASRPASLNEQF	6	1	2
31	ASRPTNLNEQF	6	1	1
31	ASRPTRLNEQF	6	2	2
31	ASRPTSLDEQF	6	2	1
31	ASRPTSLNEQF	6	906	780
31	ASRPTSLSEQF	6	1	3
31	ASRPTSPNEQF	6	2	3
31	ASRRDGTSGNTIY	2	294	103
31	ASRRTGPQRETQY	10	3	4
31	ASRTSWARGETQY	10	1262	1
31	ASRVDDYEQY	12	1	912
31	ASRVGQKETQY	10	3	1
31	ASSEAGGETQY	10	4	6
31	ASSEAGGSYNEQF	6	5	10750
31	ASSEAGVYLNEQF	6	19	13
31	ASSEAQRGDTQY	8	5	1
31	ASSEATRGETQY	10	5	5
31	ASSEDRGREETQY	10	1	41
31	ASSEGFSYEQY	12	12	3
31	ASSEGPRYEQY	12	1	385
31	ASSEGTYEQY	12	15	7
31	ASSELGSSADTQY	8	3	1
31	ASSELGSSTDTQY	8	1263	309
31	ASSEWRERNNEQF	6	2	5427
31	ASSEWTETNIQY	9	12	19377
31	ASSFLTGYQETQY	10	9	3
31	ASSGDGGFSNEQY	12	2	2
31	ASSGGNEQY	12	2	1
31	ASSGLVRNEQF	6	1	1159
31	ASSGQVLAKNIQY	9	9205	7
31	ASSLAGPLNEQF	6	4	2882
31	ASSLLAGGKDIQY	9	16	4
31	ASSLLAGVPDTQY	8	7	4
31	ASSLPGQGTDTQY	8	1562	1
31	ASSLVARETQY	10	61	79
31	ASSMMGGVETQY	10	111	111
31	ASSPDRVSYEQY	12	5	1
31	ASSPGHQNIQY	9	2	2
31	ASSPLGLEVDTQY	8	4	231
31	ASSPRTYEQY	12	6	2
31	ASSQGGIGYEQY	12	3	429
31	ASSQGNIQY	9	915	6
31	ASSQTIANEQF	6	13	7
31	ASSRDGGFSKEQY	12	1	1
31	ASSRDGGFSNEQY	12	1090	321
31	ASSRGGGFSNEQY	12	5	1
31	ASSRGPHEQY	12	1	366
31	ASSRQGARDEQF	6	4	5
31	ASSSHQLADNEQF	6	9	8272
31	ASSSPASPYEQY	12	2	1726
31	ASSVAGKKIYEQY	12	1	1
31	ASSVGQKETQY	10	2935	14
31	ASSYFGGPYEQY	12	10082	1
31	ASSYGAYEQY	12	1	4432
31	ASSYGLAGSYEQY	12	1	231
31	ASSYGPGNYEQY	12	540	357
31	ASSYPSEAVEQF	6	3	2427
31	ASSYPSRAYEQY	12	3	1
31	ASSYRGNIQY	9	1	1352
31	ASSYSAGVGETQY	10	21	7
31	ASSYSGSGNTIY	2	1423	2
31	ASSYSITFTDTQY	8	1	1680
31	ASSYSITFTGTQY	8	1	5
31	ASSYSKSYNEQF	6	14396	1
31	ASSYSKSYNEQL	6	3820	1
31	ASSYSLADKNIQY	9	1	2964
31	ASSYSNVEQF	6	15	6
31	ASSYSPGLEQY	12	6	1
31	ASSYTGGEQY	6	41	1
31	ASTPGTAADTQY	8	12268	3
31	ASTPLGGSNNEQF	6	1	1
31	ASTRTSGYEQY	12	43	14
31	ASYQGAYNEQF	6	1	1
31	ATLPTGNYEQY	12	360	6
31	ATRGVLAKNIQY	9	3	2
31	ATTGSYEQF	6	11	1
31	ATWTRGQETQY	10	45	10
31	TSVPAGRSSNNEQF	6	5	123
32	ASCTALSYEQY	12	1	2
32	ASRRTGPQRETQY	10	1	2
32	ASSAGEGGTQY	10	4	2
32	ASSDFAGVHPYNEQF	6	21182	4
32	ASSDGTGGYNEQF	6	13	4
32	ASSDLAGDYNEQF	6	3	3640
32	ASSDRTADTQY	8	1	3
32	ASSDSAAKDTQY	8	893	1
32	ASSDSLAGASEQF	6	6	1
32	ASSDSNGGGTDTQY	8	5	1
32	ASSDTGTGKNIQY	9	9	4
32	ASSEGENNEQF	6	8	11067
32	ASSEGGYTDTQY	8	9	1
32	ASSEGPAEVSEQF	6	18	7
32	ASSEQTNPTDTQY	8	2	1
32	ASSETSGRISYNEQF	6	2	1
32	ASSGLAGGNEQF	6	6	4
32	ASSRGAGTYNEQF	6	16	661
32	ASSVALGDTQY	8	1	100
32	ASSVTSSYNEQF	6	5	317
32	ASSYRAGAYNEQF	6	3	1
32	ATWTRGQETQY	10	13	7
32	TSVPAETGVPYNEQF	6	5	2
32	TSVPAGSRGVGRYEQY	12	95	1
32	TSVPAVTSATKNIQY	9	5	1
33	AIWTRGQETQY	10	8	1
33	ASCIALSYEQY	12	1	3
33	ASCTALPYEQY	12	2	7
33	ASCTALSHEQY	12	2	1
33	ASCTALSYEQY	12	791	1028
33	ASCTELSYEQY	12	2	1
33	ASGAKLYEQY	12	671	18
33	ASGRDRRSYEQY	12	1	1
33	ASGRTGPQRETQY	10	1	1
33	ASKGLRGRDEQF	6	2	1
33	ASKRLGETQY	10	10	5
33	ASPKRDYSYNEQF	6	11169	2
33	ASQLGYSTDTQY	8	1	1668
33	ASRIHRASDTQY	8	2	2
33	ASRRKGPQRETQY	10	2	1
33	ASRRTASSYEQY	12	6	8
33	ASRRTGPKRETQY	10	1	1
33	ASRRTGPQGETQY	10	2	1
33	ASRRTGPQRETQY	10	743	679
33	ASRSLGSYEQY	12	1	2
33	ASRSTGSVRETQY	10	2	2
33	ASSAGFLAGNTIY	2	1	1
33	ASSEGQGAKNIQY	9	1002	12
33	ASSFDKSSYEQY	12	4	1932
33	ASSFGHGPGNTIY	2	1	1
33	ASSFGSQYEQY	12	1	1
33	ASSGSGLGKNIQY	9	4	7479
33	ASSHQGSTEAF	0	1	1
33	ASSLEGGPYEQY	12	1	371
33	ASSLGTTQVNEQF	6	9	494
33	ASSLLAGSYEQY	12	5	2
33	ASSLRGGRTDTQY	8	1	20
33	ASSLTSGRYNEQF	6	8	3
33	ASSPGLPSSYEQY	12	10	1
33	ASSPINTDTQY	8	4	4607
33	ASSPINTGTQY	8	1	21
33	ASSPRTGGGYEQY	12	35	12
33	ASSQRPYEQY	12	2	1
33	ASSRGGRGYNEQF	6	1	3
33	ASSRKPNRDYEQY	12	1	1
33	ASSRRWTSLHEQF	6	1188	1
33	ASSSGLKGETQY	10	2	920
33	ASSSPGEETQY	10	12	2
33	ASSSRGGDEQF	6	7	2798
33	ASSSRYGRASEQF	6	2	1
33	ASSYDARDTQY	8	1	72
33	ASSYDRYNEQF	6	904	15
33	ASSYDWDTQY	8	10	2
33	ASSYEGRLKETQY	10	1	157
33	ASSYPAGIGEQY	12	1	3
33	ASSYRGGSSYEQY	12	1124	1
33	ASSYSDRGQNIQY	9	16	4
33	ASSYSGTGGYEQF	6	9213	1
33	ASSYSIISGNTIY	2	108	12
33	ASSYSNGVGETQY	10	4	1
33	ASSYVPGNIQY	9	8	6
33	ASTGLGTTTDTQY	8	11	1
33	ASTPRGSLTDTQY	8	481	1
33	ASTQQGADTQY	8	335	5
33	ASWTRGQETQY	10	16	3
33	ATCTRGQETQY	10	14	6
33	ATLTRGQETQY	10	19	1
33	ATRTRGQETQY	10	30	13
33	ATWARGQETQY	10	358	11
33	ATWIRGQETQY	10	8	1
33	ATWNRGQETQY	10	18	2
33	ATWTGGQETQY	10	29	199
33	ATWTIGQETQY	10	13	1
33	ATWTRAQETQY	10	3	1
33	ATWTRCQETQY	10	6	5
33	ATWTRGHETQY	10	3	2
33	ATWTRGKETQY	10	3	3
33	ATWTRGPETQY	10	1	3
33	ATWTRGQDTQY	10	31	4
33	ATWTRGQETQY	10	18899	6818
33	ATWTRGQGTQY	10	40	7
33	ATWTRGRETQY	10	21	17
33	ATWTRSQETQY	10	12	28
33	ATWTRVQETQY	10	9	4
33	VSRRTGPQRETQY	10	1	1
34	ASKRGLAVYNEQF	6	17	6
34	ASMIDGNNEQF	6	4	2
34	ASRDRAGGVYEQY	12	1	1
34	ASRDRTGGVYEQY	12	927	443
34	ASRIRLAGYNEQF	6	3	3
34	ASSLRTDTQY	8	1	442
34	ASSPGHSSYEQY	12	2	2257
34	ASSPQGAEIEQY	12	4113	1
34	ASSPQGGQETQY	10	11	3
34	ASSPTGGGETQY	10	20	1
34	ASSPTIVETQY	10	2247	1
34	ASSSTPQETQY	10	489	5
34	ASSYGGTHQETQY	10	13	6
34	ASSYQGLVRETQY	10	6	3
34	ASSYRLDKNIQY	9	10477	6
34	ASSYSGMGTQY	8	4	5692
34	ASSYSGSYYNEQF	7	2	1
34	ASSYSSDPLYIQY	9	203	1
34	ASTEAETQY	10	4	1532
34	ASTRGQGRDEQY	6	3	1
34	ATRQSGNTDTQY	8	19	3
34	ATWTRGQETQY	10	19	4
35	AIMTGGLYEQY	12	521	20
35	AISPPLGREGKSDTQY	8	4	48
35	ASRRDSKTVNTDTQY	8	4	5
35	ASSYRLRKETQY	10	1	2150
35	ASSYSIRTDKETQY	10	16	3
35	ATWTRGQETQY	10	8	9
36	ASSYSIRTDKETQY	10	1	1
37	ASAFGKQETQY	10	1	912
37	ASALRGGLNNEQF	6	5	2
37	ASGLGGLAGGKANEQF	6	1	66
37	ASGLSASGNHNEQF	6	2	7
37	ASGLSSGSSYEQY	7	6	2
37	ASGPRVHNEQF	4	1	112
37	ASLGLAGTYEQY	12	3	307
37	ASLRTFSYNEQF	6	5	10456
37	ASNPNGASGRASNEQF	6	13210	2
37	ASNPSGTTYEQY	12	1	1065
37	ASNPYMDKAYEQY	12	1	7
37	ASREGRSYEQY	12	5	4
37	ASRGSGNTIY	2	4	1
37	ASRKGQAYEQY	12	1	2
37	ASRLTSGAVQEQY	12	3	1
37	ASRPSGRFYEQY	12	3	86
37	ASRRRTSGVYEQF	6	3	1
37	ASRRVGTETQY	10	6	5
37	ASRSSGDTIY	2	3	2
37	ASRSSGNTIY	2	1391	497
37	ASRYQTDTQY	8	14	211
37	ASSARREAHEQY	12	11	10172
37	ASSASSGRVPYEQY	12	1	691
37	ASSEGDTQY	8	367	194
37	ASSERGPSGNTIY	2	8	387
37	ASSFGLAGGLSEQF	6	7	6
37	ASSFGQGRTKNIQY	9	4	1
37	ASSFIAGFTDTQY	8	1804	31
37	ASSFKARGAGRSTDTQY	8	4	58
37	ASSFLAGNEQF	6	1	3
37	ASSFLPGETQY	10	1	282
37	ASSFQRGGGETQY	10	8	9
37	ASSFRQSYEQY	12	1	1278
37	ASSFSGGALNEQF	6	6	2
37	ASSFSSGLAGNEQF	6	5	2
37	ASSFTRDEQF	6	1393	1
37	ASSFVGLLETQY	10	358	2
37	ASSFYDGAYEQY	12	5	718
37	ASSITGGSVYEQY	12	811	284
37	ASSKTSGTYNEQF	6	3	12448
37	ASSLAEGLPYNEQF	6	571	7
37	ASSLAGTGASYRYEQY	12	2057	2
37	ASSLAGTNNEQF	6	4	5
37	ASSLALAGERDEQF	6	1	2
37	ASSLALARERDEQF	6	290	521
37	ASSLALGAGTQYNEQF	6	38	23
37	ASSLATGLAAGSYEQY	12	2	1
37	ASSLATGLAASSYEQY	12	194	111
37	ASSLATRLAASSYEQY	12	1	2
37	ASSLATTSSSEQF	6	1	346
37	ASSLAWTSSNEQF	6	9	10814
37	ASSLDNQETQY	10	3	3776
37	ASSLDSMRGKTETQY	10	82	1
37	ASSLDSTFHSGNTIY	2	1	1
37	ASSLDSYEQY	12	1	14
37	ASSLDWTKSWYDTQY	8	22	5
37	ASSLEAENEQF	6	8	7
37	ASSLERGGWNIQY	9	8	9074
37	ASSLERIPYEQY	12	3	2
37	ASSLFGGNQETQY	10	1	1
37	ASSLFKGGEQY	12	1	3249
37	ASSLFRNEQF	6	16	950
37	ASSLGAGGLRSYNEQF	6	7	1
37	ASSLGAGVADTQY	8	4	1219
37	ASSLGASGNHNEQF	6	3	1
37	ASSLGGLAASSYEQY	12	1	1
37	ASSLGGLAGETQY	10	25	938
37	ASSLGGLAGGKANEQF	6	27	11810
37	ASSLGGLALIGNEQF	6	9604	1
37	ASSLGGSGGYNEQF	6	1	1
37	ASSLGGSRKDTQY	8	3	187
37	ASSLGGSWRYNEQF	6	248	300
37	ASSLGGTSYEQY	12	2	125
37	ASSLGGTVRYNSPLH	5	2	1146
37	ASSLGLAGPNEQF	6	8	3632
37	ASSLGPRNEQF	6	5	1
37	ASSLGPTSGRGAKNIQY	9	120	1
37	ASSLGQPASGNTIY	2	11	4
37	ASSLGQPGTDTQY	8	5	2
37	ASSLGRPNEQF	6	1	2
37	ASSLGTGTPYEQY	12	2	1
37	ASSLGTRETQY	10	4	1
37	ASSLGVTTEQY	6	8304	5
37	ASSLGWDEQF	6	6	14026
37	ASSLHPTGTPYNEQF	6	3	1
37	ASSLIGLGAENNSPLH	5	1	1
37	ASSLLADTQY	8	1381	281
37	ASSLLGREQY	12	3	4
37	ASSLLRDNEQF	6	6	1
37	ASSLLSLREFYNEQF	6	2	2
37	ASSLLSREQY	12	760	1233
37	ASSLLSREQY	6	1	3
37	ASSLLSSEQY	12	7	5
37	ASSLLVHEQY	12	5	3
37	ASSLNWAAGGYNEQF	6	3	1
37	ASSLPGPPNEQF	6	3	29
37	ASSLPGQPNEQF	6	13	652
37	ASSLPRAGAGDTQY	7	2	1313
37	ASSLRRTSAEQY	12	88	2
37	ASSLRTSGRTDTQY	8	13	13316
37	ASSLSASGNHNEQF	6	1767	429
37	ASSLSASGNHNEQL	6	3	1
37	ASSLSASGNQNEQF	6	1	1
37	ASSLSGGSSYEQY	7	6	3
37	ASSLSIYEQY	12	4	1
37	ASSLSPPYNEQF	6	8	2363
37	ASSLSRGSSYEQY	7	1	2
37	ASSLSSESSYEQY	12	4	1
37	ASSLSSGGSYEQY	12	7	2
37	ASSLSSGISYEQY	12	5	1
37	ASSLSSGRSYEQY	12	8	1
37	ASSLSSGSPYEQY	12	6	1
37	ASSLSSGSSCEQY	7	3	3
37	ASSLSSGSSYEQY	12	12	1
37	ASSLSSGSSYEQY	7	5143	1427
37	ASSLSSGSSYERY	7	9	2
37	ASSLSSREQY	12	3	2
37	ASSLSSRSSYEQY	12	11	3
37	ASSLTQGAKDTQY	8	203	79
37	ASSLVAASEDTQY	8	11	6157
37	ASSLVAGDKGSEQF	6	9639	2
37	ASSLVAGTGNNEQF	6	6	4866
37	ASSLVALGETQY	10	10	12
37	ASSLVANEQF	6	3	2
37	ASSLVASGGSTDTQY	8	4130	1
37	ASSLVATQETQY	10	1	213
37	ASSLVEAGVDYEQY	12	10	3034
37	ASSLVGQGSYEQY	12	2	2461
37	ASSLVLLGLAFNEQF	6	1	1
37	ASSLVPNPYTDTQY	8	2	202
37	ASSLVYGTGGSYNEQF	6	191	1
37	ASSLVYRLADNEQF	6	21	2
37	ASSLWREGLHEQF	6	4	10081
37	ASSLYQGYQETQY	10	545	1108
37	ASSLYQGYRETQY	10	6	1
37	ASSLYRGYQETQY	10	1	1
37	ASSLYSAETETQY	10	3	3598
37	ASSPALREGGTDTQY	8	5	3
37	ASSPGGGGSYNEQF	6	7	3
37	ASSPGLALSNEQF	6	4	1
37	ASSPGTGTYEQY	12	3	2159
37	ASSPGTILRNEQF	6	7035	2
37	ASSPLGGSTDTQY	8	2	1843
37	ASSPNAGNEQF	6	494	192
37	ASSPNVGNEQF	6	1	1
37	ASSPPNREETQY	10	1422	1
37	ASSPQRGAGNEQF	6	3	4
37	ASSPTGALPTPNYNEQF	6	316	5
37	ASSPYMDKAYEQY	12	27	6285
37	ASSQDGGRANEQF	6	6919	2
37	ASSQPGLAGGSNEQF	6	1	2
37	ASSQSGLANEQF	6	4	8160
37	ASSQTINQETQY	10	15	12
37	ASSRKREDRDTQY	8	1	404
37	ASSRLTDTQY	8	2	112
37	ASSRRGGYYNEQF	6	102	1
37	ASSRTDSQETQY	10	5	2
37	ASSRTSGSSYEQY	12	33	1
37	ASSRYGGEQF	6	2	1
37	ASSSARMGEQY	12	3	1
37	ASSSESASGNTIY	2	1	295
37	ASSSGGETQY	10	1	5
37	ASSSGQNNEQF	6	5	2
37	ASSSGRPNEQY	12	1	1595
37	ASSSGTSAYNEQF	6	14	14578
37	ASSSHRVNEQF	6	8	1
37	ASSSLAFADNEQF	6	30962	2
37	ASSSLASRTDTQY	8	478	103
37	ASSSLSEAREQY	6	1	172
37	ASSSLSREQY	12	6	1
37	ASSSLWGEQY	12	4	4
37	ASSSPGLAGSTDTQY	8	1	1739
37	ASSSQPGNSYEQY	12	2	1
37	ASSSQTSLYSNEQF	6	50	1
37	ASSSRGQSSGNTIY	2	1	800
37	ASSSRTSGRTDTQY	8	3	9
37	ASSSTRLAGYNEQF	6	4	7595
37	ASSSVKLEQF	6	4	4467
37	ASSSWGGITDTQY	8	9213	2
37	ASSSYSGGARNEQF	6	17536	2
37	ASSTLAGGLYEQF	6	4	1
37	ASSTPPGVNEQF	6	15	5
37	ASSTYLDTQY	8	3	2705
37	ASSYQRTLETQY	10	31	22850
37	ASSYRASGSGDTQY	8	11	5
37	ASSYSYEQY	12	1	99
37	ASTLAKNIQY	9	5	1
37	ASTSGEILSPLH	5	2	73
37	ASTTIAVYQETQY	10	2	2
37	TSSLSASGNHNEQF	6	1	1
37	TSSLYQGYQETQY	10	3	1
38	ASGSSGGAWNEQF	6	15	15
38	ASRSSGNTIY	2	2	1
38	ASSAEGGLAGNNEQF	6	1	1021
38	ASSAKTGLSYNEQF	6	4	4
38	ASSAQDRHEQF	6	4	6721
38	ASSAYGTDTQY	8	1	3
38	ASSEEGTRTDTQY	8	4	5630
38	ASSETGIGETQY	10	15	303
38	ASSFDRGGYNEQF	6	1	1
38	ASSFDRGPYNEQF	6	6	4384
38	ASSFDRGSYNEQF	6	1	4
38	ASSFDRTSTDTQY	8	5	1
38	ASSFDYYNEQF	6	5	2
38	ASSFEGVANNEQF	6	1	150
38	ASSFGGSPYNEQF	6	1	742
38	ASSFPGLNNEQF	6	15	13795
38	ASSFPRGQGDNEQF	6	41	37460
38	ASSFRGGGGEQF	6	2	1229
38	ASSFSGDSGNTIY	2	1	78
38	ASSGTGTLGETQY	10	1	18
38	ASSISTNSPLH	5	893	4
38	ASSLAGAGETQY	10	2	1143
38	ASSLATGLAASSYEQY	12	41	52
38	ASSLDGPGTGAYEQY	12	71	18
38	ASSLEGTSGQETQY	10	5	206
38	ASSLEVGGPYEQY	12	1	1
38	ASSLGGGGYEQY	12	14	15254
38	ASSLGNVDEQF	6	2	3435
38	ASSLGRGYEQY	12	9	4930
38	ASSLGSTYTYNEQF	6	6377	20
38	ASSLIAATCNEQF	6	1	1
38	ASSLIAATRNEQF	6	20	19
38	ASSLKGDSVEQL	6	1	22
38	ASSLKGRQETQY	10	1	3774
38	ASSLLAGVSNEQF	6	10	2585
38	ASSLLGRTDTQY	8	2	418
38	ASSLLGSDEQF	6	5	10617
38	ASSLLPVVPTSTDTQY	8	1	1
38	ASSLMAGAYNEQF	6	31	9
38	ASSLMALSSYNEQF	6	23	8
38	ASSLNFAGELF	7	1	114
38	ASSLPGGETQY	10	27	21
38	ASSLRGRDNEQF	6	5	10853
38	ASSLRPTGVVYNEQF	6	3616	1
38	ASSLRRGDSYNEQF	6	1	426
38	ASSLSPRNEQF	6	2277	4
38	ASSLSSDTQY	8	1	402
38	ASSLSSGLGNNEQF	6	17	13414
38	ASSLSSLAYGVGNEQF	6	3	1
38	ASSLTGGRADTQY	8	4	481
38	ASSLTGGRETQY	10	1	1102
38	ASSLTGSTYNEQF	6	1	17
38	ASSLTLAPLDEQF	6	1	1
38	ASSLTRDYEQY	12	13	456
38	ASSLTWGRRDEQF	6	13	6677
38	ASSLVAGVYNEQF	6	1	1
38	ASSLVALGETQY	10	1	1
38	ASSLVVKETQY	10	3	4
38	ASSLYGSGEQY	12	2	2933
38	ASSNILAGGADTQY	8	29	8792
38	ASSNRDKGGETQY	10	1	457
38	ASSPDPGSYNEQF	6	4	9624
38	ASSPDREETQY	10	2	1
38	ASSPDSRYNEQF	6	1	1486
38	ASSPGPDYEQY	12	1	409
38	ASSPGQGHNEQF	6	2	7487
38	ASSPGTSGAPGGEQF	6	1	299
38	ASSPGTSGASGGEQF	6	38	8561
38	ASSPNAGNEQF	6	1	2
38	ASSPPTGAYEQY	12	22	1
38	ASSPQGMHNEQF	6	2	2
38	ASSPRPYNEQF	6	6	3
38	ASSPRTSMYNEQF	6	2	2699
38	ASSPSLAGPYNEQF	6	1	3
38	ASSPTRDSYNEQF	6	2	1051
38	ASSQKRVESDTQY	8	2	246
38	ASSQQTTDTQY	8	3604	1
38	ASSQTGTGGNNEQF	6	8983	1
38	ASSQVRTDTQY	8	5518	2
38	ASSSGQGGQETQY	10	3	7992
38	ASSSGQGSYNEQF	6	2	1396
38	ASSSGRADTQY	8	1	1
38	ASSSGSYNEQF	7	6	3129
38	ASSSGTSGSGEQY	6	2	446
38	ASSSLAGAYNEQF	6	23	6
38	ASSSLAGTAYNEQF	6	1	1368
38	ASSSQFTDTQY	8	1	85
38	ASSSQGSSGRASEQF	6	4649	1
38	ASSSRDCISYEQY	12	3	1492
38	ASSSSLAGPYNEQF	6	8	202
38	ASSSTGTYTDTQY	8	7	229
38	ASSTPRGEQF	6	1	138
38	ASSTRASTDTQY	8	1	12
38	ASSYRTSGTYNEQF	6	2	2
38	ASTTPGGGELF	7	1	206
39	ASSLEAAREVYEQY	12	4	1476
39	ATGGTVYLAKNIQY	9	3	1
4	AISLHGGGTSYEQY	12	3	1
4	ASIQSDSTDTQY	8	207	2
4	ASRGGGNTIY	2	1252	2
4	ASRKGQAYEQY	12	1	1
4	ASRRDSYNEQF	6	11	9
4	ASSEKRPGQGRETQY	10	5	3484
4	ASSFGTASYEQY	12	1	470
4	ASSFGTGSEQY	12	1508	1
4	ASSFHGGETQY	10	1	2
4	ASSFHLTGGPCNEQF	6	1	2
4	ASSFNRLPTDTQY	8	3	2
4	ASSFQSGGFADTQY	8	16	1
4	ASSFRGHQSTDTQY	8	5	1
4	ASSFRSYPGGGNQETQY	10	2	3
4	ASSFRSYPGGRNQETQY	10	732	321
4	ASSFRSYPGGRSQETQY	10	2	1
4	ASSFVLGQETYNEQF	6	4	1
4	ASSFYDGAYEQY	12	1	26
4	ASSGRDRRSETQY	10	14	4
4	ASSIAGGLNEQF	6	10	3
4	ASSLAETQY	10	1	3199
4	ASSLAGADTQY	8	2	1
4	ASSLAGQGASYEQY	12	1	1
4	ASSLAHGETQY	10	2	1
4	ASSLALAKNIQY	9	3	1
4	ASSLATGLAASSYEQY	12	29	6
4	ASSLDFDRAYEQY	12	7	1
4	ASSLDHYSYEQY	12	4	1533
4	ASSLDLGTQY	10	2	1184
4	ASSLDPGVQETQY	10	3	103
4	ASSLDRGLAGDSSYEQY	12	4	2
4	ASSLDTGGDEDTQY	8	1	1
4	ASSLEYGLADNIQY	9	1	1
4	ASSLFTMGLVGTQY	8	540	2
4	ASSLGAGAYEQY	12	1	484
4	ASSLGETQY	10	19	3443
4	ASSLGGYNEQF	6	2	777
4	ASSLGLAETQY	10	5	6161
4	ASSLGLAGVQGETQY	10	2	492
4	ASSLGLANIQY	9	692	145
4	ASSLGLGSPGTQY	10	2	177
4	ASSLGQGSEQY	12	1	88
4	ASSLGSGQGETQY	10	20	9
4	ASSLGTGGLNIQY	9	29	1763
4	ASSLGTGGSNIQY	9	2	72
4	ASSLGVGGLDTQY	8	3	453
4	ASSLGWTGFNEQF	6	29	1
4	ASSLISYNEQF	6	2	10639
4	ASSLKGNTIY	2	1	2
4	ASSLPGTYNEQF	6	1	4914
4	ASSLQSGSSTDTQY	8	1	7
4	ASSLRSYPGGRNQETQY	10	1	2
4	ASSLSDSGTDTQY	8	2	1740
4	ASSLSGPRGTQY	10	1	13
4	ASSLSPGQETQY	10	10	1
4	ASSLSPTGGETQY	10	1	1
4	ASSLTDNEQF	6	4	1
4	ASSLVAGGGGTDTQY	8	2	263
4	ASSLVGASRYNEQF	6	10	4
4	ASSLVGGVVYEQY	12	3	2
4	ASSLVGTSGADTQY	8	5	1623
4	ASSLVQGAYEQY	12	4	451
4	ASSLVYGRGGSYNEQF	6	67	1
4	ASSLVYGTGGSYNEQF	6	311473	53
4	ASSLWANQETQY	10	5	5
4	ASSLYLPDTGNTIY	2	1	1701
4	ASSPANEQF	6	7	1
4	ASSPASGGSDEQF	6	4	1
4	ASSPGGYNEQF	6	1	1
4	ASSPPVLDTQY	8	140	1
4	ASSPTRNTEAF	0	13	3
4	ASSRLAFPYEQY	12	3	525
4	ASSRLGTVLYNEQF	6	2	1055
4	ASSRSSARSYEQY	12	7	2
4	ASSSDRPLGETQY	10	2	1
4	ASSSDTRISEQF	6	6	1
4	ASSSGTGIYEQY	12	21	10
4	ASSSHFSGSDNEQF	6	11	5
4	ASSSIKQGRKDEQF	6	5	1
4	ASSSLEATTDTQY	8	27	179
4	ASSSPGAGYNEQF	6	3	2
4	ASSSQPALQETQY	10	14	7
4	ASSSQPVGRGNNEQF	6	9	2
4	ASSSQTSRNEQF	6	346	1
4	ASSSRSYPGGRNQETQY	10	3	1
4	ASSSYRGKADTQY	8	5	4
4	ASSTALRTSGKANEQF	6	1	21
4	ASSTALRTSGKTNEQF	6	6	1543
4	ASSVDRVGQRTKEETQY	10	4050	2
4	ASSVGQGWEQY	12	2	5779
4	ASSVTGRRTKNIQY	9	9	9
4	ASSWNTAYEQY	12	1	82
4	ASSWSGTSGGETDTQY	8	35	3
4	ASSYRPTPYEQY	12	1	1
4	ASSYWIVGGEETQY	10	8	2
4	ASTPSGFSYNEQF	6	3	857
4	ASTRQVDRMGEQF	6	6	844
4	ATSQGGGENIQY	9	51	29
40	ASGPGENEQY	12	1	1527
40	ASGSPNRVTSTDTQY	8	4	1
40	ASGSVSRDYNEQF	6	5	4
40	ASSFWREGPTFYNEQF	6	15	3038
40	ASSGAPAGEEEQY	12	2	1
40	ASSGGAREQY	12	5	1
40	ASSHDRGLYNEQF	6	5	5
40	ASSHGVAGVNYEQY	12	2	1
40	ASSLAFGTSGSGYEQF	6	30	18
40	ASSLAGKFYEQY	12	1	705
40	ASSLAGQGGNEQF	6	20	17
40	ASSLALAVVTDTQY	8	412	4
40	ASSLATGLAASSYEQY	12	2	7
40	ASSLDGSSYEQY	7	3859	2
40	ASSLDGTSGVSYEQY	12	24	3582
40	ASSLDRGLVETQY	10	1	379
40	ASSLDSGVGDTQY	8	2180	3
40	ASSLEAGTYNEQF	6	4	4
40	ASSLEALPKYNEQF	6	27726	11
40	ASSLEDLGETQY	10	14	1
40	ASSLEDTSCEQY	12	1	32
40	ASSLEDTSHEQY	12	1	13
40	ASSLEDTSYEQY	12	24	13138
40	ASSLEVLDTQY	8	25	7765
40	ASSLGEGGGEQF	6	9	1677
40	ASSLGRRNEQF	6	23	2257
40	ASSLGVLDTQY	8	1	15
40	ASSLKGGWSEQY	12	1	680
40	ASSLLNRGEQF	6	6	5
40	ASSLNGGLAGRQETQY	10	26	6092
40	ASSLRGGGLNEQF	6	2	1
40	ASSLRGLAGGASYEQY	12	6	1108
40	ASSLSGQHHNEQF	6	7	2
40	ASSLSRAYEQY	12	904	1
40	ASSLSRMDRTQETQY	10	2	2318
40	ASSLVGQGYEQY	12	3	4
40	ASSLVSTGGQETQY	10	1	1
40	ASSLWTDSYEQY	12	2	1
40	ASSPPGSYNEQF	6	6	1
40	ASSPPKWGLSGNTIY	2	4	1
40	ASSPQITSGEQY	12	5	4332
40	ASSPQNGAYNEQF	6	20	2
40	ASSPSGETQY	10	8	1368
40	ASSPSGGYEQY	12	5	740
40	ASSPSYNEQF	6	1	7
40	ASSPVGGVKNEQF	6	5	3
40	ASSRPWGEGYNEQF	6	6	3
40	ASSRSYAGFSSYNEQF	6	3	5
40	ASSSEVLDTQY	8	1	11
40	ASSSGTSGTGTQY	8	366	1
40	ASSSLSSGDTQY	8	3674	1
40	ASSSPGSYNEQF	6	2424	172
40	ASSSPGSYNEQL	6	4	1
40	ASSSPNRVTSADTQY	8	2	1
40	ASSSPNRVTSTDTQY	8	2494	492
40	ASSSRTGGNEQF	6	1	1
40	ASSSSYNEQF	6	41	4264
40	ASSTPRGGPDTQY	8	8	2
40	ASSYADRGSNEQF	6	1	1
41	ASSELAGGFNEQF	6	3	2
41	ASSESGSSYNEQF	6	390	2
41	ASSGWGYQETQY	10	36	1
41	ASSLALAGGHEQF	6	18	4
41	ASSLDRAAGNTIY	2	1	361
41	ASSLGLAGMHDTQY	8	14	3
41	ASSLQGAKNIQY	9	10	7
41	ASSMDRGPSYEQY	12	1223	8
41	ASSPSGWETQY	10	2	1
41	ASSPTSSYNEQF	6	1	1
41	ASSQTGFQETQY	10	11	7
41	ASSSAGTDTQY	8	1	6
41	ASSSGLAKETQY	10	1	1318
41	ASSSGQDEETQY	10	1	1
41	ASTVQGGETQY	10	493	1
42	AISLATGLAASSYEQY	12	63	16
42	ARSLATGLAASSYEQY	12	45	25
42	ARSPALREGGTDTQY	8	12	2
42	ARTLLASDHYEQY	12	1	776
42	ASATGYNSPLH	5	1	736
42	ASCLATGLAASSYEQY	12	14	2
42	ASGLATGLAASSYEQY	12	114	107
42	ASGQGYRGTKNIQY	9	12	1
42	ASIGESPETQY	10	17798	8
42	ASILATGLAAGSYEQY	12	1	1
42	ASILATGLAASSYEQY	12	72	14
42	ASMLATGLAASSYEQY	12	2	1
42	ASNLATGLAASSYEQY	12	34	14
42	ASRLADSLYNEQF	6	23283	4
42	ASRLATGLAASSYEQY	12	59	51
42	ASRLATRLAASSYEQY	12	1	1
42	ASRLVALGETQY	10	1	2
42	ASRQMAGAYEQY	12	1	18
42	ASSADRGYYEQY	12	16	5
42	ASSAGTGRANEQF	6	13	7
42	ASSARTGVGNTIY	2	24	5
42	ASSEGDTQY	8	1	1
42	ASSFATGLAASSYEQY	12	30	10
42	ASSFCDGAYEQY	12	1	242
42	ASSFRGTRNTGELF	7	1	5
42	ASSFSTGIINTIY	2	1	641
42	ASSFTRGAETQY	10	5	2
42	ASSFYDEAYEQY	12	1	137
42	ASSFYDGAYEQY	12	216	256351
42	ASSGGYSGNTIY	2	1	1
42	ASSIATGLAASSYEQY	12	5	98
42	ASSITGGSVYEQY	12	3	3
42	ASSLAAGLAASSYEQY	12	337	82
42	ASSLAALGETQY	10	3	2
42	ASSLAKGLAASSYEQY	12	40	26
42	ASSLALREGGTDTQY	8	1	3
42	ASSLAMGLAASSYEQY	12	444	20
42	ASSLAMRLAASSYEQY	12	1	1
42	ASSLAPETSGAKNIQY	9	2	1
42	ASSLAPGLAASSYEQY	12	4	2
42	ASSLAQRVEETQY	10	3	11314
42	ASSLARGLAASSYEQY	12	32	17
42	ASSLASGLAASSYEQY	12	15	12
42	ASSLATALAASSYEQY	12	8	11
42	ASSLATELAASSYEQY	12	365	18
42	ASSLATGIAASSYEQY	12	77	35
42	ASSLATGLAACSYEQY	12	6	9
42	ASSLATGLAAGSYEQY	12	489	188
42	ASSLATGLAAISYEQY	12	39	21
42	ASSLATGLAANSYEQY	12	243	22
42	ASSLATGLAARSYEQY	12	47	33
42	ASSLATGLAASAYEQY	12	27	3
42	ASSLATGLAASCYEQY	12	14	9
42	ASSLATGLAASFYEQY	12	129	28
42	ASSLATGLAASPYEQY	12	352	223
42	ASSLATGLAASPYEQY	6	4	1
42	ASSLATGLAASSCEQY	12	87	55
42	ASSLATGLAASSDEQY	12	23	12
42	ASSLATGLAASSHEQY	12	73	55
42	ASSLATGLAASSNEQY	12	3	4
42	ASSLATGLAASSSEQY	12	2	2
42	ASSLATGLAASSYEQF	6	7	9
42	ASSLATGLAASSYEQY	12	84345	48826
42	ASSLATGLAASSYEQY	6	261	40
42	ASSLATGLAASSYNEQF	6	1	3
42	ASSLATGLAASTYEQY	12	14	4
42	ASSLATGLAASYYEQY	12	22	15
42	ASSLATGLAATSYEQY	12	3	20
42	ASSLATGLADSSYEQY	12	23	21
42	ASSLATGLAGSSYEQY	12	23	5
42	ASSLATGLAPSSYEQY	12	28	12
42	ASSLATGLASSSYEQY	12	98	14
42	ASSLATGLATSSYEQY	12	96	28
42	ASSLATGLAVSSYEQY	12	52	22
42	ASSLATGLEASSYEQY	12	41	15
42	ASSLATGLGASSYEQY	12	25	8
42	ASSLATGLPASSYEQY	12	2	2
42	ASSLATGLSASSYEQY	12	47	10
42	ASSLATGLTASSYEQY	12	53	18
42	ASSLATGLVASSYEQY	12	92	41
42	ASSLATGMAASSYEQY	12	1	1
42	ASSLATGPAASSYEQY	12	277	73
42	ASSLATGQAASSYEQY	12	7	2
42	ASSLATGRAASSYEQY	12	36	7
42	ASSLATGVAASSYEQY	12	16	11
42	ASSLATRLAASSYEQY	12	55	174
42	ASSLATVLAASSYEQY	12	73	44
42	ASSLATWLAASSYEQY	12	1	1
42	ASSLATYEQY	12	7	1
42	ASSLDGDRGETQY	10	1	1609
42	ASSLDRTDTQY	8	12	4
42	ASSLDSYEQY	12	8	8628
42	ASSLEGTGSWNEQF	6	1	1
42	ASSLESYEQY	12	4	13
42	ASSLETGLAASSYEQY	12	12	28
42	ASSLEVFSYNEQF	6	1	2409
42	ASSLFALGETQY	10	3	2
42	ASSLGAGLISYEQY	12	2343	1
42	ASSLGGPWVNEQF	6	1	856
42	ASSLGHDEQF	6	209	3
42	ASSLGQGAEDTQY	8	1	676
42	ASSLGSGHGTQY	8	1	3407
42	ASSLGSYEQY	12	4948	17
42	ASSLGTGLAASSYEQY	12	29	17
42	ASSLGTGNYNEQF	6	1	2
42	ASSLHNNNGETQY	10	1	2
42	ASSLLIEQF	6	71	61
42	ASSLLTGAKVTDTQY	7	1	128
42	ASSLPGQGDNEQF	6	19954	15
42	ASSLPPSLGDGYEQY	12	355	6
42	ASSLPQLMGGNTIY	2	6	2583
42	ASSLPTGLAASSYEQY	12	1	2
42	ASSLQPNEQF	6	1714	1
42	ASSLQYEQY	12	1	3905
42	ASSLQYGYNEQF	6	900	2
42	ASSLRMTNPSTDTQY	8	1	573
42	ASSLSTGLAASSYEQY	12	24	20
42	ASSLSVLAYNEQF	6	2	2295
42	ASSLTTGLAASSYEQY	12	361	24
42	ASSLTTGPAASSYEQY	12	1	1
42	ASSLVALGDTQY	10	2	1
42	ASSLVALGETQY	10	2446	3233
42	ASSLVASGETQY	10	5	5
42	ASSLVNREVAGEQF	6	402	7
42	ASSLVSLGETQY	10	1	2
42	ASSLVTGLAASSYEQY	12	127	30
42	ASSLVVLGETQY	10	1	3
42	ASSLWTPSEQY	12	3	1
42	ASSLYERSTDTQY	8	4	290
42	ASSLYQGEESKNIQY	9	4	1
42	ASSLYQGYQETQY	10	3	4
42	ASSNRDRESDTQY	8	1	1
42	ASSPAGAGVGNEQF	6	2	6070
42	ASSPAGTGVGNEQF	6	1	4
42	ASSPALGEGGTDTQY	8	1	1
42	ASSPALMEGGTDTQY	8	1	1
42	ASSPALREGGTDTQY	8	2652	1280
42	ASSPALREGGTGTQY	8	5	2
42	ASSPALREGSTDTQY	8	1	1
42	ASSPALREGVTDTQY	8	2	2
42	ASSPALRGGGTDTQY	8	4	1
42	ASSPGTGGNEQF	6	2	1
42	ASSPKSGVEQF	6	32	24
42	ASSPLAGLDTQY	8	19	4192
42	ASSPNGGSSYNEQF	6	2	6
42	ASSPNLNNEQF	6	3	3438
42	ASSPPLREGGTDTQY	8	2	1
42	ASSPPTGAYEQY	12	25	1
42	ASSPRGGRGNEQF	6	1	2
42	ASSPSGSGETQY	10	24	41726
42	ASSPTLREGGTDTQY	8	2	4
42	ASSPVLREGGTDTQY	8	1	2
42	ASSPWFGGQETQY	10	27	8
42	ASSQAGRRNSGNTIY	2	10075	1
42	ASSRDGTYEQY	12	41	2
42	ASSREWGAKNIQY	9	1	6270
42	ASSRQVLLYEQY	12	1	241
42	ASSRTDGQETQY	10	4	1
42	ASSRTDSQDTQY	10	5	2
42	ASSRTDSQETQY	10	1755	425
42	ASSRTDSQGTQY	10	3	1
42	ASSRTGSQETQY	10	4	1
42	ASSRTHHPETQY	10	6	1
42	ASSRTRYNEQF	6	11	7743
42	ASSSALREGGTDTQY	8	1	1
42	ASSSATGLAASSYEQY	12	331	34
42	ASSSGDRGTQY	10	2940	2
42	ASSSGRADTQY	8	4	2098
42	ASSSLASRTDTQY	8	1	1
42	ASSSPGTGIQETQY	10	5	5840
42	ASSSTTGTLSYNEQF	6	1	1
42	ASSSVALGETQY	10	2	1
42	ASSSWTSGADEQF	6	241	3
42	ASSVATGLAASSYEQY	12	28	11
42	ASSYGGKETQY	10	6	6715
42	ASTARRGQGQETQY	10	103	1
42	ASTLATGLAASSYEQY	12	7	3
42	ASTRRDRGGETQY	10	2	2180
42	ATALVQETQY	10	17	10
42	ATSLATGLAASSYEQY	12	2	3
42	TSSLATGLAASSYEQY	12	37	20
42	VSSLATGLAASSYEQY	12	51	31
42	VSSLATRLAASSYEQY	12	1	1
43	AIKVLAGQSSYNEQF	6	34362	4
43	ARRKGQAYEQY	12	1	1
43	ASEITEDSGNTIY	2	164	2
43	ASGKGQAYEQY	12	1	8
43	ASGQTFFSYNEQF	6	4	3210
43	ASGRRHGDGAETQY	10	81	1
43	ASGSNLYNEQF	6	2	2
43	ASGSVPYNEQF	6	2	955
43	ASGTGQGYADTQY	8	11	4618
43	ASIPTRGKINEQF	6	1	125
43	ASISTRGKINEQF	6	172	97716
43	ASISTRGKMNEQF	6	1	30
43	ASISTRGRINEQF	6	2	503
43	ASISTRWKINEQF	6	1	32
43	ASNANRGGEQY	12	1063	1
43	ASNQQGQETQY	10	2	1
43	ASNRGQGLGTQY	10	5	2
43	ASNSAASSYEQY	12	4701	2
43	ASQGGGGETQY	10	946	6
43	ASRDTSGGSYEQY	12	18	617
43	ASREGLAETNTGELF	7	1	184
43	ASREGQAYEQY	12	9	3
43	ASRKGEAYEQY	12	4	1
43	ASRKGHAYEQY	12	2	2
43	ASRKGKAYEQY	12	4	2
43	ASRKGQACEQY	12	2	2
43	ASRKGQAYEQY	12	3150	3129
43	ASRKGQAYEQY	6	1	4
43	ASRKGQTYEQY	12	1	1
43	ASRKGRAYEQY	12	11	407
43	ASRKVQAYEQY	12	1	5
43	ASRNTDTQY	8	2	1
43	ASRPSTLSGETQY	10	1	2
43	ASRRGQAYEQY	12	5	9
43	ASRSRFSGNTIY	2	6	9186
43	ASRTRTSVPYNEQF	6	1	1
43	ASSALGETQY	10	96	2
43	ASSARLAADTQY	8	1	2256
43	ASSAYGGLETQY	10	1	1
43	ASSDLAGAYEQY	12	5	3989
43	ASSDRASYNEQF	6	4550	2
43	ASSDSLAGGNEQF	6	2	4196
43	ASSDYYSYNEQF	6	3	2
43	ASSENWGLSYEQY	12	534	1
43	ASSFEAAYEQY	12	6	11856
43	ASSFEAWGSTRDEQY	12	44	1
43	ASSFGETQY	10	8	2
43	ASSFGQDRGTDTQY	8	3	3
43	ASSFLAGVDEQF	6	101	1
43	ASSFNSEHNEQF	6	2	2728
43	ASSFPPMTETTDTQY	8	739	1
43	ASSFPQSGYSWDEQY	12	9460	3
43	ASSFPRHQETQY	10	23	10
43	ASSFRQGNEQY	12	2	4961
43	ASSFTGIDTQY	8	8571	8
43	ASSFYRDRGLGETQY	10	4	2
43	ASSGPRGGNEQF	6	1	2
43	ASSGSATRNEQF	6	7	1
43	ASSGTRDRGHNEQF	6	6	4
43	ASSGTSGPGNEQY	12	1	2264
43	ASSIIAGGPLTNEQF	6	15	361
43	ASSISGSSGEQF	6	4	3750
43	ASSISHNEQF	6	7	1
43	ASSLAAGGGKNIQY	9	5	95
43	ASSLAGPYNEQF	6	2924	1
43	ASSLAGRLGGSPLH	5	3	63
43	ASSLATGLAASSYEQY	12	72	94
43	ASSLATLVSDTQY	8	4	253
43	ASSLDGQGRSYEQY	12	4	2
43	ASSLDLGRSYEQY	12	1	1694
43	ASSLDRAGNIQY	9	6	5430
43	ASSLEHSGRPYEQY	12	25	6
43	ASSLEQGFPPYEQY	12	3	4472
43	ASSLERIPYEQY	12	964	363
43	ASSLERIPYEQY	6	1	3
43	ASSLERNEQF	6	11	11041
43	ASSLEVGSYEQY	12	1	135
43	ASSLFAGRRDTYYNEQF	6	35	38037
43	ASSLFAGRRDTYYSEQF	6	1	37
43	ASSLFQGADTQY	8	2	1
43	ASSLFQPYNEQF	6	58	52
43	ASSLGGGAYEQY	12	1	189
43	ASSLGGIITDTQY	8	7	2
43	ASSLGGTYQETQY	10	1	1752
43	ASSLGISGIETQY	10	7	9823
43	ASSLGLAGAYNEQF	6	13426	5
43	ASSLGLAQETQY	10	2	2391
43	ASSLGPNDNEQF	6	1	634
43	ASSLGQGRAETQY	10	6	2
43	ASSLGRNEQF	6	7	53
43	ASSLGTAGETQY	10	2	4586
43	ASSLGTGGYEQY	12	3975	2
43	ASSLGTGLQETQY	10	2	3
43	ASSLGTGNFYNEQF	6	11	1312
43	ASSLGTSGQYEQY	12	1	1225
43	ASSLGTSNEQF	6	16	4
43	ASSLGVLYQDTQY	10	1	4
43	ASSLGVLYQETQY	10	11	493
43	ASSLGVQEYNEQF	6	5	3
43	ASSLGYEQY	12	1800	9
43	ASSLIGGRTYEQY	12	6	254
43	ASSLIGVSTHNEQF	6	714	17
43	ASSLIQGANEQY	12	6	110
43	ASSLLLTGNEQF	6	11	8
43	ASSLLSVKGNNEQF	6	17972	3
43	ASSLMAGAVVEQF	6	18	4496
43	ASSLNPAYNEQF	6	1	1
43	ASSLPGLAVGGEQY	12	1845	2
43	ASSLPSRDYENIQY	9	2	2
43	ASSLQGASYEQY	12	13	7
43	ASSLQGRATYNEQF	6	6	234
43	ASSLQTDTYEQY	12	18	350
43	ASSLRGGENEQF	6	8	2
43	ASSLSGEQY	12	7	1
43	ASSLSGRETQY	10	1	2
43	ASSLSLLETQY	10	51546	13
43	ASSLSPPAGGYNEQF	6	2	1
43	ASSLSSGSSYEQY	7	5	1
43	ASSLTSDRNIQY	9	8	773
43	ASSLTTSSGRETQY	10	5759	4
43	ASSLVAGGPYNEQF	6	12321	2
43	ASSLVALGETQY	10	2	1
43	ASSLVGASTYNEQF	6	1	783
43	ASSLVGGAKNIQY	9	7	3
43	ASSLVGSSYNEQF	6	6	1
43	ASSLVRDYTNNEQF	6	6869	4
43	ASSLVRNEQF	6	4	7
43	ASSLVVAQGNPDTQY	8	3	2044
43	ASSNAQGLWTYEQY	12	2	1
43	ASSNGGPTYNEQF	6	1	1
43	ASSPAGADTQY	8	7	2969
43	ASSPASNEQF	6	5	3
43	ASSPATDNSPLH	5	1	3742
43	ASSPGDSSYNEQF	6	193	366
43	ASSPGGGSTDTQY	8	3	242
43	ASSPGLAGSETQY	10	5	9648
43	ASSPGLQETQY	10	11	6
43	ASSPGRSYNEQF	6	7	10373
43	ASSPLGGPSYNEQF	6	6	2
43	ASSPLGQGRNEQF	6	6	87
43	ASSPNRGEQF	6	13919	5
43	ASSPPGLGGETQY	10	1	1733
43	ASSPPTGAYEQY	12	74320	9
43	ASSPQETQY	10	1	2
43	ASSPQTGSYEQY	12	1	2
43	ASSPRGSGHNEQF	6	2	1092
43	ASSPRLDIQY	9	2	1681
43	ASSPSSGRVYNEQY	12	7	1828
43	ASSPSSYEQY	12	6	1
43	ASSPYLQGSYNEQF	6	4	4
43	ASSQDRGWDEQF	6	2	3
43	ASSQGGLAGSHNEQF	6	4	1
43	ASSQQGQETQY	10	2018	36
43	ASSQQGQGTQY	10	2	1
43	ASSRDISYEQY	12	2	2
43	ASSRPGTAETQY	10	5	149
43	ASSRQGQETQY	10	2	1
43	ASSRRHGDGAETQY	10	246	5
43	ASSRSSYNEQF	6	1	240
43	ASSRTRDYEQF	6	3	2
43	ASSSEGETQY	10	10	14851
43	ASSSGGSGSYNEQF	6	3	2
43	ASSSGHLNTIY	2	10	1
43	ASSSGHVNTIY	2	14154	2
43	ASSSGLAMGNEQF	6	1454	1
43	ASSSGPGQVYEQY	12	2	224
43	ASSSGTGNSNEQF	6	400	5
43	ASSSLYEQY	12	1	2
43	ASSSPGGESYEQY	12	1	1
43	ASSSPNRVTSTDTQY	8	5	2
43	ASSSRGGETQY	10	9299	3
43	ASSSRQGGNIQY	9	7	7
43	ASSSRSIGYNEQF	6	1	2554
43	ASSSSGGEQY	12	2198	1
43	ASSSSTGYQETQY	10	3	3
43	ASSSTGKGDTQY	8	192	3
43	ASSSTGLAGGEQY	12	8	3212
43	ASSSTGRFLDEQY	12	5	2
43	ASSSTRNEQY	12	1	78
43	ASSSTRNVYNEQF	6	5	1
43	ASSSTWDSPYEQY	12	26	18
43	ASSTGTENYEQY	12	7	8206
43	ASSTPTGLSGNTIY	2	1	1
43	ASSTQTLRTDTQY	8	1	1
43	ASSVGQGVSYEQY	12	514	1
43	ASSVVGGSGLNEQF	6	1	2621
43	ASSYGQGARGNTIY	2	7	259
43	ASSYRWGQSSYNEQF	6	9	396
43	ASTPEGLAGRNEQF	6	4	1
43	ASTPSTDTQY	8	7	154
43	ASVSQGVTDTQY	8	1	2
43	ASVSTRGKINEQF	6	1	84
43	ATREDGEIGEQF	6	7	2
43	ATSWGGANNEQF	6	12	7
43	VSGTVNLGYEQF	6	13548	2
43	VSRKGQAYEQY	12	2	4
44	ASFKRHTSYEQY	12	1	930
44	ASGVVAGQGYGDEQF	6	4	1
44	ASNEGGYSSPLH	5	4	171
44	ASNGVLGTDTQY	8	1	29
44	ASRENSQGTQY	8	3	3
44	ASRGGGETQY	10	9511	3
44	ASRGTSTDTQY	8	2	1
44	ASSADRFSTDTQY	8	5	1
44	ASSAEGPPYQETQY	10	601	1
44	ASSAGGGSSYEQY	7	1	3587
44	ASSAGPNNEQF	6	2	1
44	ASSAPFRGGSTDTQY	8	5	2
44	ASSATGQETQY	10	3	2
44	ASSAVAGQGYGDEQF	6	1	2
44	ASSDDYSGNTIY	2	27	28033
44	ASSDPKQGTDTQY	8	1	1
44	ASSEGSGKDEQF	6	6	8395
44	ASSESETQY	10	258	1
44	ASSGELAGGGETQY	10	23	23
44	ASSGGQGDYEQY	12	3	4181
44	ASSLISTDTQY	8	397	8
44	ASSNERAAHTDTQY	8	22582	2
44	ASSPASTDTQY	8	5	5864
44	ASSPELDTQY	8	53	1111
44	ASSPGLAVSYEQY	12	1	164
44	ASSPRDNSGETQY	10	32	19
44	ASSPRGSGTGQETQY	10	13142	2
44	ASSPRQGGLAKNIQY	9	10	2
44	ASSRMVLNEQF	6	10	4
44	ASSTPLRGGKGWDIQY	9	2	4179
44	ASSTVGGYNEQF	6	1	2
44	ASSVAASGAFQETQY	10	6	1
44	ASSVAGGGNIQY	9	1	530
44	ASSVAGGNYEQY	12	1	1
44	ASSVAGTSGGNYNEQF	6	3	1
44	ASSVALFGDDIQY	9	163	2
44	ASSVAPGPLYEQY	12	3335	2
44	ASSVAPTASETQY	10	3	3541
44	ASSVASRTEETQY	10	7	5551
44	ASSVDNWGGTQY	10	1	963
44	ASSVEAGDYEQY	12	5361	2
44	ASSVEGLVGTQY	10	8	3
44	ASSVEIEQY	12	154	6
44	ASSVGALLQETQY	10	16	5
44	ASSVGASGGDQETQY	10	8	6
44	ASSVGGTHPYEQY	12	80	3
44	ASSVGKGLDSYEQY	12	1	1
44	ASSVGLAGSYEQY	12	5	4
44	ASSVGLAGTYEQY	12	3	1913
44	ASSVGNSDEQF	6	2	3903
44	ASSVGPGASYEQY	7	3	670
44	ASSVGPGVSYNEQF	6	2	4
44	ASSVGQELDSYEQY	12	2	2
44	ASSVGQGLDSHEQY	12	2	2
44	ASSVGQGLDSYEQY	12	1695	800
44	ASSVGQGLYSYEQY	12	2	2
44	ASSVGRGEQF	6	3192	3
44	ASSVGSDNSPLH	5	90	2
44	ASSVGSSTYEQY	12	6	6
44	ASSVGTRSYNEQF	6	2	2
44	ASSVGVGTGGGDTQY	8	4	4035
44	ASSVLADSSTDTQY	8	1	898
44	ASSVLGSHQETQY	10	118	2
44	ASSVMAGQGYGDEQF	6	1	1
44	ASSVRAGGSYNEQF	6	5	108
44	ASSVTAGATDTQY	8	6	1
44	ASSVTTREHNEQF	6	1	315
44	ASSVVAGQGYGDEQF	6	2091	600
44	ASSVVAGQGYGDEQL	6	5	3
44	ASSVVAVQGYGDEQF	6	3	1
44	ASSVVGTMNNEQF	6	8	6
44	ASSVVPGLAVNEQF	6	3	1
44	ASSYDYSGNTIY	2	1	2
44	ATSGMSNEQF	6	9	11548
5	ASGYRGGYNEQF	6	5	2
5	ASSCRGGYNEQF	6	5	1
5	ASSFGTSGPRETQY	10	7	179
5	ASSFQGARNEQF	6	1605	5
5	ASSGAKGGNEQF	6	1	942
5	ASSKEREYNEQF	6	4	1
5	ASSLDEETQY	10	5	2
5	ASSLDEYNEQF	6	3	52
5	ASSLDRGSHNEQF	6	1	1
5	ASSLDRGSYNEQF	6	10	4397
5	ASSLEATNLNEQF	6	14	2
5	ASSLEGTGSWNEQF	6	15	965
5	ASSLGGIEQF	6	2	3144
5	ASSLGGRNFDEQF	6	7	1
5	ASSLGLSYNEQF	6	2	103
5	ASSLGPNQETQY	10	25	22
5	ASSLGSSYNEQF	6	15	22009
5	ASSLSGLASSSYNEQF	6	2	957
5	ASSLVYGTGGSYNEQF	6	1040	1
5	ASSNRRGGNEQF	6	4	1
5	ASSPATQSHNEQF	6	1026	18
5	ASSPGTSSRSTDTQY	8	25	2717
5	ASSQNRGETQY	10	18	1
5	ASSQPRGRSHEQY	12	4	136
5	ASSRTSSSYNEQF	6	5	1
5	ASSRYRDTDTQY	8	10944	1
5	ASSSDSLHEQF	6	2	1
5	ASSSGRHEQF	6	605	9
5	ASSSRGGLQETQY	10	1	179
5	ASSSSSGKWGSEQF	6	23	595
5	ASSTYPGQGNEQF	6	32	8
5	ASSVGPDTQY	8	7	1
5	ASSYPGLAEYNEQF	6	2	1
5	ASSYPPDNEQF	6	158	93
5	ASSYQGGYNEQF	6	5	4
5	ASSYRGGYDEQF	6	377	2
5	ASSYRGGYNEQF	6	2454	1539
5	ASSYRGSYNEQF	6	2	1
5	ASSYRRGYNEQF	6	3	2
5	TSSYRGGYNEQF	6	1	1
6	AIKGSPGAYGEQF	6	2	2913
6	ASAPGGGNTIY	2	6	2
6	ASCRGTAGEQY	12	7547	1
6	ASGGTGSPYEQY	12	1	26
6	ASGGTGSSYEQY	7	6	12958
6	ASIRKSGNTIY	2	8	5
6	ASISWQGNEQF	6	5	5
6	ASITSGLSYNEQF	6	12	3
6	ASIWAGGETQY	10	1	2
6	ASNLDRAGSGANVLT	11	1	7
6	ASNPTGTSTDTQY	8	8	12710
6	ASNRRAPDTQY	4	3	86
6	ASNTLGTDTQY	8	3533	1
6	ASPPRDRDTNEQF	6	1	1
6	ASQGAGDTQY	8	3049	1
6	ASRDEGETGTPNNEQF	6	3	5
6	ASRDTQTYNEQF	6	7	2
6	ASRGQGQYNEQF	6	1	1
6	ASRKTGACEQY	12	3	1165
6	ASRKTGAYEQY	12	4	4156
6	ASRLSGGNSDTQY	8	2	690
6	ASRQGLTDTQY	8	1777	1
6	ASRQRETQY	10	2	3107
6	ASRRSSGGYEQF	6	3	1
6	ASRRTGGQNEQF	6	4	11988
6	ASRSGAYEQY	12	140	1
6	ASRSGMGEAYEQY	12	4	278
6	ASRSSGGGRSTDTQY	8	5	33
6	ASRTGSSYNEQF	7	1	3908
6	ASRTSSGSTDTQY	8	4	11796
6	ASRTTYNEQF	6	11	11904
6	ASRVEGAANEQF	6	4	10656
6	ASSAGLASDTQY	8	5	1
6	ASSAGTGVPNEQF	6	13814	1
6	ASSAQETQY	10	1	9
6	ASSDLRGYEQY	12	5	4545
6	ASSDMGGTDTQY	8	5	1
6	ASSFCRGRPDTQY	8	10	1
6	ASSFDFLTSTDTQY	8	14	1
6	ASSFEWGKGAFYEQY	12	1	2
6	ASSFGQGEQY	12	241	1518
6	ASSFPFGEQY	12	7209	6
6	ASSFPGQGSTDTQY	8	1	657
6	ASSFPPGAYEQY	12	1204	1
6	ASSFRWEGAGNEQF	6	2	6974
6	ASSFSANEQF	6	1	2
6	ASSFSVETQY	10	1	528
6	ASSFWGSYEQY	12	18092	6
6	ASSFYKGRPDTQY	8	1	13
6	ASSFYRGRPDTQY	8	993	812
6	ASSGGGQHEQY	12	3	1
6	ASSGRGSDETQY	10	1	309
6	ASSGSQREKFEQF	6	17	595
6	ASSIRGDTQY	8	1	1
6	ASSLAGASEQY	12	1	276
6	ASSLAGGEQY	12	2	2
6	ASSLAGLGRRGNTIY	2	2	34
6	ASSLAGYNEQF	6	2	3
6	ASSLALAVGPLDQETQY	10	2	2
6	ASSLANSKNIQY	9	3	1
6	ASSLARGRRGAYNEQF	6	1	2
6	ASSLDHEQY	12	1	3842
6	ASSLEDNEQF	6	406	2
6	ASSLEGGGEQF	6	2	1619
6	ASSLGEYNEQF	6	25097	3
6	ASSLGGLEQY	12	8	214
6	ASSLGGSYNEQF	6	6	3
6	ASSLGIRNEQF	6	16	5
6	ASSLGLGSNEQF	6	1	1
6	ASSLGPGPAGEQY	12	2	5647
6	ASSLGPSSEAF	0	1	13
6	ASSLGQGIDTQY	8	2	6937
6	ASSLGQPNIQY	9	5	7925
6	ASSLGQPSIQY	9	1	1665
6	ASSLGRLGHTDTQY	8	27	16
6	ASSLGSGGTYEQY	12	3707	1
6	ASSLGTGFYEQY	12	3993	1
6	ASSLGVLLVGNTIY	2	7336	1
6	ASSLILNEQF	6	4401	1
6	ASSLISYNEQF	6	1	1159
6	ASSLKETQY	10	1	2
6	ASSLLSGNTIY	2	3	1
6	ASSLMRSDTQY	8	11	6578
6	ASSLQDNEQF	6	593	1
6	ASSLQGQLVSYNEQF	6	49	1975
6	ASSLQYYEQY	12	4	127
6	ASSLRASSSYTDTQY	8	3	1
6	ASSLRGSNEQF	6	14	7342
6	ASSLRILTDTQY	8	6	10748
6	ASSLRQNNEQF	6	1	167
6	ASSLSAGDLYEQY	12	2	2036
6	ASSLSGGSYEQY	12	3	3
6	ASSLSSGDREVYEQY	12	12120	1
6	ASSLSSYEQY	12	40	28
6	ASSLSVLNEQF	6	5	7252
6	ASSLTASGDNEQF	6	8872	1
6	ASSLTDYEQY	12	177	18
6	ASSLTEYEQY	12	1	1
6	ASSLTGEGYNEQF	6	4	4
6	ASSLTGYNEQF	6	822	1
6	ASSLTQETQY	10	3	4354
6	ASSLVDTQY	8	31	13
6	ASSLVEEETQY	10	12731	2
6	ASSLVPANPYNEQF	6	1	1
6	ASSLVPANSYNEQF	6	24	599
6	ASSLVQGRGIQY	9	7	2
6	ASSLVRGYEQY	12	10	5
6	ASSLWDRGWGTDTQY	8	389	1
6	ASSLWGSGRLSSYNEQF	6	13271	7
6	ASSNMETQY	10	2	6441
6	ASSPGLSYEQY	12	5	6373
6	ASSPGPSSDFYNEQF	6	1	3273
6	ASSPGQSQETQY	10	2	2
6	ASSPGTPTYEQY	12	1	151
6	ASSPHGQTGTQY	8	1	1922
6	ASSPHIDSPYNEQF	6	5	8007
6	ASSPPARSEQF	6	5	5
6	ASSPPFGVAGDQETQY	10	14	10
6	ASSPPGGHEQY	12	4496	1
6	ASSPPLAGVADTQY	8	8287	1
6	ASSPPSNIQY	9	11	7
6	ASSPQGTHNEQF	6	8	1
6	ASSPTGGNEQF	6	1	6269
6	ASSPTGVNEQF	6	1	4
6	ASSQGDEQF	6	2	7805
6	ASSQGSLAGPTGETQY	10	4	890
6	ASSRADRQETQY	10	6	2
6	ASSRGLAGAPSYNEQF	6	1	1
6	ASSRGRGLETQY	10	4	3
6	ASSRNEGVEQY	12	1	20
6	ASSRPGTSGRYGETQY	10	1	8
6	ASSRTGGWVEQY	12	2	3
6	ASSSFSGNSGNTIY	2	1	1
6	ASSSGHNEQF	6	1	1
6	ASSSGLAGGLVDEQF	6	2	2
6	ASSSGPTSQETQY	10	2	854
6	ASSSGQGEQY	12	1	1
6	ASSSGQVSLNEQF	6	9028	4
6	ASSSGTRTIFTDTQY	8	8	1
6	ASSSLAPAAKNIQY	9	3	804
6	ASSSLTKLTDTQY	8	2	11
6	ASSSNPGGPFINEQF	6	1	1
6	ASSSQAGSYNEQF	6	2	15533
6	ASSSRGLGEETQY	10	1	3388
6	ASSSVETQY	10	3	5991
6	ASSTRISGNTIY	2	16	1
6	ASSVQETQY	10	7	4986
6	ASSYGGANIQY	9	23	18
6	ASSYSRVRDNEQF	6	2	3
6	ASSYSTGTYEQY	12	1	1
6	ASTEGQSNEQF	6	2	274
6	ASTKGQWNIQY	9	1	4010
6	ASTKSGRVLNEQF	6	424	1603
6	ASTKSGRVPNEQF	6	1	3
6	ASTLGNRGNNEQF	6	1	564
6	ASTLQGDEQF	6	4	1
6	ASTLSRASTDTQY	8	6	2
6	ASTPDGLAGNEQF	6	20973	1
6	ASTPLGPAYEQY	12	2	1
6	ASTPPGRTNEQF	6	2	3
6	ASTPRRRGAKNIQY	9	8	3
6	ASTRDSPDYEQY	12	9	166
6	ASTSASVGETQY	10	1	1726
6	ASTSTDTQY	8	31	47069
6	ASTSTGSTYEQY	12	1	2
6	ASTSVPQETQY	10	2	8964
6	ASTWGVTDTQY	8	1	1625
6	ASTWIGGRSSYNEQF	6	9	697
6	ATQGPSLYNEQF	6	3	1
6	ATRAGGGDEQY	12	7	2
6	TSVPGRYEQY	12	1	969
7	ASDLRSSGNTIY	2	7	7707
7	ASGLAGGGHNIQY	9	1	260
7	ASGLAPTSGSGNEQF	6	4	3146
7	ASGLATTDTQY	8	260	4
7	ASGLVLLRNEQF	6	8	167
7	ASGLVLPGNEQF	6	1	5
7	ASGLVLPQNEQF	6	1	3
7	ASGLVLPRNEQF	6	91	3212
7	ASGLVLPRNEQL	6	1	6
7	ASGLVRTGGWNEQF	6	15	5
7	ASGNRRGNEQF	6	9	3
7	ASGNSGYEQY	12	5	2
7	ASGPGTAGVDEQF	6	15	3
7	ASGTERDTDTQY	8	594	1
7	ASVGQLSSYEQY	12	2	123
8	ASRLGGIGNEQF	6	44	23
8	ASSFGSRETQY	10	3	1639
8	ASSLGRGAEQF	6	12541	4
8	ASSLTWRRGNEQF	6	332	270
8	ASSPGSGRLNEQY	12	582	97
8	ASSPGSGRSNEQY	12	1	1
8	ASSPLVGFGEQF	6	17	15
8	ASSPSREGIQY	9	2972	3
8	ASSPYAGTGGNTIY	2	1	1
8	ASSSGSGRLNEQY	12	1	1
8	ASSSTAGVSYNEQF	6	7	12220
9	AILGRGYEQY	12	343	5
9	ASGGIFSGNTIY	2	8	2
9	ASRDSGTGVPETQY	10	5	2208
9	ASRPGLRYNEQF	6	2	1174
9	ASSHGLAYYNEQF	6	1	629
9	ASSKAGVPYEQY	12	9	15
9	ASSKGGDYNEQF	6	28	13
9	ASSLLDSSGNTIY	2	2	2059
9	ASSLSDTQY	8	5	3
9	ASSPFTDTQY	8	1	2625
9	ASSPHSGHHNEQF	6	1	5
9	ASSPLAQGGEQY	12	1	1
9	ASSPLGGGDYNEQF	6	6	1
9	ASSPPSGHHNEQF	6	7	8350
9	ASSPREGRGIHNEQF	6	25	15794
9	ASSQAAGQETQY	10	7	3
9	ASSQDGSGRAFEQF	6	1	754
9	ASSQDLGYNEQF	6	1	1248
9	ASSQDQGLAGDNEQF	6	1	1
9	ASSQDQYNEQF	6	4	1
9	ASSQDRADNEQF	6	3	1
9	ASSQDSLDTQY	8	4	3992
9	ASSQDVQGRETQY	10	2	7246
9	ASSQDYTGLKNIQY	9	1	1986
9	ASSQERLNNEQF	6	2	3
9	ASSQGAGSSYNEQF	6	7628	4
9	ASSQGLASEQY	6	10	115
9	ASSQGLVWGVEDTQY	10	1	1
9	ASSQGLVWGVEETQY	10	31	696
9	ASSQGLVWGVEGTQY	10	1	1
9	ASSQGSGSSYNEQF	6	6	1
9	ASSQIGRGPYNEQF	6	2531	1
9	ASSQLAGVVGDEQF	6	27	695
9	ASSQLDLGETQY	10	839	2
9	ASSQPPQGPSSYNEQF	6	3	1519
9	ASSQPRTGIDTPYEQY	12	9	60
9	ASSQSGVTDLPDTQY	8	2	1448
9	ASSQSVVWDTSYEQY	12	1	277
9	ASSQTSGSLNTDTQY	8	2	4178
9	ASSQVAGREETQY	10	353	9
9	ASSQVANGSRNEQF	6	15	2
9	ASSQVASGSRNEQF	6	350	5
9	ASSQVLVWGVEETQY	10	1	1
9	ASSRETIISGTQY	8	1170	1
9	ASSRGLLQETQY	10	3	2414
9	ASSRPGLTSYEQY	12	2	1530
9	ASSRQGAFYSYNEQF	6	5	3685
9	ASSRRGVTDTQY	8	1	1
9	ASSRSGTSGRWDEQF	6	1	1723
9	ASSSTEGRETQY	10	1	72
9	ASTRTAQETQY	10	3	183
