Count	Number_Unique	Total_Count_Unique	Percent_Number_Unique	Percent_Total_Count
1	3839	3839	37.0774579872513	0.0506262943398774
2	1358	2716	13.1157040757195	0.0358168834141983
3	638	1914	6.16186980876956	0.0252406166622885
4	422	1688	4.07571952868457	0.0222602721661144
5	269	1345	2.5980297469577	0.017737005961744
6	221	1326	2.1344407958277	0.0174864460262249
7	186	1302	1.79640718562874	0.0171699492655693
8	161	1288	1.5549546069152	0.0169853261551868
9	135	1215	1.30384392505312	0.0160226485081925
10	122	1220	1.17828858412208	0.0160885853333291
11	121	1331	1.16863048097354	0.0175523828513615
12	80	960	0.77264825188333	0.0126598704262262
13	85	1105	0.820938767626038	0.0145720383551874
14	80	1120	0.77264825188333	0.0147698488305972
15	69	1035	0.666409117249372	0.0136489228032751
16	63	1008	0.608460498358122	0.0132928639475375
17	66	1122	0.637434807803747	0.0147962235606519
18	61	1098	0.589144292061039	0.0144797267999962
19	48	912	0.463588951129998	0.0120268769049149
20	55	1100	0.531195673169789	0.0145061015300508
21	42	882	0.405640332238748	0.0116312559540953
22	57	1254	0.550511879466873	0.016536955744258
23	62	1426	0.598802395209581	0.0188051825289568
24	53	1272	0.511879466872706	0.0167743283147497
25	46	1150	0.444272744832915	0.0151654697814168
26	41	1066	0.395982229090207	0.014057731119122
27	42	1134	0.405640332238748	0.0149544719409797
28	23	644	0.222136372416457	0.0084926630775934
29	30	870	0.289743094456249	0.0114730075737675
30	28	840	0.270426888159166	0.0110773866229479
31	34	1054	0.328375507050415	0.0138994827387942
32	31	992	0.29940119760479	0.0130818661071004
33	35	1155	0.338033610198957	0.0152314066065534
34	29	986	0.280084991307707	0.0130027419169365
35	18	630	0.173845856673749	0.00830803996721094
36	16	576	0.154529650376666	0.00759592225573571
37	33	1221	0.318717403901874	0.0161017726983564
38	30	1140	0.289743094456249	0.0150335961311436
39	22	858	0.212478269267916	0.0113147591934397
40	15	600	0.144871547228124	0.00791241901639137
41	22	902	0.212478269267916	0.0118950032546417
42	31	1302	0.29940119760479	0.0171699492655693
43	29	1247	0.280084991307707	0.0164446441890667
44	27	1188	0.260768785010624	0.0156665896524549
45	22	990	0.212478269267916	0.0130554913770458
46	17	782	0.164187753525208	0.0103125194513634
47	20	940	0.193162062970833	0.0123961231256798
48	15	720	0.144871547228124	0.00949490281966964
49	23	1127	0.222136372416457	0.0148621603857885
50	14	700	0.135213444079583	0.00923115551912326
51	16	816	0.154529650376666	0.0107608898622923
52	12	624	0.1158972377825	0.00822891577704702
53	17	901	0.164187753525208	0.0118818158896144
54	11	594	0.106239134633958	0.00783329482622745
55	20	1100	0.193162062970833	0.0145061015300508
56	15	840	0.144871547228124	0.0110773866229479
57	15	855	0.144871547228124	0.0112751970983577
58	15	870	0.144871547228124	0.0114730075737675
59	10	590	0.0965810314854163	0.00778054536611818
60	11	660	0.106239134633958	0.0087036609180305
61	15	915	0.144871547228124	0.0120664389999968
62	8	496	0.077264825188333	0.0065409330535502
63	9	567	0.0869229283368746	0.00747723597048984
64	11	704	0.106239134633958	0.00928390497923254
65	7	455	0.0676067220397914	0.00600025108743012
66	7	462	0.0676067220397914	0.00609256264262135
67	14	938	0.135213444079583	0.0123697483956252
68	13	884	0.125555340931041	0.0116576306841499
69	3	207	0.0289743094456249	0.00272978456065502
70	4	280	0.0386324125941665	0.0036924622076493
71	14	994	0.135213444079583	0.013108240837155
72	8	576	0.077264825188333	0.00759592225573571
73	10	730	0.0965810314854163	0.00962677646994283
74	8	592	0.077264825188333	0.00780692009617282
75	10	750	0.0965810314854163	0.00989052377048921
76	14	1064	0.135213444079583	0.0140313563890674
77	7	539	0.0676067220397914	0.00710798974972491
78	6	468	0.0579486188912498	0.00617168683278527
79	5	395	0.0482905157427081	0.00520900918579098
80	8	640	0.077264825188333	0.00843991361748412
81	12	972	0.1158972377825	0.012818118806554
82	7	574	0.0676067220397914	0.00756954752568107
83	9	747	0.0869229283368746	0.00985096167540725
84	13	1092	0.125555340931041	0.0144006026098323
85	11	935	0.106239134633958	0.0123301863005432
86	12	1032	0.1158972377825	0.0136093607081932
87	7	609	0.0676067220397914	0.00803110530163724
88	7	616	0.0676067220397914	0.00812341685682847
89	10	890	0.0965810314854163	0.0117367548743139
90	5	450	0.0482905157427081	0.00593431426229353
91	6	546	0.0579486188912498	0.00720030130491614
92	5	460	0.0482905157427081	0.00606618791256671
93	5	465	0.0482905157427081	0.00613212473770331
94	7	658	0.0676067220397914	0.00867728618797587
95	12	1140	0.1158972377825	0.0150335961311436
96	4	384	0.0386324125941665	0.00506394817049048
97	3	291	0.0289743094456249	0.00383752322294981
98	12	1176	0.1158972377825	0.0155083412721271
99	4	396	0.0386324125941665	0.0052221965508183
100	9	900	0.0869229283368746	0.0118686285245871
101	5	505	0.0482905157427081	0.00665961933879607
102	5	510	0.0482905157427081	0.00672555616393266
103	2	206	0.0193162062970833	0.0027165971956277
104	8	832	0.077264825188333	0.0109718877027294
105	8	840	0.077264825188333	0.0110773866229479
106	1	106	0.00965810314854163	0.00139786069289581
107	3	321	0.0289743094456249	0.00423314417376938
108	8	864	0.077264825188333	0.0113938833836036
109	6	654	0.0579486188912498	0.00862453672786659
110	4	440	0.0386324125941665	0.00580244061202034
111	8	888	0.077264825188333	0.0117103801442592
112	4	448	0.0386324125941665	0.00590793953223889
113	7	791	0.0676067220397914	0.0104312057366093
114	3	342	0.0289743094456249	0.00451007883934308
115	5	575	0.0482905157427081	0.00758273489070839
116	6	696	0.0579486188912498	0.00917840605901399
117	4	468	0.0386324125941665	0.00617168683278527
118	6	708	0.0579486188912498	0.00933665443934181
119	7	833	0.0676067220397914	0.0109850750677567
120	5	600	0.0482905157427081	0.00791241901639137
121	6	726	0.0579486188912498	0.00957402700983355
122	6	732	0.0579486188912498	0.00965315119999747
123	6	738	0.0579486188912498	0.00973227539016138
124	6	744	0.0579486188912498	0.00981139958032529
125	8	1000	0.077264825188333	0.0131873650273189
126	6	756	0.0579486188912498	0.00996964796065312
127	4	508	0.0386324125941665	0.00669918143387802
128	5	640	0.0482905157427081	0.00843991361748412
129	4	516	0.0386324125941665	0.00680468035409658
130	1	130	0.00965810314854163	0.00171435745355146
131	4	524	0.0386324125941665	0.00691017927431513
132	5	660	0.0482905157427081	0.0087036609180305
133	4	532	0.0386324125941665	0.00701567819453368
134	6	804	0.0579486188912498	0.0106026414819644
135	2	270	0.0193162062970833	0.00356058855737612
136	5	680	0.0482905157427081	0.00896740821857688
137	5	685	0.0482905157427081	0.00903334504371348
138	4	552	0.0386324125941665	0.00727942549508006
139	6	834	0.0579486188912498	0.010998262432784
140	4	560	0.0386324125941665	0.00738492441529861
141	4	564	0.0386324125941665	0.00743767387540789
142	6	852	0.0579486188912498	0.0112356350032757
143	5	715	0.0482905157427081	0.00942896599453305
144	2	288	0.0193162062970833	0.00379796112786786
145	7	1015	0.0676067220397914	0.0133851755027287
146	5	730	0.0482905157427081	0.00962677646994283
147	3	441	0.0289743094456249	0.00581562797704765
148	1	148	0.00965810314854163	0.0019517300240432
149	5	745	0.0482905157427081	0.00982458694535261
150	1	150	0.00965810314854163	0.00197810475409784
151	4	604	0.0386324125941665	0.00796516847650064
152	5	760	0.0482905157427081	0.0100223974207624
153	5	765	0.0482905157427081	0.010088334245899
154	2	308	0.0193162062970833	0.00406170842841424
155	3	465	0.0289743094456249	0.00613212473770331
156	7	1092	0.0676067220397914	0.0144006026098323
157	6	942	0.0579486188912498	0.0124224978557344
158	3	474	0.0289743094456249	0.00625081102294918
160	5	800	0.0482905157427081	0.0105498920218552
161	1	161	0.00965810314854163	0.00212316576939835
162	4	648	0.0386324125941665	0.00854541253770268
163	4	652	0.0386324125941665	0.00859816199781195
164	2	328	0.0193162062970833	0.00432545572896061
165	6	990	0.0579486188912498	0.0130554913770458
166	4	664	0.0386324125941665	0.00875641037813978
167	5	835	0.0482905157427081	0.0110114497978113
168	3	504	0.0289743094456249	0.00664643197376875
169	1	169	0.00965810314854163	0.0022286646896169
170	1	170	0.00965810314854163	0.00224185205464422
171	2	342	0.0193162062970833	0.00451007883934308
174	5	870	0.0482905157427081	0.0114730075737675
175	2	350	0.0193162062970833	0.00461557775956163
176	2	352	0.0193162062970833	0.00464195248961627
178	6	1068	0.0579486188912498	0.0140841058491766
179	1	179	0.00965810314854163	0.00236053833989009
180	2	360	0.0193162062970833	0.00474745140983482
181	4	724	0.0386324125941665	0.00954765227977892
182	3	546	0.0289743094456249	0.00720030130491614
183	2	366	0.0193162062970833	0.00482657559999873
184	4	736	0.0386324125941665	0.00970590066010674
185	2	370	0.0193162062970833	0.00487932506010801
186	4	744	0.0386324125941665	0.00981139958032529
187	2	374	0.0193162062970833	0.00493207452021729
188	3	564	0.0289743094456249	0.00743767387540789
189	3	567	0.0289743094456249	0.00747723597048984
190	1	190	0.00965810314854163	0.0025055993551906
191	3	573	0.0289743094456249	0.00755636016065376
193	3	579	0.0289743094456249	0.00763548435081767
194	1	194	0.00965810314854163	0.00255834881529988
195	2	390	0.0193162062970833	0.00514307236065439
196	3	588	0.0289743094456249	0.00775417063606354
197	2	394	0.0193162062970833	0.00519582182076366
198	2	396	0.0193162062970833	0.0052221965508183
199	1	199	0.00965810314854163	0.00262428564043647
200	1	200	0.00965810314854163	0.00263747300546379
201	2	402	0.0193162062970833	0.00530132074098222
202	1	202	0.00965810314854163	0.00266384773551843
203	3	609	0.0289743094456249	0.00803110530163724
204	4	816	0.0386324125941665	0.0107608898622923
205	1	205	0.00965810314854163	0.00270340983060038
206	2	412	0.0193162062970833	0.00543319439125541
209	1	209	0.00965810314854163	0.00275615929070966
210	3	630	0.0289743094456249	0.00830803996721094
211	2	422	0.0193162062970833	0.0055650680415286
213	4	852	0.0386324125941665	0.0112356350032757
215	2	430	0.0193162062970833	0.00567056696174715
217	2	434	0.0193162062970833	0.00572331642185642
218	3	654	0.0289743094456249	0.00862453672786659
219	1	219	0.00965810314854163	0.00288803294098285
220	3	660	0.0289743094456249	0.0087036609180305
221	5	1105	0.0482905157427081	0.0145720383551874
222	2	444	0.0193162062970833	0.00585519007212961
223	1	223	0.00965810314854163	0.00294078240109212
224	3	672	0.0289743094456249	0.00886190929835833
225	1	225	0.00965810314854163	0.00296715713114676
226	3	678	0.0289743094456249	0.00894103348852224
227	1	227	0.00965810314854163	0.0029935318612014
228	3	684	0.0289743094456249	0.00902015767868616
231	3	693	0.0289743094456249	0.00913884396393203
232	1	232	0.00965810314854163	0.003059468686338
234	2	468	0.0193162062970833	0.00617168683278527
235	1	235	0.00965810314854163	0.00309903078141995
236	3	708	0.0289743094456249	0.00933665443934181
237	3	711	0.0289743094456249	0.00937621653442377
238	1	238	0.00965810314854163	0.00313859287650191
239	3	717	0.0289743094456249	0.00945534072458768
240	1	240	0.00965810314854163	0.00316496760655655
241	1	241	0.00965810314854163	0.00317815497158387
242	1	242	0.00965810314854163	0.00319134233661118
243	2	486	0.0193162062970833	0.00640905940327701
244	4	976	0.0386324125941665	0.0128708682666633
246	2	492	0.0193162062970833	0.00648818359344092
247	2	494	0.0193162062970833	0.00651455832349556
248	2	496	0.0193162062970833	0.0065409330535502
249	1	249	0.00965810314854163	0.00328365389180242
250	3	750	0.0289743094456249	0.00989052377048921
251	2	502	0.0193162062970833	0.00662005724371411
253	3	759	0.0289743094456249	0.0100092100557351
254	3	762	0.0289743094456249	0.010048772150817
256	1	256	0.00965810314854163	0.00337596544699365
259	1	259	0.00965810314854163	0.00341552754207561
260	1	260	0.00965810314854163	0.00342871490710293
261	1	261	0.00965810314854163	0.00344190227213024
262	2	524	0.0193162062970833	0.00691017927431513
263	2	526	0.0193162062970833	0.00693655400436977
265	4	1060	0.0386324125941665	0.0139786069289581
266	1	266	0.00965810314854163	0.00350783909726684
269	1	269	0.00965810314854163	0.0035474011923488
270	1	270	0.00965810314854163	0.00356058855737612
271	3	813	0.0289743094456249	0.0107213277672103
272	1	272	0.00965810314854163	0.00358696328743075
273	2	546	0.0193162062970833	0.00720030130491614
274	3	822	0.0289743094456249	0.0108400140524562
276	3	828	0.0289743094456249	0.0109191382426201
277	3	831	0.0289743094456249	0.010958700337702
278	3	834	0.0289743094456249	0.010998262432784
279	1	279	0.00965810314854163	0.00367927484262199
280	3	840	0.0289743094456249	0.0110773866229479
281	2	562	0.0193162062970833	0.00741129914535325
282	4	1128	0.0386324125941665	0.0148753477508158
283	1	283	0.00965810314854163	0.00373202430273126
284	1	284	0.00965810314854163	0.00374521166775858
285	3	855	0.0289743094456249	0.0112751970983577
286	1	286	0.00965810314854163	0.00377158639781322
287	2	574	0.0193162062970833	0.00756954752568107
289	2	578	0.0193162062970833	0.00762229698579035
292	1	292	0.00965810314854163	0.00385071058797713
293	1	293	0.00965810314854163	0.00386389795300445
296	1	296	0.00965810314854163	0.00390346004808641
299	2	598	0.0193162062970833	0.00788604428633673
300	1	300	0.00965810314854163	0.00395620950819568
302	2	604	0.0193162062970833	0.00796516847650064
303	1	303	0.00965810314854163	0.00399577160327764
304	1	304	0.00965810314854163	0.00400895896830496
305	1	305	0.00965810314854163	0.00402214633333228
306	1	306	0.00965810314854163	0.0040353336983596
307	1	307	0.00965810314854163	0.00404852106338692
308	2	616	0.0193162062970833	0.00812341685682847
310	1	310	0.00965810314854163	0.00408808315846887
311	1	311	0.00965810314854163	0.00410127052349619
313	1	313	0.00965810314854163	0.00412764525355083
314	1	314	0.00965810314854163	0.00414083261857815
315	1	315	0.00965810314854163	0.00415401998360547
316	2	632	0.0193162062970833	0.00833441469726557
317	2	634	0.0193162062970833	0.00836078942732021
318	1	318	0.00965810314854163	0.00419358207868743
320	2	640	0.0193162062970833	0.00843991361748412
322	1	322	0.00965810314854163	0.0042463315387967
324	1	324	0.00965810314854163	0.00427270626885134
325	1	325	0.00965810314854163	0.00428589363387866
326	1	326	0.00965810314854163	0.00429908099890598
328	2	656	0.0193162062970833	0.00865091145792123
329	1	329	0.00965810314854163	0.00433864309398793
332	1	332	0.00965810314854163	0.00437820518906989
333	1	333	0.00965810314854163	0.00439139255409721
334	2	668	0.0193162062970833	0.00880915983824906
335	1	335	0.00965810314854163	0.00441776728415185
336	1	336	0.00965810314854163	0.00443095464917917
339	1	339	0.00965810314854163	0.00447051674426112
340	1	340	0.00965810314854163	0.00448370410928844
341	1	341	0.00965810314854163	0.00449689147431576
342	3	1026	0.0289743094456249	0.0135302365180292
343	1	343	0.00965810314854163	0.0045232662043704
344	1	344	0.00965810314854163	0.00453645356939772
345	2	690	0.0193162062970833	0.00909928186885007
350	3	1050	0.0289743094456249	0.0138467332786849
351	2	702	0.0193162062970833	0.0092575302491779
352	1	352	0.00965810314854163	0.00464195248961627
355	2	710	0.0193162062970833	0.00936302916939645
356	1	356	0.00965810314854163	0.00469470194972554
359	1	359	0.00965810314854163	0.0047342640448075
360	2	720	0.0193162062970833	0.00949490281966964
361	1	361	0.00965810314854163	0.00476063877486214
363	1	363	0.00965810314854163	0.00478701350491678
364	1	364	0.00965810314854163	0.0048002008699441
371	3	1113	0.0289743094456249	0.014677537275406
374	1	374	0.00965810314854163	0.00493207452021729
375	2	750	0.0193162062970833	0.00989052377048921
377	2	754	0.0193162062970833	0.00994327323059849
379	2	758	0.0193162062970833	0.00999602269070776
381	2	762	0.0193162062970833	0.010048772150817
382	1	382	0.00965810314854163	0.00503757344043584
392	1	392	0.00965810314854163	0.00516944709070903
398	1	398	0.00965810314854163	0.00524857128087294
401	1	401	0.00965810314854163	0.0052881333759549
403	1	403	0.00965810314854163	0.00531450810600954
412	1	412	0.00965810314854163	0.00543319439125541
416	1	416	0.00965810314854163	0.00548594385136468
423	1	423	0.00965810314854163	0.00557825540655591
424	1	424	0.00965810314854163	0.00559144277158323
427	1	427	0.00965810314854163	0.00563100486666519
428	1	428	0.00965810314854163	0.00564419223169251
430	1	430	0.00965810314854163	0.00567056696174715
444	2	888	0.0193162062970833	0.0117103801442592
447	1	447	0.00965810314854163	0.00589475216721157
448	1	448	0.00965810314854163	0.00590793953223889
449	1	449	0.00965810314854163	0.00592112689726621
454	2	908	0.0193162062970833	0.0119741274448056
458	1	458	0.00965810314854163	0.00603981318251208
460	1	460	0.00965810314854163	0.00606618791256671
461	1	461	0.00965810314854163	0.00607937527759403
473	1	473	0.00965810314854163	0.00623762365792186
477	1	477	0.00965810314854163	0.00629037311803114
480	1	480	0.00965810314854163	0.00632993521311309
482	1	482	0.00965810314854163	0.00635630994316773
485	1	485	0.00965810314854163	0.00639587203824969
501	1	501	0.00965810314854163	0.00660686987868679
502	1	502	0.00965810314854163	0.00662005724371411
507	1	507	0.00965810314854163	0.00668599406885071
509	1	509	0.00965810314854163	0.00671236879890534
512	1	512	0.00965810314854163	0.0067519308939873
516	1	516	0.00965810314854163	0.00680468035409658
520	1	520	0.00965810314854163	0.00685742981420585
524	1	524	0.00965810314854163	0.00691017927431513
532	1	532	0.00965810314854163	0.00701567819453368
535	1	535	0.00965810314854163	0.00705524028961564
540	1	540	0.00965810314854163	0.00712117711475223
548	1	548	0.00965810314854163	0.00722667603497078
549	1	549	0.00965810314854163	0.0072398633999981
555	1	555	0.00965810314854163	0.00731898759016201
563	1	563	0.00965810314854163	0.00742448651038057
564	1	564	0.00965810314854163	0.00743767387540789
568	1	568	0.00965810314854163	0.00749042333551716
569	1	569	0.00965810314854163	0.00750361070054448
572	1	572	0.00965810314854163	0.00754317279562644
573	1	573	0.00965810314854163	0.00755636016065376
575	1	575	0.00965810314854163	0.00758273489070839
579	1	579	0.00965810314854163	0.00763548435081767
582	1	582	0.00965810314854163	0.00767504644589963
591	1	591	0.00965810314854163	0.0077937327311455
592	1	592	0.00965810314854163	0.00780692009617282
597	2	1194	0.0193162062970833	0.0157457138426188
608	1	608	0.00965810314854163	0.00801791793660992
614	1	614	0.00965810314854163	0.00809704212677383
618	1	618	0.00965810314854163	0.00814979158688311
627	1	627	0.00965810314854163	0.00826847787212898
628	2	1256	0.0193162062970833	0.0165633304743126
631	1	631	0.00965810314854163	0.00832122733223825
633	2	1266	0.0193162062970833	0.0166952041245858
635	1	635	0.00965810314854163	0.00837397679234753
640	1	640	0.00965810314854163	0.00843991361748412
643	1	643	0.00965810314854163	0.00847947571256608
645	1	645	0.00965810314854163	0.00850585044262072
650	1	650	0.00965810314854163	0.00857178726775731
651	1	651	0.00965810314854163	0.00858497463278463
655	1	655	0.00965810314854163	0.00863772409289391
659	2	1318	0.0193162062970833	0.0173809471060064
662	1	662	0.00965810314854163	0.00873003564808514
664	1	664	0.00965810314854163	0.00875641037813978
669	1	669	0.00965810314854163	0.00882234720327637
671	1	671	0.00965810314854163	0.00884872193333101
672	1	672	0.00965810314854163	0.00886190929835833
677	1	677	0.00965810314854163	0.00892784612349493
690	2	1380	0.0193162062970833	0.0181985637377001
704	1	704	0.00965810314854163	0.00928390497923254
705	1	705	0.00965810314854163	0.00929709234425986
743	1	743	0.00965810314854163	0.00979821221529798
744	1	744	0.00965810314854163	0.00981139958032529
750	1	750	0.00965810314854163	0.00989052377048921
760	1	760	0.00965810314854163	0.0100223974207624
765	2	1530	0.0193162062970833	0.020176668491798
767	1	767	0.00965810314854163	0.0101147089759536
780	1	780	0.00965810314854163	0.0102861447213088
801	1	801	0.00965810314854163	0.0105630793868825
811	1	811	0.00965810314854163	0.0106949530371557
827	1	827	0.00965810314854163	0.0109059508775928
831	1	831	0.00965810314854163	0.010958700337702
841	1	841	0.00965810314854163	0.0110905739879752
858	1	858	0.00965810314854163	0.0113147591934397
863	1	863	0.00965810314854163	0.0113806960185762
869	1	869	0.00965810314854163	0.0114598202087402
882	1	882	0.00965810314854163	0.0116312559540953
894	1	894	0.00965810314854163	0.0117895043344231
897	2	1794	0.0193162062970833	0.0236581328590102
907	1	907	0.00965810314854163	0.0119609400797783
908	1	908	0.00965810314854163	0.0119741274448056
921	1	921	0.00965810314854163	0.0121455631901607
949	1	949	0.00965810314854163	0.0125148094109257
958	1	958	0.00965810314854163	0.0126334956961715
965	2	1930	0.0193162062970833	0.0254516145027256
988	1	988	0.00965810314854163	0.0130291166469911
994	1	994	0.00965810314854163	0.013108240837155
999	1	999	0.00965810314854163	0.0131741776622916
1002	1	1002	0.00965810314854163	0.0132137397573736
1007	1	1007	0.00965810314854163	0.0132796765825102
1008	1	1008	0.00965810314854163	0.0132928639475375
1011	1	1011	0.00965810314854163	0.0133324260426195
1013	1	1013	0.00965810314854163	0.0133588007726741
1014	1	1014	0.00965810314854163	0.0133719881377014
1017	1	1017	0.00965810314854163	0.0134115502327834
1018	1	1018	0.00965810314854163	0.0134247375978107
1021	1	1021	0.00965810314854163	0.0134642996928926
1027	1	1027	0.00965810314854163	0.0135434238830566
1039	1	1039	0.00965810314854163	0.0137016722633844
1041	1	1041	0.00965810314854163	0.013728046993439
1053	1	1053	0.00965810314854163	0.0138862953737668
1065	1	1065	0.00965810314854163	0.0140445437540947
1082	1	1082	0.00965810314854163	0.0142687289595591
1083	1	1083	0.00965810314854163	0.0142819163245864
1104	1	1104	0.00965810314854163	0.0145588509901601
1108	1	1108	0.00965810314854163	0.0146116004502694
1127	1	1127	0.00965810314854163	0.0148621603857885
1128	1	1128	0.00965810314854163	0.0148753477508158
1133	1	1133	0.00965810314854163	0.0149412845759524
1154	1	1154	0.00965810314854163	0.0152182192415261
1172	1	1172	0.00965810314854163	0.0154555918120178
1176	1	1176	0.00965810314854163	0.0155083412721271
1178	1	1178	0.00965810314854163	0.0155347160021817
1184	1	1184	0.00965810314854163	0.0156138401923456
1196	1	1196	0.00965810314854163	0.0157720885726735
1243	1	1243	0.00965810314854163	0.0163918947289575
1246	1	1246	0.00965810314854163	0.0164314568240394
1251	1	1251	0.00965810314854163	0.016497393649176
1269	1	1269	0.00965810314854163	0.0167347662196677
1343	1	1343	0.00965810314854163	0.0177106312316893
1365	1	1365	0.00965810314854163	0.0180007532622904
1394	1	1394	0.00965810314854163	0.0183831868480826
1397	1	1397	0.00965810314854163	0.0184227489431646
1402	1	1402	0.00965810314854163	0.0184886857683012
1469	1	1469	0.00965810314854163	0.0193722392251315
1487	1	1487	0.00965810314854163	0.0196096117956233
1493	1	1493	0.00965810314854163	0.0196887359857872
1541	1	1541	0.00965810314854163	0.0203217295070985
1545	1	1545	0.00965810314854163	0.0203744789672078
1547	1	1547	0.00965810314854163	0.0204008536972624
1579	1	1579	0.00965810314854163	0.0208228493781366
1643	1	1643	0.00965810314854163	0.021666840739885
1680	1	1680	0.00965810314854163	0.0221547732458958
1690	1	1690	0.00965810314854163	0.022286646896169
1693	1	1693	0.00965810314854163	0.022326208991251
1790	1	1790	0.00965810314854163	0.0236053833989009
1841	1	1841	0.00965810314854163	0.0242779390152942
1862	1	1862	0.00965810314854163	0.0245548736808679
1900	1	1900	0.00965810314854163	0.025055993551906
1949	1	1949	0.00965810314854163	0.0257021744382446
2064	1	2064	0.00965810314854163	0.0272187214163863
2335	1	2335	0.00965810314854163	0.0307924973387897
2336	1	2336	0.00965810314854163	0.0308056847038171
2353	1	2353	0.00965810314854163	0.0310298699092815
2362	1	2362	0.00965810314854163	0.0311485561945274
2395	1	2395	0.00965810314854163	0.0315837392404289
2400	1	2400	0.00965810314854163	0.0316496760655655
2406	1	2406	0.00965810314854163	0.0317288002557294
2499	1	2499	0.00965810314854163	0.03295522520327
2535	1	2535	0.00965810314854163	0.0334299703442535
2628	1	2628	0.00965810314854163	0.0346563952917942
2656	1	2656	0.00965810314854163	0.0350256415125591
2730	1	2730	0.00965810314854163	0.0360015065245807
2766	1	2766	0.00965810314854163	0.0364762516655642
2796	1	2796	0.00965810314854163	0.0368718726163838
2988	1	2988	0.00965810314854163	0.039403846701629
3281	1	3281	0.00965810314854163	0.0432677446546335
3372	1	3372	0.00965810314854163	0.0444677948721195
3418	1	3418	0.00965810314854163	0.0450744136633762
3474	1	3474	0.00965810314854163	0.045812906104906
3495	1	3495	0.00965810314854163	0.0460898407704797
3538	1	3538	0.00965810314854163	0.0466568974666544
3549	1	3549	0.00965810314854163	0.0468019584819549
3623	1	3623	0.00965810314854163	0.0477778234939765
3742	1	3742	0.00965810314854163	0.0493471199322275
4029	1	4029	0.00965810314854163	0.053131893695068
4180	1	4180	0.00965810314854163	0.0551231858141932
4283	1	4283	0.00965810314854163	0.056481484412007
4363	1	4363	0.00965810314854163	0.0575364736141926
4703	1	4703	0.00965810314854163	0.062020177723481
5409	1	5409	0.00965810314854163	0.0713304574327682
6131	1	6131	0.00965810314854163	0.0808517349824925
6172	1	6172	0.00965810314854163	0.0813924169486125
6339	1	6339	0.00965810314854163	0.0835947069081748
6431	1	6431	0.00965810314854163	0.0848079444906881
6473	1	6473	0.00965810314854163	0.0853618138218355
6659	1	6659	0.00965810314854163	0.0878146637169169
7086	1	7086	0.00965810314854163	0.0934456685835821
7279	1	7279	0.00965810314854163	0.0959908300338546
7350	1	7350	0.00965810314854163	0.0969271329507942
7556	1	7556	0.00965810314854163	0.099643730146422
7569	1	7569	0.00965810314854163	0.0998151658917771
7819	1	7819	0.00965810314854163	0.103112007148607
7844	1	7844	0.00965810314854163	0.10344169127429
8122	1	8122	0.00965810314854163	0.107107778751884
8656	1	8656	0.00965810314854163	0.114149831676473
8884	1	8884	0.00965810314854163	0.117156550902702
9191	1	9191	0.00965810314854163	0.121205071966088
10908	1	10908	0.00965810314854163	0.143847777717995
10954	1	10954	0.00965810314854163	0.144454396509252
11372	1	11372	0.00965810314854163	0.149966715090671
11558	1	11558	0.00965810314854163	0.152419564985752
11586	1	11586	0.00965810314854163	0.152788811206517
12349	1	12349	0.00965810314854163	0.162850770722362
12636	1	12636	0.00965810314854163	0.166635544485202
12875	1	12875	0.00965810314854163	0.169787324726731
13983	1	13983	0.00965810314854163	0.184398925177001
14991	1	14991	0.00965810314854163	0.197691789124538
15126	1	15126	0.00965810314854163	0.199472083403226
15542	1	15542	0.00965810314854163	0.204958027254591
19059	1	19059	0.00965810314854163	0.251337990055672
19948	1	19948	0.00965810314854163	0.263061557564958
22037	1	22037	0.00965810314854163	0.290609963107028
24667	1	24667	0.00965810314854163	0.325292733128876
30211	1	30211	0.00965810314854163	0.398403484840333
30243	1	30243	0.00965810314854163	0.398825480521207
33912	1	33912	0.00965810314854163	0.44720992280644
34068	1	34068	0.00965810314854163	0.449267151750702
34492	1	34492	0.00965810314854163	0.454858594522285
34728	1	34728	0.00965810314854163	0.457970812668732
34736	1	34736	0.00965810314854163	0.458076311588951
35326	1	35326	0.00965810314854163	0.465856856955069
40004	1	40004	0.00965810314854163	0.527547350552867
42389	1	42389	0.00965810314854163	0.558999216143023
42397	1	42397	0.00965810314854163	0.559104715063241
43481	1	43481	0.00965810314854163	0.573399818752855
49161	1	49161	0.00965810314854163	0.648304052108027
49554	1	49554	0.00965810314854163	0.653486686563763
50371	1	50371	0.00965810314854163	0.664260763791083
52251	1	52251	0.00965810314854163	0.689053010042442
53437	1	53437	0.00965810314854163	0.704693224964842
54200	1	54200	0.00965810314854163	0.714755184480687
60267	1	60267	0.00965810314854163	0.794762928101431
62677	1	62677	0.00965810314854163	0.82654447781727
63186	1	63186	0.00965810314854163	0.833256846616175
63835	1	63835	0.00965810314854163	0.841815446518905
66073	1	66073	0.00965810314854163	0.871328769450045
76977	1	76977	0.00965810314854163	1.01512379770793
79190	1	79190	0.00965810314854163	1.04430743651339
80986	1	80986	0.00965810314854163	1.06799194410245
85984	1	85984	0.00965810314854163	1.13390239450899
91467	1	91467	0.00965810314854163	1.20620871695378
91541	1	91541	0.00965810314854163	1.2071845819658
94771	1	94771	0.00965810314854163	1.24977977100404
112354	1	112354	0.00965810314854163	1.48165321027939
113951	1	113951	0.00965810314854163	1.50271343222802
115217	1	115217	0.00965810314854163	1.51940863635261
118516	1	118516	0.00965810314854163	1.56291375357773
121803	1	121803	0.00965810314854163	1.60626062242253
125510	1	125510	0.00965810314854163	1.6551461845788
131953	1	131953	0.00965810314854163	1.74011237744982
132525	1	132525	0.00965810314854163	1.74765555024544
134020	1	134020	0.00965810314854163	1.76737066096129
140761	1	140761	0.00965810314854163	1.85626668861044
141871	1	141871	0.00965810314854163	1.87090466379077
157291	1	157291	0.00965810314854163	2.07425383251202
219146	1	219146	0.00965810314854163	2.88995829627684
255331	1	255331	0.00965810314854163	3.36714309979037
280532	1	280532	0.00965810314854163	3.69947788584384
318138	1	318138	0.00965810314854163	4.1954019350612
343505	1	343505	0.00965810314854163	4.52992582370919
380048	1	380048	0.00965810314854163	5.01183170390251
394134	1	394134	0.00965810314854163	5.19758892767732
413323	1	413323	0.00965810314854163	5.45064127518655
444487	1	444487	0.00965810314854163	5.86161231889792
515079	1	515079	0.00965810314854163	6.79253479090641
