Count	Number_Unique	Total_Count_Unique	Percent_Number_Unique	Percent_Total_Count
1	4377	4377	34.2140232939889	0.0371924137672601
2	1910	3820	14.9300398655515	0.0324594518142412
3	1066	3198	8.33268193543344	0.0271741693460585
4	708	2832	5.53427655749238	0.0240641799837516
5	476	2380	3.72078480418979	0.0202234280936895
6	395	2370	3.08762604549363	0.0201384557067413
7	310	2170	2.4232001876026	0.0184390079677758
8	235	1880	1.83694207769874	0.0159748087462758
9	205	1845	1.6024388337372	0.0156774053919568
10	186	1860	1.45392011256156	0.0158048639723792
11	140	1540	1.09434847182053	0.0130857475900344
12	132	1584	1.03181427343078	0.0134596260926068
13	113	1469	0.88329555225514	0.0124824436427017
14	107	1498	0.836394903462831	0.0127288635648516
15	109	1635	0.852028453060267	0.013892985266043
16	92	1472	0.719143281482061	0.0125079353587861
17	66	1122	0.515907136715391	0.00953390181559649
18	66	1188	0.515907136715391	0.0100947195694551
19	65	1235	0.508090361916673	0.010494089788112
20	53	1060	0.414289064332057	0.00900707301651719
21	58	1218	0.453372938325647	0.0103496367302999
22	52	1144	0.406472289533339	0.0097208410668827
23	45	1035	0.351754865942312	0.0087946420491465
24	46	1104	0.35957164074103	0.0093809515190896
25	52	1300	0.406472289533339	0.0110464103032758
26	36	936	0.28140389275385	0.00795341541835857
27	29	783	0.226686469162823	0.00665333789804996
28	36	1008	0.28140389275385	0.00856521660438616
29	31	899	0.24232001876026	0.00763901758664995
30	24	720	0.187602595169233	0.00611801186027583
31	27	837	0.211052919565387	0.00711218878757065
32	32	1024	0.250136793558978	0.0087011724235034
33	24	792	0.187602595169233	0.00672981304630341
34	30	1020	0.234503243961541	0.00866718346872409
35	20	700	0.156335495974361	0.00594806708637927
36	20	720	0.156335495974361	0.00611801186027583
37	17	629	0.132885171578207	0.00534476313904652
38	18	684	0.140701946376925	0.00581211126726203
39	16	624	0.125068396779489	0.00530227694557238
40	13	520	0.101618072383335	0.00441856412131032
41	14	574	0.109434847182053	0.004877415010831
42	12	504	0.0938012975846166	0.00428260830219308
43	23	989	0.179785820370515	0.00840376906918443
44	19	836	0.148518721175643	0.00710369154887582
45	17	765	0.132885171578207	0.00650038760154306
46	10	460	0.0781677479871805	0.00390872979962067
47	19	893	0.148518721175643	0.00758803415448099
48	10	480	0.0781677479871805	0.00407867457351722
49	15	735	0.117251621980771	0.00624547044069824
50	13	650	0.101618072383335	0.0055232051516379
51	8	408	0.0625341983897444	0.00346687338748963
52	5	260	0.0390838739935902	0.00220928206065516
53	13	689	0.101618072383335	0.00585459746073617
54	9	486	0.0703509731884624	0.00412965800568618
55	14	770	0.109434847182053	0.0065428737950172
56	6	336	0.0469006487923083	0.00285507220146205
57	13	741	0.101618072383335	0.0062964538728672
58	8	464	0.0625341983897444	0.00394271875439998
59	13	767	0.101618072383335	0.00651738207893272
60	11	660	0.0859845227858985	0.00560817753858617
61	11	671	0.0859845227858985	0.00570164716422928
62	10	620	0.0781677479871805	0.00526828799079307
63	8	504	0.0625341983897444	0.00428260830219308
64	6	384	0.0469006487923083	0.00326293965881377
65	8	520	0.0625341983897444	0.00441856412131032
66	9	594	0.0703509731884624	0.00504735978472756
67	13	871	0.101618072383335	0.00740109490319478
68	10	680	0.0781677479871805	0.00577812231248272
69	10	690	0.0781677479871805	0.005863094699431
70	8	560	0.0625341983897444	0.00475845366910342
71	5	355	0.0390838739935902	0.00301651973666378
72	7	504	0.0547174235910263	0.00428260830219308
73	9	657	0.0703509731884624	0.00558268582250169
74	5	370	0.0390838739935902	0.00314397831708619
75	6	450	0.0469006487923083	0.00382375741267239
76	9	684	0.0703509731884624	0.00581211126726203
77	8	616	0.0625341983897444	0.00523429903601376
78	8	624	0.0625341983897444	0.00530227694557238
79	8	632	0.0625341983897444	0.005370254855131
80	2	160	0.0156335495974361	0.00135955819117241
81	2	162	0.0156335495974361	0.00137655266856206
82	5	410	0.0390838739935902	0.00348386786487929
83	5	415	0.0390838739935902	0.00352635405835343
84	6	504	0.0469006487923083	0.00428260830219308
85	4	340	0.0312670991948722	0.00288906115624136
86	4	344	0.0312670991948722	0.00292305011102067
87	2	174	0.0156335495974361	0.00147851953289999
88	2	176	0.0156335495974361	0.00149551401028965
89	7	623	0.0547174235910263	0.00529377970687755
90	5	450	0.0390838739935902	0.00382375741267239
91	9	819	0.0703509731884624	0.00695923849106375
92	8	736	0.0625341983897444	0.00625396767939307
93	3	279	0.0234503243961541	0.00237072959585688
94	5	470	0.0390838739935902	0.00399370218656894
95	6	570	0.0469006487923083	0.0048434260560517
96	5	480	0.0390838739935902	0.00407867457351722
97	4	388	0.0312670991948722	0.00329692861359308
98	4	392	0.0312670991948722	0.00333091756837239
99	7	693	0.0547174235910263	0.00588858641551548
100	2	200	0.0156335495974361	0.00169944773896551
101	3	303	0.0234503243961541	0.00257466332453274
102	2	204	0.0156335495974361	0.00173343669374482
103	1	103	0.00781677479871805	0.000875215585567236
104	5	520	0.0390838739935902	0.00441856412131032
105	3	315	0.0234503243961541	0.00267663018887067
106	5	530	0.0390838739935902	0.00450353650825859
107	6	642	0.0469006487923083	0.00545522724207928
108	2	216	0.0156335495974361	0.00183540355808275
109	2	218	0.0156335495974361	0.0018523980354724
110	3	330	0.0234503243961541	0.00280408876929309
111	4	444	0.0312670991948722	0.00377277398050343
112	2	224	0.0156335495974361	0.00190338146764137
113	1	113	0.00781677479871805	0.000960187972515512
114	5	570	0.0390838739935902	0.0048434260560517
115	2	230	0.0156335495974361	0.00195436489981033
116	2	232	0.0156335495974361	0.00197135937719999
117	2	234	0.0156335495974361	0.00198835385458964
118	4	472	0.0312670991948722	0.0040106966639586
119	3	357	0.0234503243961541	0.00303351421405343
120	2	240	0.0156335495974361	0.00203933728675861
121	2	242	0.0156335495974361	0.00205633176414826
122	2	244	0.0156335495974361	0.00207332624153792
123	3	369	0.0234503243961541	0.00313548107839136
124	7	868	0.0547174235910263	0.0073756031871103
125	2	250	0.0156335495974361	0.00212430967370688
126	5	630	0.0390838739935902	0.00535326037774135
128	1	128	0.00781677479871805	0.00108764655293792
129	3	387	0.0234503243961541	0.00328843137489826
130	2	260	0.0156335495974361	0.00220928206065516
131	3	393	0.0234503243961541	0.00333941480706722
132	3	396	0.0234503243961541	0.0033649065231517
134	4	536	0.0312670991948722	0.00455451994042756
135	1	135	0.00781677479871805	0.00114712722380172
136	4	544	0.0312670991948722	0.00462249784998618
137	1	137	0.00781677479871805	0.00116412170119137
138	3	414	0.0234503243961541	0.0035178568196586
139	2	278	0.0156335495974361	0.00236223235716205
140	5	700	0.0390838739935902	0.00594806708637927
141	1	141	0.00781677479871805	0.00119811065597068
142	3	426	0.0234503243961541	0.00361982368399653
143	1	143	0.00781677479871805	0.00121510513336034
144	4	576	0.0312670991948722	0.00489440948822066
145	1	145	0.00781677479871805	0.00123209961074999
146	3	438	0.0234503243961541	0.00372179054833446
147	2	294	0.0156335495974361	0.0024981881762793
149	2	298	0.0156335495974361	0.00253217713105861
150	6	900	0.0469006487923083	0.00764751482534478
151	4	604	0.0312670991948722	0.00513233217167583
152	3	456	0.0234503243961541	0.00387474084484136
154	3	462	0.0234503243961541	0.00392572427701032
156	1	156	0.00781677479871805	0.0013255692363931
157	2	314	0.0156335495974361	0.00266813295017585
158	4	632	0.0312670991948722	0.005370254855131
159	2	318	0.0156335495974361	0.00270212190495516
160	1	160	0.00781677479871805	0.00135955819117241
161	2	322	0.0156335495974361	0.00273611085973447
162	2	324	0.0156335495974361	0.00275310533712412
163	2	326	0.0156335495974361	0.00277009981451378
164	5	820	0.0390838739935902	0.00696773572975858
165	2	330	0.0156335495974361	0.00280408876929309
166	2	332	0.0156335495974361	0.00282108324668274
167	4	668	0.0312670991948722	0.00567615544814479
170	1	170	0.00781677479871805	0.00144453057812068
171	1	171	0.00781677479871805	0.00145302781681551
173	1	173	0.00781677479871805	0.00147002229420516
174	4	696	0.0312670991948722	0.00591407813159997
175	2	350	0.0156335495974361	0.00297403354318964
177	2	354	0.0156335495974361	0.00300802249796895
178	1	178	0.00781677479871805	0.0015125084876793
179	1	179	0.00781677479871805	0.00152100572637413
180	1	180	0.00781677479871805	0.00152950296506896
181	2	362	0.0156335495974361	0.00307600040752757
182	2	364	0.0156335495974361	0.00309299488491722
183	2	366	0.0156335495974361	0.00310998936230688
185	1	185	0.00781677479871805	0.00157198915854309
188	2	376	0.0156335495974361	0.00319496174925515
189	1	189	0.00781677479871805	0.0016059781133224
190	2	380	0.0156335495974361	0.00322895070403446
191	1	191	0.00781677479871805	0.00162297259071206
193	1	193	0.00781677479871805	0.00163996706810171
194	2	388	0.0156335495974361	0.00329692861359308
195	2	390	0.0156335495974361	0.00331392309098274
196	5	980	0.0390838739935902	0.00832729392093099
197	2	394	0.0156335495974361	0.00334791204576205
198	2	396	0.0156335495974361	0.0033649065231517
199	1	199	0.00781677479871805	0.00169095050027068
200	1	200	0.00781677479871805	0.00169944773896551
201	3	603	0.0234503243961541	0.005123834932981
205	3	615	0.0234503243961541	0.00522580179731893
206	1	206	0.00781677479871805	0.00175043117113447
207	2	414	0.0156335495974361	0.0035178568196586
208	2	416	0.0156335495974361	0.00353485129704825
210	5	1050	0.0390838739935902	0.00892210062956891
211	1	211	0.00781677479871805	0.00179291736460861
212	2	424	0.0156335495974361	0.00360282920660687
213	4	852	0.0312670991948722	0.00723964736799306
216	1	216	0.00781677479871805	0.00183540355808275
218	1	218	0.00781677479871805	0.0018523980354724
219	1	219	0.00781677479871805	0.00186089527416723
220	1	220	0.00781677479871805	0.00186939251286206
221	1	221	0.00781677479871805	0.00187788975155689
222	1	222	0.00781677479871805	0.00188638699025171
223	1	223	0.00781677479871805	0.00189488422894654
226	1	226	0.00781677479871805	0.00192037594503102
229	1	229	0.00781677479871805	0.00194586766111551
230	2	460	0.0156335495974361	0.00390872979962067
232	1	232	0.00781677479871805	0.00197135937719999
233	2	466	0.0156335495974361	0.00395971323178963
234	1	234	0.00781677479871805	0.00198835385458964
236	1	236	0.00781677479871805	0.0020053483319793
237	1	237	0.00781677479871805	0.00201384557067413
240	1	240	0.00781677479871805	0.00203933728675861
241	2	482	0.0156335495974361	0.00409566905090687
242	2	484	0.0156335495974361	0.00411266352829653
243	1	243	0.00781677479871805	0.00206482900284309
247	1	247	0.00781677479871805	0.0020988179576224
250	1	250	0.00781677479871805	0.00212430967370688
251	1	251	0.00781677479871805	0.00213280691240171
252	2	504	0.0156335495974361	0.00428260830219308
253	1	253	0.00781677479871805	0.00214980138979137
254	2	508	0.0156335495974361	0.00431659725697239
255	1	255	0.00781677479871805	0.00216679586718102
256	1	256	0.00781677479871805	0.00217529310587585
260	1	260	0.00781677479871805	0.00220928206065516
261	4	1044	0.0312670991948722	0.00887111719739995
263	2	526	0.0156335495974361	0.00446954755347928
264	2	528	0.0156335495974361	0.00448654203086894
265	1	265	0.00781677479871805	0.0022517682541293
267	1	267	0.00781677479871805	0.00226876273151895
268	1	268	0.00781677479871805	0.00227725997021378
270	2	540	0.0156335495974361	0.00458850889520687
271	1	271	0.00781677479871805	0.00230275168629826
273	1	273	0.00781677479871805	0.00231974616368792
274	1	274	0.00781677479871805	0.00232824340238274
278	1	278	0.00781677479871805	0.00236223235716205
280	1	280	0.00781677479871805	0.00237922683455171
281	1	281	0.00781677479871805	0.00238772407324654
282	1	282	0.00781677479871805	0.00239622131194137
283	1	283	0.00781677479871805	0.00240471855063619
285	2	570	0.0156335495974361	0.0048434260560517
286	2	572	0.0156335495974361	0.00486042053344135
287	1	287	0.00781677479871805	0.0024387075054155
288	3	864	0.0234503243961541	0.00734161423233099
290	1	290	0.00781677479871805	0.00246419922149999
292	1	292	0.00781677479871805	0.00248119369888964
293	2	586	0.0156335495974361	0.00497938187516894
296	2	592	0.0156335495974361	0.0050303653073379
297	3	891	0.0234503243961541	0.00757103967709133
299	2	598	0.0156335495974361	0.00508134873950687
301	1	301	0.00781677479871805	0.00255766884714309
303	1	303	0.00781677479871805	0.00257466332453274
305	1	305	0.00781677479871805	0.0025916578019224
307	1	307	0.00781677479871805	0.00260865227931205
310	5	1550	0.0390838739935902	0.0131707199769827
312	2	624	0.0156335495974361	0.00530227694557238
314	1	314	0.00781677479871805	0.00266813295017585
315	3	945	0.0234503243961541	0.00802989056661202
316	1	316	0.00781677479871805	0.0026851274275655
317	2	634	0.0156335495974361	0.00538724933252066
319	1	319	0.00781677479871805	0.00271061914364998
322	1	322	0.00781677479871805	0.00273611085973447
325	1	325	0.00781677479871805	0.00276160257581895
327	1	327	0.00781677479871805	0.0027785970532086
328	1	328	0.00781677479871805	0.00278709429190343
329	1	329	0.00781677479871805	0.00279559153059826
330	2	660	0.0156335495974361	0.00560817753858617
333	1	333	0.00781677479871805	0.00282958048537757
342	1	342	0.00781677479871805	0.00290605563363102
345	3	1035	0.0234503243961541	0.0087946420491465
348	1	348	0.00781677479871805	0.00295703906579998
349	1	349	0.00781677479871805	0.00296553630449481
352	1	352	0.00781677479871805	0.00299102802057929
354	1	354	0.00781677479871805	0.00300802249796895
357	1	357	0.00781677479871805	0.00303351421405343
358	3	1074	0.0234503243961541	0.00912603435824477
361	2	722	0.0156335495974361	0.00613500633766548
362	1	362	0.00781677479871805	0.00307600040752757
363	1	363	0.00781677479871805	0.0030844976462224
364	2	728	0.0156335495974361	0.00618598976983445
368	1	368	0.00781677479871805	0.00312698383969653
371	1	371	0.00781677479871805	0.00315247555578102
372	1	372	0.00781677479871805	0.00316097279447584
373	1	373	0.00781677479871805	0.00316947003317067
374	2	748	0.0156335495974361	0.006355934543731
377	1	377	0.00781677479871805	0.00320345898794998
378	1	378	0.00781677479871805	0.00321195622664481
382	1	382	0.00781677479871805	0.00324594518142412
383	1	383	0.00781677479871805	0.00325444242011895
384	1	384	0.00781677479871805	0.00326293965881377
385	1	385	0.00781677479871805	0.0032714368975086
386	1	386	0.00781677479871805	0.00327993413620343
395	2	790	0.0156335495974361	0.00671281856891375
399	1	399	0.00781677479871805	0.00339039823923619
402	2	804	0.0156335495974361	0.00683177991064134
407	2	814	0.0156335495974361	0.00691675229758961
408	2	816	0.0156335495974361	0.00693374677497927
411	1	411	0.00781677479871805	0.00349236510357412
413	1	413	0.00781677479871805	0.00350935958096377
414	1	414	0.00781677479871805	0.0035178568196586
416	3	1248	0.0234503243961541	0.0106045538911448
420	1	420	0.00781677479871805	0.00356884025182756
421	1	421	0.00781677479871805	0.00357733749052239
423	1	423	0.00781677479871805	0.00359433196791205
424	1	424	0.00781677479871805	0.00360282920660687
426	1	426	0.00781677479871805	0.00361982368399653
428	1	428	0.00781677479871805	0.00363681816138619
429	2	858	0.0156335495974361	0.00729063080016203
430	1	430	0.00781677479871805	0.00365381263877584
433	1	433	0.00781677479871805	0.00367930435486032
436	1	436	0.00781677479871805	0.00370479607094481
437	1	437	0.00781677479871805	0.00371329330963963
438	1	438	0.00781677479871805	0.00372179054833446
442	2	884	0.0156335495974361	0.00751155900622754
443	2	886	0.0156335495974361	0.0075285534836172
444	3	1332	0.0234503243961541	0.0113183219415103
446	1	446	0.00781677479871805	0.00378976845789308
447	1	447	0.00781677479871805	0.00379826569658791
449	1	449	0.00781677479871805	0.00381526017397756
451	2	902	0.0156335495974361	0.00766450930273444
453	1	453	0.00781677479871805	0.00384924912875687
455	1	455	0.00781677479871805	0.00386624360614653
457	1	457	0.00781677479871805	0.00388323808353618
459	1	459	0.00781677479871805	0.00390023256092584
462	1	462	0.00781677479871805	0.00392572427701032
463	2	926	0.0156335495974361	0.0078684430314103
465	1	465	0.00781677479871805	0.0039512159930948
466	2	932	0.0156335495974361	0.00791942646357926
467	2	934	0.0156335495974361	0.00793642094096892
468	1	468	0.00781677479871805	0.00397670770917929
470	1	470	0.00781677479871805	0.00399370218656894
473	1	473	0.00781677479871805	0.00401919390265342
475	1	475	0.00781677479871805	0.00403618838004308
479	1	479	0.00781677479871805	0.00407017733482239
480	1	480	0.00781677479871805	0.00407867457351722
483	2	966	0.0156335495974361	0.0082083325792034
487	1	487	0.00781677479871805	0.00413815524438101
490	2	980	0.0156335495974361	0.00832729392093099
493	1	493	0.00781677479871805	0.00418913867654998
496	1	496	0.00781677479871805	0.00421463039263446
497	1	497	0.00781677479871805	0.00422312763132929
502	1	502	0.00781677479871805	0.00426561382480342
503	1	503	0.00781677479871805	0.00427411106349825
505	1	505	0.00781677479871805	0.00429110554088791
506	1	506	0.00781677479871805	0.00429960277958273
508	1	508	0.00781677479871805	0.00431659725697239
513	1	513	0.00781677479871805	0.00435908345044653
514	1	514	0.00781677479871805	0.00436758068914135
517	1	517	0.00781677479871805	0.00439307240522584
520	3	1560	0.0234503243961541	0.013255692363931
525	1	525	0.00781677479871805	0.00446105031478446
528	2	1056	0.0156335495974361	0.00897308406173788
530	1	530	0.00781677479871805	0.00450353650825859
531	1	531	0.00781677479871805	0.00451203374695342
532	1	532	0.00781677479871805	0.00452053098564825
538	1	538	0.00781677479871805	0.00457151441781721
542	1	542	0.00781677479871805	0.00460550337259652
546	1	546	0.00781677479871805	0.00463949232737583
548	2	1096	0.0156335495974361	0.00931297360953098
556	1	556	0.00781677479871805	0.00472446471432411
558	1	558	0.00781677479871805	0.00474145919171376
560	2	1120	0.0156335495974361	0.00951690733820684
561	1	561	0.00781677479871805	0.00476695090779825
562	1	562	0.00781677479871805	0.00477544814649307
569	1	569	0.00781677479871805	0.00483492881735687
578	1	578	0.00781677479871805	0.00491140396561032
579	1	579	0.00781677479871805	0.00491990120430514
587	1	587	0.00781677479871805	0.00498787911386376
595	1	595	0.00781677479871805	0.00505585702342238
598	1	598	0.00781677479871805	0.00508134873950687
601	1	601	0.00781677479871805	0.00510684045559135
610	1	610	0.00781677479871805	0.0051833156038448
612	1	612	0.00781677479871805	0.00520031008123445
615	1	615	0.00781677479871805	0.00522580179731893
616	1	616	0.00781677479871805	0.00523429903601376
620	1	620	0.00781677479871805	0.00526828799079307
622	1	622	0.00781677479871805	0.00528528246818273
635	2	1270	0.0156335495974361	0.010791493142431
639	1	639	0.00781677479871805	0.0054297355259948
643	1	643	0.00781677479871805	0.00546372448077411
646	1	646	0.00781677479871805	0.00548921619685859
654	1	654	0.00781677479871805	0.00555719410641721
663	1	663	0.00781677479871805	0.00563366925467066
665	1	665	0.00781677479871805	0.00565066373206031
666	1	666	0.00781677479871805	0.00565916097075514
675	1	675	0.00781677479871805	0.00573563611900859
686	1	686	0.00781677479871805	0.00582910574465169
687	1	687	0.00781677479871805	0.00583760298334652
696	1	696	0.00781677479871805	0.00591407813159997
704	1	704	0.00781677479871805	0.00598205604115858
705	1	705	0.00781677479871805	0.00599055327985341
707	1	707	0.00781677479871805	0.00600754775724307
709	2	1418	0.0156335495974361	0.0120490844692654
720	1	720	0.00781677479871805	0.00611801186027583
721	1	721	0.00781677479871805	0.00612650909897065
722	1	722	0.00781677479871805	0.00613500633766548
731	1	731	0.00781677479871805	0.00621148148591893
736	1	736	0.00781677479871805	0.00625396767939307
737	1	737	0.00781677479871805	0.00626246491808789
741	1	741	0.00781677479871805	0.0062964538728672
742	2	1484	0.0156335495974361	0.0126099022231241
745	1	745	0.00781677479871805	0.00633044282764651
748	1	748	0.00781677479871805	0.006355934543731
750	1	750	0.00781677479871805	0.00637292902112065
752	1	752	0.00781677479871805	0.00638992349851031
755	1	755	0.00781677479871805	0.00641541521459479
765	1	765	0.00781677479871805	0.00650038760154306
768	1	768	0.00781677479871805	0.00652587931762755
770	1	770	0.00781677479871805	0.0065428737950172
778	1	778	0.00781677479871805	0.00661085170457582
779	1	779	0.00781677479871805	0.00661934894327065
781	1	781	0.00781677479871805	0.00663634342066031
785	1	785	0.00781677479871805	0.00667033237543962
793	1	793	0.00781677479871805	0.00673831028499824
796	1	796	0.00781677479871805	0.00676380200108272
806	1	806	0.00781677479871805	0.00684877438803099
810	1	810	0.00781677479871805	0.0068827633428103
812	1	812	0.00781677479871805	0.00689975782019996
817	1	817	0.00781677479871805	0.0069422440136741
820	1	820	0.00781677479871805	0.00696773572975858
836	1	836	0.00781677479871805	0.00710369154887582
841	1	841	0.00781677479871805	0.00714617774234996
879	1	879	0.00781677479871805	0.0074690728127534
889	1	889	0.00781677479871805	0.00755404519970168
892	1	892	0.00781677479871805	0.00757953691578616
902	1	902	0.00781677479871805	0.00766450930273444
932	1	932	0.00781677479871805	0.00791942646357926
952	1	952	0.00781677479871805	0.00808937123747581
957	1	957	0.00781677479871805	0.00813185743094995
965	1	965	0.00781677479871805	0.00819983534050857
990	2	1980	0.0156335495974361	0.0168245326157585
1006	1	1006	0.00781677479871805	0.0085482221269965
1007	1	1007	0.00781677479871805	0.00855671936569133
1018	1	1018	0.00781677479871805	0.00865018899133443
1019	1	1019	0.00781677479871805	0.00865868623002926
1021	1	1021	0.00781677479871805	0.00867568070741891
1024	1	1024	0.00781677479871805	0.0087011724235034
1028	1	1028	0.00781677479871805	0.00873516137828271
1040	1	1040	0.00781677479871805	0.00883712824262064
1048	2	2096	0.0156335495974361	0.0178102123043585
1074	1	1074	0.00781677479871805	0.00912603435824477
1076	1	1076	0.00781677479871805	0.00914302883563443
1081	1	1081	0.00781677479871805	0.00918551502910857
1084	2	2168	0.0156335495974361	0.0184220134903861
1085	1	1085	0.00781677479871805	0.00921950398388788
1097	1	1097	0.00781677479871805	0.00932147084822581
1101	1	1101	0.00781677479871805	0.00935545980300512
1106	1	1106	0.00781677479871805	0.00939794599647925
1122	1	1122	0.00781677479871805	0.00953390181559649
1146	1	1146	0.00781677479871805	0.00973783554427235
1148	1	1148	0.00781677479871805	0.00975483002166201
1165	2	2330	0.0156335495974361	0.0197985661589482
1174	1	1174	0.00781677479871805	0.00997575822772753
1199	1	1199	0.00781677479871805	0.0101881891950982
1202	1	1202	0.00781677479871805	0.0102136809111827
1208	1	1208	0.00781677479871805	0.0102646643433517
1216	1	1216	0.00781677479871805	0.0103326422529103
1218	1	1218	0.00781677479871805	0.0103496367302999
1256	1	1256	0.00781677479871805	0.0106725318007034
1288	1	1288	0.00781677479871805	0.0109444434389379
1297	1	1297	0.00781677479871805	0.0110209185871913
1301	2	2602	0.0156335495974361	0.0221098150839412
1325	1	1325	0.00781677479871805	0.0112588412706465
1327	1	1327	0.00781677479871805	0.0112758357480361
1331	1	1331	0.00781677479871805	0.0113098247028155
1337	1	1337	0.00781677479871805	0.0113608081349844
1348	1	1348	0.00781677479871805	0.0114542777606275
1382	1	1382	0.00781677479871805	0.0117431838762517
1392	1	1392	0.00781677479871805	0.0118281562631999
1394	1	1394	0.00781677479871805	0.0118451507405896
1406	1	1406	0.00781677479871805	0.0119471176049275
1419	1	1419	0.00781677479871805	0.0120575817079603
1440	1	1440	0.00781677479871805	0.0122360237205517
1448	1	1448	0.00781677479871805	0.0123040016301103
1450	1	1450	0.00781677479871805	0.0123209961074999
1455	1	1455	0.00781677479871805	0.0123634823009741
1460	1	1460	0.00781677479871805	0.0124059684944482
1496	1	1496	0.00781677479871805	0.012711869087462
1500	1	1500	0.00781677479871805	0.0127458580422413
1591	1	1591	0.00781677479871805	0.0135191067634706
1592	1	1592	0.00781677479871805	0.0135276040021654
1621	1	1621	0.00781677479871805	0.0137740239243154
1654	1	1654	0.00781677479871805	0.0140544328012447
1658	2	3316	0.0156335495974361	0.0281768435120481
1660	1	1660	0.00781677479871805	0.0141054162334137
1682	2	3364	0.0156335495974361	0.0285847109693998
1685	1	1685	0.00781677479871805	0.0143178472007844
1708	1	1708	0.00781677479871805	0.0145132836907654
1768	1	1768	0.00781677479871805	0.0150231180124551
1775	1	1775	0.00781677479871805	0.0150825986833189
1803	1	1803	0.00781677479871805	0.015320521366774
1825	1	1825	0.00781677479871805	0.0155074606180603
1857	1	1857	0.00781677479871805	0.0157793722562947
1888	1	1888	0.00781677479871805	0.0160427866558344
1908	1	1908	0.00781677479871805	0.0162127314297309
1909	1	1909	0.00781677479871805	0.0162212286684258
1912	1	1912	0.00781677479871805	0.0162467203845102
1918	1	1918	0.00781677479871805	0.0162977038166792
1981	1	1981	0.00781677479871805	0.0168330298544533
2002	1	2002	0.00781677479871805	0.0170114718670447
2018	1	2018	0.00781677479871805	0.017147427686162
2055	1	2055	0.00781677479871805	0.0174618255178706
2083	1	2083	0.00781677479871805	0.0176997482013258
2101	1	2101	0.00781677479871805	0.0178526984978327
2132	1	2132	0.00781677479871805	0.0181161128973723
2173	1	2173	0.00781677479871805	0.0184644996838602
2193	1	2193	0.00781677479871805	0.0186344444577568
2197	1	2197	0.00781677479871805	0.0186684334125361
2203	1	2203	0.00781677479871805	0.0187194168447051
2209	1	2209	0.00781677479871805	0.018770400276874
2217	2	4434	0.0156335495974361	0.0376767563728653
2235	1	2235	0.00781677479871805	0.0189913284829395
2292	1	2292	0.00781677479871805	0.0194756710885447
2353	1	2353	0.00781677479871805	0.0199940026489292
2370	1	2370	0.00781677479871805	0.0201384557067413
2372	1	2372	0.00781677479871805	0.0201554501841309
2375	1	2375	0.00781677479871805	0.0201809419002154
2394	2	4788	0.0156335495974361	0.0406847788708342
2415	1	2415	0.00781677479871805	0.0205208314480085
2416	1	2416	0.00781677479871805	0.0205293286867033
2424	1	2424	0.00781677479871805	0.0205973065962619
2454	1	2454	0.00781677479871805	0.0208522237571068
2456	1	2456	0.00781677479871805	0.0208692182344964
2504	1	2504	0.00781677479871805	0.0212770856918481
2549	1	2549	0.00781677479871805	0.0216594614331154
2560	1	2560	0.00781677479871805	0.0217529310587585
2607	1	2607	0.00781677479871805	0.0221523012774154
2639	1	2639	0.00781677479871805	0.0224242129156499
2701	1	2701	0.00781677479871805	0.0229510417147292
2719	1	2719	0.00781677479871805	0.0231039920112361
2730	1	2730	0.00781677479871805	0.0231974616368792
2740	1	2740	0.00781677479871805	0.0232824340238274
2769	1	2769	0.00781677479871805	0.0235288539459774
2770	1	2770	0.00781677479871805	0.0235373511846723
2801	1	2801	0.00781677479871805	0.0238007655842119
2828	1	2828	0.00781677479871805	0.0240301910289723
2922	1	2922	0.00781677479871805	0.0248289314662861
2925	1	2925	0.00781677479871805	0.0248544231823705
2982	1	2982	0.00781677479871805	0.0253387657879757
3003	1	3003	0.00781677479871805	0.0255172078005671
3029	1	3029	0.00781677479871805	0.0257381360066326
3076	1	3076	0.00781677479871805	0.0261375062252895
3173	1	3173	0.00781677479871805	0.0269617383786878
3188	1	3188	0.00781677479871805	0.0270891969591102
3260	1	3260	0.00781677479871805	0.0277009981451378
3299	1	3299	0.00781677479871805	0.028032390454236
3356	1	3356	0.00781677479871805	0.0285167330598412
3367	1	3367	0.00781677479871805	0.0286102026854843
3385	1	3385	0.00781677479871805	0.0287631529819912
3421	1	3421	0.00781677479871805	0.029069053575005
3427	1	3427	0.00781677479871805	0.029120037007174
3448	1	3448	0.00781677479871805	0.0292984790197653
3518	1	3518	0.00781677479871805	0.0298932857284033
3556	1	3556	0.00781677479871805	0.0302161807988067
3608	1	3608	0.00781677479871805	0.0306580372109377
3618	1	3618	0.00781677479871805	0.030743009597886
3644	1	3644	0.00781677479871805	0.0309639378039515
3670	1	3670	0.00781677479871805	0.0311848660100171
3688	1	3688	0.00781677479871805	0.031337816306524
3718	1	3718	0.00781677479871805	0.0315927334673688
3721	1	3721	0.00781677479871805	0.0316182251834533
3750	1	3750	0.00781677479871805	0.0318646451056033
3798	1	3798	0.00781677479871805	0.032272512562955
3799	1	3799	0.00781677479871805	0.0322810098016498
3824	1	3824	0.00781677479871805	0.0324934407690205
3899	1	3899	0.00781677479871805	0.0331307336711326
3917	1	3917	0.00781677479871805	0.0332836839676395
3927	1	3927	0.00781677479871805	0.0333686563545877
4012	1	4012	0.00781677479871805	0.0340909216436481
4019	1	4019	0.00781677479871805	0.0341504023145119
4071	1	4071	0.00781677479871805	0.0345922587266429
4095	1	4095	0.00781677479871805	0.0347961924553188
4096	1	4096	0.00781677479871805	0.0348046896940136
4132	1	4132	0.00781677479871805	0.0351105902870274
4183	1	4183	0.00781677479871805	0.0355439494604636
4230	1	4230	0.00781677479871805	0.0359433196791205
4334	1	4334	0.00781677479871805	0.0368270325033825
4338	1	4338	0.00781677479871805	0.0368610214581618
4437	1	4437	0.00781677479871805	0.0377022480889498
4478	1	4478	0.00781677479871805	0.0380506348754377
4588	2	9176	0.0156335495974361	0.0779706622637375
4694	1	4694	0.00781677479871805	0.0398860384335205
4732	1	4732	0.00781677479871805	0.0402089335039239
4733	1	4733	0.00781677479871805	0.0402174307426187
4815	1	4815	0.00781677479871805	0.0409142043155946
4827	1	4827	0.00781677479871805	0.0410161711799325
4834	1	4834	0.00781677479871805	0.0410756518507963
4948	1	4948	0.00781677479871805	0.0420443370620066
4954	1	4954	0.00781677479871805	0.0420953204941756
5048	1	5048	0.00781677479871805	0.0428940609314894
5110	1	5110	0.00781677479871805	0.0434208897305687
5175	1	5175	0.00781677479871805	0.0439732102457325
5268	1	5268	0.00781677479871805	0.0447634534443515
5275	1	5275	0.00781677479871805	0.0448229341152152
5391	1	5391	0.00781677479871805	0.0458086138038152
5527	1	5527	0.00781677479871805	0.0469642382663118
5546	1	5546	0.00781677479871805	0.0471256858015135
5569	1	5569	0.00781677479871805	0.0473211222914945
5639	1	5639	0.00781677479871805	0.0479159290001325
5735	1	5735	0.00781677479871805	0.0487316639148359
5814	1	5814	0.00781677479871805	0.0494029457717273
5819	1	5819	0.00781677479871805	0.0494454319652014
5914	1	5914	0.00781677479871805	0.05025266964121
5949	1	5949	0.00781677479871805	0.050550072995529
5975	1	5975	0.00781677479871805	0.0507710012015945
6015	1	6015	0.00781677479871805	0.0511108907493876
6034	1	6034	0.00781677479871805	0.0512723382845893
6153	1	6153	0.00781677479871805	0.0522835096892738
6163	1	6163	0.00781677479871805	0.0523684820762221
6292	1	6292	0.00781677479871805	0.0534646258678549
6351	1	6351	0.00781677479871805	0.0539659629508497
6413	1	6413	0.00781677479871805	0.054492791749929
6456	1	6456	0.00781677479871805	0.0548581730138066
6566	1	6566	0.00781677479871805	0.0557928692702376
6666	1	6666	0.00781677479871805	0.0566425931397204
6671	1	6671	0.00781677479871805	0.0566850793331945
6820	1	6820	0.00781677479871805	0.0579511678987238
6948	1	6948	0.00781677479871805	0.0590388144516617
6954	1	6954	0.00781677479871805	0.0590897978838307
7039	1	7039	0.00781677479871805	0.059812063172891
7054	1	7054	0.00781677479871805	0.0599395217533134
7075	1	7075	0.00781677479871805	0.0601179637659048
7097	1	7097	0.00781677479871805	0.060304903017191
7137	1	7137	0.00781677479871805	0.0606447925649841
7221	1	7221	0.00781677479871805	0.0613585606153496
7291	1	7291	0.00781677479871805	0.0619533673239876
7443	1	7443	0.00781677479871805	0.0632449476056013
7523	1	7523	0.00781677479871805	0.0639247267011876
7544	1	7544	0.00781677479871805	0.0641031687137789
7680	1	7680	0.00781677479871805	0.0652587931762755
7705	1	7705	0.00781677479871805	0.0654712241436462
7877	1	7877	0.00781677479871805	0.0669327491991565
7936	1	7936	0.00781677479871805	0.0674340862821513
7979	1	7979	0.00781677479871805	0.0677994675460289
8209	1	8209	0.00781677479871805	0.0697538324458392
8382	1	8382	0.00781677479871805	0.0712238547400444
8707	1	8707	0.00781677479871805	0.0739854573158634
8732	1	8732	0.00781677479871805	0.074197888283234
8909	1	8909	0.00781677479871805	0.0757018995322185
9023	1	9023	0.00781677479871805	0.0766705847434288
9111	1	9111	0.00781677479871805	0.0774183417485737
9330	1	9330	0.00781677479871805	0.0792792370227409
9695	1	9695	0.00781677479871805	0.082380729146353
10174	1	10174	0.00781677479871805	0.0864509064811753
10691	1	10691	0.00781677479871805	0.0908439788864012
10731	1	10731	0.00781677479871805	0.0911838684341943
11015	1	11015	0.00781677479871805	0.0935970842235253
11023	1	11023	0.00781677479871805	0.0936650621330839
11245	1	11245	0.00781677479871805	0.0955514491233356
11473	1	11473	0.00781677479871805	0.0974888195457563
11577	1	11577	0.00781677479871805	0.0983725323700184
11609	1	11609	0.00781677479871805	0.0986444440082529
11858	1	11858	0.00781677479871805	0.100760256443265
12003	1	12003	0.00781677479871805	0.101992356054015
12204	1	12204	0.00781677479871805	0.103700301031675
12412	1	12412	0.00781677479871805	0.105467726680199
12528	1	12528	0.00781677479871805	0.106453406368799
13060	1	13060	0.00781677479871805	0.110973937354448
13175	1	13175	0.00781677479871805	0.111951119804353
13362	1	13362	0.00781677479871805	0.113540103440286
13617	1	13617	0.00781677479871805	0.115706899307467
13827	1	13827	0.00781677479871805	0.11749131943338
13905	1	13905	0.00781677479871805	0.118154104051577
13963	1	13963	0.00781677479871805	0.118646943895877
14090	1	14090	0.00781677479871805	0.11972609321012
14100	1	14100	0.00781677479871805	0.119811065597068
14108	1	14108	0.00781677479871805	0.119879043506627
14351	1	14351	0.00781677479871805	0.12194387250947
14431	1	14431	0.00781677479871805	0.122623651605056
14848	1	14848	0.00781677479871805	0.126167000140799
14892	1	14892	0.00781677479871805	0.126540878643372
15360	1	15360	0.00781677479871805	0.130517586352551
15915	1	15915	0.00781677479871805	0.13523355382818
16314	1	16314	0.00781677479871805	0.138623952067416
16549	1	16549	0.00781677479871805	0.140620803160701
16606	1	16606	0.00781677479871805	0.141105145766306
16822	1	16822	0.00781677479871805	0.142940549324389
17291	1	17291	0.00781677479871805	0.146925754272263
18297	1	18297	0.00781677479871805	0.155473976399259
19075	1	19075	0.00781677479871805	0.162084828103835
19138	1	19138	0.00781677479871805	0.162620154141609
19961	1	19961	0.00781677479871805	0.169613381587452
20231	1	20231	0.00781677479871805	0.171907636035056
20389	1	20389	0.00781677479871805	0.173250199748839
20750	1	20750	0.00781677479871805	0.176317702917671
20985	1	20985	0.00781677479871805	0.178314554010956
21156	1	21156	0.00781677479871805	0.179767581827771
21257	1	21257	0.00781677479871805	0.180625802935949
22058	1	22058	0.00781677479871805	0.187432091130506
22112	1	22112	0.00781677479871805	0.187890942020026
22652	1	22652	0.00781677479871805	0.192479450915233
23398	1	23398	0.00781677479871805	0.198818390981575
24449	1	24449	0.00781677479871805	0.207748988849838
24596	1	24596	0.00781677479871805	0.208998082937978
25217	1	25217	0.00781677479871805	0.214274868167466
26134	1	26134	0.00781677479871805	0.222066836050623
26567	1	26567	0.00781677479871805	0.225746140405483
27970	1	27970	0.00781677479871805	0.237667766294326
28245	1	28245	0.00781677479871805	0.240004506935404
28532	1	28532	0.00781677479871805	0.242443214440819
29252	1	29252	0.00781677479871805	0.248561226301095
29699	1	29699	0.00781677479871805	0.252359491997683
30495	1	30495	0.00781677479871805	0.259123293998766
31765	1	31765	0.00781677479871805	0.269914787141197
32983	1	32983	0.00781677479871805	0.280264423871497
33968	1	33968	0.00781677479871805	0.288634203985902
34010	1	34010	0.00781677479871805	0.288991088011084
34059	1	34059	0.00781677479871805	0.289407452707131
35984	1	35984	0.00781677479871805	0.305764637194674
37654	1	37654	0.00781677479871805	0.319955025815036
38828	1	38828	0.00781677479871805	0.329930784042764
39172	1	39172	0.00781677479871805	0.332853834153784
39591	1	39591	0.00781677479871805	0.336414177166917
44840	1	44840	0.00781677479871805	0.381016183076067
49242	1	49242	0.00781677479871805	0.418421027810698
51209	1	51209	0.00781677479871805	0.435135096323423
52136	1	52136	0.00781677479871805	0.443012036593528
54447	1	54447	0.00781677479871805	0.462649155217275
63257	1	63257	0.00781677479871805	0.537509828118705
77479	1	77479	0.00781677479871805	0.658357556836543
101433	1	101433	0.00781677479871805	0.861900412532441
142680	1	142680	0.00781677479871805	1.21238601697799
148548	1	148548	0.00781677479871805	1.26224781363924
205568	1	205568	0.00781677479871805	1.74676036401831
218286	1	218286	0.00781677479871805	1.85482824573912
220481	1	220481	0.00781677479871805	1.87347968467427
229826	1	229826	0.00781677479871805	1.95288638027743
253975	1	253975	0.00781677479871805	2.15808619751882
290465	1	290465	0.00781677479871805	2.46815043749308
409711	1	409711	0.00781677479871805	3.48141216289648
428319	1	428319	0.00781677479871805	3.63952878052984
1593539	1	1593539	0.00781677479871805	13.5406812525168
1890921	1	1890921	0.00781677479871805	16.067607090062
2782658	1	2782658	0.00781677479871805	23.6449092320714
