Count	Number_Unique	Total_Count_Unique	Percent_Number_Unique	Percent_Total_Count
1	1852	1852	36.6225034605497	0.0366747924171104
2	729	1458	14.4156614593633	0.028872487766818
3	316	948	6.24876408938106	0.018773057889536
4	224	896	4.42950365829543	0.0177433120981269
5	135	675	2.66956693691912	0.013366892484638
6	105	630	2.07632983982598	0.0124757663189954
7	88	616	1.74016215147321	0.0121985270674622
8	88	704	1.74016215147321	0.0139411737913854
9	76	684	1.50286731263595	0.0135451177177665
10	54	540	1.06782677476765	0.0106935139877104
11	46	506	0.909630215542812	0.0100202186625582
12	42	504	0.830531935930394	0.00998061305519636
13	49	637	0.968953925252126	0.0126143859447621
14	46	644	0.909630215542812	0.0127530055705287
15	40	600	0.790982796124184	0.0118816822085671
16	34	544	0.672335376705557	0.0107727252024342
17	28	476	0.553687957286929	0.00942613455212989
18	22	396	0.435040537868301	0.00784191025765428
19	18	342	0.355942258255883	0.00677255885888324
20	22	440	0.435040537868301	0.00871323361961586
21	25	525	0.494364247577615	0.0103964719324962
22	22	484	0.435040537868301	0.00958455698157745
23	21	483	0.415265967965197	0.00956475417789651
24	15	360	0.296618548546569	0.00712900932514025
25	28	700	0.553687957286929	0.0138619625766616
26	17	442	0.336167688352778	0.00875283922697776
27	10	270	0.197745699031046	0.00534675699385519
28	19	532	0.375716828158988	0.0105350915582628
29	15	435	0.296618548546569	0.00861421960121114
30	9	270	0.177971129127941	0.00534675699385519
31	17	527	0.336167688352778	0.0104360775398581
32	15	480	0.296618548546569	0.00950534576685367
33	17	561	0.336167688352778	0.0111093728650102
34	15	510	0.296618548546569	0.010099429877282
35	12	420	0.237294838837255	0.00831717754599696
36	13	468	0.25706940874036	0.00926771212268233
37	8	296	0.158196559224837	0.00586162988955976
38	7	266	0.138421989321732	0.00526754577913141
39	9	351	0.177971129127941	0.00695078409201175
40	4	160	0.0790982796124184	0.00316844858895122
41	6	246	0.118647419418628	0.00487148970551251
42	7	294	0.138421989321732	0.00582202428219787
43	5	215	0.098872849515523	0.00425760279140321
44	9	396	0.177971129127941	0.00784191025765428
45	6	270	0.118647419418628	0.00534675699385519
46	7	322	0.138421989321732	0.00637650278526434
47	7	329	0.138421989321732	0.00651512241103095
48	7	336	0.138421989321732	0.00665374203679757
49	7	343	0.138421989321732	0.00679236166256419
50	4	200	0.0790982796124184	0.00396056073618903
51	6	306	0.118647419418628	0.00605965792636922
52	4	208	0.0790982796124184	0.00411898316563659
53	4	212	0.0790982796124184	0.00419819438036037
54	9	486	0.177971129127941	0.00962416258893934
55	6	330	0.118647419418628	0.0065349252147119
56	3	168	0.0593237097093138	0.00332687101839879
57	1	57	0.0197745699031046	0.00112875980981387
58	4	232	0.0790982796124184	0.00459425045397927
59	5	295	0.098872849515523	0.00584182708587882
60	9	540	0.177971129127941	0.0106935139877104
61	7	427	0.138421989321732	0.00845579717176358
62	4	248	0.0790982796124184	0.0049110953128744
63	4	252	0.0790982796124184	0.00499030652759818
64	8	512	0.158196559224837	0.0101390354846439
65	2	130	0.0395491398062092	0.00257436447852287
66	6	396	0.118647419418628	0.00784191025765428
67	4	268	0.0790982796124184	0.0053071513864933
68	3	204	0.0593237097093138	0.00403977195091281
69	6	414	0.118647419418628	0.00819836072391129
70	7	490	0.138421989321732	0.00970337380366312
71	4	284	0.0790982796124184	0.00562399624538842
72	8	576	0.158196559224837	0.0114064149202244
73	3	219	0.0593237097093138	0.00433681400612699
74	1	74	0.0197745699031046	0.00146540747238994
75	1	75	0.0197745699031046	0.00148521027607089
76	2	152	0.0395491398062092	0.00301002615950366
77	5	385	0.098872849515523	0.00762407941716388
78	4	312	0.0790982796124184	0.00617847474845489
79	5	395	0.098872849515523	0.00782210745397333
80	2	160	0.0395491398062092	0.00316844858895122
81	5	405	0.098872849515523	0.00802013549078279
82	5	410	0.098872849515523	0.00811914950918751
83	5	415	0.098872849515523	0.00821816352759224
84	3	252	0.0593237097093138	0.00499030652759818
85	4	340	0.0790982796124184	0.00673295325152135
86	6	516	0.118647419418628	0.0102182466993677
87	3	261	0.0593237097093138	0.00516853176072668
88	3	264	0.0593237097093138	0.00522794017176952
89	5	445	0.098872849515523	0.00881224763802059
90	2	180	0.0395491398062092	0.00356450466257013
91	4	364	0.0790982796124184	0.00720822053986403
92	8	736	0.158196559224837	0.0145748635091756
93	2	186	0.0395491398062092	0.0036833214846558
94	8	752	0.158196559224837	0.0148917083680708
95	7	665	0.138421989321732	0.0131688644478285
96	5	480	0.098872849515523	0.00950534576685367
97	6	582	0.118647419418628	0.0115252317423101
98	1	98	0.0197745699031046	0.00194067476073262
99	2	198	0.0395491398062092	0.00392095512882714
100	2	200	0.0395491398062092	0.00396056073618903
101	2	202	0.0395491398062092	0.00400016634355092
102	1	102	0.0197745699031046	0.00201988597545641
104	3	312	0.0593237097093138	0.00617847474845489
105	5	525	0.098872849515523	0.0103964719324962
106	1	106	0.0197745699031046	0.00209909719018019
107	2	214	0.0395491398062092	0.00423779998772226
108	1	108	0.0197745699031046	0.00213870279754208
109	2	218	0.0395491398062092	0.00431701120244604
110	3	330	0.0593237097093138	0.0065349252147119
111	1	111	0.0197745699031046	0.00219811120858491
112	2	224	0.0395491398062092	0.00443582802453171
113	4	452	0.0790982796124184	0.00895086726378721
114	2	228	0.0395491398062092	0.00451503923925549
115	2	230	0.0395491398062092	0.00455464484661738
116	4	464	0.0790982796124184	0.00918850090795855
117	2	234	0.0395491398062092	0.00463385606134116
118	1	118	0.0197745699031046	0.00233673083435153
119	3	357	0.0593237097093138	0.00706960091409742
120	1	120	0.0197745699031046	0.00237633644171342
121	4	484	0.0790982796124184	0.00958455698157745
122	1	122	0.0197745699031046	0.00241594204907531
123	3	369	0.0593237097093138	0.00730723455826876
124	3	372	0.0593237097093138	0.0073666429693116
125	3	375	0.0593237097093138	0.00742605138035443
126	2	252	0.0395491398062092	0.00499030652759818
127	3	381	0.0593237097093138	0.0075448682024401
129	2	258	0.0395491398062092	0.00510912334968385
130	2	260	0.0395491398062092	0.00514872895704574
131	2	262	0.0395491398062092	0.00518833456440763
133	6	798	0.118647419418628	0.0158026373373942
134	4	536	0.0790982796124184	0.0106143027729866
135	2	270	0.0395491398062092	0.00534675699385519
136	3	408	0.0593237097093138	0.00807954390182562
137	1	137	0.0197745699031046	0.00271298410428949
139	2	278	0.0395491398062092	0.00550517942330275
141	2	282	0.0395491398062092	0.00558439063802653
143	3	429	0.0593237097093138	0.00849540277912547
144	3	432	0.0593237097093138	0.0085548111901683
146	3	438	0.0593237097093138	0.00867362801225397
147	4	588	0.0790982796124184	0.0116440485643957
148	3	444	0.0593237097093138	0.00879244483433965
149	3	447	0.0593237097093138	0.00885185324538248
150	3	450	0.0593237097093138	0.00891126165642532
151	1	151	0.0197745699031046	0.00299022335582272
155	2	310	0.0395491398062092	0.006138869141093
156	2	312	0.0395491398062092	0.00617847474845489
158	2	316	0.0395491398062092	0.00625768596317867
159	1	159	0.0197745699031046	0.00314864578527028
160	1	160	0.0197745699031046	0.00316844858895122
161	1	161	0.0197745699031046	0.00318825139263217
162	1	162	0.0197745699031046	0.00320805419631311
163	1	163	0.0197745699031046	0.00322785699999406
164	1	164	0.0197745699031046	0.003247659803675
165	1	165	0.0197745699031046	0.00326746260735595
166	1	166	0.0197745699031046	0.00328726541103689
167	3	501	0.0593237097093138	0.00992120464415352
168	2	336	0.0395491398062092	0.00665374203679757
169	2	338	0.0395491398062092	0.00669334764415946
170	1	170	0.0197745699031046	0.00336647662576068
171	1	171	0.0197745699031046	0.00338627942944162
174	4	696	0.0790982796124184	0.0137827513619378
175	2	350	0.0395491398062092	0.0069309812883308
177	2	354	0.0395491398062092	0.00701019250305458
178	1	178	0.0197745699031046	0.00352489905520824
179	1	179	0.0197745699031046	0.00354470185888918
181	3	543	0.0593237097093138	0.0107529223987532
183	3	549	0.0593237097093138	0.0108717392208389
184	1	184	0.0197745699031046	0.00364371587729391
185	3	555	0.0593237097093138	0.0109905560429246
186	1	186	0.0197745699031046	0.0036833214846558
187	1	187	0.0197745699031046	0.00370312428833674
188	1	188	0.0197745699031046	0.00372292709201769
189	1	189	0.0197745699031046	0.00374272989569863
191	2	382	0.0395491398062092	0.00756467100612105
194	1	194	0.0197745699031046	0.00384174391410336
196	1	196	0.0197745699031046	0.00388134952146525
197	1	197	0.0197745699031046	0.00390115232514619
200	1	200	0.0197745699031046	0.00396056073618903
201	1	201	0.0197745699031046	0.00398036353986997
202	1	202	0.0197745699031046	0.00400016634355092
205	3	615	0.0593237097093138	0.0121787242637813
206	1	206	0.0197745699031046	0.0040793775582747
207	1	207	0.0197745699031046	0.00409918036195565
208	1	208	0.0197745699031046	0.00411898316563659
209	2	418	0.0395491398062092	0.00827757193863507
210	2	420	0.0395491398062092	0.00831717754599696
211	1	211	0.0197745699031046	0.00417839157667943
213	1	213	0.0197745699031046	0.00421799718404132
215	1	215	0.0197745699031046	0.00425760279140321
217	1	217	0.0197745699031046	0.0042972083987651
218	2	436	0.0395491398062092	0.00863402240489209
219	1	219	0.0197745699031046	0.00433681400612699
222	2	444	0.0395491398062092	0.00879244483433965
223	2	446	0.0395491398062092	0.00883205044170154
224	1	224	0.0197745699031046	0.00443582802453171
225	1	225	0.0197745699031046	0.00445563082821266
230	1	230	0.0197745699031046	0.00455464484661738
231	1	231	0.0197745699031046	0.00457444765029833
233	2	466	0.0395491398062092	0.00922810651532044
234	1	234	0.0197745699031046	0.00463385606134116
235	2	470	0.0395491398062092	0.00930731773004422
237	1	237	0.0197745699031046	0.004693264472384
238	1	238	0.0197745699031046	0.00471306727606495
239	1	239	0.0197745699031046	0.00473287007974589
240	3	720	0.0593237097093138	0.0142580186502805
243	1	243	0.0197745699031046	0.00481208129446967
244	3	732	0.0593237097093138	0.0144956522944518
245	1	245	0.0197745699031046	0.00485168690183156
252	1	252	0.0197745699031046	0.00499030652759818
254	2	508	0.0395491398062092	0.0100598242699201
258	1	258	0.0197745699031046	0.00510912334968385
261	3	783	0.0593237097093138	0.0155055952821801
262	2	524	0.0395491398062092	0.0103766691288153
269	1	269	0.0197745699031046	0.00532695419017424
271	1	271	0.0197745699031046	0.00536655979753614
273	2	546	0.0395491398062092	0.0108123308097961
274	1	274	0.0197745699031046	0.00542596820857897
276	1	276	0.0197745699031046	0.00546557381594086
279	1	279	0.0197745699031046	0.0055249822269837
280	1	280	0.0197745699031046	0.00554478503066464
281	1	281	0.0197745699031046	0.00556458783434559
282	1	282	0.0197745699031046	0.00558439063802653
283	1	283	0.0197745699031046	0.00560419344170748
284	2	568	0.0395491398062092	0.0112479924907768
286	1	286	0.0197745699031046	0.00566360185275031
289	1	289	0.0197745699031046	0.00572301026379315
291	1	291	0.0197745699031046	0.00576261587115504
294	2	588	0.0395491398062092	0.0116440485643957
296	1	296	0.0197745699031046	0.00586162988955976
297	1	297	0.0197745699031046	0.00588143269324071
299	1	299	0.0197745699031046	0.0059210383006026
303	1	303	0.0197745699031046	0.00600024951532638
304	1	304	0.0197745699031046	0.00602005231900733
305	1	305	0.0197745699031046	0.00603985512268827
307	1	307	0.0197745699031046	0.00607946073005016
318	1	318	0.0197745699031046	0.00629729157054056
322	2	644	0.0395491398062092	0.0127530055705287
323	1	323	0.0197745699031046	0.00639630558894528
324	1	324	0.0197745699031046	0.00641610839262623
325	1	325	0.0197745699031046	0.00643591119630717
329	1	329	0.0197745699031046	0.00651512241103095
337	1	337	0.0197745699031046	0.00667354484047851
343	1	343	0.0197745699031046	0.00679236166256419
345	1	345	0.0197745699031046	0.00683196726992608
353	1	353	0.0197745699031046	0.00699038969937364
355	1	355	0.0197745699031046	0.00702999530673553
356	1	356	0.0197745699031046	0.00704979811041647
360	1	360	0.0197745699031046	0.00712900932514025
362	1	362	0.0197745699031046	0.00716861493250214
366	1	366	0.0197745699031046	0.00724782614722592
367	1	367	0.0197745699031046	0.00726762895090687
370	1	370	0.0197745699031046	0.00732703736194971
372	1	372	0.0197745699031046	0.0073666429693116
376	1	376	0.0197745699031046	0.00744585418403538
379	1	379	0.0197745699031046	0.00750526259507821
382	1	382	0.0197745699031046	0.00756467100612105
384	1	384	0.0197745699031046	0.00760427661348294
385	1	385	0.0197745699031046	0.00762407941716388
387	1	387	0.0197745699031046	0.00766368502452577
391	2	782	0.0395491398062092	0.0154857924784991
393	1	393	0.0197745699031046	0.00778250184661144
394	1	394	0.0197745699031046	0.00780230465029239
396	1	396	0.0197745699031046	0.00784191025765428
399	1	399	0.0197745699031046	0.00790131866869711
406	1	406	0.0197745699031046	0.00803993829446373
414	2	828	0.0395491398062092	0.0163967214478226
416	1	416	0.0197745699031046	0.00823796633127318
423	1	423	0.0197745699031046	0.0083765859570398
424	2	848	0.0395491398062092	0.0167927775214415
436	1	436	0.0197745699031046	0.00863402240489209
440	2	880	0.0395491398062092	0.0174264672392317
443	1	443	0.0197745699031046	0.0087726420306587
452	1	452	0.0197745699031046	0.00895086726378721
455	3	1365	0.0593237097093138	0.0270308270244901
458	1	458	0.0197745699031046	0.00906968408587288
467	1	467	0.0197745699031046	0.00924790931900138
482	1	482	0.0197745699031046	0.00954495137421556
495	2	990	0.0395491398062092	0.0196047756441357
508	1	508	0.0197745699031046	0.0100598242699201
513	2	1026	0.0395491398062092	0.0203176765766497
518	1	518	0.0197745699031046	0.0102578523067296
528	1	528	0.0197745699031046	0.010455880343539
530	1	530	0.0197745699031046	0.0104954859509009
536	2	1072	0.0395491398062092	0.0212286055459732
546	1	546	0.0197745699031046	0.0108123308097961
548	1	548	0.0197745699031046	0.0108519364171579
550	1	550	0.0197745699031046	0.0108915420245198
551	1	551	0.0197745699031046	0.0109113448282008
557	1	557	0.0197745699031046	0.0110301616502864
560	1	560	0.0197745699031046	0.0110895700613293
571	1	571	0.0197745699031046	0.0113074009018197
574	1	574	0.0197745699031046	0.0113668093128625
581	1	581	0.0197745699031046	0.0115054289386291
593	2	1186	0.0395491398062092	0.0234861251656009
597	1	597	0.0197745699031046	0.0118222737975243
612	1	612	0.0197745699031046	0.0121193158527384
617	1	617	0.0197745699031046	0.0122183298711432
623	1	623	0.0197745699031046	0.0123371466932288
627	1	627	0.0197745699031046	0.0124163579079526
647	1	647	0.0197745699031046	0.0128124139815715
650	1	650	0.0197745699031046	0.0128718223926143
651	1	651	0.0197745699031046	0.0128916251962953
661	2	1322	0.0395491398062092	0.0261793064662095
662	1	662	0.0197745699031046	0.0131094560367857
664	1	664	0.0197745699031046	0.0131490616441476
678	1	678	0.0197745699031046	0.0134263008956808
700	1	700	0.0197745699031046	0.0138619625766616
702	1	702	0.0197745699031046	0.0139015681840235
709	1	709	0.0197745699031046	0.0140401878097901
712	1	712	0.0197745699031046	0.0140995962208329
715	1	715	0.0197745699031046	0.0141590046318758
720	1	720	0.0197745699031046	0.0142580186502805
727	1	727	0.0197745699031046	0.0143966382760471
728	1	728	0.0197745699031046	0.0144164410797281
735	1	735	0.0197745699031046	0.0145550607054947
742	1	742	0.0197745699031046	0.0146936803312613
743	1	743	0.0197745699031046	0.0147134831349422
755	1	755	0.0197745699031046	0.0149511167791136
758	2	1516	0.0395491398062092	0.0300210503803128
778	1	778	0.0197745699031046	0.0154065812637753
793	1	793	0.0197745699031046	0.0157036233189895
800	1	800	0.0197745699031046	0.0158422429447561
806	1	806	0.0197745699031046	0.0159610597668418
819	1	819	0.0197745699031046	0.0162184962146941
825	1	825	0.0197745699031046	0.0163373130367797
863	1	863	0.0197745699031046	0.0170898195766557
871	1	871	0.0197745699031046	0.0172482420061032
877	1	877	0.0197745699031046	0.0173670588281889
879	1	879	0.0197745699031046	0.0174066644355508
885	1	885	0.0197745699031046	0.0175254812576365
900	1	900	0.0197745699031046	0.0178225233128506
901	1	901	0.0197745699031046	0.0178423261165316
910	1	910	0.0197745699031046	0.0180205513496601
936	1	936	0.0197745699031046	0.0185354242453647
939	1	939	0.0197745699031046	0.0185948326564075
944	1	944	0.0197745699031046	0.0186938466748122
972	1	972	0.0197745699031046	0.0192483251778787
1029	1	1029	0.0197745699031046	0.0203770849876926
1032	1	1032	0.0197745699031046	0.0204364933987354
1048	1	1048	0.0197745699031046	0.0207533382576305
1054	1	1054	0.0197745699031046	0.0208721550797162
1076	1	1076	0.0197745699031046	0.021307816760697
1078	1	1078	0.0197745699031046	0.0213474223680589
1093	1	1093	0.0197745699031046	0.021644464423273
1128	1	1128	0.0197745699031046	0.0223375625521061
1137	1	1137	0.0197745699031046	0.0225157877852346
1148	1	1148	0.0197745699031046	0.022733618625725
1154	1	1154	0.0197745699031046	0.0228524354478107
1222	1	1222	0.0197745699031046	0.024199026098115
1232	1	1232	0.0197745699031046	0.0243970541349244
1241	1	1241	0.0197745699031046	0.0245752793680529
1288	1	1288	0.0197745699031046	0.0255060111410574
1331	1	1331	0.0197745699031046	0.026357531699338
1338	2	2676	0.0395491398062092	0.0529923026502092
1340	1	1340	0.0197745699031046	0.0265357569324665
1345	1	1345	0.0197745699031046	0.0266347709508712
1346	1	1346	0.0197745699031046	0.0266545737545522
1421	1	1421	0.0197745699031046	0.0281397840306231
1467	1	1467	0.0197745699031046	0.0290507129999465
1477	1	1477	0.0197745699031046	0.029248741036756
1519	1	1519	0.0197745699031046	0.0300804587913557
1543	1	1543	0.0197745699031046	0.0305557260796984
1594	1	1594	0.0197745699031046	0.0315656690674266
1656	1	1656	0.0197745699031046	0.0327934428956452
1657	1	1657	0.0197745699031046	0.0328132456993261
1829	1	1829	0.0197745699031046	0.0362193279324487
1987	1	1987	0.0197745699031046	0.039348170914038
1999	1	1999	0.0197745699031046	0.0395858045582093
2019	1	2019	0.0197745699031046	0.0399818606318283
2039	1	2039	0.0197745699031046	0.0403779167054472
2166	1	2166	0.0197745699031046	0.0428928727729272
2499	1	2499	0.0197745699031046	0.0494872063986819
2627	1	2627	0.0197745699031046	0.0520219652698429
2791	1	2791	0.0197745699031046	0.0552696250735179
2834	1	2834	0.0197745699031046	0.0561211456317985
2874	1	2874	0.0197745699031046	0.0569132577790364
2974	1	2974	0.0197745699031046	0.0588935381471309
3115	1	3115	0.0197745699031046	0.0616857334661441
3211	1	3211	0.0197745699031046	0.0635868026195149
3244	1	3244	0.0197745699031046	0.0642402951409861
3348	1	3348	0.0197745699031046	0.0662997867238044
3355	1	3355	0.0197745699031046	0.066438406349571
3437	1	3437	0.0197745699031046	0.0680622362514085
3455	1	3455	0.0197745699031046	0.0684186867176655
3628	1	3628	0.0197745699031046	0.071844571754469
3727	1	3727	0.0197745699031046	0.0738050493188826
4419	1	4419	0.0197745699031046	0.0875085894660966
5039	1	5039	0.0197745699031046	0.0997863277482826
5679	1	5679	0.0197745699031046	0.112460122104088
5768	1	5768	0.0197745699031046	0.114222571631692
5776	1	5776	0.0197745699031046	0.114380994061139
5998	1	5998	0.0197745699031046	0.118777216478309
6497	1	6497	0.0197745699031046	0.128658815515101
7062	1	7062	0.0197745699031046	0.139847399594835
7213	1	7213	0.0197745699031046	0.142837622950657
7316	1	7316	0.0197745699031046	0.144877311729795
7505	1	7505	0.0197745699031046	0.148620041625493
7761	1	7761	0.0197745699031046	0.153689559367815
8655	1	8655	0.0197745699031046	0.17139326585858
9898	1	9898	0.0197745699031046	0.196008150833995
10494	1	10494	0.0197745699031046	0.207810621827838
10609	1	10609	0.0197745699031046	0.210087944251147
13539	1	13539	0.0197745699031046	0.268110159036316
14879	1	14879	0.0197745699031046	0.294645915968783
15085	1	15085	0.0197745699031046	0.298725293527058
15207	1	15207	0.0197745699031046	0.301141235576133
16722	1	16722	0.0197745699031046	0.331142483152765
20741	1	20741	0.0197745699031046	0.410729951146483
22284	1	22284	0.0197745699031046	0.441285677226182
24270	1	24270	0.0197745699031046	0.480614045336539
25464	1	25464	0.0197745699031046	0.504258592931587
26006	1	26006	0.0197745699031046	0.51499171252666
29183	1	29183	0.0197745699031046	0.577905219821022
35645	1	35645	0.0197745699031046	0.70587093720729
37511	1	37511	0.0197745699031046	0.742822968875933
39396	1	39396	0.0197745699031046	0.780151253814515
42329	1	42329	0.0197745699031046	0.838232877010727
44369	1	44369	0.0197745699031046	0.878630596519855
51227	1	51227	0.0197745699031046	1.01443822416378
62547	1	62547	0.0197745699031046	1.23860596183208
69363	1	69363	0.0197745699031046	1.3735818717214
89475	1	89475	0.0197745699031046	1.77185585935257
92675	1	92675	0.0197745699031046	1.83522483113159
102744	1	102744	0.0197745699031046	2.03461926139503
105564	1	105564	0.0197745699031046	2.09046316777529
118208	1	118208	0.0197745699031046	2.34084981751716
126494	1	126494	0.0197745699031046	2.50493584881748
169624	1	169624	0.0197745699031046	3.35903077157664
190548	1	190548	0.0197745699031046	3.77338463579674
235469	1	235469	0.0197745699031046	4.66294637994847
251255	1	251255	0.0197745699031046	4.97555343885587
258182	1	258182	0.0197745699031046	5.11272745995378
263803	1	263803	0.0197745699031046	5.22403901944437
290523	1	290523	0.0197745699031046	5.75316993379923
311913	1	311913	0.0197745699031046	6.17675190453464
392202	1	392202	0.0197745699031046	7.76669920927405
434833	1	434833	0.0197745699031046	8.61091253299642
649185	1	649185	0.0197745699031046	12.8556831076144
