Count	Number_Unique	Total_Count_Unique	Percent_Number_Unique	Percent_Total_Count
1	23241	23241	41.3548283777291	0.223349900621259
2	7948	15896	14.1426004021424	0.152763221043653
3	4244	12732	7.5517357960106	0.122356651379453
4	2706	10824	4.81503229594833	0.104020451973861
5	1964	9820	3.49472410541113	0.0943718439008976
6	1495	8970	2.66018968309045	0.0862032016080501
7	1248	8736	2.2206800832755	0.0839544224356662
8	887	7096	1.57831989893059	0.0681937478941721
9	856	7704	1.52315877506717	0.0740367296754089
10	710	7100	1.26336767558142	0.0682321885637855
11	601	6611	1.06941404651328	0.0635328167035473
12	513	6156	0.912827630384882	0.059160190535023
13	473	6149	0.841651986690155	0.0590929193631996
14	408	5712	0.725991565686222	0.0548932762079356
15	411	6165	0.731329738963327	0.0592466820416532
16	340	5440	0.604992971405185	0.0522793106742244
17	324	5508	0.576522713927294	0.0529328020576522
18	289	5202	0.514244025694407	0.049992090832227
19	282	5358	0.50178828804783	0.0514912769471497
20	251	5020	0.446627164184416	0.0482430403648173
21	223	4683	0.396804213598107	0.0450044139498884
22	207	4554	0.368333956120216	0.0437647023548562
23	218	5014	0.387907258136266	0.0481853793603972
24	218	5232	0.387907258136266	0.0502803958543275
25	163	4075	0.290040748056015	0.0391614321686515
26	146	3796	0.259791099485756	0.0364801954631169
27	155	4185	0.27580561931707	0.04021855058302
28	126	3528	0.224203277638392	0.033904670599019
29	135	3915	0.240217797469706	0.0376238053841155
30	121	3630	0.215306322176551	0.0348849076741607
31	106	3286	0.188615455791028	0.0315790100874083
32	109	3488	0.193953629068133	0.033520263902885
33	98	3234	0.174380327052083	0.0310792813824341
34	109	3706	0.193953629068133	0.0356152803968153
35	106	3710	0.188615455791028	0.0356537210664287
36	78	2808	0.138792505204719	0.026985350068607
37	82	3034	0.145910069574192	0.0291572479017641
38	72	2736	0.12811615865051	0.0262934180155658
39	85	3315	0.151248242851296	0.0318577049421055
40	84	3360	0.149468851758928	0.0322901624752562
41	64	2624	0.113881029911564	0.0252170792663906
42	70	2940	0.124557376465773	0.0282538921658492
43	79	3397	0.140571896297087	0.0326457386691802
44	60	2640	0.106763465542092	0.0253708419448442
45	51	2295	0.0907489457107778	0.0220553341906884
46	47	2162	0.083631381341305	0.0207771819260428
47	44	2068	0.0782932080642004	0.0198738261901279
48	53	2544	0.0943077278955142	0.0244482658741226
49	63	3087	0.112101638819196	0.0296665867741417
50	54	2700	0.0960871189878823	0.0259474519890452
51	45	2295	0.0800725991565686	0.0220553341906884
52	52	2704	0.092528336803146	0.0259858926586586
53	60	3180	0.106763465542092	0.0305603323426532
54	43	2322	0.0765138169718322	0.0223148087105789
55	43	2365	0.0765138169718322	0.0227280459089229
56	46	2576	0.0818519902489368	0.0247557912310298
57	39	2223	0.0693962526023595	0.0213634021376472
58	40	2320	0.0711756436947277	0.0222955883757722
59	44	2596	0.0782932080642004	0.0249479945790968
60	38	2280	0.0676168615099913	0.0219111816796382
61	32	1952	0.0569405149557821	0.0187590467713393
62	29	1798	0.0516023416786776	0.0172790809912234
63	35	2205	0.0622786882328867	0.0211904191243869
64	35	2240	0.0622786882328867	0.0215267749835041
65	26	1690	0.046264168401573	0.0162411829116616
66	33	2178	0.0587199060481503	0.0209309446044964
67	29	1943	0.0516023416786776	0.0186725552647092
68	37	2516	0.0658374704176231	0.0241791811868288
69	34	2346	0.0604992971405185	0.0225454527282593
70	23	1610	0.0409259951244684	0.0154723695193936
71	20	1420	0.0355878218473638	0.0136464377127571
72	31	2232	0.0551611238634139	0.0214498936442773
73	27	1971	0.0480435594939412	0.018941639952003
74	29	2146	0.0516023416786776	0.0206234192475892
75	23	1725	0.0409259951244684	0.0165775387707789
76	26	1976	0.046264168401573	0.0189896907890197
77	20	1540	0.0355878218473638	0.0147996578011591
78	24	1872	0.0427053862168366	0.0179902333790713
79	22	1738	0.0391466040321002	0.0167024709470224
80	25	2000	0.0444847773092048	0.0192203348067001
81	17	1377	0.0302496485702593	0.013233200514413
82	19	1558	0.0338084307549956	0.0149726408144194
83	23	1909	0.0409259951244684	0.0183458095729953
84	10	840	0.0177939109236819	0.00807254061881406
85	17	1445	0.0302496485702593	0.0138866918978408
86	22	1892	0.0391466040321002	0.0181824367271383
87	16	1392	0.0284702574778911	0.0133773530254633
88	19	1672	0.0338084307549956	0.0160681998984013
89	19	1691	0.0338084307549956	0.016250793079065
90	20	1800	0.0355878218473638	0.0172983013260301
91	12	1092	0.0213526931084183	0.0104943028044583
92	18	1656	0.0320290396626274	0.0159144372199477
93	11	1023	0.0195733020160501	0.00983120125362712
94	13	1222	0.0231320842007865	0.0117436245668938
95	11	1045	0.0195733020160501	0.0100426249365008
96	16	1536	0.0284702574778911	0.0147612171315457
97	18	1746	0.0320290396626274	0.0167793522862492
98	15	1470	0.0266908663855229	0.0141269460829246
99	17	1683	0.0302496485702593	0.0161739117398382
100	21	2100	0.037367212939732	0.0201813515470351
101	14	1414	0.0249114752931547	0.013588776708337
102	22	2244	0.0391466040321002	0.0215652156531175
103	16	1648	0.0284702574778911	0.0158375558807209
104	18	1872	0.0320290396626274	0.0179902333790713
105	16	1680	0.0284702574778911	0.0161450812376281
106	8	848	0.0142351287389455	0.00814942195804086
107	11	1177	0.0195733020160501	0.011311167033743
108	19	2052	0.0338084307549956	0.0197200635116743
109	9	981	0.0160145198313137	0.00942757422268642
110	13	1430	0.0231320842007865	0.0137425393867906
111	8	888	0.0142351287389455	0.00853382865417486
112	16	1792	0.0284702574778911	0.0172214199868033
113	12	1356	0.0213526931084183	0.0130313869989427
114	10	1140	0.0177939109236819	0.0109555908398191
115	8	920	0.0142351287389455	0.00884135401108206
116	17	1972	0.0302496485702593	0.0189512501194063
117	14	1638	0.0249114752931547	0.0157414542066874
118	7	826	0.0124557376465773	0.00793799827516715
119	11	1309	0.0195733020160501	0.0125797091309852
120	9	1080	0.0160145198313137	0.0103789807956181
121	8	968	0.0142351287389455	0.00930264204644286
122	11	1342	0.0195733020160501	0.0128968446552958
123	12	1476	0.0213526931084183	0.0141846070873447
124	14	1736	0.0249114752931547	0.0166832506122157
125	9	1125	0.0160145198313137	0.0108114383287688
126	3	378	0.00533817327710457	0.00363264327846632
127	10	1270	0.0177939109236819	0.0122049126022546
128	11	1408	0.0195733020160501	0.0135311157039169
129	12	1548	0.0213526931084183	0.0148765391403859
130	9	1170	0.0160145198313137	0.0112438958619196
131	16	2096	0.0284702574778911	0.0201429108774217
132	9	1188	0.0160145198313137	0.0114168788751799
133	11	1463	0.0195733020160501	0.0140596749111011
134	6	804	0.0106763465542091	0.00772657459229345
135	8	1080	0.0142351287389455	0.0103789807956181
136	7	952	0.0124557376465773	0.00914887936798926
137	8	1096	0.0142351287389455	0.0105327434740717
138	8	1104	0.0142351287389455	0.0106096248132985
139	13	1807	0.0231320842007865	0.0173655724978536
140	4	560	0.00711756436947277	0.00538169374587604
141	7	987	0.0124557376465773	0.00948523522710652
142	9	1278	0.0160145198313137	0.0122817939414814
143	4	572	0.00711756436947277	0.00549701575471624
144	9	1296	0.0160145198313137	0.0124547769547417
145	9	1305	0.0160145198313137	0.0125412684613718
146	8	1168	0.0142351287389455	0.0112246755271129
147	5	735	0.00889695546184096	0.0070634730414623
148	9	1332	0.0160145198313137	0.0128007429812623
149	8	1192	0.0142351287389455	0.0114553195447933
150	11	1650	0.0195733020160501	0.0158567762155276
151	5	755	0.00889695546184096	0.0072556763895293
152	6	912	0.0106763465542091	0.00876447267185526
153	6	918	0.0106763465542091	0.00882213367627536
154	3	462	0.00533817327710457	0.00443989734034773
155	6	930	0.0106763465542091	0.00893745568511556
156	5	780	0.00889695546184096	0.00749593057461305
157	7	1099	0.0124557376465773	0.0105615739762817
158	5	790	0.00889695546184096	0.00759203224864655
159	10	1590	0.0177939109236819	0.0152801661713266
160	4	640	0.00711756436947277	0.00615050713814404
161	7	1127	0.0124557376465773	0.0108306586635755
162	8	1296	0.0142351287389455	0.0124547769547417
163	7	1141	0.0124557376465773	0.0109652010072224
164	9	1476	0.0160145198313137	0.0141846070873447
165	6	990	0.0106763465542091	0.00951406572931657
166	5	830	0.00889695546184096	0.00797643894478055
167	6	1002	0.0106763465542091	0.00962938773815677
168	6	1008	0.0106763465542091	0.00968704874257687
169	5	845	0.00889695546184096	0.00812059145583081
170	8	1360	0.0142351287389455	0.0130698276685561
171	2	342	0.00355878218473638	0.00328667725194572
172	6	1032	0.0106763465542091	0.00991769276025727
173	4	692	0.00711756436947277	0.00665023584311825
174	4	696	0.00711756436947277	0.00668867651273165
175	10	1750	0.0177939109236819	0.0168177929558626
176	11	1936	0.0195733020160501	0.0186052840928857
177	9	1593	0.0160145198313137	0.0153089966735367
178	5	890	0.00889695546184096	0.00855304898898156
179	4	716	0.00711756436947277	0.00688087986079865
180	5	900	0.00889695546184096	0.00864915066301506
181	3	543	0.00533817327710457	0.00521832090001909
182	1	182	0.00177939109236819	0.00174905046740971
183	3	549	0.00533817327710457	0.00527598190443919
184	5	920	0.00889695546184096	0.00884135401108206
185	9	1665	0.0160145198313137	0.0160009287265779
186	6	1116	0.0106763465542091	0.0107249468221387
188	6	1128	0.0106763465542091	0.0108402688309789
189	5	945	0.00889695546184096	0.00908160819616581
190	2	380	0.00355878218473638	0.00365186361327303
191	5	955	0.00889695546184096	0.00917770987019931
192	6	1152	0.0106763465542091	0.0110709128486593
193	3	579	0.00533817327710457	0.00556428692653969
194	3	582	0.00533817327710457	0.00559311742874974
195	7	1365	0.0124557376465773	0.0131178785055728
196	4	784	0.00711756436947277	0.00753437124422645
197	9	1773	0.0160145198313137	0.0170388268061397
198	5	990	0.00889695546184096	0.00951406572931657
199	3	597	0.00533817327710457	0.00573726993979999
200	6	1200	0.0106763465542091	0.0115322008840201
201	2	402	0.00355878218473638	0.00386328729614673
202	4	808	0.00711756436947277	0.00776501526190685
203	4	812	0.00711756436947277	0.00780345593152025
205	9	1845	0.0160145198313137	0.0177307588591809
206	5	1030	0.00889695546184096	0.00989847242545057
207	7	1449	0.0124557376465773	0.0139251325674542
208	6	1248	0.0106763465542091	0.0119934889193809
209	2	418	0.00355878218473638	0.00401704997460033
210	3	630	0.00533817327710457	0.00605440546411054
212	1	212	0.00177939109236819	0.00203735548951021
213	6	1278	0.0106763465542091	0.0122817939414814
214	9	1926	0.0160145198313137	0.0185091824188522
215	4	860	0.00711756436947277	0.00826474396688106
216	3	648	0.00533817327710457	0.00622738847737084
217	3	651	0.00533817327710457	0.00625621897958089
218	4	872	0.00711756436947277	0.00838006597572126
219	2	438	0.00355878218473638	0.00420925332266733
220	4	880	0.00711756436947277	0.00845694731494806
221	3	663	0.00533817327710457	0.00637154098842109
222	5	1110	0.00889695546184096	0.0106672858177186
223	5	1115	0.00889695546184096	0.0107153366547353
224	7	1568	0.0124557376465773	0.0150687424884529
225	3	675	0.00533817327710457	0.00648686299726129
226	6	1356	0.0106763465542091	0.0130313869989427
227	4	908	0.00711756436947277	0.00872603200224186
228	1	228	0.00177939109236819	0.00219111816796381
230	2	460	0.00355878218473638	0.00442067700554103
231	4	924	0.00711756436947277	0.00887979468069546
232	6	1392	0.0106763465542091	0.0133773530254633
233	4	932	0.00711756436947277	0.00895667601992226
234	3	702	0.00533817327710457	0.00674633751715175
235	5	1175	0.00889695546184096	0.0112919466989363
236	2	472	0.00355878218473638	0.00453599901438123
237	1	237	0.00177939109236819	0.00227760967459397
238	1	238	0.00177939109236819	0.00228721984199732
239	4	956	0.00711756436947277	0.00918732003760266
240	3	720	0.00533817327710457	0.00691932053041205
241	4	964	0.00711756436947277	0.00926420137682946
242	2	484	0.00355878218473638	0.00465132102322143
243	2	486	0.00355878218473638	0.00467054135802813
244	2	488	0.00355878218473638	0.00468976169283483
245	4	980	0.00711756436947277	0.00941796405528306
246	4	984	0.00711756436947277	0.00945640472489647
247	2	494	0.00355878218473638	0.00474742269725493
248	1	248	0.00177939109236819	0.00238332151603082
249	1	249	0.00177939109236819	0.00239293168343417
250	5	1250	0.00889695546184096	0.0120127092541876
251	3	753	0.00533817327710457	0.0072364560547226
252	1	252	0.00177939109236819	0.00242176218564422
253	6	1518	0.0106763465542091	0.0145882341182854
254	2	508	0.00355878218473638	0.00488196504090183
255	3	765	0.00533817327710457	0.0073517780635628
256	2	512	0.00355878218473638	0.00492040571051523
257	1	257	0.00177939109236819	0.00246981302266097
258	3	774	0.00533817327710457	0.00743826957019295
259	1	259	0.00177939109236819	0.00248903335746767
260	2	520	0.00355878218473638	0.00499728704974203
261	3	783	0.00533817327710457	0.0075247610768231
262	3	786	0.00533817327710457	0.00755359157903315
263	3	789	0.00533817327710457	0.0075824220812432
264	1	264	0.00177939109236819	0.00253708419448442
265	2	530	0.00355878218473638	0.00509338872377554
267	2	534	0.00355878218473638	0.00513182939338894
268	4	1072	0.00711756436947277	0.0103020994563913
269	2	538	0.00355878218473638	0.00517027006300234
270	1	270	0.00177939109236819	0.00259474519890452
271	5	1355	0.00889695546184096	0.0130217768315393
272	1	272	0.00177939109236819	0.00261396553371122
273	4	1092	0.00711756436947277	0.0104943028044583
274	5	1370	0.00889695546184096	0.0131659293425896
275	4	1100	0.00711756436947277	0.0105711841436851
276	1	276	0.00177939109236819	0.00265240620332462
277	3	831	0.00533817327710457	0.0079860491121839
278	4	1112	0.00711756436947277	0.0106865061525253
279	2	558	0.00355878218473638	0.00536247341106934
280	3	840	0.00533817327710457	0.00807254061881406
281	2	562	0.00355878218473638	0.00540091408068274
282	5	1410	0.00889695546184096	0.0135503360387236
283	4	1132	0.00711756436947277	0.0108787095005923
284	6	1704	0.0106763465542091	0.0163757252553085
285	3	855	0.00533817327710457	0.00821669312986431
286	4	1144	0.00711756436947277	0.0109940315094325
287	3	861	0.00533817327710457	0.00827435413428441
288	1	288	0.00177939109236819	0.00276772821216482
289	2	578	0.00355878218473638	0.00555467675913634
290	2	580	0.00355878218473638	0.00557389709394304
291	3	873	0.00533817327710457	0.00838967614312461
292	3	876	0.00533817327710457	0.00841850664533466
293	2	586	0.00355878218473638	0.00563155809836314
294	3	882	0.00533817327710457	0.00847616764975476
295	2	590	0.00355878218473638	0.00566999876797654
296	4	1184	0.00711756436947277	0.0113784382055665
297	1	297	0.00177939109236819	0.00285421971879497
298	3	894	0.00533817327710457	0.00859148965859496
299	1	299	0.00177939109236819	0.00287344005360167
300	1	300	0.00177939109236819	0.00288305022100502
301	1	301	0.00177939109236819	0.00289266038840837
302	3	906	0.00533817327710457	0.00870681166743516
303	1	303	0.00177939109236819	0.00291188072321507
304	2	608	0.00355878218473638	0.00584298178123684
306	3	918	0.00533817327710457	0.00882213367627536
307	2	614	0.00355878218473638	0.00590064278565694
309	1	309	0.00177939109236819	0.00296954172763517
310	1	310	0.00177939109236819	0.00297915189503852
311	2	622	0.00355878218473638	0.00597752412488374
312	5	1560	0.00889695546184096	0.0149918611492261
315	2	630	0.00355878218473638	0.00605440546411054
316	2	632	0.00355878218473638	0.00607362579891724
317	3	951	0.00533817327710457	0.00913926920058591
318	3	954	0.00533817327710457	0.00916809970279596
319	3	957	0.00533817327710457	0.00919693020500601
321	5	1605	0.00889695546184096	0.0154243186823769
322	2	644	0.00355878218473638	0.00618894780775744
323	2	646	0.00355878218473638	0.00620816814256414
324	2	648	0.00355878218473638	0.00622738847737084
325	2	650	0.00355878218473638	0.00624660881217754
326	3	978	0.00533817327710457	0.00939874372047636
327	1	327	0.00177939109236819	0.00314252474089547
328	1	328	0.00177939109236819	0.00315213490829882
329	1	329	0.00177939109236819	0.00316174507570217
330	3	990	0.00533817327710457	0.00951406572931657
331	6	1986	0.0106763465542091	0.0190857924630532
332	1	332	0.00177939109236819	0.00319057557791222
333	2	666	0.00355878218473638	0.00640037149063114
334	3	1002	0.00533817327710457	0.00962938773815677
337	3	1011	0.00533817327710457	0.00971587924478692
338	1	338	0.00177939109236819	0.00324823658233232
339	1	339	0.00177939109236819	0.00325784674973567
340	2	680	0.00355878218473638	0.00653491383427804
341	2	682	0.00355878218473638	0.00655413416908475
342	3	1026	0.00533817327710457	0.00986003175583717
343	2	686	0.00355878218473638	0.00659257483869815
345	2	690	0.00355878218473638	0.00663101550831155
347	1	347	0.00177939109236819	0.00333472808896247
348	4	1392	0.00711756436947277	0.0133773530254633
349	1	349	0.00177939109236819	0.00335394842376917
350	2	700	0.00355878218473638	0.00672711718234505
351	2	702	0.00355878218473638	0.00674633751715175
352	2	704	0.00355878218473638	0.00676555785195845
353	2	706	0.00355878218473638	0.00678477818676515
354	2	708	0.00355878218473638	0.00680399852157185
356	2	712	0.00355878218473638	0.00684243919118525
358	2	716	0.00355878218473638	0.00688087986079865
359	2	718	0.00355878218473638	0.00690010019560535
360	1	360	0.00177939109236819	0.00345966026520602
362	3	1086	0.00533817327710457	0.0104366418000382
363	1	363	0.00177939109236819	0.00348849076741607
364	1	364	0.00177939109236819	0.00349810093481942
365	2	730	0.00355878218473638	0.00701542220444555
366	2	732	0.00355878218473638	0.00703464253925225
368	2	736	0.00355878218473638	0.00707308320886565
370	1	370	0.00177939109236819	0.00355576193923952
371	1	371	0.00177939109236819	0.00356537210664287
374	1	374	0.00177939109236819	0.00359420260885292
375	1	375	0.00177939109236819	0.00360381277625627
376	1	376	0.00177939109236819	0.00361342294365962
377	1	377	0.00177939109236819	0.00362303311106297
379	1	379	0.00177939109236819	0.00364225344586968
380	1	380	0.00177939109236819	0.00365186361327303
381	2	762	0.00355878218473638	0.00732294756135275
382	1	382	0.00177939109236819	0.00367108394807973
383	4	1532	0.00711756436947277	0.0147227764619323
384	1	384	0.00177939109236819	0.00369030428288643
385	2	770	0.00355878218473638	0.00739982890057955
386	2	772	0.00355878218473638	0.00741904923538625
387	2	774	0.00355878218473638	0.00743826957019295
388	1	388	0.00177939109236819	0.00372874495249983
389	2	778	0.00355878218473638	0.00747671023980635
390	2	780	0.00355878218473638	0.00749593057461305
391	2	782	0.00355878218473638	0.00751515090941975
392	3	1176	0.00533817327710457	0.0113015568663397
394	1	394	0.00177939109236819	0.00378640595691993
395	2	790	0.00355878218473638	0.00759203224864655
397	4	1588	0.00711756436947277	0.0152609458365199
398	1	398	0.00177939109236819	0.00382484662653333
399	3	1197	0.00533817327710457	0.01150337038181
401	1	401	0.00177939109236819	0.00385367712874338
402	2	804	0.00355878218473638	0.00772657459229345
403	2	806	0.00355878218473638	0.00774579492710015
404	4	1616	0.00711756436947277	0.0155300305238137
405	1	405	0.00177939109236819	0.00389211779835678
406	1	406	0.00177939109236819	0.00390172796576013
407	2	814	0.00355878218473638	0.00782267626632695
409	1	409	0.00177939109236819	0.00393055846797018
410	3	1230	0.00533817327710457	0.0118205059061206
411	1	411	0.00177939109236819	0.00394977880277688
413	1	413	0.00177939109236819	0.00396899913758358
415	1	415	0.00177939109236819	0.00398821947239028
417	2	834	0.00355878218473638	0.00801487961439395
418	1	418	0.00177939109236819	0.00401704997460033
419	1	419	0.00177939109236819	0.00402666014200368
421	1	421	0.00177939109236819	0.00404588047681038
423	1	423	0.00177939109236819	0.00406510081161708
424	2	848	0.00355878218473638	0.00814942195804086
425	2	850	0.00355878218473638	0.00816864229284756
426	4	1704	0.00711756436947277	0.0163757252553085
427	4	1708	0.00711756436947277	0.0164141659249219
428	1	428	0.00177939109236819	0.00411315164863383
429	3	1287	0.00533817327710457	0.0123682854481115
430	4	1720	0.00711756436947277	0.0165294879337621
431	1	431	0.00177939109236819	0.00414198215084388
432	1	432	0.00177939109236819	0.00415159231824723
433	1	433	0.00177939109236819	0.00416120248565058
434	2	868	0.00355878218473638	0.00834162530610786
435	2	870	0.00355878218473638	0.00836084564091456
436	3	1308	0.00533817327710457	0.0125700989635819
438	1	438	0.00177939109236819	0.00420925332266733
440	1	440	0.00177939109236819	0.00422847365747403
441	1	441	0.00177939109236819	0.00423808382487738
442	1	442	0.00177939109236819	0.00424769399228073
444	1	444	0.00177939109236819	0.00426691432708743
445	1	445	0.00177939109236819	0.00427652449449078
446	1	446	0.00177939109236819	0.00428613466189413
447	1	447	0.00177939109236819	0.00429574482929748
448	1	448	0.00177939109236819	0.00430535499670083
449	1	449	0.00177939109236819	0.00431496516410418
451	1	451	0.00177939109236819	0.00433418549891088
452	1	452	0.00177939109236819	0.00434379566631423
453	2	906	0.00355878218473638	0.00870681166743516
455	1	455	0.00177939109236819	0.00437262616852428
456	3	1368	0.00533817327710457	0.0131467090077829
458	3	1374	0.00533817327710457	0.013204370012203
459	5	2295	0.00889695546184096	0.0220553341906884
460	3	1380	0.00533817327710457	0.0132620310166231
462	3	1386	0.00533817327710457	0.0133196920210432
464	2	928	0.00355878218473638	0.00891823535030886
469	2	938	0.00355878218473638	0.00901433702434236
470	1	470	0.00177939109236819	0.00451677867957453
471	2	942	0.00355878218473638	0.00905277769395576
474	3	1422	0.00533817327710457	0.0136656580475638
475	1	475	0.00177939109236819	0.00456482951659128
477	1	477	0.00177939109236819	0.00458404985139798
479	2	958	0.00355878218473638	0.00920654037240936
480	3	1440	0.00533817327710457	0.0138386410608241
481	1	481	0.00177939109236819	0.00462249052101138
482	3	1446	0.00533817327710457	0.0138963020652442
486	3	1458	0.00533817327710457	0.0140116240740844
488	1	488	0.00177939109236819	0.00468976169283483
491	2	982	0.00355878218473638	0.00943718439008977
492	2	984	0.00355878218473638	0.00945640472489647
493	1	493	0.00177939109236819	0.00473781252985158
494	1	494	0.00177939109236819	0.00474742269725493
495	1	495	0.00177939109236819	0.00475703286465828
501	2	1002	0.00355878218473638	0.00962938773815677
502	2	1004	0.00355878218473638	0.00964860807296347
505	3	1515	0.00533817327710457	0.0145594036160753
506	2	1012	0.00355878218473638	0.00972548941219027
507	1	507	0.00177939109236819	0.00487235487349848
509	4	2036	0.00711756436947277	0.0195663008332207
510	1	510	0.00177939109236819	0.00490118537570853
511	1	511	0.00177939109236819	0.00491079554311188
513	2	1026	0.00355878218473638	0.00986003175583717
514	2	1028	0.00355878218473638	0.00987925209064387
515	1	515	0.00177939109236819	0.00494923621272528
517	1	517	0.00177939109236819	0.00496845654753198
518	1	518	0.00177939109236819	0.00497806671493533
520	2	1040	0.00355878218473638	0.00999457409948407
522	1	522	0.00177939109236819	0.00501650738454873
524	2	1048	0.00355878218473638	0.0100714554387109
525	1	525	0.00177939109236819	0.00504533788675878
526	2	1052	0.00355878218473638	0.0101098961083243
528	3	1584	0.00533817327710457	0.0152225051669065
529	2	1058	0.00355878218473638	0.0101675571127444
530	1	530	0.00177939109236819	0.00509338872377554
533	1	533	0.00177939109236819	0.00512221922598559
535	1	535	0.00177939109236819	0.00514143956079229
537	2	1074	0.00355878218473638	0.010321319791198
539	1	539	0.00177939109236819	0.00517988023040569
540	1	540	0.00177939109236819	0.00518949039780904
541	1	541	0.00177939109236819	0.00519910056521239
542	1	542	0.00177939109236819	0.00520871073261574
543	1	543	0.00177939109236819	0.00521832090001909
544	1	544	0.00177939109236819	0.00522793106742244
546	2	1092	0.00355878218473638	0.0104943028044583
548	2	1096	0.00355878218473638	0.0105327434740717
549	1	549	0.00177939109236819	0.00527598190443919
550	2	1100	0.00355878218473638	0.0105711841436851
554	2	1108	0.00355878218473638	0.0106480654829119
556	2	1112	0.00355878218473638	0.0106865061525253
559	1	559	0.00177939109236819	0.00537208357847269
560	1	560	0.00177939109236819	0.00538169374587604
561	1	561	0.00177939109236819	0.00539130391327939
563	1	563	0.00177939109236819	0.00541052424808609
565	1	565	0.00177939109236819	0.00542974458289279
566	2	1132	0.00355878218473638	0.0108787095005923
571	2	1142	0.00355878218473638	0.0109748111746258
573	1	573	0.00177939109236819	0.00550662592211959
574	1	574	0.00177939109236819	0.00551623608952294
576	2	1152	0.00355878218473638	0.0110709128486593
577	1	577	0.00177939109236819	0.00554506659173299
578	1	578	0.00177939109236819	0.00555467675913634
580	1	580	0.00177939109236819	0.00557389709394304
581	1	581	0.00177939109236819	0.00558350726134639
582	1	582	0.00177939109236819	0.00559311742874974
583	1	583	0.00177939109236819	0.00560272759615309
585	1	585	0.00177939109236819	0.00562194793095979
586	1	586	0.00177939109236819	0.00563155809836314
588	1	588	0.00177939109236819	0.00565077843316984
589	1	589	0.00177939109236819	0.00566038860057319
593	1	593	0.00177939109236819	0.00569882927018659
599	1	599	0.00177939109236819	0.00575649027460669
603	2	1206	0.00355878218473638	0.0115898618884402
604	1	604	0.00177939109236819	0.00580454111162344
607	3	1821	0.00533817327710457	0.0175001148415005
608	2	1216	0.00355878218473638	0.0116859635624737
609	1	609	0.00177939109236819	0.00585259194864019
611	1	611	0.00177939109236819	0.00587181228344689
612	1	612	0.00177939109236819	0.00588142245085024
615	1	615	0.00177939109236819	0.00591025295306029
616	1	616	0.00177939109236819	0.00591986312046364
618	1	618	0.00177939109236819	0.00593908345527034
620	1	620	0.00177939109236819	0.00595830379007704
621	1	621	0.00177939109236819	0.00596791395748039
622	1	622	0.00177939109236819	0.00597752412488374
624	1	624	0.00177939109236819	0.00599674445969044
625	1	625	0.00177939109236819	0.00600635462709379
627	2	1254	0.00355878218473638	0.012051149923801
628	1	628	0.00177939109236819	0.00603518512930384
629	1	629	0.00177939109236819	0.00604479529670719
630	2	1260	0.00355878218473638	0.0121088109282211
632	1	632	0.00177939109236819	0.00607362579891724
633	1	633	0.00177939109236819	0.00608323596632059
636	1	636	0.00177939109236819	0.00611206646853064
637	2	1274	0.00355878218473638	0.012243353271868
638	4	2552	0.00711756436947277	0.0245251472133494
643	1	643	0.00177939109236819	0.00617933764035409
644	1	644	0.00177939109236819	0.00618894780775744
645	3	1935	0.00533817327710457	0.0185956739254824
648	2	1296	0.00355878218473638	0.0124547769547417
654	1	654	0.00177939109236819	0.00628504948179094
659	1	659	0.00177939109236819	0.00633310031880769
661	1	661	0.00177939109236819	0.00635232065361439
663	1	663	0.00177939109236819	0.00637154098842109
669	2	1338	0.00355878218473638	0.0128584039856824
672	1	672	0.00177939109236819	0.00645803249505124
677	1	677	0.00177939109236819	0.00650608333206799
678	2	1356	0.00355878218473638	0.0130313869989427
679	1	679	0.00177939109236819	0.00652530366687469
680	1	680	0.00177939109236819	0.00653491383427804
682	1	682	0.00177939109236819	0.00655413416908475
683	3	2049	0.00533817327710457	0.0196912330094643
684	1	684	0.00177939109236819	0.00657335450389145
687	1	687	0.00177939109236819	0.0066021850061015
688	1	688	0.00177939109236819	0.00661179517350485
689	1	689	0.00177939109236819	0.0066214053409082
694	1	694	0.00177939109236819	0.00666945617792495
696	1	696	0.00177939109236819	0.00668867651273165
697	2	1394	0.00355878218473638	0.01339657336027
698	1	698	0.00177939109236819	0.00670789684753835
699	2	1398	0.00355878218473638	0.0134350140298834
700	1	700	0.00177939109236819	0.00672711718234505
701	1	701	0.00177939109236819	0.0067367273497484
702	2	1404	0.00355878218473638	0.0134926750343035
703	1	703	0.00177939109236819	0.0067559476845551
707	1	707	0.00177939109236819	0.0067943883541685
708	3	2124	0.00533817327710457	0.0204119955647155
709	1	709	0.00177939109236819	0.0068136086889752
710	2	1420	0.00355878218473638	0.0136464377127571
712	1	712	0.00177939109236819	0.00684243919118525
713	1	713	0.00177939109236819	0.0068520493585886
716	1	716	0.00177939109236819	0.00688087986079865
717	1	717	0.00177939109236819	0.006890490028202
718	1	718	0.00177939109236819	0.00690010019560535
719	1	719	0.00177939109236819	0.0069097103630087
723	1	723	0.00177939109236819	0.0069481510326221
725	1	725	0.00177939109236819	0.0069673713674288
726	1	726	0.00177939109236819	0.00697698153483215
728	1	728	0.00177939109236819	0.00699620186963885
731	1	731	0.00177939109236819	0.0070250323718489
733	1	733	0.00177939109236819	0.0070442527066556
734	1	734	0.00177939109236819	0.00705386287405895
737	1	737	0.00177939109236819	0.007082693376269
739	1	739	0.00177939109236819	0.0071019137110757
741	1	741	0.00177939109236819	0.0071211340458824
742	2	1484	0.00355878218473638	0.0142614884265715
744	2	1488	0.00355878218473638	0.0142999290961849
747	1	747	0.00177939109236819	0.0071787950503025
748	2	1496	0.00355878218473638	0.0143768104354117
750	1	750	0.00177939109236819	0.00720762555251255
752	1	752	0.00177939109236819	0.00722684588731925
755	1	755	0.00177939109236819	0.0072556763895293
759	1	759	0.00177939109236819	0.0072941170591427
760	1	760	0.00177939109236819	0.00730372722654605
768	3	2304	0.00533817327710457	0.0221418256973186
769	2	1538	0.00355878218473638	0.0147804374663524
778	1	778	0.00177939109236819	0.00747671023980635
779	1	779	0.00177939109236819	0.0074863204072097
781	1	781	0.00177939109236819	0.0075055407420164
783	2	1566	0.00355878218473638	0.0150495221536462
785	1	785	0.00177939109236819	0.0075439814116298
786	1	786	0.00177939109236819	0.00755359157903315
788	1	788	0.00177939109236819	0.00757281191383985
792	1	792	0.00177939109236819	0.00761125258345325
796	2	1592	0.00355878218473638	0.0152993865061333
798	2	1596	0.00355878218473638	0.0153378271757467
800	1	800	0.00177939109236819	0.00768813392268005
804	1	804	0.00177939109236819	0.00772657459229345
807	2	1614	0.00355878218473638	0.015510810189007
808	3	2424	0.00533817327710457	0.0232950457857206
814	1	814	0.00177939109236819	0.00782267626632695
816	1	816	0.00177939109236819	0.00784189660113365
818	2	1636	0.00355878218473638	0.0157222338718807
823	1	823	0.00177939109236819	0.0079091677729571
824	1	824	0.00177939109236819	0.00791877794036045
826	1	826	0.00177939109236819	0.00793799827516715
828	2	1656	0.00355878218473638	0.0159144372199477
829	1	829	0.00177939109236819	0.0079668287773772
831	1	831	0.00177939109236819	0.0079860491121839
836	1	836	0.00177939109236819	0.00803409994920066
837	1	837	0.00177939109236819	0.00804371011660401
839	1	839	0.00177939109236819	0.00806293045141071
849	1	849	0.00177939109236819	0.00815903212544421
855	2	1710	0.00355878218473638	0.0164333862597286
856	1	856	0.00177939109236819	0.00822630329726766
857	1	857	0.00177939109236819	0.00823591346467101
858	1	858	0.00177939109236819	0.00824552363207436
859	1	859	0.00177939109236819	0.00825513379947771
861	1	861	0.00177939109236819	0.00827435413428441
864	1	864	0.00177939109236819	0.00830318463649446
867	1	867	0.00177939109236819	0.00833201513870451
868	1	868	0.00177939109236819	0.00834162530610786
869	1	869	0.00177939109236819	0.00835123547351121
871	1	871	0.00177939109236819	0.00837045580831791
877	2	1754	0.00355878218473638	0.016856233625476
883	1	883	0.00177939109236819	0.00848577781715811
885	1	885	0.00177939109236819	0.00850499815196481
890	1	890	0.00177939109236819	0.00855304898898156
892	1	892	0.00177939109236819	0.00857226932378826
895	2	1790	0.00355878218473638	0.0172021996519966
899	1	899	0.00177939109236819	0.00863954049561171
900	1	900	0.00177939109236819	0.00864915066301506
901	1	901	0.00177939109236819	0.00865876083041841
903	1	903	0.00177939109236819	0.00867798116522511
906	1	906	0.00177939109236819	0.00870681166743516
909	1	909	0.00177939109236819	0.00873564216964521
911	1	911	0.00177939109236819	0.00875486250445191
915	1	915	0.00177939109236819	0.00879330317406531
917	2	1834	0.00355878218473638	0.017625047017744
923	1	923	0.00177939109236819	0.00887018451329211
928	1	928	0.00177939109236819	0.00891823535030886
930	2	1860	0.00355878218473638	0.0178749113702311
934	2	1868	0.00355878218473638	0.0179517927094579
941	2	1882	0.00355878218473638	0.0180863350531048
943	1	943	0.00177939109236819	0.00906238786135911
947	1	947	0.00177939109236819	0.00910082853097251
953	1	953	0.00177939109236819	0.00915848953539261
956	1	956	0.00177939109236819	0.00918732003760266
957	1	957	0.00177939109236819	0.00919693020500601
973	1	973	0.00177939109236819	0.00935069288345961
976	1	976	0.00177939109236819	0.00937952338566966
980	1	980	0.00177939109236819	0.00941796405528306
986	1	986	0.00177939109236819	0.00947562505970317
988	1	988	0.00177939109236819	0.00949484539450987
990	1	990	0.00177939109236819	0.00951406572931657
996	1	996	0.00177939109236819	0.00957172673373667
998	1	998	0.00177939109236819	0.00959094706854337
1001	1	1001	0.00177939109236819	0.00961977757075342
1007	1	1007	0.00177939109236819	0.00967743857517352
1015	1	1015	0.00177939109236819	0.00975431991440032
1017	1	1017	0.00177939109236819	0.00977354024920702
1020	3	3060	0.00533817327710457	0.0294071122542512
1021	1	1021	0.00177939109236819	0.00981198091882042
1024	1	1024	0.00177939109236819	0.00984081142103047
1026	1	1026	0.00177939109236819	0.00986003175583717
1028	3	3084	0.00533817327710457	0.0296377562719316
1032	1	1032	0.00177939109236819	0.00991769276025727
1033	1	1033	0.00177939109236819	0.00992730292766062
1037	1	1037	0.00177939109236819	0.00996574359727402
1038	2	2076	0.00355878218473638	0.0199507075293547
1039	1	1039	0.00177939109236819	0.00998496393208072
1040	1	1040	0.00177939109236819	0.00999457409948407
1043	1	1043	0.00177939109236819	0.0100234046016941
1044	1	1044	0.00177939109236819	0.0100330147690975
1047	1	1047	0.00177939109236819	0.0100618452713075
1048	1	1048	0.00177939109236819	0.0100714554387109
1049	1	1049	0.00177939109236819	0.0100810656061142
1056	1	1056	0.00177939109236819	0.0101483367779377
1057	1	1057	0.00177939109236819	0.010157946945341
1060	1	1060	0.00177939109236819	0.0101867774475511
1065	1	1065	0.00177939109236819	0.0102348282845678
1066	1	1066	0.00177939109236819	0.0102444384519712
1078	1	1078	0.00177939109236819	0.0103597604608114
1080	1	1080	0.00177939109236819	0.0103789807956181
1083	1	1083	0.00177939109236819	0.0104078112978281
1091	1	1091	0.00177939109236819	0.0104846926370549
1095	1	1095	0.00177939109236819	0.0105231333066683
1096	1	1096	0.00177939109236819	0.0105327434740717
1097	1	1097	0.00177939109236819	0.010542353641475
1099	1	1099	0.00177939109236819	0.0105615739762817
1100	2	2200	0.00355878218473638	0.0211423682873701
1106	2	2212	0.00355878218473638	0.0212576902962103
1108	1	1108	0.00177939109236819	0.0106480654829119
1110	1	1110	0.00177939109236819	0.0106672858177186
1115	1	1115	0.00177939109236819	0.0107153366547353
1116	1	1116	0.00177939109236819	0.0107249468221387
1120	1	1120	0.00177939109236819	0.0107633874917521
1121	1	1121	0.00177939109236819	0.0107729976591554
1122	1	1122	0.00177939109236819	0.0107826078265588
1124	1	1124	0.00177939109236819	0.0108018281613655
1136	1	1136	0.00177939109236819	0.0109171501702057
1141	3	3423	0.00533817327710457	0.0328956030216673
1144	1	1144	0.00177939109236819	0.0109940315094325
1148	1	1148	0.00177939109236819	0.0110324721790459
1155	1	1155	0.00177939109236819	0.0110997433508693
1156	2	2312	0.00355878218473638	0.0222187070365454
1163	2	2326	0.00355878218473638	0.0223532493801923
1167	1	1167	0.00177939109236819	0.0112150653597095
1169	1	1169	0.00177939109236819	0.0112342856945162
1171	1	1171	0.00177939109236819	0.0112535060293229
1178	1	1178	0.00177939109236819	0.0113207772011464
1182	1	1182	0.00177939109236819	0.0113592178707598
1188	1	1188	0.00177939109236819	0.0114168788751799
1192	1	1192	0.00177939109236819	0.0114553195447933
1199	1	1199	0.00177939109236819	0.0115225907166167
1207	1	1207	0.00177939109236819	0.0115994720558435
1217	2	2434	0.00355878218473638	0.0233911474597541
1232	1	1232	0.00177939109236819	0.0118397262409273
1233	1	1233	0.00177939109236819	0.0118493364083306
1236	1	1236	0.00177939109236819	0.0118781669105407
1246	1	1246	0.00177939109236819	0.0119742685845742
1247	1	1247	0.00177939109236819	0.0119838787519775
1254	1	1254	0.00177939109236819	0.012051149923801
1260	1	1260	0.00177939109236819	0.0121088109282211
1261	1	1261	0.00177939109236819	0.0121184210956244
1265	1	1265	0.00177939109236819	0.0121568617652378
1269	1	1269	0.00177939109236819	0.0121953024348512
1275	1	1275	0.00177939109236819	0.0122529634392713
1284	1	1284	0.00177939109236819	0.0123394549459015
1285	1	1285	0.00177939109236819	0.0123490651133048
1290	1	1290	0.00177939109236819	0.0123971159503216
1297	1	1297	0.00177939109236819	0.012464387122145
1300	1	1300	0.00177939109236819	0.0124932176243551
1304	1	1304	0.00177939109236819	0.0125316582939685
1306	1	1306	0.00177939109236819	0.0125508786287752
1309	1	1309	0.00177939109236819	0.0125797091309852
1311	2	2622	0.00355878218473638	0.0251978589315839
1314	1	1314	0.00177939109236819	0.012627759968002
1318	1	1318	0.00177939109236819	0.0126662006376154
1320	1	1320	0.00177939109236819	0.0126854209724221
1325	1	1325	0.00177939109236819	0.0127334718094388
1346	1	1346	0.00177939109236819	0.0129352853249092
1350	1	1350	0.00177939109236819	0.0129737259945226
1354	1	1354	0.00177939109236819	0.013012166664136
1357	1	1357	0.00177939109236819	0.013040997166346
1360	1	1360	0.00177939109236819	0.0130698276685561
1361	2	2722	0.00355878218473638	0.0261588756719189
1373	1	1373	0.00177939109236819	0.0131947598447996
1375	1	1375	0.00177939109236819	0.0132139801796063
1381	1	1381	0.00177939109236819	0.0132716411840264
1386	1	1386	0.00177939109236819	0.0133196920210432
1387	1	1387	0.00177939109236819	0.0133293021884465
1389	1	1389	0.00177939109236819	0.0133485225232532
1393	1	1393	0.00177939109236819	0.0133869631928666
1394	1	1394	0.00177939109236819	0.01339657336027
1396	1	1396	0.00177939109236819	0.0134157936950767
1400	1	1400	0.00177939109236819	0.0134542343646901
1408	2	2816	0.00355878218473638	0.0270622314078338
1412	1	1412	0.00177939109236819	0.0135695563735303
1414	1	1414	0.00177939109236819	0.013588776708337
1417	2	2834	0.00355878218473638	0.0272352144210941
1422	1	1422	0.00177939109236819	0.0136656580475638
1424	1	1424	0.00177939109236819	0.0136848783823705
1427	1	1427	0.00177939109236819	0.0137137088845805
1433	2	2866	0.00355878218473638	0.0275427397780013
1438	1	1438	0.00177939109236819	0.0138194207260174
1442	1	1442	0.00177939109236819	0.0138578613956308
1444	1	1444	0.00177939109236819	0.0138770817304375
1447	1	1447	0.00177939109236819	0.0139059122326475
1452	1	1452	0.00177939109236819	0.0139539630696643
1453	1	1453	0.00177939109236819	0.0139635732370676
1456	1	1456	0.00177939109236819	0.0139924037392777
1459	1	1459	0.00177939109236819	0.0140212342414877
1466	1	1466	0.00177939109236819	0.0140885054133112
1477	1	1477	0.00177939109236819	0.014194217254748
1480	1	1480	0.00177939109236819	0.0142230477569581
1481	1	1481	0.00177939109236819	0.0142326579243614
1487	1	1487	0.00177939109236819	0.0142903189287815
1496	1	1496	0.00177939109236819	0.0143768104354117
1499	1	1499	0.00177939109236819	0.0144056409376217
1524	1	1524	0.00177939109236819	0.0146458951227055
1530	2	3060	0.00355878218473638	0.0294071122542512
1534	1	1534	0.00177939109236819	0.014741996796739
1536	1	1536	0.00177939109236819	0.0147612171315457
1537	1	1537	0.00177939109236819	0.0147708272989491
1542	1	1542	0.00177939109236819	0.0148188781359658
1567	1	1567	0.00177939109236819	0.0150591323210496
1572	1	1572	0.00177939109236819	0.0151071831580663
1576	1	1576	0.00177939109236819	0.0151456238276797
1577	1	1577	0.00177939109236819	0.0151552339950831
1582	1	1582	0.00177939109236819	0.0152032848320998
1585	2	3170	0.00355878218473638	0.0304642306686197
1590	1	1590	0.00177939109236819	0.0152801661713266
1597	1	1597	0.00177939109236819	0.0153474373431501
1607	1	1607	0.00177939109236819	0.0154435390171836
1620	1	1620	0.00177939109236819	0.0155684711934271
1625	1	1625	0.00177939109236819	0.0156165220304439
1630	1	1630	0.00177939109236819	0.0156645728674606
1632	1	1632	0.00177939109236819	0.0156837932022673
1648	1	1648	0.00177939109236819	0.0158375558807209
1650	1	1650	0.00177939109236819	0.0158567762155276
1658	1	1658	0.00177939109236819	0.0159336575547544
1660	1	1660	0.00177939109236819	0.0159528778895611
1668	1	1668	0.00177939109236819	0.0160297592287879
1672	1	1672	0.00177939109236819	0.0160681998984013
1674	1	1674	0.00177939109236819	0.016087420233208
1690	1	1690	0.00177939109236819	0.0162411829116616
1695	1	1695	0.00177939109236819	0.0162892337486784
1723	1	1723	0.00177939109236819	0.0165583184359722
1724	1	1724	0.00177939109236819	0.0165679286033755
1744	1	1744	0.00177939109236819	0.0167601319514425
1753	1	1753	0.00177939109236819	0.0168466234580727
1756	2	3512	0.00355878218473638	0.0337509079205654
1765	1	1765	0.00177939109236819	0.0169619454669129
1769	1	1769	0.00177939109236819	0.0170003861365263
1770	1	1770	0.00177939109236819	0.0170099963039296
1780	1	1780	0.00177939109236819	0.0171060979779631
1791	1	1791	0.00177939109236819	0.0172118098194
1794	1	1794	0.00177939109236819	0.01724064032161
1801	1	1801	0.00177939109236819	0.0173079114934335
1804	2	3608	0.00355878218473638	0.034673483991287
1820	1	1820	0.00177939109236819	0.0174905046740971
1832	1	1832	0.00177939109236819	0.0176058266829373
1841	1	1841	0.00177939109236819	0.0176923181895675
1844	1	1844	0.00177939109236819	0.0177211486917775
1857	1	1857	0.00177939109236819	0.0178460808680211
1863	1	1863	0.00177939109236819	0.0179037418724412
1885	1	1885	0.00177939109236819	0.0181151655553149
1904	1	1904	0.00177939109236819	0.0182977587359785
1912	1	1912	0.00177939109236819	0.0183746400752053
1913	1	1913	0.00177939109236819	0.0183842502426087
1917	1	1917	0.00177939109236819	0.0184226909122221
1922	1	1922	0.00177939109236819	0.0184707417492388
1927	1	1927	0.00177939109236819	0.0185187925862556
1928	2	3856	0.00355878218473638	0.0370568055073179
1947	1	1947	0.00177939109236819	0.0187109959343226
1948	1	1948	0.00177939109236819	0.0187206061017259
1951	1	1951	0.00177939109236819	0.018749436603936
1963	1	1963	0.00177939109236819	0.0188647586127762
1964	1	1964	0.00177939109236819	0.0188743687801795
1969	1	1969	0.00177939109236819	0.0189224196171963
1988	1	1988	0.00177939109236819	0.0191050127978599
1994	1	1994	0.00177939109236819	0.01916267380228
1996	1	1996	0.00177939109236819	0.0191818941370867
1998	1	1998	0.00177939109236819	0.0192011144718934
2000	1	2000	0.00177939109236819	0.0192203348067001
2001	1	2001	0.00177939109236819	0.0192299449741035
2004	1	2004	0.00177939109236819	0.0192587754763135
2022	1	2022	0.00177939109236819	0.0194317584895738
2040	1	2040	0.00177939109236819	0.0196047415028341
2059	1	2059	0.00177939109236819	0.0197873346834978
2062	1	2062	0.00177939109236819	0.0198161651857078
2067	1	2067	0.00177939109236819	0.0198642160227246
2080	1	2080	0.00177939109236819	0.0199891481989681
2097	1	2097	0.00177939109236819	0.0201525210448251
2105	1	2105	0.00177939109236819	0.0202294023840519
2110	1	2110	0.00177939109236819	0.0202774532210686
2115	1	2115	0.00177939109236819	0.0203255040580854
2116	1	2116	0.00177939109236819	0.0203351142254887
2133	1	2133	0.00177939109236819	0.0204984870713457
2138	1	2138	0.00177939109236819	0.0205465379083624
2157	1	2157	0.00177939109236819	0.0207291310890261
2161	1	2161	0.00177939109236819	0.0207675717586395
2177	1	2177	0.00177939109236819	0.0209213344370931
2180	1	2180	0.00177939109236819	0.0209501649393031
2189	1	2189	0.00177939109236819	0.0210366564459333
2198	1	2198	0.00177939109236819	0.0211231479525634
2202	1	2202	0.00177939109236819	0.0211615886221768
2203	1	2203	0.00177939109236819	0.0211711987895802
2218	1	2218	0.00177939109236819	0.0213153513006304
2229	1	2229	0.00177939109236819	0.0214210631420673
2231	1	2231	0.00177939109236819	0.021440283476874
2245	1	2245	0.00177939109236819	0.0215748258205209
2249	1	2249	0.00177939109236819	0.0216132664901343
2253	1	2253	0.00177939109236819	0.0216517071597477
2254	1	2254	0.00177939109236819	0.021661317327151
2261	1	2261	0.00177939109236819	0.0217285884989745
2262	1	2262	0.00177939109236819	0.0217381986663778
2267	1	2267	0.00177939109236819	0.0217862495033946
2270	1	2270	0.00177939109236819	0.0218150800056046
2271	1	2271	0.00177939109236819	0.021824690173008
2272	1	2272	0.00177939109236819	0.0218343003404113
2283	2	4566	0.00355878218473638	0.0438800243636964
2285	1	2285	0.00177939109236819	0.0219592325166549
2300	1	2300	0.00177939109236819	0.0221033850277052
2310	1	2310	0.00177939109236819	0.0221994867017387
2348	1	2348	0.00177939109236819	0.022564673063066
2352	1	2352	0.00177939109236819	0.0226031137326794
2355	1	2355	0.00177939109236819	0.0226319442348894
2373	1	2373	0.00177939109236819	0.0228049272481497
2379	1	2379	0.00177939109236819	0.0228625882525698
2406	1	2406	0.00177939109236819	0.0231220627724603
2420	1	2420	0.00177939109236819	0.0232566051161072
2436	1	2436	0.00177939109236819	0.0234103677945608
2455	1	2455	0.00177939109236819	0.0235929609752244
2457	1	2457	0.00177939109236819	0.0236121813100311
2465	1	2465	0.00177939109236819	0.0236890626492579
2507	1	2507	0.00177939109236819	0.0240926896801986
2509	1	2509	0.00177939109236819	0.0241119100150053
2514	1	2514	0.00177939109236819	0.0241599608520221
2518	1	2518	0.00177939109236819	0.0241984015216355
2532	1	2532	0.00177939109236819	0.0243329438652824
2534	1	2534	0.00177939109236819	0.0243521642000891
2575	1	2575	0.00177939109236819	0.0247461810636264
2576	1	2576	0.00177939109236819	0.0247557912310298
2590	1	2590	0.00177939109236819	0.0248903335746767
2618	1	2618	0.00177939109236819	0.0251594182619705
2623	1	2623	0.00177939109236819	0.0252074690989872
2628	1	2628	0.00177939109236819	0.025255519936004
2634	1	2634	0.00177939109236819	0.0253131809404241
2747	1	2747	0.00177939109236819	0.0263991298570026
2748	1	2748	0.00177939109236819	0.026408740024406
2751	1	2751	0.00177939109236819	0.026437570526616
2753	1	2753	0.00177939109236819	0.0264567908614227
2761	1	2761	0.00177939109236819	0.0265336722006495
2765	1	2765	0.00177939109236819	0.0265721128702629
2770	1	2770	0.00177939109236819	0.0266201637072797
2784	1	2784	0.00177939109236819	0.0267547060509266
2796	2	5592	0.00355878218473638	0.0537400561195336
2814	1	2814	0.00177939109236819	0.0270430110730271
2835	1	2835	0.00177939109236819	0.0272448245884974
2863	1	2863	0.00177939109236819	0.0275139092757912
2872	1	2872	0.00177939109236819	0.0276004007824214
2915	1	2915	0.00177939109236819	0.0280136379807654
2919	1	2919	0.00177939109236819	0.0280520786503788
2941	1	2941	0.00177939109236819	0.0282635023332525
2974	1	2974	0.00177939109236819	0.0285806378575631
3027	1	3027	0.00177939109236819	0.0290899767299407
3052	1	3052	0.00177939109236819	0.0293302309150244
3089	1	3089	0.00177939109236819	0.0296858071089484
3091	1	3091	0.00177939109236819	0.0297050274437551
3106	1	3106	0.00177939109236819	0.0298491799548053
3114	1	3114	0.00177939109236819	0.0299260612940321
3134	1	3134	0.00177939109236819	0.0301182646420991
3145	1	3145	0.00177939109236819	0.030223976483536
3164	1	3164	0.00177939109236819	0.0304065696641996
3182	1	3182	0.00177939109236819	0.0305795526774599
3201	1	3201	0.00177939109236819	0.0307621458581236
3266	2	6532	0.00355878218473638	0.0627736134786826
3269	1	3269	0.00177939109236819	0.0314156372415514
3296	1	3296	0.00177939109236819	0.0316751117614418
3308	1	3308	0.00177939109236819	0.031790433770282
3309	1	3309	0.00177939109236819	0.0318000439376854
3326	1	3326	0.00177939109236819	0.0319634167835423
3335	2	6670	0.00355878218473638	0.0640998165803449
3339	1	3339	0.00177939109236819	0.0320883489597859
3367	1	3367	0.00177939109236819	0.0323574336470797
3412	1	3412	0.00177939109236819	0.0327898911802304
3418	1	3418	0.00177939109236819	0.0328475521846505
3427	1	3427	0.00177939109236819	0.0329340436912807
3447	1	3447	0.00177939109236819	0.0331262470393477
3449	1	3449	0.00177939109236819	0.0331454673741544
3450	1	3450	0.00177939109236819	0.0331550775415577
3483	1	3483	0.00177939109236819	0.0334722130658683
3508	1	3508	0.00177939109236819	0.033712467250952
3537	1	3537	0.00177939109236819	0.0339911621056492
3545	1	3545	0.00177939109236819	0.034068043444876
3563	1	3563	0.00177939109236819	0.0342410264581363
3569	1	3569	0.00177939109236819	0.0342986874625564
3602	1	3602	0.00177939109236819	0.0346158229868669
3605	1	3605	0.00177939109236819	0.034644653489077
3628	1	3628	0.00177939109236819	0.034865687339354
3648	1	3648	0.00177939109236819	0.035057890687421
3656	2	7312	0.00355878218473638	0.0702695440532957
3657	1	3657	0.00177939109236819	0.0351443821940512
3658	1	3658	0.00177939109236819	0.0351539923614545
3661	1	3661	0.00177939109236819	0.0351828228636646
3674	1	3674	0.00177939109236819	0.0353077550399081
3677	1	3677	0.00177939109236819	0.0353365855421182
3690	1	3690	0.00177939109236819	0.0354615177183617
3701	1	3701	0.00177939109236819	0.0355672295597986
3705	1	3705	0.00177939109236819	0.035605670229412
3724	1	3724	0.00177939109236819	0.0357882634100756
3725	1	3725	0.00177939109236819	0.035797873577479
3787	1	3787	0.00177939109236819	0.0363937039564867
3822	1	3822	0.00177939109236819	0.036730059815604
3848	1	3848	0.00177939109236819	0.0369799241680911
3907	1	3907	0.00177939109236819	0.0375469240448887
3909	1	3909	0.00177939109236819	0.0375661443796954
3914	1	3914	0.00177939109236819	0.0376141952167122
3920	1	3920	0.00177939109236819	0.0376718562211323
3925	1	3925	0.00177939109236819	0.037719907058149
3970	1	3970	0.00177939109236819	0.0381523645912998
3971	2	7942	0.00355878218473638	0.0763239495174062
3972	1	3972	0.00177939109236819	0.0381715849261065
4026	2	8052	0.00355878218473638	0.0773810679317747
4051	1	4051	0.00177939109236819	0.0389307881509711
4177	1	4177	0.00177939109236819	0.0401416692437932
4180	1	4180	0.00177939109236819	0.0401704997460033
4182	1	4182	0.00177939109236819	0.04018972008081
4202	1	4202	0.00177939109236819	0.040381923428877
4209	1	4209	0.00177939109236819	0.0404491946007004
4246	1	4246	0.00177939109236819	0.0408047707946244
4331	1	4331	0.00177939109236819	0.0416216350239091
4332	1	4332	0.00177939109236819	0.0416312451913125
4336	1	4336	0.00177939109236819	0.0416696858609259
4352	1	4352	0.00177939109236819	0.0418234485393795
4353	1	4353	0.00177939109236819	0.0418330587067828
4362	1	4362	0.00177939109236819	0.041919550213413
4374	1	4374	0.00177939109236819	0.0420348722222532
4387	1	4387	0.00177939109236819	0.0421598043984967
4398	1	4398	0.00177939109236819	0.0422655162399336
4422	1	4422	0.00177939109236819	0.042496160257614
4477	1	4477	0.00177939109236819	0.0430247194647982
4482	1	4482	0.00177939109236819	0.043072770301815
4503	1	4503	0.00177939109236819	0.0432745838172853
4533	1	4533	0.00177939109236819	0.0435628888393858
4564	1	4564	0.00177939109236819	0.0438608040288897
4577	1	4577	0.00177939109236819	0.0439857362051333
4621	1	4621	0.00177939109236819	0.0444085835708807
4628	1	4628	0.00177939109236819	0.0444758547427041
4666	1	4666	0.00177939109236819	0.0448410411040314
4682	1	4682	0.00177939109236819	0.044994803782485
4701	1	4701	0.00177939109236819	0.0451773969631487
4705	1	4705	0.00177939109236819	0.0452158376327621
4719	1	4719	0.00177939109236819	0.045350379976409
4766	1	4766	0.00177939109236819	0.0458020578443664
4781	1	4781	0.00177939109236819	0.0459462103554167
4813	1	4813	0.00177939109236819	0.0462537357123239
4814	1	4814	0.00177939109236819	0.0462633458797272
4855	1	4855	0.00177939109236819	0.0466573627432646
4859	1	4859	0.00177939109236819	0.046695803412878
4873	1	4873	0.00177939109236819	0.0468303457565249
4891	1	4891	0.00177939109236819	0.0470033287697852
4895	1	4895	0.00177939109236819	0.0470417694393986
4909	1	4909	0.00177939109236819	0.0471763117830455
4920	1	4920	0.00177939109236819	0.0472820236244823
4921	1	4921	0.00177939109236819	0.0472916337918857
4981	1	4981	0.00177939109236819	0.0478682438360867
4998	1	4998	0.00177939109236819	0.0480316166819436
5006	1	5006	0.00177939109236819	0.0481084980211704
5023	1	5023	0.00177939109236819	0.0482718708670274
5026	1	5026	0.00177939109236819	0.0483007013692374
5082	1	5082	0.00177939109236819	0.048838870743825
5085	1	5085	0.00177939109236819	0.0488677012460351
5087	1	5087	0.00177939109236819	0.0488869215808418
5162	1	5162	0.00177939109236819	0.049607684136093
5202	1	5202	0.00177939109236819	0.049992090832227
5238	1	5238	0.00177939109236819	0.0503380568587476
5260	1	5260	0.00177939109236819	0.0505494805416213
5268	1	5268	0.00177939109236819	0.0506263618808481
5339	1	5339	0.00177939109236819	0.051308683766486
5429	1	5429	0.00177939109236819	0.0521735988327875
5441	1	5441	0.00177939109236819	0.0522889208416277
5449	1	5449	0.00177939109236819	0.0523658021808545
5463	1	5463	0.00177939109236819	0.0525003445245014
5496	1	5496	0.00177939109236819	0.052817480048812
5527	1	5527	0.00177939109236819	0.0531153952383158
5560	1	5560	0.00177939109236819	0.0534325307626264
5610	1	5610	0.00177939109236819	0.0539130391327939
5642	1	5642	0.00177939109236819	0.0542205644897011
5711	1	5711	0.00177939109236819	0.0548836660405322
5717	1	5717	0.00177939109236819	0.0549413270449523
5733	1	5733	0.00177939109236819	0.0550950897234059
5780	1	5780	0.00177939109236819	0.0555467675913634
5812	1	5812	0.00177939109236819	0.0558542929482706
5853	1	5853	0.00177939109236819	0.0562483098118079
5857	1	5857	0.00177939109236819	0.0562867504814213
5865	1	5865	0.00177939109236819	0.0563636318206481
5881	1	5881	0.00177939109236819	0.0565173944991017
5891	1	5891	0.00177939109236819	0.0566134961731352
5908	1	5908	0.00177939109236819	0.0567768690189922
5952	1	5952	0.00177939109236819	0.0571997163847396
6029	1	6029	0.00177939109236819	0.0579396992747976
6089	1	6089	0.00177939109236819	0.0585163093189986
6116	1	6116	0.00177939109236819	0.058775783838889
6212	1	6212	0.00177939109236819	0.0596983599096106
6248	1	6248	0.00177939109236819	0.0600443259361312
6268	1	6268	0.00177939109236819	0.0602365292841982
6307	1	6307	0.00177939109236819	0.0606113258129289
6343	1	6343	0.00177939109236819	0.0609572918394495
6428	1	6428	0.00177939109236819	0.0617741560687342
6468	1	6468	0.00177939109236819	0.0621585627648682
6478	1	6478	0.00177939109236819	0.0622546644389017
6494	1	6494	0.00177939109236819	0.0624084271173553
6523	1	6523	0.00177939109236819	0.0626871219720525
6550	1	6550	0.00177939109236819	0.0629465964919429
6614	1	6614	0.00177939109236819	0.0635616472057573
6640	1	6640	0.00177939109236819	0.0638115115582444
6721	1	6721	0.00177939109236819	0.0645899351179158
6747	1	6747	0.00177939109236819	0.0648397994704029
6748	1	6748	0.00177939109236819	0.0648494096378062
6896	1	6896	0.00177939109236819	0.0662717144135021
6933	1	6933	0.00177939109236819	0.066627290607426
6974	1	6974	0.00177939109236819	0.0670213074709634
6989	1	6989	0.00177939109236819	0.0671654599820136
7038	1	7038	0.00177939109236819	0.0676363581847778
7057	1	7057	0.00177939109236819	0.0678189513654414
7099	1	7099	0.00177939109236819	0.0682225783963821
7109	1	7109	0.00177939109236819	0.0683186800704156
7246	1	7246	0.00177939109236819	0.0696352730046746
7277	2	14554	0.00355878218473638	0.139866376388357
7417	1	7417	0.00177939109236819	0.0712786116306474
7472	1	7472	0.00177939109236819	0.0718071708378317
7480	1	7480	0.00177939109236819	0.0718840521770585
7635	1	7635	0.00177939109236819	0.0733736281245777
7658	1	7658	0.00177939109236819	0.0735946619748548
7692	1	7692	0.00177939109236819	0.0739214076665687
7707	1	7707	0.00177939109236819	0.074065560177619
7821	1	7821	0.00177939109236819	0.0751611192616009
7830	1	7830	0.00177939109236819	0.075247610768231
7885	1	7885	0.00177939109236819	0.0757761699754153
7931	1	7931	0.00177939109236819	0.0762182376759694
8043	1	8043	0.00177939109236819	0.0772945764251446
8052	1	8052	0.00177939109236819	0.0773810679317747
8075	1	8075	0.00177939109236819	0.0776021017820518
8091	1	8091	0.00177939109236819	0.0777558644605054
8172	1	8172	0.00177939109236819	0.0785342880201767
8181	1	8181	0.00177939109236819	0.0786207795268069
8183	1	8183	0.00177939109236819	0.0786399998616136
8237	1	8237	0.00177939109236819	0.0791589489013945
8264	1	8264	0.00177939109236819	0.0794184234212849
8319	1	8319	0.00177939109236819	0.0799469826284692
8366	1	8366	0.00177939109236819	0.0803986604964266
8373	1	8373	0.00177939109236819	0.0804659316682501
8389	1	8389	0.00177939109236819	0.0806196943467037
8508	1	8508	0.00177939109236819	0.0817633042677024
8633	1	8633	0.00177939109236819	0.0829645751931211
8718	1	8718	0.00177939109236819	0.0837814394224059
8729	1	8729	0.00177939109236819	0.0838871512638427
8759	1	8759	0.00177939109236819	0.0841754562859432
8844	1	8844	0.00177939109236819	0.084992320515228
8887	1	8887	0.00177939109236819	0.085405557713572
8934	1	8934	0.00177939109236819	0.0858572355815295
8955	1	8955	0.00177939109236819	0.0860590490969998
8966	1	8966	0.00177939109236819	0.0861647609384367
9070	1	9070	0.00177939109236819	0.0871642183483851
9212	1	9212	0.00177939109236819	0.0885288621196608
9213	1	9213	0.00177939109236819	0.0885384722870642
9313	1	9313	0.00177939109236819	0.0894994890273992
9459	1	9459	0.00177939109236819	0.0909025734682883
9462	1	9462	0.00177939109236819	0.0909314039704983
9476	1	9476	0.00177939109236819	0.0910659463141452
9477	1	9477	0.00177939109236819	0.0910755564815486
9480	1	9480	0.00177939109236819	0.0911043869837586
9499	1	9499	0.00177939109236819	0.0912869801644223
9529	1	9529	0.00177939109236819	0.0915752851865228
9670	1	9670	0.00177939109236819	0.0929303187903951
9690	1	9690	0.00177939109236819	0.0931225221384621
9758	1	9758	0.00177939109236819	0.0937760135218899
9767	1	9767	0.00177939109236819	0.0938625050285201
9819	1	9819	0.00177939109236819	0.0943622337334943
9834	1	9834	0.00177939109236819	0.0945063862445445
9883	1	9883	0.00177939109236819	0.0949772844473087
9904	1	9904	0.00177939109236819	0.0951790979627791
9949	1	9949	0.00177939109236819	0.0956115554959298
9955	1	9955	0.00177939109236819	0.0956692165003499
9994	1	9994	0.00177939109236819	0.0960440130290806
10011	1	10011	0.00177939109236819	0.0962073858749375
10045	1	10045	0.00177939109236819	0.0965341315666514
10087	1	10087	0.00177939109236819	0.0969377585975921
10095	1	10095	0.00177939109236819	0.0970146399368189
10140	1	10140	0.00177939109236819	0.0974470974699697
10240	1	10240	0.00177939109236819	0.0984081142103047
10298	1	10298	0.00177939109236819	0.098965503919699
10317	1	10317	0.00177939109236819	0.0991480971003626
10324	1	10324	0.00177939109236819	0.0992153682721861
10368	1	10368	0.00177939109236819	0.0996382156379335
10387	1	10387	0.00177939109236819	0.0998208088185971
10432	1	10432	0.00177939109236819	0.100253266351748
10460	1	10460	0.00177939109236819	0.100522351039042
10474	1	10474	0.00177939109236819	0.100656893382689
10486	1	10486	0.00177939109236819	0.100772215391529
10568	1	10568	0.00177939109236819	0.101560249118603
10721	1	10721	0.00177939109236819	0.103030604731316
10730	1	10730	0.00177939109236819	0.103117096237946
10789	1	10789	0.00177939109236819	0.103684096114744
10798	1	10798	0.00177939109236819	0.103770587621374
10807	1	10807	0.00177939109236819	0.103857079128004
10999	1	10999	0.00177939109236819	0.105702231269447
11012	1	11012	0.00177939109236819	0.105827163445691
11099	1	11099	0.00177939109236819	0.106663248009782
11105	1	11105	0.00177939109236819	0.106720909014202
11204	1	11204	0.00177939109236819	0.107672315587134
11232	1	11232	0.00177939109236819	0.107941400274428
11279	1	11279	0.00177939109236819	0.108393078142385
11507	1	11507	0.00177939109236819	0.110584196310349
11516	1	11516	0.00177939109236819	0.110670687816979
11521	1	11521	0.00177939109236819	0.110718738653996
11684	1	11684	0.00177939109236819	0.112285195940742
11784	1	11784	0.00177939109236819	0.113246212681077
11903	2	23806	0.00355878218473638	0.228779645204152
11936	1	11936	0.00177939109236819	0.114706958126386
11939	1	11939	0.00177939109236819	0.114735788628596
12023	1	12023	0.00177939109236819	0.115543042690478
12095	1	12095	0.00177939109236819	0.116234974743519
12144	1	12144	0.00177939109236819	0.116705872946283
12326	1	12326	0.00177939109236819	0.118454923413693
12340	1	12340	0.00177939109236819	0.11858946575734
12373	1	12373	0.00177939109236819	0.11890660128165
12422	1	12422	0.00177939109236819	0.119377499484415
12493	1	12493	0.00177939109236819	0.120059821370052
12543	1	12543	0.00177939109236819	0.12054032974022
12647	1	12647	0.00177939109236819	0.121539787150168
12688	1	12688	0.00177939109236819	0.121933804013706
12833	1	12833	0.00177939109236819	0.123327278287191
13048	1	13048	0.00177939109236819	0.125393464278912
13098	1	13098	0.00177939109236819	0.125873972649079
13130	1	13130	0.00177939109236819	0.126181498005986
13250	1	13250	0.00177939109236819	0.127334718094388
13257	1	13257	0.00177939109236819	0.127401989266212
13347	1	13347	0.00177939109236819	0.128266904332513
13456	1	13456	0.00177939109236819	0.129314412579478
13511	1	13511	0.00177939109236819	0.129842971786663
13555	1	13555	0.00177939109236819	0.13026581915241
13565	1	13565	0.00177939109236819	0.130361920826444
13579	1	13579	0.00177939109236819	0.130496463170091
13791	1	13791	0.00177939109236819	0.132533818659601
13803	1	13803	0.00177939109236819	0.132649140668441
13923	1	13923	0.00177939109236819	0.133802360756843
13972	1	13972	0.00177939109236819	0.134273258959607
14021	1	14021	0.00177939109236819	0.134744157162371
14179	1	14179	0.00177939109236819	0.136262563612101
14252	1	14252	0.00177939109236819	0.136964105832545
14326	1	14326	0.00177939109236819	0.137675258220393
14520	1	14520	0.00177939109236819	0.139539630696643
14659	1	14659	0.00177939109236819	0.140875443965709
14687	1	14687	0.00177939109236819	0.141144528653002
14798	1	14798	0.00177939109236819	0.142211257234774
14857	1	14857	0.00177939109236819	0.142778257111572
14890	1	14890	0.00177939109236819	0.143095392635882
15141	1	15141	0.00177939109236819	0.145507544654123
15229	1	15229	0.00177939109236819	0.146353239385618
15244	1	15244	0.00177939109236819	0.146497391896668
15437	1	15437	0.00177939109236819	0.148352154205515
15632	1	15632	0.00177939109236819	0.150226136849168
15844	1	15844	0.00177939109236819	0.152263492338678
15873	1	15873	0.00177939109236819	0.152542187193376
16012	1	16012	0.00177939109236819	0.153878000462441
16183	1	16183	0.00177939109236819	0.155521339088414
16374	1	16374	0.00177939109236819	0.157356881062454
16682	1	16682	0.00177939109236819	0.160316812622686
16787	1	16787	0.00177939109236819	0.161325880200038
16859	1	16859	0.00177939109236819	0.162017812253079
16969	1	16969	0.00177939109236819	0.163074930667447
17107	1	17107	0.00177939109236819	0.16440113376911
17141	1	17141	0.00177939109236819	0.164727879460823
17198	1	17198	0.00177939109236819	0.165275659002814
17298	1	17298	0.00177939109236819	0.166236675743149
17335	1	17335	0.00177939109236819	0.166592251937073
17655	1	17655	0.00177939109236819	0.169667505506145
17698	1	17698	0.00177939109236819	0.170080742704489
17701	1	17701	0.00177939109236819	0.1701095732067
17875	1	17875	0.00177939109236819	0.171781742334882
18128	1	18128	0.00177939109236819	0.17421311468793
18255	1	18255	0.00177939109236819	0.175433605948155
18391	1	18391	0.00177939109236819	0.176740588715011
18406	1	18406	0.00177939109236819	0.176884741226061
18517	1	18517	0.00177939109236819	0.177951469807833
18527	1	18527	0.00177939109236819	0.178047571481867
18859	1	18859	0.00177939109236819	0.181238147059779
19013	1	19013	0.00177939109236819	0.182718112839895
19034	1	19034	0.00177939109236819	0.182919926355365
19179	1	19179	0.00177939109236819	0.184313400628851
19191	1	19191	0.00177939109236819	0.184428722637691
19270	1	19270	0.00177939109236819	0.185187925862556
19853	1	19853	0.00177939109236819	0.190790653458709
19956	1	19956	0.00177939109236819	0.191780500701254
20010	1	20010	0.00177939109236819	0.192299449741035
20019	1	20019	0.00177939109236819	0.192385941247665
20096	1	20096	0.00177939109236819	0.193125924137723
20270	1	20270	0.00177939109236819	0.194798093265906
20298	1	20298	0.00177939109236819	0.1950671779532
20357	1	20357	0.00177939109236819	0.195634177829997
20360	1	20360	0.00177939109236819	0.195663008332207
20373	1	20373	0.00177939109236819	0.195787940508451
20421	1	20421	0.00177939109236819	0.196249228543812
20523	1	20523	0.00177939109236819	0.197229465618953
20684	1	20684	0.00177939109236819	0.198776702570893
21517	1	21517	0.00177939109236819	0.206781972017883
21698	1	21698	0.00177939109236819	0.20852141231789
21732	1	21732	0.00177939109236819	0.208848158009604
22404	1	22404	0.00177939109236819	0.215306190504655
22610	1	22610	0.00177939109236819	0.217285884989745
22823	1	22823	0.00177939109236819	0.219332850646659
22868	1	22868	0.00177939109236819	0.219765308179809
23128	1	23128	0.00177939109236819	0.22226395170468
23230	1	23230	0.00177939109236819	0.223244188779822
23271	1	23271	0.00177939109236819	0.223638205643359
23466	1	23466	0.00177939109236819	0.225512188287013
23687	1	23687	0.00177939109236819	0.227636035283153
23750	1	23750	0.00177939109236819	0.228241475829564
23819	1	23819	0.00177939109236819	0.228904577380395
23962	1	23962	0.00177939109236819	0.230278831319074
24247	1	24247	0.00177939109236819	0.233017729029029
24257	1	24257	0.00177939109236819	0.233113830703063
24562	1	24562	0.00177939109236819	0.236044931761084
24586	1	24586	0.00177939109236819	0.236275575778765
24601	1	24601	0.00177939109236819	0.236419728289815
24948	1	24948	0.00177939109236819	0.239754456378777
25029	1	25029	0.00177939109236819	0.240532879938449
25206	1	25206	0.00177939109236819	0.242233879568842
25624	1	25624	0.00177939109236819	0.246250929543442
25829	1	25829	0.00177939109236819	0.248221013861129
25915	1	25915	0.00177939109236819	0.249047488257817
26304	1	26304	0.00177939109236819	0.25278584337772
27305	1	27305	0.00177939109236819	0.262405620948474
27651	1	27651	0.00177939109236819	0.265730738870033
27674	1	27674	0.00177939109236819	0.26595177272031
27699	1	27699	0.00177939109236819	0.266192026905393
27792	1	27792	0.00177939109236819	0.267085772473905
27879	1	27879	0.00177939109236819	0.267921857037996
27924	1	27924	0.00177939109236819	0.268354314571147
27930	1	27930	0.00177939109236819	0.268411975575567
28077	1	28077	0.00177939109236819	0.26982467018386
28862	1	28862	0.00177939109236819	0.27736865159549
29083	1	29083	0.00177939109236819	0.27949249859163
29091	1	29091	0.00177939109236819	0.279569379930857
29166	1	29166	0.00177939109236819	0.280290142486108
29608	1	29608	0.00177939109236819	0.284537836478389
29999	1	29999	0.00177939109236819	0.288295411933099
30008	1	30008	0.00177939109236819	0.288381903439729
30213	1	30213	0.00177939109236819	0.290351987757416
30556	1	30556	0.00177939109236819	0.293648275176765
30683	1	30683	0.00177939109236819	0.29486876643699
31045	1	31045	0.00177939109236819	0.298347647037003
31247	1	31247	0.00177939109236819	0.30028890085248
31842	1	31842	0.00177939109236819	0.306006950457473
32112	1	32112	0.00177939109236819	0.308601695656377
32224	1	32224	0.00177939109236819	0.309678034405553
32348	1	32348	0.00177939109236819	0.310869695163568
32568	1	32568	0.00177939109236819	0.312983931992305
32940	1	32940	0.00177939109236819	0.316558914266351
33045	1	33045	0.00177939109236819	0.317567981843703
33289	1	33289	0.00177939109236819	0.31991286269012
33754	1	33754	0.00177939109236819	0.324381590532678
34707	1	34707	0.00177939109236819	0.333540080068071
34850	1	34850	0.00177939109236819	0.33491433400675
35018	1	35018	0.00177939109236819	0.336528842130513
35040	1	35040	0.00177939109236819	0.336740265813386
35815	1	35815	0.00177939109236819	0.344188145550983
36011	1	36011	0.00177939109236819	0.346071738362039
36586	1	36586	0.00177939109236819	0.351597584618966
37125	1	37125	0.00177939109236819	0.356777464849371
37466	1	37466	0.00177939109236819	0.360054531933914
37698	1	37698	0.00177939109236819	0.362284090771491
37750	1	37750	0.00177939109236819	0.362783819476465
37786	1	37786	0.00177939109236819	0.363129785502986
38336	1	38336	0.00177939109236819	0.368415377574828
38902	1	38902	0.00177939109236819	0.373854732325124
39049	1	39049	0.00177939109236819	0.375267426933417
39559	1	39559	0.00177939109236819	0.380168612309125
40075	1	40075	0.00177939109236819	0.385127458689254
40122	1	40122	0.00177939109236819	0.385579136557211
40227	1	40227	0.00177939109236819	0.386588204134563
40420	1	40420	0.00177939109236819	0.38844296644341
41434	1	41434	0.00177939109236819	0.398187676190407
41980	1	41980	0.00177939109236819	0.403434827592636
43823	1	43823	0.00177939109236819	0.42114636611701
44221	1	44221	0.00177939109236819	0.424971212743543
45739	1	45739	0.00177939109236819	0.439559446861829
46104	1	46104	0.00177939109236819	0.443067157964051
47003	1	47003	0.00177939109236819	0.451706698459663
48025	1	48025	0.00177939109236819	0.461528289545887
48337	1	48337	0.00177939109236819	0.464526661775732
48379	1	48379	0.00177939109236819	0.464930288806673
49338	1	49338	0.00177939109236819	0.474146439346486
49724	1	49724	0.00177939109236819	0.477855963964179
49823	1	49823	0.00177939109236819	0.47880737053711
51650	1	51650	0.00177939109236819	0.496365146383031
51927	1	51927	0.00177939109236819	0.499027162753759
52776	1	52776	0.00177939109236819	0.507186194879203
52903	1	52903	0.00177939109236819	0.508406686139429
55816	1	55816	0.00177939109236819	0.536401103785387
57285	1	57285	0.00177939109236819	0.550518439700909
58461	1	58461	0.00177939109236819	0.561819996567248
58841	1	58841	0.00177939109236819	0.565471860180521
59479	1	59479	0.00177939109236819	0.571603146983859
61047	1	61047	0.00177939109236819	0.586671889472312
62074	1	62074	0.00177939109236819	0.596541531395552
62125	1	62125	0.00177939109236819	0.597031649933123
64661	1	64661	0.00177939109236819	0.621403034468019
72684	1	72684	0.00177939109236819	0.698505407545096
72858	1	72858	0.00177939109236819	0.700177576673279
74777	1	74777	0.00177939109236819	0.718619487920308
76002	1	76002	0.00177939109236819	0.730391942989412
80046	1	80046	0.00177939109236819	0.769255459968559
86905	1	86905	0.00177939109236819	0.835171598188137
89330	1	89330	0.00177939109236819	0.858476254141261
93813	1	93813	0.00177939109236819	0.90155863461048
93985	1	93985	0.00177939109236819	0.903211583403856
95479	1	95479	0.00177939109236819	0.917569173504461
98064	1	98064	0.00177939109236819	0.942411456242121
105357	1	105357	0.00177939109236819	1.01249840711475
106675	1	106675	0.00177939109236819	1.02516460775237
109646	1	109646	0.00177939109236819	1.05371641510772
110375	1	110375	0.00177939109236819	1.06072222714476
111291	1	111291	0.00177939109236819	1.06952514048623
115993	1	115993	0.00177939109236819	1.11471214761678
123341	1	123341	0.00177939109236819	1.1853276576966
130499	1	130499	0.00177939109236819	1.25411723596978
135795	1	135795	0.00177939109236819	1.30501268253792
155960	1	155960	0.00177939109236819	1.49880170822648
190225	1	190225	0.00177939109236819	1.82809409430227
