Count	Number_Unique	Total_Count_Unique	Percent_Number_Unique	Percent_Total_Count
1	8857	8857	39.8748424275167	0.108171933407516
2	2651	5302	11.9349900954439	0.0647541595265496
3	1296	3888	5.83468395461913	0.0474847552318418
4	849	3396	3.82225823878984	0.0414758818846025
5	593	2965	2.66972807491446	0.0362120111271633
6	535	3210	2.40860795966144	0.0392042346435731
7	435	3045	1.95840086439762	0.0371890637039501
8	399	3192	1.79632631010265	0.038984397813796
9	326	2934	1.46767513056006	0.0358334032536584
10	265	2650	1.19304880244913	0.032364866606065
11	274	3014	1.23356744102287	0.0368104558304452
12	255	3060	1.14802809292274	0.0373722610620977
13	205	2665	0.922924545290834	0.0325480639642125
14	198	2772	0.891410048622366	0.033854871785665
15	159	2385	0.715829281469476	0.0291283799454585
16	154	2464	0.693318926706285	0.0300932193650355
17	144	2448	0.648298217179903	0.0298978088496781
18	141	2538	0.634792004321988	0.0309969929985634
19	128	2432	0.576265081937691	0.0297023983343208
20	141	2820	0.634792004321988	0.0344411033317371
21	116	2436	0.522240230506033	0.0297512509631601
22	114	2508	0.513236088600756	0.0306305982822683
23	105	2415	0.472717450027012	0.0294947746617536
24	102	2448	0.459211237169098	0.0298978088496781
25	92	2300	0.414190527642716	0.0280902615826224
26	104	2704	0.468215379074374	0.0330243770953961
27	79	2133	0.355663605258419	0.0260506643285799
28	80	2240	0.360165676211057	0.0273574721500323
29	65	1885	0.292634611921484	0.0230218013405406
30	71	2130	0.319647037637313	0.0260140248569503
31	50	1550	0.225103547631911	0.0189303936752456
32	69	2208	0.310642895732037	0.0269666511193175
33	89	2937	0.400684314784801	0.0358700427252879
34	62	2108	0.279128399063569	0.025745335398334
35	63	2205	0.283630470016207	0.026930011647688
36	58	2088	0.261120115253016	0.0255010722541372
37	64	2368	0.288132540968846	0.0289207562728913
38	53	2014	0.238609760489825	0.0245972986206094
39	52	2028	0.234107689537187	0.0247682828215471
40	54	2160	0.243111831442464	0.0263804195732454
41	55	2255	0.247613902395102	0.0275406695081798
42	45	1890	0.20259319286872	0.0230828671265897
43	38	1634	0.171078696200252	0.0199562988808718
44	34	1496	0.153070412389699	0.0182708831859144
45	36	1620	0.162074554294976	0.0197853146799341
46	34	1564	0.153070412389699	0.0191013778761833
47	45	2115	0.20259319286872	0.0258308274988028
48	28	1344	0.12605798667387	0.0164144832900194
49	35	1715	0.157572483342337	0.0209455646148685
50	35	1750	0.157572483342337	0.0213730251172127
51	29	1479	0.130560057626508	0.0180632595133472
52	32	1664	0.144066270484423	0.0203226935971668
53	29	1537	0.130560057626508	0.0187716226315177
54	36	1944	0.162074554294976	0.0237423776159209
55	27	1485	0.121555915721232	0.0181365384566062
56	33	1848	0.148568341437061	0.0225699145237766
57	23	1311	0.103547631910679	0.0160114491020948
58	21	1218	0.0945434900054025	0.0148756254815801
59	23	1357	0.103547631910679	0.0165732543337472
60	25	1500	0.112551773815955	0.0183197358147538
61	26	1586	0.117053844768594	0.0193700673347996
62	24	1488	0.108049702863317	0.0181731779282357
63	25	1575	0.112551773815955	0.0192357226054915
64	23	1472	0.103547631910679	0.0179777674128784
65	23	1495	0.103547631910679	0.0182586700287046
66	26	1716	0.117053844768594	0.0209577777720783
67	18	1206	0.0810372771474878	0.014729067595062
68	19	1292	0.0855393481001261	0.0157793991151079
69	29	2001	0.130560057626508	0.0244385275768815
70	21	1470	0.0945434900054025	0.0179533410984587
71	22	1562	0.0990455609580407	0.0190769515617636
72	14	1008	0.063028993336935	0.0123108624675145
73	20	1460	0.0900414190527643	0.0178312095263603
74	14	1036	0.063028993336935	0.0126528308693899
75	12	900	0.0540248514316586	0.0109918414888523
76	14	1064	0.063028993336935	0.0129947992712653
77	19	1463	0.0855393481001261	0.0178678489979898
78	15	1170	0.0675310642895732	0.0142893939355079
79	21	1659	0.0945434900054025	0.0202616278111177
80	15	1200	0.0675310642895732	0.014655788651803
81	12	972	0.0540248514316586	0.0118711888079604
82	11	902	0.0495227804790203	0.0110162678032719
83	15	1245	0.0675310642895732	0.0152053807262456
84	11	924	0.0495227804790203	0.0112849572618883
85	22	1870	0.0990455609580407	0.022838603982393
86	9	774	0.0405186385737439	0.00945298368041294
87	14	1218	0.063028993336935	0.0148756254815801
88	12	1056	0.0540248514316586	0.0128970940135866
89	16	1424	0.0720331352422114	0.0173915358668062
90	14	1260	0.063028993336935	0.0153885780843932
91	14	1274	0.063028993336935	0.0155595622853309
92	8	736	0.0360165676211057	0.00898888370643918
93	12	1116	0.0540248514316586	0.0136298834461768
94	9	846	0.0405186385737439	0.0103323309995211
95	11	1045	0.0495227804790203	0.0127627492842785
96	17	1632	0.0765352061948496	0.0199318725664521
97	13	1261	0.0585269223842968	0.015400791241603
98	9	882	0.0405186385737439	0.0107720046590752
99	12	1188	0.0540248514316586	0.014509230765285
100	9	900	0.0405186385737439	0.0109918414888523
101	8	808	0.0360165676211057	0.00986823102554736
102	5	510	0.0225103547631911	0.00622871017701628
103	6	618	0.0270124257158293	0.00754773115567855
104	15	1560	0.0675310642895732	0.0190525252473439
105	14	1470	0.063028993336935	0.0179533410984587
106	8	848	0.0360165676211057	0.0103567573139408
107	8	856	0.0360165676211057	0.0104544625716195
108	7	756	0.0315144966684675	0.0092331468506359
109	15	1635	0.0675310642895732	0.0199685120380816
110	9	990	0.0405186385737439	0.0120910256377375
111	5	555	0.0225103547631911	0.00677830225145889
112	8	896	0.0360165676211057	0.0109429888600129
113	9	1017	0.0405186385737439	0.0124207808824031
114	6	684	0.0270124257158293	0.00835379953152772
115	10	1150	0.0450207095263821	0.0140451307913112
116	12	1392	0.0540248514316586	0.0170007148360915
117	9	1053	0.0405186385737439	0.0128604545419571
118	9	1062	0.0405186385737439	0.0129703729568457
119	8	952	0.0360165676211057	0.0116269256637637
120	3	360	0.0135062128579146	0.0043967365955409
121	10	1210	0.0450207095263821	0.0147779202239014
122	6	732	0.0270124257158293	0.00894003107759984
123	5	615	0.0225103547631911	0.00751109168404904
124	8	992	0.0360165676211057	0.0121154519521572
125	9	1125	0.0405186385737439	0.0137398018610653
126	8	1008	0.0360165676211057	0.0123108624675145
127	6	762	0.0270124257158293	0.00930642579389491
128	8	1024	0.0360165676211057	0.0125062729828719
129	6	774	0.0270124257158293	0.00945298368041294
130	8	1040	0.0360165676211057	0.0127016834982293
131	12	1572	0.0540248514316586	0.0191990831338619
132	9	1188	0.0405186385737439	0.014509230765285
133	8	1064	0.0360165676211057	0.0129947992712653
134	8	1072	0.0360165676211057	0.013092504528944
135	5	675	0.0225103547631911	0.00824388111663919
136	5	680	0.0225103547631911	0.00830494690268837
137	9	1233	0.0405186385737439	0.0150588228397276
138	5	690	0.0225103547631911	0.00842707847478673
139	4	556	0.0180082838105529	0.00679051540866873
140	5	700	0.0225103547631911	0.00854921004688509
141	5	705	0.0225103547631911	0.00861027583293427
142	5	710	0.0225103547631911	0.00867134161898345
143	1	143	0.00450207095263821	0.00174648148100653
144	8	1152	0.0360165676211057	0.0140695571057309
145	2	290	0.00900414190527643	0.00354181559085239
146	7	1022	0.0315144966684675	0.0124818466684522
147	6	882	0.0270124257158293	0.0107720046590752
148	6	888	0.0270124257158293	0.0108452836023342
149	6	894	0.0270124257158293	0.0109185625455932
150	5	750	0.0225103547631911	0.00915986790737688
151	5	755	0.0225103547631911	0.00922093369342606
152	5	760	0.0225103547631911	0.00928199947947524
153	2	306	0.00900414190527643	0.00373722610620977
154	5	770	0.0225103547631911	0.0094041310515736
155	7	1085	0.0315144966684675	0.0132512755726719
156	7	1092	0.0315144966684675	0.0133367676731407
157	6	942	0.0270124257158293	0.0115047940916654
158	7	1106	0.0315144966684675	0.0135077518740784
159	4	636	0.0180082838105529	0.0077675679854556
160	6	960	0.0270124257158293	0.0117246309214424
161	5	805	0.0225103547631911	0.00983159155391785
162	6	972	0.0270124257158293	0.0118711888079604
163	3	489	0.0135062128579146	0.00597223387560973
164	6	984	0.0270124257158293	0.0120177466944785
165	3	495	0.0135062128579146	0.00604551281886874
166	1	166	0.00450207095263821	0.00202738409683275
167	4	668	0.0180082838105529	0.00815838901617034
168	2	336	0.00900414190527643	0.00410362082250484
169	5	845	0.0225103547631911	0.0103201178423113
170	3	510	0.0135062128579146	0.00622871017701628
171	5	855	0.0225103547631911	0.0104422494144096
172	7	1204	0.0315144966684675	0.0147046412806424
173	6	1038	0.0270124257158293	0.0126772571838096
174	2	348	0.00900414190527643	0.00425017870902287
175	3	525	0.0135062128579146	0.00641190753516382
176	4	704	0.0180082838105529	0.00859806267572443
177	7	1239	0.0315144966684675	0.0151321017829866
178	4	712	0.0180082838105529	0.00869576793340312
179	3	537	0.0135062128579146	0.00655846542168185
180	2	360	0.00900414190527643	0.0043967365955409
181	2	362	0.00900414190527643	0.00442116290996058
182	2	364	0.00900414190527643	0.00444558922438025
183	6	1098	0.0270124257158293	0.0134100466163998
184	4	736	0.0180082838105529	0.00898888370643918
185	6	1110	0.0270124257158293	0.0135566045029178
186	5	930	0.0225103547631911	0.0113582362051473
187	2	374	0.00900414190527643	0.00456772079647861
188	1	188	0.00450207095263821	0.00229607355544914
189	5	945	0.0225103547631911	0.0115414335632949
190	2	380	0.00900414190527643	0.00464099973973762
191	3	573	0.0135062128579146	0.00699813908123594
192	4	768	0.0180082838105529	0.00937970473715393
193	5	965	0.0225103547631911	0.0117856967074916
194	1	194	0.00450207095263821	0.00236935249870815
195	1	195	0.00450207095263821	0.00238156565591799
196	7	1372	0.0315144966684675	0.0167564516918948
197	4	788	0.0180082838105529	0.00962396788135064
198	2	396	0.00900414190527643	0.00483641025509499
199	2	398	0.00900414190527643	0.00486083656951466
200	4	800	0.0180082838105529	0.00977052576786867
201	2	402	0.00900414190527643	0.00490968919835401
203	5	1015	0.0225103547631911	0.0123963545679834
204	3	612	0.0135062128579146	0.00747445221241954
205	4	820	0.0180082838105529	0.0100147889120654
206	3	618	0.0135062128579146	0.00754773115567855
207	6	1242	0.0270124257158293	0.0151687412546161
209	1	209	0.00450207095263821	0.00255254985685569
210	2	420	0.00900414190527643	0.00512952602813105
211	2	422	0.00900414190527643	0.00515395234255073
212	1	212	0.00450207095263821	0.0025891893284852
213	3	639	0.0135062128579146	0.0078042074570851
214	2	428	0.00900414190527643	0.00522723128580974
215	1	215	0.00450207095263821	0.00262582880011471
219	1	219	0.00450207095263821	0.00267468142895405
220	2	440	0.00900414190527643	0.00537378917232777
221	3	663	0.0135062128579146	0.00809732323012116
222	4	888	0.0180082838105529	0.0108452836023342
223	3	669	0.0135062128579146	0.00817060217338018
226	5	1130	0.0225103547631911	0.0138008676471145
227	2	454	0.00900414190527643	0.00554477337326547
228	3	684	0.0135062128579146	0.00835379953152772
229	3	687	0.0135062128579146	0.00839043900315722
230	3	690	0.0135062128579146	0.00842707847478673
231	3	693	0.0135062128579146	0.00846371794641624
232	1	232	0.00450207095263821	0.00283345247268192
234	4	936	0.0180082838105529	0.0114315151484063
236	4	944	0.0180082838105529	0.011529220406085
237	1	237	0.00450207095263821	0.00289451825873109
238	2	476	0.00900414190527643	0.00581346283188186
239	2	478	0.00900414190527643	0.00583788914630153
240	1	240	0.00450207095263821	0.0029311577303606
241	1	241	0.00450207095263821	0.00294337088757044
243	2	486	0.00900414190527643	0.00593559440398022
244	2	488	0.00900414190527643	0.00596002071839989
246	1	246	0.00450207095263821	0.00300443667361962
247	2	494	0.00900414190527643	0.00603329966165891
248	3	744	0.0135062128579146	0.00908658896411787
249	3	747	0.0135062128579146	0.00912322843574737
250	3	750	0.0135062128579146	0.00915986790737688
251	1	251	0.00450207095263821	0.0030655024596688
252	3	756	0.0135062128579146	0.0092331468506359
253	5	1265	0.0225103547631911	0.0154496438704423
254	3	762	0.0135062128579146	0.00930642579389491
255	1	255	0.00450207095263821	0.00311435508850814
256	3	768	0.0135062128579146	0.00937970473715393
257	1	257	0.00450207095263821	0.00313878140292781
258	2	516	0.00900414190527643	0.00630198912027529
259	1	259	0.00450207095263821	0.00316320771734748
260	1	260	0.00450207095263821	0.00317542087455732
262	2	524	0.00900414190527643	0.00639969437795398
263	2	526	0.00900414190527643	0.00642412069237365
264	3	792	0.0135062128579146	0.00967282051018999
265	1	265	0.00450207095263821	0.0032364866606065
269	3	807	0.0135062128579146	0.00985601786833753
270	4	1080	0.0180082838105529	0.0131902097866227
271	2	542	0.00900414190527643	0.00661953120773103
272	1	272	0.00450207095263821	0.00332197876107535
273	2	546	0.00900414190527643	0.00666838383657037
275	1	275	0.00450207095263821	0.00335861823270486
276	3	828	0.0135062128579146	0.0101124941697441
277	5	1385	0.0225103547631911	0.0169152227356226
278	2	556	0.00900414190527643	0.00679051540866873
279	1	279	0.00450207095263821	0.0034074708615442
281	2	562	0.00900414190527643	0.00686379435192774
282	1	282	0.00450207095263821	0.00344411033317371
283	3	849	0.0135062128579146	0.0103689704711506
284	2	568	0.00900414190527643	0.00693707329518676
285	1	285	0.00450207095263821	0.00348074980480322
288	1	288	0.00450207095263821	0.00351738927643272
289	1	289	0.00450207095263821	0.00352960243364256
290	2	580	0.00900414190527643	0.00708363118170479
291	2	582	0.00900414190527643	0.00710805749612446
292	1	292	0.00450207095263821	0.00356624190527207
293	2	586	0.00900414190527643	0.0071569101249638
294	3	882	0.0135062128579146	0.0107720046590752
295	2	590	0.00900414190527643	0.00720576275380315
297	3	891	0.0135062128579146	0.0108819230739637
298	1	298	0.00450207095263821	0.00363952084853108
300	3	900	0.0135062128579146	0.0109918414888523
301	1	301	0.00450207095263821	0.00367616032016059
302	2	604	0.00900414190527643	0.00737674695474085
306	1	306	0.00450207095263821	0.00373722610620977
307	5	1535	0.0225103547631911	0.018747196317098
308	2	616	0.00900414190527643	0.00752330484125888
309	2	618	0.00900414190527643	0.00754773115567855
311	2	622	0.00900414190527643	0.00759658378451789
312	2	624	0.00900414190527643	0.00762101009893756
313	1	313	0.00450207095263821	0.00382271820667862
314	3	942	0.0135062128579146	0.0115047940916654
315	3	945	0.0135062128579146	0.0115414335632949
317	2	634	0.00900414190527643	0.00774314167103592
318	1	318	0.00450207095263821	0.0038837839927278
319	2	638	0.00900414190527643	0.00779199429987527
320	2	640	0.00900414190527643	0.00781642061429494
321	1	321	0.00450207095263821	0.00392042346435731
323	1	323	0.00450207095263821	0.00394484977877698
324	1	324	0.00450207095263821	0.00395706293598681
325	2	650	0.00900414190527643	0.0079385521863933
326	3	978	0.0135062128579146	0.0119444677512195
327	3	981	0.0135062128579146	0.011981107222849
328	1	328	0.00450207095263821	0.00400591556482616
329	1	329	0.00450207095263821	0.00401812872203599
331	1	331	0.00450207095263821	0.00404255503645566
333	2	666	0.00900414190527643	0.00813396270175067
334	2	668	0.00900414190527643	0.00815838901617034
336	4	1344	0.0180082838105529	0.0164144832900194
337	3	1011	0.0135062128579146	0.012347501939144
338	2	676	0.00900414190527643	0.00825609427384903
339	1	339	0.00450207095263821	0.00414026029413435
340	1	340	0.00450207095263821	0.00415247345134419
341	1	341	0.00450207095263821	0.00416468660855402
342	1	342	0.00450207095263821	0.00417689976576386
344	1	344	0.00450207095263821	0.00420132608018353
345	2	690	0.00900414190527643	0.00842707847478673
347	1	347	0.00450207095263821	0.00423796555181304
348	3	1044	0.0135062128579146	0.0127505361270686
349	2	698	0.00900414190527643	0.00852478373246542
353	2	706	0.00900414190527643	0.0086224889901441
354	1	354	0.00450207095263821	0.00432345765228189
358	1	358	0.00450207095263821	0.00437231028112123
360	2	720	0.00900414190527643	0.00879347319108181
362	2	724	0.00900414190527643	0.00884232581992115
363	1	363	0.00450207095263821	0.00443337606717041
364	2	728	0.00900414190527643	0.00889117844876049
367	2	734	0.00900414190527643	0.00896445739201951
368	1	368	0.00450207095263821	0.00449444185321959
371	2	742	0.00900414190527643	0.00906216264969819
373	2	746	0.00900414190527643	0.00911101527853754
375	2	750	0.00900414190527643	0.00915986790737688
376	2	752	0.00900414190527643	0.00918429422179655
379	2	758	0.00900414190527643	0.00925757316505557
380	2	760	0.00900414190527643	0.00928199947947524
381	5	1905	0.0225103547631911	0.0232660644847373
382	1	382	0.00450207095263821	0.00466542605415729
383	3	1149	0.0135062128579146	0.0140329176341014
385	2	770	0.00900414190527643	0.0094041310515736
386	1	386	0.00450207095263821	0.00471427868299663
388	1	388	0.00450207095263821	0.00473870499741631
389	1	389	0.00450207095263821	0.00475091815462614
390	1	390	0.00450207095263821	0.00476313131183598
391	2	782	0.00900414190527643	0.00955068893809163
393	2	786	0.00900414190527643	0.00959954156693097
394	4	1576	0.0180082838105529	0.0192479357627013
395	2	790	0.00900414190527643	0.00964839419577031
396	2	792	0.00900414190527643	0.00967282051018999
400	1	400	0.00450207095263821	0.00488526288393434
401	2	802	0.00900414190527643	0.00979495208228835
403	2	806	0.00900414190527643	0.00984380471112769
404	2	808	0.00900414190527643	0.00986823102554736
407	1	407	0.00450207095263821	0.00497075498440319
410	2	820	0.00900414190527643	0.0100147889120654
413	2	826	0.00900414190527643	0.0100880678553244
414	1	414	0.00450207095263821	0.00505624708487204
415	2	830	0.00900414190527643	0.0101369204841637
418	1	418	0.00450207095263821	0.00510509971371138
419	2	838	0.00900414190527643	0.0102346257418424
421	2	842	0.00900414190527643	0.0102834783706818
423	1	423	0.00450207095263821	0.00516616549976056
425	2	850	0.00900414190527643	0.0103811836283605
427	1	427	0.00450207095263821	0.0052150181285999
429	2	858	0.00900414190527643	0.0104788888860392
430	3	1290	0.0135062128579146	0.0157549728006882
431	1	431	0.00450207095263821	0.00526387075743925
435	2	870	0.00900414190527643	0.0106254467725572
436	2	872	0.00900414190527643	0.0106498730869769
442	1	442	0.00450207095263821	0.00539821548674744
445	1	445	0.00450207095263821	0.00543485495837695
446	2	892	0.00900414190527643	0.0108941362311736
447	1	447	0.00450207095263821	0.00545928127279662
448	1	448	0.00450207095263821	0.00547149443000646
449	1	449	0.00450207095263821	0.00548370758721629
452	2	904	0.00900414190527643	0.0110406941176916
454	1	454	0.00450207095263821	0.00554477337326547
455	1	455	0.00450207095263821	0.00555698653047531
456	1	456	0.00450207095263821	0.00556919968768514
462	1	462	0.00450207095263821	0.00564247863094416
464	1	464	0.00450207095263821	0.00566690494536383
465	2	930	0.00900414190527643	0.0113582362051473
466	3	1398	0.0135062128579146	0.0170739937793505
468	1	468	0.00450207095263821	0.00571575757420317
469	1	469	0.00450207095263821	0.00572797073141301
473	1	473	0.00450207095263821	0.00577682336025235
477	1	477	0.00450207095263821	0.0058256759890917
481	2	962	0.00900414190527643	0.0117490572358621
482	2	964	0.00900414190527643	0.0117734835502818
484	1	484	0.00450207095263821	0.00591116808956055
485	1	485	0.00450207095263821	0.00592338124677038
489	1	489	0.00450207095263821	0.00597223387560973
490	1	490	0.00450207095263821	0.00598444703281956
493	2	986	0.00900414190527643	0.0120421730088981
500	2	1000	0.00900414190527643	0.0122131572098358
501	1	501	0.00450207095263821	0.00611879176212776
504	2	1008	0.00900414190527643	0.0123108624675145
514	1	514	0.00450207095263821	0.00627756280585562
515	1	515	0.00450207095263821	0.00628977596306546
517	2	1034	0.00900414190527643	0.0126284045549703
520	1	520	0.00450207095263821	0.00635084174911464
523	1	523	0.00450207095263821	0.00638748122074415
527	1	527	0.00450207095263821	0.00643633384958349
528	1	528	0.00450207095263821	0.00644854700679332
530	1	530	0.00450207095263821	0.006472973321213
531	1	531	0.00450207095263821	0.00648518647842283
536	1	536	0.00450207095263821	0.00654625226447201
538	1	538	0.00450207095263821	0.00657067857889168
544	1	544	0.00450207095263821	0.0066439575221507
545	1	545	0.00450207095263821	0.00665617067936053
550	1	550	0.00450207095263821	0.00671723646540971
553	1	553	0.00450207095263821	0.00675387593703922
558	1	558	0.00450207095263821	0.0068149417230884
561	2	1122	0.00900414190527643	0.0137031623894358
570	1	570	0.00450207095263821	0.00696149960960643
575	2	1150	0.00900414190527643	0.0140451307913112
581	1	581	0.00450207095263821	0.00709584433891462
583	1	583	0.00450207095263821	0.0071202706533343
584	1	584	0.00450207095263821	0.00713248381054413
586	1	586	0.00450207095263821	0.0071569101249638
588	1	588	0.00450207095263821	0.00718133643938347
589	1	589	0.00450207095263821	0.00719354959659331
591	1	591	0.00450207095263821	0.00721797591101298
592	1	592	0.00450207095263821	0.00723018906822282
598	2	1196	0.00900414190527643	0.0146069360229637
599	1	599	0.00450207095263821	0.00731568116869167
602	1	602	0.00450207095263821	0.00735232064032118
607	1	607	0.00450207095263821	0.00741338642637036
613	1	613	0.00450207095263821	0.00748666536962937
615	1	615	0.00450207095263821	0.00751109168404904
617	3	1851	0.0135062128579146	0.0226065539954061
624	2	1248	0.00900414190527643	0.0152420201978751
626	1	626	0.00450207095263821	0.00764543641335724
628	1	628	0.00450207095263821	0.00766986272777691
631	1	631	0.00450207095263821	0.00770650219940642
634	1	634	0.00450207095263821	0.00774314167103592
639	1	639	0.00450207095263821	0.0078042074570851
640	1	640	0.00450207095263821	0.00781642061429494
643	1	643	0.00450207095263821	0.00785306008592445
644	1	644	0.00450207095263821	0.00786527324313428
648	1	648	0.00450207095263821	0.00791412587197363
649	1	649	0.00450207095263821	0.00792633902918346
650	1	650	0.00450207095263821	0.0079385521863933
664	1	664	0.00450207095263821	0.008109536387331
670	1	670	0.00450207095263821	0.00818281533059001
674	1	674	0.00450207095263821	0.00823166795942936
680	1	680	0.00450207095263821	0.00830494690268837
684	1	684	0.00450207095263821	0.00835379953152772
687	1	687	0.00450207095263821	0.00839043900315722
689	1	689	0.00450207095263821	0.00841486531757689
701	1	701	0.00450207095263821	0.00856142320409493
704	1	704	0.00450207095263821	0.00859806267572443
705	2	1410	0.00900414190527643	0.0172205516658685
706	1	706	0.00450207095263821	0.0086224889901441
708	2	1416	0.00900414190527643	0.0172938306091276
711	1	711	0.00450207095263821	0.00868355477619328
725	1	725	0.00450207095263821	0.00885453897713099
726	1	726	0.00450207095263821	0.00886675213434082
729	1	729	0.00450207095263821	0.00890339160597033
738	1	738	0.00450207095263821	0.00901331002085885
741	1	741	0.00450207095263821	0.00904994949248836
745	2	1490	0.00900414190527643	0.0181976042426554
749	1	749	0.00450207095263821	0.00914765475016704
754	1	754	0.00450207095263821	0.00920872053621622
756	1	756	0.00450207095263821	0.0092331468506359
759	1	759	0.00450207095263821	0.0092697863222654
761	1	761	0.00450207095263821	0.00929421263668508
765	1	765	0.00450207095263821	0.00934306526552442
779	1	779	0.00450207095263821	0.00951404946646212
784	1	784	0.00450207095263821	0.0095751152525113
792	2	1584	0.00900414190527643	0.01934564102038
800	1	800	0.00450207095263821	0.00977052576786867
806	1	806	0.00450207095263821	0.00984380471112769
807	1	807	0.00450207095263821	0.00985601786833753
817	1	817	0.00450207095263821	0.00997814944043588
819	1	819	0.00450207095263821	0.0100025757548556
820	1	820	0.00450207095263821	0.0100147889120654
826	1	826	0.00450207095263821	0.0100880678553244
847	1	847	0.00450207095263821	0.010344544156731
848	1	848	0.00450207095263821	0.0103567573139408
850	2	1700	0.00900414190527643	0.0207623672567209
858	1	858	0.00450207095263821	0.0104788888860392
860	1	860	0.00450207095263821	0.0105033152004588
862	1	862	0.00450207095263821	0.0105277415148785
864	1	864	0.00450207095263821	0.0105521678292982
871	1	871	0.00450207095263821	0.010637659929767
886	1	886	0.00450207095263821	0.0108208572879146
910	1	910	0.00450207095263821	0.0111139730609506
913	1	913	0.00450207095263821	0.0111506125325801
920	1	920	0.00450207095263821	0.011236104633049
932	1	932	0.00450207095263821	0.011382662519567
937	1	937	0.00450207095263821	0.0114437283056162
939	1	939	0.00450207095263821	0.0114681546200359
955	1	955	0.00450207095263821	0.0116635651353932
959	1	959	0.00450207095263821	0.0117124177642326
960	1	960	0.00450207095263821	0.0117246309214424
980	1	980	0.00450207095263821	0.0119688940656391
994	1	994	0.00450207095263821	0.0121398782665768
1003	1	1003	0.00450207095263821	0.0122497966814654
1010	1	1010	0.00450207095263821	0.0123352887819342
1020	2	2040	0.00900414190527643	0.0249148407080651
1026	1	1026	0.00450207095263821	0.0125306992972916
1049	1	1049	0.00450207095263821	0.0128116019131178
1066	1	1066	0.00450207095263821	0.013019225585685
1096	1	1096	0.00450207095263821	0.0133856203019801
1102	1	1102	0.00450207095263821	0.0134588992452391
1125	1	1125	0.00450207095263821	0.0137398018610653
1153	1	1153	0.00450207095263821	0.0140817702629407
1171	1	1171	0.00450207095263821	0.0143016070927178
1181	1	1181	0.00450207095263821	0.0144237386648161
1185	1	1185	0.00450207095263821	0.0144725912936555
1194	1	1194	0.00450207095263821	0.014582509708544
1195	1	1195	0.00450207095263821	0.0145947228657538
1205	1	1205	0.00450207095263821	0.0147168544378522
1230	1	1230	0.00450207095263821	0.0150221833680981
1233	1	1233	0.00450207095263821	0.0150588228397276
1278	1	1278	0.00450207095263821	0.0156084149141702
1293	1	1293	0.00450207095263821	0.0157916122723177
1299	1	1299	0.00450207095263821	0.0158648912155768
1312	2	2624	0.00900414190527643	0.0320473245186092
1322	1	1322	0.00450207095263821	0.016145793831403
1344	1	1344	0.00450207095263821	0.0164144832900194
1364	1	1364	0.00450207095263821	0.0166587464342161
1366	1	1366	0.00450207095263821	0.0166831727486358
1378	1	1378	0.00450207095263821	0.0168297306351538
1390	1	1390	0.00450207095263821	0.0169762885216718
1395	1	1395	0.00450207095263821	0.017037354307721
1409	1	1409	0.00450207095263821	0.0172083385086587
1443	1	1443	0.00450207095263821	0.0176235858537931
1465	1	1465	0.00450207095263821	0.0178922753124095
1479	1	1479	0.00450207095263821	0.0180632595133472
1490	1	1490	0.00450207095263821	0.0181976042426554
1491	1	1491	0.00450207095263821	0.0182098173998652
1518	1	1518	0.00450207095263821	0.0185395726445308
1522	1	1522	0.00450207095263821	0.0185884252733702
1528	1	1528	0.00450207095263821	0.0186617042166292
1533	1	1533	0.00450207095263821	0.0187227700026783
1540	1	1540	0.00450207095263821	0.0188082621031472
1556	1	1556	0.00450207095263821	0.0190036726185046
1581	1	1581	0.00450207095263821	0.0193090015487505
1599	1	1599	0.00450207095263821	0.0195288383785275
1601	1	1601	0.00450207095263821	0.0195532646929472
1661	1	1661	0.00450207095263821	0.0202860541255373
1662	1	1662	0.00450207095263821	0.0202982672827472
1670	1	1670	0.00450207095263821	0.0203959725404259
1674	1	1674	0.00450207095263821	0.0204448251692652
1690	2	3380	0.00900414190527643	0.0412804713692451
1711	1	1711	0.00450207095263821	0.0208967119860291
1718	1	1718	0.00450207095263821	0.020982204086498
1734	1	1734	0.00450207095263821	0.0211776146018554
1739	1	1739	0.00450207095263821	0.0212386803879045
1752	1	1752	0.00450207095263821	0.0213974514316324
1795	1	1795	0.00450207095263821	0.0219226171916553
1809	1	1809	0.00450207095263821	0.022093601392593
1814	1	1814	0.00450207095263821	0.0221546671786422
1828	1	1828	0.00450207095263821	0.0223256513795799
1842	1	1842	0.00450207095263821	0.0224966355805176
1903	1	1903	0.00450207095263821	0.0232416381703176
1935	1	1935	0.00450207095263821	0.0236324592010324
1942	1	1942	0.00450207095263821	0.0237179513015012
2010	1	2010	0.00450207095263821	0.02454844599177
2041	1	2041	0.00450207095263821	0.024927053865275
2073	1	2073	0.00450207095263821	0.0253178748959897
2201	1	2201	0.00450207095263821	0.0268811590188487
2279	1	2279	0.00450207095263821	0.0278337852812159
2347	1	2347	0.00450207095263821	0.0286642799714847
2368	1	2368	0.00450207095263821	0.0289207562728913
2450	1	2450	0.00450207095263821	0.0299222351640978
2544	1	2544	0.00450207095263821	0.0310702719418224
2609	1	2609	0.00450207095263821	0.0318641271604617
2614	1	2614	0.00450207095263821	0.0319251929465109
2643	1	2643	0.00450207095263821	0.0322793745055961
2660	1	2660	0.00450207095263821	0.0324869981781633
2802	1	2802	0.00450207095263821	0.03422126650196
2804	2	5608	0.00900414190527643	0.0684913856327594
2949	1	2949	0.00450207095263821	0.0360166006118059
2970	1	2970	0.00450207095263821	0.0362730769132125
2982	1	2982	0.00450207095263821	0.0364196347997305
3006	1	3006	0.00450207095263821	0.0367127505727665
3124	1	3124	0.00450207095263821	0.0381539031235272
3228	1	3228	0.00450207095263821	0.0394240714733501
3332	1	3332	0.00450207095263821	0.040694239823173
3380	1	3380	0.00450207095263821	0.0412804713692451
3518	1	3518	0.00450207095263821	0.0429658870642025
3572	1	3572	0.00450207095263821	0.0436253975535336
3668	1	3668	0.00450207095263821	0.0447978606456779
3857	1	3857	0.00450207095263821	0.0471061473583368
3898	1	3898	0.00450207095263821	0.0476068868039401
3899	1	3899	0.00450207095263821	0.0476190999611499
3969	1	3969	0.00450207095263821	0.0484740209658385
4061	1	4061	0.00450207095263821	0.0495976314291434
4098	1	4098	0.00450207095263821	0.0500495182459073
4304	1	4304	0.00450207095263821	0.0525654286311335
4410	1	4410	0.00450207095263821	0.0538600232953761
4429	1	4429	0.00450207095263821	0.0540920732823629
4518	1	4518	0.00450207095263821	0.0551790442740383
4683	1	4683	0.00450207095263821	0.0571942152136612
4910	1	4910	0.00450207095263821	0.059966601900294
4989	1	4989	0.00450207095263821	0.060931441319871
5047	1	5047	0.00450207095263821	0.0616398044380415
5141	1	5141	0.00450207095263821	0.0627878412157661
5211	1	5211	0.00450207095263821	0.0636427622204546
5221	1	5221	0.00450207095263821	0.0637648937925529
5225	1	5225	0.00450207095263821	0.0638137464213923
5566	1	5566	0.00450207095263821	0.0679784330299463
5820	1	5820	0.00450207095263821	0.0710805749612446
5852	1	5852	0.00450207095263821	0.0714713959919593
5960	1	5960	0.00450207095263821	0.0727904169706216
5992	1	5992	0.00450207095263821	0.0731812380013364
6357	1	6357	0.00450207095263821	0.0776390403829264
6490	1	6490	0.00450207095263821	0.0792633902918346
6735	1	6735	0.00450207095263821	0.0822556138082444
6775	1	6775	0.00450207095263821	0.0827441400966378
6836	1	6836	0.00450207095263821	0.0834891426864378
7267	1	7267	0.00450207095263821	0.0887530134438771
7395	1	7395	0.00450207095263821	0.0903162975667361
7431	1	7431	0.00450207095263821	0.0907559712262901
7437	1	7437	0.00450207095263821	0.0908292501695492
7516	1	7516	0.00450207095263821	0.0917940895891262
7823	1	7823	0.00450207095263821	0.0955435288525458
7866	1	7866	0.00450207095263821	0.0960686946125687
7886	1	7886	0.00450207095263821	0.0963129577567654
8163	1	8163	0.00450207095263821	0.09969600230389
8363	1	8363	0.00450207095263821	0.102138633745857
8414	1	8414	0.00450207095263821	0.102761504763559
8556	1	8556	0.00450207095263821	0.104495773087355
8721	1	8721	0.00450207095263821	0.106510944026978
8985	1	8985	0.00450207095263821	0.109735217530375
9048	1	9048	0.00450207095263821	0.110504646434595
9127	1	9127	0.00450207095263821	0.111469485854172
9173	1	9173	0.00450207095263821	0.112031291085824
9315	1	9315	0.00450207095263821	0.113765559409621
9653	1	9653	0.00450207095263821	0.117893606546545
10197	1	10197	0.00450207095263821	0.124537564068696
10324	1	10324	0.00450207095263821	0.126088635034345
10437	1	10437	0.00450207095263821	0.127468721799057
10488	1	10488	0.00450207095263821	0.128091592816758
10560	1	10560	0.00450207095263821	0.128970940135866
10831	1	10831	0.00450207095263821	0.132280705739732
10900	1	10900	0.00450207095263821	0.133123413587211
11032	1	11032	0.00450207095263821	0.134735550338909
11170	1	11170	0.00450207095263821	0.136420966033866
12178	1	12178	0.00450207095263821	0.148731828501381
12396	1	12396	0.00450207095263821	0.151394296773125
12459	1	12459	0.00450207095263821	0.152163725677345
12557	1	12557	0.00450207095263821	0.153360615083909
12653	1	12653	0.00450207095263821	0.154533078176053
12964	1	12964	0.00450207095263821	0.158331370068312
13121	1	13121	0.00450207095263821	0.160248835750256
13272	1	13272	0.00450207095263821	0.162093022488941
13305	1	13305	0.00450207095263821	0.162496056676866
13613	1	13613	0.00450207095263821	0.166257709097495
13622	1	13622	0.00450207095263821	0.166367627512384
13766	1	13766	0.00450207095263821	0.1681263221506
13829	1	13829	0.00450207095263821	0.16889575105482
14066	1	14066	0.00450207095263821	0.171790269313551
14067	1	14067	0.00450207095263821	0.171802482470761
14333	1	14333	0.00450207095263821	0.175051182288577
14918	1	14918	0.00450207095263821	0.182195879256331
16285	1	16285	0.00450207095263821	0.198891265162177
16420	1	16420	0.00450207095263821	0.200540041385505
16573	1	16573	0.00450207095263821	0.202408654438609
17094	1	17094	0.00450207095263821	0.208771709344934
17178	1	17178	0.00450207095263821	0.20979761455056
17583	1	17583	0.00450207095263821	0.214743943220544
17940	1	17940	0.00450207095263821	0.219104040344455
18264	1	18264	0.00450207095263821	0.223061103280442
18359	1	18359	0.00450207095263821	0.224221353215376
18464	1	18464	0.00450207095263821	0.225503734722409
18639	1	18639	0.00450207095263821	0.22764103723413
18672	1	18672	0.00450207095263821	0.228044071422055
18701	1	18701	0.00450207095263821	0.22839825298114
19128	1	19128	0.00450207095263821	0.23361327110974
19259	1	19259	0.00450207095263821	0.235213194704228
19328	1	19328	0.00450207095263821	0.236055902551707
19408	1	19408	0.00450207095263821	0.237032955128494
19635	1	19635	0.00450207095263821	0.239805341815127
20055	1	20055	0.00450207095263821	0.244934867843258
20710	1	20710	0.00450207095263821	0.2529344858157
21149	1	21149	0.00450207095263821	0.258296061830818
21206	1	21206	0.00450207095263821	0.258992211791779
21245	1	21245	0.00450207095263821	0.259468524922962
21375	1	21375	0.00450207095263821	0.261056235360241
21462	1	21462	0.00450207095263821	0.262118780037497
21490	1	21490	0.00450207095263821	0.262460748439372
21931	1	21931	0.00450207095263821	0.26784675076891
21947	1	21947	0.00450207095263821	0.268042161284267
23005	1	23005	0.00450207095263821	0.280963681612274
23764	1	23764	0.00450207095263821	0.290233467934539
23811	1	23811	0.00450207095263821	0.290807486323401
25263	1	25263	0.00450207095263821	0.308540990592083
25343	1	25343	0.00450207095263821	0.30951804316887
25551	1	25551	0.00450207095263821	0.312058379868516
25922	1	25922	0.00450207095263821	0.316589461193365
26015	1	26015	0.00450207095263821	0.317725284813879
26845	1	26845	0.00450207095263821	0.327862205298043
27205	1	27205	0.00450207095263821	0.332258941893584
27288	1	27288	0.00450207095263821	0.333272633942
27469	1	27469	0.00450207095263821	0.335483215396981
27839	1	27839	0.00450207095263821	0.34000208356462
27860	1	27860	0.00450207095263821	0.340258559866027
28164	1	28164	0.00450207095263821	0.343971359657817
28450	1	28450	0.00450207095263821	0.34746432261983
28664	1	28664	0.00450207095263821	0.350077938262735
28939	1	28939	0.00450207095263821	0.353436556495439
29353	1	29353	0.00450207095263821	0.358492803580311
29476	1	29476	0.00450207095263821	0.359995021917121
29518	1	29518	0.00450207095263821	0.360507974519934
29531	1	29531	0.00450207095263821	0.360666745563662
30246	1	30246	0.00450207095263821	0.369399152968695
30259	1	30259	0.00450207095263821	0.369557924012423
31004	1	31004	0.00450207095263821	0.37865672613375
31078	1	31078	0.00450207095263821	0.379560499767278
31580	1	31580	0.00450207095263821	0.385691504686616
31798	1	31798	0.00450207095263821	0.38835397295836
33251	1	33251	0.00450207095263821	0.406099690384252
33997	1	33997	0.00450207095263821	0.415210705662789
34415	1	34415	0.00450207095263821	0.4203158053765
34492	1	34492	0.00450207095263821	0.421256218481658
34818	1	34818	0.00450207095263821	0.425237707732064
35457	1	35457	0.00450207095263821	0.433041915189149
35749	1	35749	0.00450207095263821	0.436608157094422
36623	1	36623	0.00450207095263821	0.447282456495818
37053	1	37053	0.00450207095263821	0.452534114096047
37713	1	37713	0.00450207095263821	0.460594797854539
38621	1	38621	0.00450207095263821	0.47168434460107
40202	1	40202	0.00450207095263821	0.49099334614982
41225	1	41225	0.00450207095263821	0.503487405975483
41423	1	41423	0.00450207095263821	0.50590561110303
41424	1	41424	0.00450207095263821	0.50591782426024
42227	1	42227	0.00450207095263821	0.515724989499738
42813	1	42813	0.00450207095263821	0.522881899624702
42935	1	42935	0.00450207095263821	0.524371904804302
44581	1	44581	0.00450207095263821	0.544474761571692
44612	1	44612	0.00450207095263821	0.544853369445197
45793	1	45793	0.00450207095263821	0.559277108110013
47600	1	47600	0.00450207095263821	0.581346283188186
48382	1	48382	0.00450207095263821	0.590896972126278
49234	1	49234	0.00450207095263821	0.601302582069058
50202	1	50202	0.00450207095263821	0.613124918248179
50230	1	50230	0.00450207095263821	0.613466886650054
51328	1	51328	0.00450207095263821	0.626876933266454
52875	1	52875	0.00450207095263821	0.64577068747007
54590	1	54590	0.00450207095263821	0.666716252084939
56866	1	56866	0.00450207095263821	0.694513397894525
57099	1	57099	0.00450207095263821	0.697359063524417
59047	1	59047	0.00450207095263821	0.721150293769177
60446	1	60446	0.00450207095263821	0.738236500705737
62999	1	62999	0.00450207095263821	0.769416691062448
64567	1	64567	0.00450207095263821	0.788566921567471
64748	1	64748	0.00450207095263821	0.790777503022451
66679	1	66679	0.00450207095263821	0.814361109594644
66877	1	66877	0.00450207095263821	0.816779314722192
68659	1	68659	0.00450207095263821	0.838543160870119
69398	1	69398	0.00450207095263821	0.847568684048188
76204	1	76204	0.00450207095263821	0.93069143201833
79920	1	79920	0.00450207095263821	0.97607552421008
81943	1	81943	0.00450207095263821	1.00078274124558
86986	1	86986	0.00450207095263821	1.06237369305478
88719	1	88719	0.00450207095263821	1.08353909449943
94683	1	94683	0.00450207095263821	1.15637836409889
98249	1	98249	0.00450207095263821	1.19993048270916
101487	1	101487	0.00450207095263821	1.23947668575461
104406	1	104406	0.00450207095263821	1.27512689165012
105214	1	105214	0.00450207095263821	1.28499512267567
107251	1	107251	0.00450207095263821	1.3098733239121
110641	1	110641	0.00450207095263821	1.35127592685345
115075	1	115075	0.00450207095263821	1.40542906592186
116730	1	116730	0.00450207095263821	1.42564184110414
118520	1	118520	0.00450207095263821	1.44750339250974
124133	1	124133	0.00450207095263821	1.51605584392855
125578	1	125578	0.00450207095263821	1.53370385609677
129233	1	129233	0.00450207095263821	1.57834294569872
134054	1	134054	0.00450207095263821	1.63722257660733
139287	1	139287	0.00450207095263821	1.7011340282864
150482	1	150482	0.00450207095263821	1.83786032325052
172222	1	172222	0.00450207095263821	2.10337436099235
187219	1	187219	0.00450207095263821	2.28653507966826
193194	1	193194	0.00450207095263821	2.35950869399703
194316	1	194316	0.00450207095263821	2.37321185638646
194757	1	194757	0.00450207095263821	2.378597858716
208551	1	208551	0.00450207095263821	2.54706614926847
239258	1	239258	0.00450207095263821	2.9220955677109
