NaN CASSFSRDYEQY 12 Scheinberg_CMV	3
26 CASSLAGTYNEQFFGPG 6 Flu_M1_18 0	1
29 CASSLGETQYFGPG 10 Flu_M1_19 0	9
21 CASSQGTGSNEQFFGPG 6 Flu_M1_7 0	13
6 CASSLRGDTQYFGPG 8 Flu_M1_26 9780222	4
4 CASSLGGYEQYFGPG 12 Poly_013 0	1
19 CASSLGSYEQYFGPG 12 CMV_pp65_25 11337383	1
27 CASSLGSYEQY 12 Scheinberg_CMV	1
27 CASSLGGSYEQY 12 Scheinberg_CMV	1
