6 CASRPGQTYNEQFFGPG 6 Flu_M1_7 10880387	1
42 CASSLGGETQYFGPG 10 Flu_M1_26 18191637	201
37 CASSSGYEQYFGPG 12 Flu_M1_37 10608757	115
15 CSASSGHNEQFFGPG 6 Flu_M1_7 0	1
42 CASSLGQAYEQYFGPG 12 EBV3_003 0	7
44 CASSVEGGNTIYFGEG 2 Flu_M1_23 17404318	1
NaN CASSSGGSSYNEQFF 6 Codina_T1D	3
6 CASSLGSTYEQYFGPG 12 Flu_M1_10 9780222	2
37 CASSFSYEQYFGPG 12 CMV3_008 10608757	4
37 CASSLDRAYEQYFGPG 12 CMV_pp65_25 10608757	19
26 CASSLVSASSYNEQFFGPG 6 Flu_M1_20 10975868	3
37 CASSLVGYEQYFGPG 12 CMV_pp65_25 10608757	2
26 CASSLAGTYNEQFFGPG 6 Flu_M1_18 0	10
27 CASSLDHNEQF 6 Scheinberg_CMV	1
21 CASSLDRSSGNTIYF 2 Gattinoni_CMV	115
6 CASRTGVSNQPQHFGDG 4 MS_084 10975868	9
18 CASSWGGYEQYFGPG 12 CMV_pp65_48 12393664	1
NaN CASSIPGPNSPLH 5 Somma_MS	1
26 CASSPDRGRSYEQY 12 Venturi_EBV	17
28 CASSPGQGAPETQY 12 Scheinberg_CMV	26
29 CASSLVAGGGETQYFGPG 10 Flu_M1_25 0	7
8 CASSARGPNEQFFGPG 6 Flu_M1_16 10880387	2630
26 CASSLANEQFFGPG 6 CMV_pp65_15 0	1
37 CASSLGQGAYEQYFGPG 12 CMV2_042 10608757	11
30 CASSLGQGTYEQYFGPG 12 CMV2_042 8381833	1
15 CSARDRGIGNTIY 2 Venturi_EBV	24
27 CASSLSGSSYEQY 12 Scheinberg_CMV	14
31 CASSRDSYNEQFFGPG 6 CMV_pp65_16 0	7
18 CASSLRDTQYFGPG 8 Flu_M1_19 9780222	1
19 CASSSTRGEQYFGPG 12 Flu_M1_27 10975868	1
18 CASSSTSTDTQYFGPG 8 Flu1_031 10608757	1
12 CASSPGLAGGPSYNEQFFGPG 6 Pauci_003 0	17
21 CASSLGTDTQYFGPG 8 Flu_M1_26 3487785	30
15 CSASQGSYEQYFGPG 12 CMV_pp65_25 0	1
29 CASSLGETQYFGPG 10 Flu_M1_19 0	1
26 CASSSEETQYFGPG 10 CMV3_017 0	1
42 CASSSSAGNEQF 6 Scheinberg_CMV	2
26 CASSLDSYEQYFGPG 12 Flu_M1_37 10702422	12
44 CASSVAGGEQYFGPG 12 MS_120 17404318	20
18 CASSLYRGGTGELFFGEG 7 CMV3_019 12393664	37
18 CASSPGTDSGNTIYFGEG 2 Flu_M1_23 9780222	2
21 CASSPGGSYEQYF 12 Gattinoni_CMV	41
26 CASSLEGGYEQYFGPG 12 CMV_pp65_25 11337383	19
9 CASSLGTASYNEQF 6 Somma_MS	1
23 CASSRTTSSSYNEQFFGPG 6 CMV2_020 0	2
42 CASSPLAGGSYNEQFFGPG 6 MS_039 3494611	1
4 CASSLGGYEQYFGPG 12 Poly_013 0	3
19 CASSLGSYEQYFGPG 12 CMV_pp65_25 11337383	555
26 CASSSQETQYFGPG 10 Flu_M1_40 10975868	1
27 CASSLGSYEQY 12 Scheinberg_CMV	555
6 CASSVVNEQF 6 Venturi_CMV	1
NaN CASSLGRETQY 10 Somma_MS	2
26 CASSLGFNTGELFFGEG 7 CMV_pp65_34 10934227	6
33 CASSYLGSYNEQFFGPG 6 Flu_M1_24 12880423	1635
19 CASSQRGNEQFF 6 Gattinoni_CMV	1
14 CASVWGSGEQYFGPG 12 MS_028 0	163
0 CASSLDGNNEQFFGPG 6 CMV_pp65_25 0	9
18 CASSLVGRYNEQFFGPG 6 Flu_M1_18 18191637	1
33 CASSYSSYEQYFGPG 12 Poly_011 0	599
NaN CASSQGRGNTEAF 0 Somma_MS	1
27 CASSLGGSYEQY 12 Scheinberg_CMV	13
5 CASSLTGGETQYFGPG 10 Flu_M1_12 15342907	3
8 CASSFGTSGDNEQF 6 Somma_MS	7
31 CASSFGTSGDNEQFFGPG 6 MS_100 10934227	7
