37 CASSFSYEQYFGPG 12 CMV3_008 10608757	1
6 CASSYQGSEQYFGPG 12 Flu1_022 16409835	1
37 CASSLVGYEQYFGPG 12 CMV_pp65_25 10608757	25
9 CASSRRGRSYNEQFFGPG 6 CMV2_020 12393664	1
27 CASSLGLFYEQY 12 Scheinberg_CMV	1
