Count	Number_Unique	Total_Count_Unique	Percent_Number_Unique	Percent_Total_Count
1	182	182	21.2121212121212	0.00433125536201084
2	109	218	12.7039627039627	0.00518798719185914
3	61	183	7.10955710955711	0.00435505346839552
4	29	116	3.37995337995338	0.0027605803406223
5	29	145	3.37995337995338	0.00345072542577787
6	28	168	3.26340326340326	0.0039980818726254
7	18	126	2.0979020979021	0.00299856140446905
8	17	136	1.98135198135198	0.0032365424683158
9	7	63	0.815850815850816	0.00149928070223452
10	5	50	0.582750582750583	0.00118990531923375
11	9	99	1.04895104895105	0.00235601253208282
12	12	144	1.3986013986014	0.0034269273193932
13	14	182	1.63170163170163	0.00433125536201084
14	3	42	0.34965034965035	0.000999520468156349
15	7	105	0.815850815850816	0.00249880117039087
16	4	64	0.466200466200466	0.0015230788086192
17	7	119	0.815850815850816	0.00283197465977632
18	4	72	0.466200466200466	0.0017134636596966
19	3	57	0.34965034965035	0.00135649206392647
20	7	140	0.815850815850816	0.0033317348938545
21	4	84	0.466200466200466	0.0019990409363127
22	5	110	0.582750582750583	0.00261779170231425
23	1	23	0.116550116550117	0.000547356446847524
24	2	48	0.233100233100233	0.0011423091064644
25	3	75	0.34965034965035	0.00178485797885062
26	2	52	0.233100233100233	0.0012375015320031
27	3	81	0.34965034965035	0.00192764661715867
28	1	28	0.116550116550117	0.000666346978770899
29	3	87	0.34965034965035	0.00207043525546672
30	1	30	0.116550116550117	0.000713943191540249
31	2	62	0.233100233100233	0.00147548259584985
32	2	64	0.233100233100233	0.0015230788086192
34	4	136	0.466200466200466	0.0032365424683158
35	2	70	0.233100233100233	0.00166586744692725
36	2	72	0.233100233100233	0.0017134636596966
37	2	74	0.233100233100233	0.00176105987246595
38	1	38	0.116550116550117	0.000904328042617649
40	2	80	0.233100233100233	0.001903848510774
41	1	41	0.116550116550117	0.000975722361771674
42	1	42	0.116550116550117	0.000999520468156349
43	4	172	0.466200466200466	0.0040932742981641
44	2	88	0.233100233100233	0.0020942333618514
45	1	45	0.116550116550117	0.00107091478731037
47	1	47	0.116550116550117	0.00111851100007972
49	1	49	0.116550116550117	0.00116610721284907
50	4	200	0.466200466200466	0.00475962127693499
51	1	51	0.116550116550117	0.00121370342561842
52	2	104	0.233100233100233	0.0024750030640062
53	1	53	0.116550116550117	0.00126129963838777
54	1	54	0.116550116550117	0.00128509774477245
55	1	55	0.116550116550117	0.00130889585115712
56	1	56	0.116550116550117	0.0013326939575418
57	1	57	0.116550116550117	0.00135649206392647
59	1	59	0.116550116550117	0.00140408827669582
60	1	60	0.116550116550117	0.0014278863830805
61	3	183	0.34965034965035	0.00435505346839552
64	1	64	0.116550116550117	0.0015230788086192
65	2	130	0.233100233100233	0.00309375383000775
66	1	66	0.116550116550117	0.00157067502138855
68	1	68	0.116550116550117	0.0016182712341579
70	3	210	0.34965034965035	0.00499760234078174
72	2	144	0.233100233100233	0.0034269273193932
73	1	73	0.116550116550117	0.00173726176608127
75	1	75	0.116550116550117	0.00178485797885062
76	4	304	0.466200466200466	0.00723462434094119
78	1	78	0.116550116550117	0.00185625229800465
79	3	237	0.34965034965035	0.00564015121316797
80	1	80	0.116550116550117	0.001903848510774
82	1	82	0.116550116550117	0.00195144472354335
83	1	83	0.116550116550117	0.00197524282992802
85	1	85	0.116550116550117	0.00202283904269737
88	1	88	0.116550116550117	0.0020942333618514
91	1	91	0.116550116550117	0.00216562768100542
95	1	95	0.116550116550117	0.00226082010654412
96	1	96	0.116550116550117	0.0022846182129288
98	1	98	0.116550116550117	0.00233221442569815
100	1	100	0.116550116550117	0.0023798106384675
101	1	101	0.116550116550117	0.00240360874485217
102	2	204	0.233100233100233	0.00485481370247369
104	1	104	0.116550116550117	0.0024750030640062
105	1	105	0.116550116550117	0.00249880117039087
108	1	108	0.116550116550117	0.0025701954895449
112	1	112	0.116550116550117	0.0026653879150836
114	1	114	0.116550116550117	0.00271298412785295
115	1	115	0.116550116550117	0.00273678223423762
116	1	116	0.116550116550117	0.0027605803406223
120	1	120	0.116550116550117	0.002855772766161
122	1	122	0.116550116550117	0.00290336897893035
123	2	246	0.233100233100233	0.00585433417063004
127	2	254	0.233100233100233	0.00604471902170744
129	1	129	0.116550116550117	0.00306995572362307
130	1	130	0.116550116550117	0.00309375383000775
131	1	131	0.116550116550117	0.00311755193639242
132	1	132	0.116550116550117	0.0031413500427771
133	1	133	0.116550116550117	0.00316514814916177
135	2	270	0.233100233100233	0.00642548872386224
138	1	138	0.116550116550117	0.00328413868108515
140	2	280	0.233100233100233	0.00666346978770899
141	1	141	0.116550116550117	0.00335553300023917
142	3	426	0.34965034965035	0.0101379933198715
144	1	144	0.116550116550117	0.0034269273193932
149	1	149	0.116550116550117	0.00354591785131657
154	1	154	0.116550116550117	0.00366490838323995
157	1	157	0.116550116550117	0.00373630270239397
158	2	316	0.233100233100233	0.00752020161755729
159	1	159	0.116550116550117	0.00378389891516332
160	3	480	0.34965034965035	0.011423091064644
162	1	162	0.116550116550117	0.00385529323431735
163	1	163	0.116550116550117	0.00387909134070202
172	1	172	0.116550116550117	0.0040932742981641
174	1	174	0.116550116550117	0.00414087051093345
175	1	175	0.116550116550117	0.00416466861731812
177	1	177	0.116550116550117	0.00421226483008747
187	1	187	0.116550116550117	0.00445024589393422
188	2	376	0.233100233100233	0.00894808800063779
189	1	189	0.116550116550117	0.00449784210670357
191	1	191	0.116550116550117	0.00454543831947292
195	1	195	0.116550116550117	0.00464063074501162
196	1	196	0.116550116550117	0.00466442885139629
200	1	200	0.116550116550117	0.00475962127693499
205	1	205	0.116550116550117	0.00487861180885837
213	1	213	0.116550116550117	0.00506899665993577
220	1	220	0.116550116550117	0.00523558340462849
226	1	226	0.116550116550117	0.00537837204293654
231	1	231	0.116550116550117	0.00549736257485992
235	1	235	0.116550116550117	0.00559255500039862
238	1	238	0.116550116550117	0.00566394931955264
239	1	239	0.116550116550117	0.00568774742593732
245	1	245	0.116550116550117	0.00583053606424537
249	1	249	0.116550116550117	0.00592572848978407
253	1	253	0.116550116550117	0.00602092091532277
254	1	254	0.116550116550117	0.00604471902170744
265	1	265	0.116550116550117	0.00630649819193887
266	1	266	0.116550116550117	0.00633029629832354
269	1	269	0.116550116550117	0.00640169061747757
272	1	272	0.116550116550117	0.00647308493663159
285	1	285	0.116550116550117	0.00678246031963237
289	1	289	0.116550116550117	0.00687765274517107
304	1	304	0.116550116550117	0.00723462434094119
306	1	306	0.116550116550117	0.00728222055371054
313	1	313	0.116550116550117	0.00744880729840327
315	1	315	0.116550116550117	0.00749640351117262
333	1	333	0.116550116550117	0.00792476942609677
334	1	334	0.116550116550117	0.00794856753248144
348	1	348	0.116550116550117	0.00828174102186689
361	1	361	0.116550116550117	0.00859111640486766
366	1	366	0.116550116550117	0.00871010693679104
368	1	368	0.116550116550117	0.00875770314956039
376	1	376	0.116550116550117	0.00894808800063779
382	1	382	0.116550116550117	0.00909087663894584
397	1	397	0.116550116550117	0.00944784823471596
405	1	405	0.116550116550117	0.00963823308579336
406	1	406	0.116550116550117	0.00966203119217804
407	1	407	0.116550116550117	0.00968582929856271
414	1	414	0.116550116550117	0.00985241604325544
417	1	417	0.116550116550117	0.00992381036240946
444	1	444	0.116550116550117	0.0105663592347957
449	1	449	0.116550116550117	0.0106853497667191
452	1	452	0.116550116550117	0.0107567440858731
464	1	464	0.116550116550117	0.0110423213624892
477	1	477	0.116550116550117	0.01135169674549
480	1	480	0.116550116550117	0.011423091064644
490	1	490	0.116550116550117	0.0116610721284907
496	1	496	0.116550116550117	0.0118038607667988
509	1	509	0.116550116550117	0.0121132361497996
515	1	515	0.116550116550117	0.0122560247881076
524	1	524	0.116550116550117	0.0124702077455697
532	2	1064	0.233100233100233	0.0253211851932942
534	1	534	0.116550116550117	0.0127081888094164
546	1	546	0.116550116550117	0.0129937660860325
547	1	547	0.116550116550117	0.0130175641924172
549	1	549	0.116550116550117	0.0130651604051866
557	1	557	0.116550116550117	0.013255545256264
561	1	561	0.116550116550117	0.0133507376818027
562	2	1124	0.233100233100233	0.0267490715763747
571	1	571	0.116550116550117	0.0135887187456494
572	1	572	0.116550116550117	0.0136125168520341
575	1	575	0.116550116550117	0.0136839111711881
579	1	579	0.116550116550117	0.0137791035967268
589	2	1178	0.233100233100233	0.0280341693211471
595	1	595	0.116550116550117	0.0141598732988816
608	1	608	0.116550116550117	0.0144692486818824
613	1	613	0.116550116550117	0.0145882392138058
614	1	614	0.116550116550117	0.0146120373201904
630	1	630	0.116550116550117	0.0149928070223452
640	1	640	0.116550116550117	0.015230788086192
660	2	1320	0.233100233100233	0.031413500427771
700	1	700	0.116550116550117	0.0166586744692725
701	1	701	0.116550116550117	0.0166824725756572
724	1	724	0.116550116550117	0.0172298290225047
728	1	728	0.116550116550117	0.0173250214480434
741	1	741	0.116550116550117	0.0176343968310442
788	1	788	0.116550116550117	0.0187529078311239
818	1	818	0.116550116550117	0.0194668510226641
866	1	866	0.116550116550117	0.0206091601291285
881	1	881	0.116550116550117	0.0209661317248987
932	1	932	0.116550116550117	0.0221798351505171
973	1	973	0.116550116550117	0.0231555575122887
1002	1	1002	0.116550116550117	0.0238457025974443
1022	1	1022	0.116550116550117	0.0243216647251378
1044	1	1044	0.116550116550117	0.0248452230656007
1060	1	1060	0.116550116550117	0.0252259927677555
1087	1	1087	0.116550116550117	0.0258685416401417
1164	1	1164	0.116550116550117	0.0277009958317617
1175	1	1175	0.116550116550117	0.0279627750019931
1232	1	1232	0.116550116550117	0.0293192670659196
1241	1	1241	0.116550116550117	0.0295334500233816
1308	1	1308	0.116550116550117	0.0311279231511549
1330	1	1330	0.116550116550117	0.0316514814916177
1392	1	1392	0.116550116550117	0.0331269640874676
1411	1	1411	0.116550116550117	0.0335791281087764
1458	1	1458	0.116550116550117	0.0346976391088561
1492	1	1492	0.116550116550117	0.0355067747259351
1563	1	1563	0.116550116550117	0.037196440279247
1599	1	1599	0.116550116550117	0.0380531721090953
1609	1	1609	0.116550116550117	0.038291153172942
1618	1	1618	0.116550116550117	0.0385053361304041
1648	1	1648	0.116550116550117	0.0392192793219444
1666	1	1666	0.116550116550117	0.0396476452368685
1770	1	1770	0.116550116550117	0.0421226483008747
1843	1	1843	0.116550116550117	0.043859910066956
1879	1	1879	0.116550116550117	0.0447166418968043
1946	1	1946	0.116550116550117	0.0463111150245775
1981	1	1981	0.116550116550117	0.0471440487480411
2009	1	2009	0.116550116550117	0.047810395726812
2019	1	2019	0.116550116550117	0.0480483767906588
2030	1	2030	0.116550116550117	0.0483101559608902
2034	1	2034	0.116550116550117	0.0484053483864289
2092	1	2092	0.116550116550117	0.04978563855674
2112	1	2112	0.116550116550117	0.0502616006844335
2153	1	2153	0.116550116550117	0.0512373230462052
2176	1	2176	0.116550116550117	0.0517846794930527
2330	1	2330	0.116550116550117	0.0554495878762927
2353	1	2353	0.116550116550117	0.0559969443231402
2436	1	2436	0.116550116550117	0.0579721871530682
2938	1	2938	0.116550116550117	0.0699188365581751
3220	1	3220	0.116550116550117	0.0766299025586534
3270	1	3270	0.116550116550117	0.0778198078778872
4034	1	4034	0.116550116550117	0.0960015611557788
4313	1	4313	0.116550116550117	0.102641232837103
6168	1	6168	0.116550116550117	0.146786720180675
7681	1	7681	0.116550116550117	0.182793255140688
8302	1	8302	0.116550116550117	0.197571879205572
8556	1	8556	0.116550116550117	0.203616598227279
9788	1	9788	0.116550116550117	0.232935865293199
12669	1	12669	0.116550116550117	0.301498209787447
13651	1	13651	0.116550116550117	0.324867950257198
15368	1	15368	0.116550116550117	0.365729298919685
19124	1	19124	0.116550116550117	0.455114986500524
21429	1	21429	0.116550116550117	0.5099696217172
22503	1	22503	0.116550116550117	0.535528787974341
36645	1	36645	0.116550116550117	0.872081608466414
37304	1	37304	0.116550116550117	0.887764560573915
40127	1	40127	0.116550116550117	0.954946614897853
63353	1	63353	0.116550116550117	1.50768143378831
66287	1	66287	0.116550116550117	1.57750507792095
93828	1	93828	0.116550116550117	2.23292872586128
115983	1	115983	0.116550116550117	2.76017577281376
132073	1	132073	0.116550116550117	3.14308730454318
245496	1	245496	0.116550116550117	5.84233992501217
249372	1	249372	0.116550116550117	5.93458138535917
414601	1	414601	0.116550116550117	9.86671870519263
725816	1	725816	0.116550116550117	17.2730463836992
806108	1	806108	0.116550116550117	19.1838439415376
896354	1	896354	0.116550116550117	21.331527850329
