File_Name	1	1count	2<x<10	2<x<10count	10<x<100	10<x<100count	100<x<1000	100<x<1000count	1000<x<2000	1000<x<2000count	2000<x<3000	2000<x<3000count	3000<x	3000<xcount	Unique_Count	Total_Count
CD8_M1a8-7_2nd_run_F6-5AA_UNIQUE_OUTPUT.txt	6226	6226	6960	29080	3680	119463	837	241801	74	101371	25	61366	224	8870806	18026	9430113
CD8_M2a8-7_F5-1AA_UNIQUE_OUTPUT.txt	1898	1898	2551	9878	1048	35797	360	108367	34	48880	14	35355	73	11190196	5978	11430371
CD8_M3a8-7_F6-1AA_UNIQUE_OUTPUT.txt	3549	3549	4011	15484	1842	64018	758	227388	62	85193	22	55042	89	7330980	10333	7781654
CD8_O1a8-7_F5-5AA_UNIQUE_OUTPUT.txt	2422	2422	2344	8998	1000	34173	463	141291	64	91338	13	31899	41	6072972	6347	6383093
CD8_O2a8-7_F5-2AA_UNIQUE_OUTPUT.txt	1363	1363	1564	6348	850	28887	397	132861	43	57554	10	24480	52	8631885	4279	8883378
CD8_O3a8-7_F6-3AA_UNIQUE_OUTPUT.txt	3980	3980	3615	14435	2165	76588	729	189123	52	67781	16	40250	103	7258848	10660	7651005
CD8_O4a8-7e6_F7-8AA_UNIQUE_OUTPUT.txt	542	542	587	2257	252	8215	121	39353	14	19563	4	9436	33	7688900	1553	7768266
CD8_Y1a8-7_F5-6AA_UNIQUE_OUTPUT.txt	2737	2737	2800	11552	1683	59441	582	161052	49	68692	13	31343	88	9159189	7952	9494006
CD8_Y2a8-7_F5-7AA_UNIQUE_OUTPUT.txt	2386	2386	2168	8370	1040	38454	528	161011	57	75152	23	55761	46	8489971	6248	8831105
CD8_Y3a8-7_F6-2AA_UNIQUE_OUTPUT.txt	4011	4011	3813	15747	2555	87363	720	180916	35	46335	19	47937	123	7139996	11276	7522305
L1ACAA_UNIQUE_OUTPUT.txt	4029	4029	5700	23139	2668	86585	812	257823	85	118351	35	86461	124	13115454	13453	13691842
L1BCAA_UNIQUE_OUTPUT.txt	3893	3893	3265	13172	1907	67389	652	195372	51	70995	21	53125	110	9932162	9899	10336108
L2ACAA_UNIQUE_OUTPUT.txt	3315	3315	3324	13565	2016	70797	666	200643	48	64746	21	49080	121	11684615	9511	12086761
L2BCAA_UNIQUE_OUTPUT.txt	4523	4523	5639	22946	2128	65201	545	174612	74	102103	42	102497	200	11363458	13151	11835340
L3ACAA_UNIQUE_OUTPUT.txt	15085	15085	16485	62282	3892	115521	1414	535320	378	541294	188	464004	371	10681089	37813	12414595
L3BCAA_UNIQUE_OUTPUT.txt	16669	16669	18092	68315	4190	121225	1506	573682	392	566633	201	489426	442	9509650	41492	11345600
L4ACAA_UNIQUE_OUTPUT.txt	28409	28409	57540	243016	13699	335298	3153	1184683	755	1087495	416	1021555	1040	7364794	105012	11265250
L4BCAA_UNIQUE_OUTPUT.txt	28898	28898	34192	125943	5650	174547	3509	1338112	826	1188438	427	1033385	738	5883915	74240	9773238
L5ACAA_UNIQUE_OUTPUT.txt	7997	7997	9478	35306	1986	63830	881	300958	160	229072	80	194059	136	6137547	20718	6968769
L5BCAA_UNIQUE_OUTPUT.txt	7113	7113	7727	29141	1714	56844	986	368450	198	278581	79	195179	189	6434822	18006	7370130
L6ACAA_UNIQUE_OUTPUT.txt	15893	15893	24614	99914	5516	144181	1664	625419	434	626941	207	514355	638	7056087	48966	9082790
L6BCAA_UNIQUE_OUTPUT.txt	18941	18941	22014	83622	4516	133327	1950	735119	458	657267	234	576307	595	6281021	48708	8485604
L7ACAA_UNIQUE_OUTPUT.txt	19460	19460	25024	97047	4976	144138	1962	714840	529	755895	270	659053	586	7974735	52807	10365168
L7BCAA_UNIQUE_OUTPUT.txt	17938	17938	27244	110069	6691	170508	1698	622247	414	591027	198	495534	590	6171105	54773	8178428
L8ACAA_UNIQUE_OUTPUT.txt	22236	22236	15332	55108	6403	236145	4007	1347956	482	679493	166	402479	170	1762562	48796	4505979
L8BCAA_UNIQUE_OUTPUT.txt	16924	16924	19893	84460	12262	419088	2688	624258	47	64853	18	44814	51	878189	51883	2132586
M1CAA_UNIQUE_OUTPUT.txt	27296	27296	30570	129642	12779	356167	1446	407501	244	351167	139	341623	632	8387925	73106	10001321
M1_4_3e8CAA_UNIQUE_OUTPUT.txt	49462	49462	62506	254222	18805	496501	2849	960104	565	802715	312	759208	908	8121560	135407	11443772
M1_4_8CAA_UNIQUE_OUTPUT.txt	8911	8911	7447	30348	4577	155210	1167	314511	61	86791	10	24241	195	7021386	22368	7641398
M1_CCAA_UNIQUE_OUTPUT.txt	80916	80916	95901	397696	35603	994523	5324	1624484	848	1208658	443	1080017	1713	23702074	220748	29088368
M2CAA_UNIQUE_OUTPUT.txt	3190	3190	4144	16566	1505	46609	376	107767	44	61740	22	54111	47	3277442	9328	3567425
M3b4-7_F4-6AA_UNIQUE_OUTPUT.txt	16369	16369	17874	77377	7579	211240	799	222921	141	198125	77	189041	465	6072274	43304	6987347
O1CAA_UNIQUE_OUTPUT.txt	19145	19145	18167	71562	6667	202340	1502	437805	184	258708	65	157651	359	10757344	46089	11904555
O1_4_3e8CAA_UNIQUE_OUTPUT.txt	83988	83988	91503	357064	20139	535482	4567	1689154	1118	1593349	560	1377628	1365	11868170	203240	17504835
O1_4_8CAA_UNIQUE_OUTPUT.txt	8487	8487	7930	30478	3084	108045	1261	363943	139	195181	41	98637	166	15990011	21108	16794782
O1_CCAA_UNIQUE_OUTPUT.txt	105337	105337	112493	441494	29371	834318	7158	2436184	1409	2002265	657	1612447	1868	38780681	258293	46212726
O2b4-7_F4-3AA_UNIQUE_OUTPUT.txt	8413	8413	7916	33310	4280	138500	937	243359	61	89487	24	59689	232	7799577	21863	8372335
O3CAA_UNIQUE_OUTPUT.txt	2516	2516	3080	12774	978	28206	219	69764	43	64610	17	40722	60	2977115	6913	3195707
O4a4-7_F6-8AA_UNIQUE_OUTPUT.txt	1963	1963	1918	7531	980	34499	368	112253	33	44541	10	25489	63	4983443	5335	5209719
Y1_4CAA_UNIQUE_OUTPUT.txt	16795	16795	14450	57819	5840	184682	1382	407187	142	200246	62	155305	301	11171354	38972	12193388
Y1_4_3e8CAA_UNIQUE_OUTPUT.txt	30007	30007	30022	120372	8979	246717	1609	547291	309	448630	176	438449	633	7357022	71735	9188488
Y1_4_8CAA_UNIQUE_OUTPUT.txt	23857	23857	22433	90248	8591	257097	1695	502459	212	298249	83	199985	479	9226493	57350	10598388
Y1_CCAA_UNIQUE_OUTPUT.txt	63245	63245	61272	246930	22262	664185	4691	1454345	658	939063	321	789231	1405	27823976	153854	31980975
Y2b4-7_F4-5AA_UNIQUE_OUTPUT.txt	9284	9284	7612	31506	4750	157772	1084	285861	65	93647	19	48154	209	7671511	23023	8297735
Y3CAA_UNIQUE_OUTPUT.txt	12247	12247	11464	45867	5983	196859	1418	383262	104	147022	26	64311	241	9312205	31483	10161773
