Count	Number_Unique	Total_Count_Unique	Percent_Number_Unique	Percent_Total_Count
1	4523	4523	34.3928218386434	0.0382160546296093
2	1963	3926	14.926621549692	0.033171839592272
3	1088	3264	8.27313512280435	0.0275784219126785
4	729	2916	5.54330469165843	0.0246380754587532
5	498	2490	3.78678427496008	0.0210386858341205
6	405	2430	3.07961371758802	0.020531729548961
7	316	2212	2.40285909816744	0.018689788379548
8	241	1928	1.83256026157707	0.0162901952964596
9	210	1890	1.59683674245305	0.0159691229825252
10	189	1890	1.43715306820774	0.0159691229825252
11	143	1573	1.08736978176565	0.013290703942599
12	133	1596	1.01132993688693	0.0134850371852435
13	116	1508	0.882062200593111	0.0127415013003429
14	109	1526	0.828834309178009	0.0128935881858907
15	112	1680	0.851646262641624	0.0141947759844669
16	94	1504	0.714774541859935	0.0127077042146656
17	70	1190	0.532278914151015	0.0100546329889974
18	67	1206	0.5094669606874	0.0101898213317066
19	67	1273	0.5094669606874	0.0107559225168014
20	54	1080	0.410615162345069	0.00912521313287155
21	59	1239	0.448635084784427	0.0104686472885443
22	56	1232	0.425823131320812	0.010409502388609
23	44	1012	0.334575317466352	0.00855066267635742
24	50	1200	0.380199224393582	0.0101391257031906
25	53	1325	0.403011177857197	0.0111952846306063
26	36	936	0.273743441563379	0.00790851804848868
27	31	837	0.235723519124021	0.00707204017797545
28	36	1008	0.273743441563379	0.00851686559068012
29	34	986	0.258535472587636	0.00833098161945495
30	24	720	0.182495627708919	0.00608347542191437
31	28	868	0.212911565660406	0.00733396759197454
32	33	1056	0.250931488099764	0.00892243061880774
33	24	792	0.182495627708919	0.0066918229641058
34	31	1054	0.235723519124021	0.00890553207596909
35	20	700	0.152079689757433	0.00591448999352786
36	21	756	0.159683674245305	0.00638764919301009
37	17	629	0.129267736293818	0.00531459172275575
38	19	722	0.144475705269561	0.00610037396475302
39	17	663	0.129267736293818	0.00560186695101281
40	14	560	0.106455782830203	0.00473159199482229
41	14	574	0.106455782830203	0.00484988179469284
42	12	504	0.0912478138544597	0.00425843279534006
43	25	1075	0.190099612196791	0.00908296677577492
44	20	880	0.152079689757433	0.00743535884900645
45	17	765	0.129267736293818	0.00646369263578402
46	10	460	0.0760398448787164	0.00388666485288974
47	18	846	0.13687172078169	0.00714808362074938
48	11	528	0.0836438293665881	0.00446121530940387
49	15	735	0.114059767318075	0.00621021449320425
50	14	700	0.106455782830203	0.00591448999352786
51	8	408	0.0608318759029732	0.00344730273908481
52	5	260	0.0380199224393582	0.00219681056902463
53	14	742	0.106455782830203	0.00626935939313953
54	9	486	0.0684358603908448	0.0041063459097922
55	14	770	0.106455782830203	0.00650593899288064
56	6	336	0.0456239069272299	0.00283895519689337
57	14	798	0.106455782830203	0.00674251859262176
58	8	464	0.0608318759029732	0.00392046193856704
59	13	767	0.0988517983423314	0.00648059117862267
60	11	660	0.0836438293665881	0.00557651913675484
61	11	671	0.0836438293665881	0.00566946112236742
62	9	558	0.0684358603908448	0.00471469345198364
63	9	567	0.0684358603908448	0.00479073689475757
64	6	384	0.0456239069272299	0.003244520225021
65	8	520	0.0608318759029732	0.00439362113804927
66	9	594	0.0684358603908448	0.00501886722307935
67	13	871	0.0988517983423314	0.00735931540623252
68	10	680	0.0760398448787164	0.00574550456514135
69	10	690	0.0760398448787164	0.0058299972793346
70	8	560	0.0608318759029732	0.00473159199482229
71	5	355	0.0380199224393582	0.00299949135386056
72	7	504	0.0532278914151015	0.00425843279534006
73	9	657	0.0684358603908448	0.00555117132249686
74	5	370	0.0380199224393582	0.00312623042515044
75	6	450	0.0456239069272299	0.00380217213869648
76	9	684	0.0684358603908448	0.00577930165081865
77	9	693	0.0684358603908448	0.00585534509359258
78	8	624	0.0608318759029732	0.00527234536565912
79	8	632	0.0608318759029732	0.00533993953701372
80	3	240	0.0228119534636149	0.00202782514063812
81	2	162	0.0152079689757433	0.00136878196993073
82	5	410	0.0380199224393582	0.00346420128192346
83	6	498	0.0456239069272299	0.0042077371668241
84	6	504	0.0456239069272299	0.00425843279534006
85	4	340	0.0304159379514866	0.00287275228257067
86	4	344	0.0304159379514866	0.00290654936824798
87	2	174	0.0152079689757433	0.00147017322696264
88	2	176	0.0152079689757433	0.00148707176980129
89	7	623	0.0532278914151015	0.00526389609423979
90	5	450	0.0380199224393582	0.00380217213869648
91	9	819	0.0684358603908448	0.00691995329242759
92	8	736	0.0608318759029732	0.00621866376462358
93	3	279	0.0228119534636149	0.00235734672599182
94	5	470	0.0380199224393582	0.00397115756708299
95	6	570	0.0456239069272299	0.00481608470901554
96	5	480	0.0380199224393582	0.00405565028127625
97	4	388	0.0304159379514866	0.0032783173106983
98	4	392	0.0304159379514866	0.0033121143963756
99	7	693	0.0532278914151015	0.00585534509359258
100	2	200	0.0152079689757433	0.0016898542838651
101	3	303	0.0228119534636149	0.00256012924005563
102	2	204	0.0152079689757433	0.0017236513695424
103	1	103	0.00760398448787164	0.000870274956190528
104	5	520	0.0380199224393582	0.00439362113804927
105	3	315	0.0228119534636149	0.00266152049708754
106	5	530	0.0380199224393582	0.00447811385224252
107	6	642	0.0456239069272299	0.00542443225120698
108	2	216	0.0152079689757433	0.00182504262657431
109	2	218	0.0152079689757433	0.00184194116941296
110	3	330	0.0228119534636149	0.00278825956837742
111	4	444	0.0304159379514866	0.00375147651018053
112	2	224	0.0152079689757433	0.00189263679792891
113	1	113	0.00760398448787164	0.000954767670383783
114	6	684	0.0456239069272299	0.00577930165081865
115	2	230	0.0152079689757433	0.00194333242644487
116	2	232	0.0152079689757433	0.00196023096928352
117	1	117	0.00760398448787164	0.000988564756061085
118	5	590	0.0380199224393582	0.00498507013740205
119	3	357	0.0228119534636149	0.00301638989669921
120	2	240	0.0152079689757433	0.00202782514063812
121	2	242	0.0152079689757433	0.00204472368347677
122	2	244	0.0152079689757433	0.00206162222631542
123	3	369	0.0228119534636149	0.00311778115373111
124	7	868	0.0532278914151015	0.00733396759197454
125	2	250	0.0152079689757433	0.00211231785483138
126	5	630	0.0380199224393582	0.00532304099417507
128	1	128	0.00760398448787164	0.00108150674167367
129	3	387	0.0228119534636149	0.00326986803927897
130	2	260	0.0152079689757433	0.00219681056902463
131	3	393	0.0228119534636149	0.00332056366779493
132	2	264	0.0152079689757433	0.00223060765470193
133	1	133	0.00760398448787164	0.00112375309877029
134	4	536	0.0304159379514866	0.00452880948075847
135	1	135	0.00760398448787164	0.00114065164160894
136	4	544	0.0304159379514866	0.00459640365211308
137	1	137	0.00760398448787164	0.0011575501844476
138	3	414	0.0228119534636149	0.00349799836760076
139	2	278	0.0152079689757433	0.00234889745457249
140	5	700	0.0380199224393582	0.00591448999352786
141	1	141	0.00760398448787164	0.0011913472701249
142	3	426	0.0228119534636149	0.00359938962463267
143	1	143	0.00760398448787164	0.00120824581296355
144	4	576	0.0304159379514866	0.00486678033753149
145	1	145	0.00760398448787164	0.0012251443558022
146	3	438	0.0228119534636149	0.00370078088166457
147	2	294	0.0152079689757433	0.0024840857972817
149	3	447	0.0228119534636149	0.0037768243244385
150	6	900	0.0456239069272299	0.00760434427739296
151	4	604	0.0304159379514866	0.00510335993727261
152	3	456	0.0228119534636149	0.00385286776721243
154	3	462	0.0228119534636149	0.00390356339572839
156	1	156	0.00760398448787164	0.00131808634141478
157	2	314	0.0152079689757433	0.00265307122566821
158	4	632	0.0304159379514866	0.00533993953701372
159	2	318	0.0152079689757433	0.00268686831134551
161	3	483	0.0228119534636149	0.00408099809553422
162	2	324	0.0152079689757433	0.00273756393986147
163	2	326	0.0152079689757433	0.00275446248270012
164	5	820	0.0380199224393582	0.00692840256384692
165	2	330	0.0152079689757433	0.00278825956837742
166	2	332	0.0152079689757433	0.00280515811121607
167	4	668	0.0304159379514866	0.00564411330810944
170	1	170	0.00760398448787164	0.00143637614128534
171	1	171	0.00760398448787164	0.00144482541270466
173	1	173	0.00760398448787164	0.00146172395554331
174	4	696	0.0304159379514866	0.00588069290785056
175	2	350	0.0152079689757433	0.00295724499676393
177	2	354	0.0152079689757433	0.00299104208244123
178	1	178	0.00760398448787164	0.00150397031263994
179	1	179	0.00760398448787164	0.00151241958405927
180	1	180	0.00760398448787164	0.00152086885547859
181	2	362	0.0152079689757433	0.00305863625379584
182	2	364	0.0152079689757433	0.00307553479663449
183	2	366	0.0152079689757433	0.00309243333947314
185	1	185	0.00760398448787164	0.00156311521257522
188	2	376	0.0152079689757433	0.00317692605366639
189	1	189	0.00760398448787164	0.00159691229825252
190	2	380	0.0152079689757433	0.00321072313934369
191	1	191	0.00760398448787164	0.00161381084109117
193	1	193	0.00760398448787164	0.00163070938392982
194	2	388	0.0152079689757433	0.0032783173106983
195	2	390	0.0152079689757433	0.00329521585353695
196	5	980	0.0380199224393582	0.008280285990939
197	2	394	0.0152079689757433	0.00332901293921425
198	2	396	0.0152079689757433	0.0033459114820529
199	1	199	0.00760398448787164	0.00168140501244578
200	1	200	0.00760398448787164	0.0016898542838651
201	3	603	0.0228119534636149	0.00509491066585328
205	3	615	0.0228119534636149	0.00519630192288519
206	1	206	0.00760398448787164	0.00174054991238106
207	2	414	0.0152079689757433	0.00349799836760076
208	2	416	0.0152079689757433	0.00351489691043941
210	5	1050	0.0380199224393582	0.00887173499029179
211	1	211	0.00760398448787164	0.00178279626947768
212	2	424	0.0152079689757433	0.00358249108179402
213	4	852	0.0304159379514866	0.00719877924926534
216	1	216	0.00760398448787164	0.00182504262657431
218	1	218	0.00760398448787164	0.00184194116941296
219	1	219	0.00760398448787164	0.00185039044083229
220	1	220	0.00760398448787164	0.00185883971225161
221	1	221	0.00760398448787164	0.00186728898367094
222	1	222	0.00760398448787164	0.00187573825509026
223	1	223	0.00760398448787164	0.00188418752650959
226	1	226	0.00760398448787164	0.00190953534076757
229	1	229	0.00760398448787164	0.00193488315502554
230	2	460	0.0152079689757433	0.00388666485288974
232	1	232	0.00760398448787164	0.00196023096928352
233	2	466	0.0152079689757433	0.00393736048140569
234	1	234	0.00760398448787164	0.00197712951212217
236	1	236	0.00760398448787164	0.00199402805496082
237	1	237	0.00760398448787164	0.00200247732638015
240	1	240	0.00760398448787164	0.00202782514063812
241	2	482	0.0152079689757433	0.0040725488241149
242	2	484	0.0152079689757433	0.00408944736695355
243	1	243	0.00760398448787164	0.0020531729548961
247	1	247	0.00760398448787164	0.0020869700405734
250	1	250	0.00760398448787164	0.00211231785483138
251	1	251	0.00760398448787164	0.0021207671262507
252	2	504	0.0152079689757433	0.00425843279534006
253	1	253	0.00760398448787164	0.00213766566908935
254	2	508	0.0152079689757433	0.00429222988101736
255	1	255	0.00760398448787164	0.00215456421192801
256	1	256	0.00760398448787164	0.00216301348334733
260	1	260	0.00760398448787164	0.00219681056902463
261	4	1044	0.0304159379514866	0.00882103936177583
263	2	526	0.0152079689757433	0.00444431676656522
264	2	528	0.0152079689757433	0.00446121530940387
265	1	265	0.00760398448787164	0.00223905692612126
267	1	267	0.00760398448787164	0.00225595546895991
268	1	268	0.00760398448787164	0.00226440474037924
270	2	540	0.0152079689757433	0.00456260656643578
271	1	271	0.00760398448787164	0.00228975255463721
273	1	273	0.00760398448787164	0.00230665109747586
274	1	274	0.00760398448787164	0.00231510036889519
278	1	278	0.00760398448787164	0.00234889745457249
280	1	280	0.00760398448787164	0.00236579599741114
281	1	281	0.00760398448787164	0.00237424526883047
282	1	282	0.00760398448787164	0.00238269454024979
283	1	283	0.00760398448787164	0.00239114381166912
285	2	570	0.0152079689757433	0.00481608470901554
286	3	858	0.0228119534636149	0.00724947487778129
287	1	287	0.00760398448787164	0.00242494089734642
288	3	864	0.0228119534636149	0.00730017050629724
290	1	290	0.00760398448787164	0.0024502887116044
292	1	292	0.00760398448787164	0.00246718725444305
293	2	586	0.0152079689757433	0.00495127305172475
296	2	592	0.0152079689757433	0.0050019686802407
297	3	891	0.0228119534636149	0.00752830083461903
299	2	598	0.0152079689757433	0.00505266430875666
301	1	301	0.00760398448787164	0.00254323069721698
303	1	303	0.00760398448787164	0.00256012924005563
305	1	305	0.00760398448787164	0.00257702778289428
307	1	307	0.00760398448787164	0.00259392632573293
310	5	1550	0.0380199224393582	0.0130963706999545
312	2	624	0.0152079689757433	0.00527234536565912
314	1	314	0.00760398448787164	0.00265307122566821
315	3	945	0.0228119534636149	0.00798456149126261
316	1	316	0.00760398448787164	0.00266996976850686
317	2	634	0.0152079689757433	0.00535683807985237
319	1	319	0.00760398448787164	0.00269531758276484
322	1	322	0.00760398448787164	0.00272066539702281
325	1	325	0.00760398448787164	0.00274601321128079
327	1	327	0.00760398448787164	0.00276291175411944
328	1	328	0.00760398448787164	0.00277136102553877
329	1	329	0.00760398448787164	0.00277981029695809
330	2	660	0.0152079689757433	0.00557651913675484
333	1	333	0.00760398448787164	0.0028136073826354
342	1	342	0.00760398448787164	0.00288965082540932
345	3	1035	0.0228119534636149	0.0087449959190019
348	1	348	0.00760398448787164	0.00294034645392528
349	1	349	0.00760398448787164	0.0029487957253446
352	1	352	0.00760398448787164	0.00297414353960258
354	1	354	0.00760398448787164	0.00299104208244123
357	1	357	0.00760398448787164	0.00301638989669921
358	3	1074	0.0228119534636149	0.0090745175043556
361	2	722	0.0152079689757433	0.00610037396475302
362	1	362	0.00760398448787164	0.00305863625379584
363	1	363	0.00760398448787164	0.00306708552521516
364	2	728	0.0152079689757433	0.00615106959326897
368	1	368	0.00760398448787164	0.00310933188231179
369	1	369	0.00760398448787164	0.00311778115373111
371	1	371	0.00760398448787164	0.00313467969656977
372	1	372	0.00760398448787164	0.00314312896798909
373	1	373	0.00760398448787164	0.00315157823940842
374	2	748	0.0152079689757433	0.00632005502165548
377	1	377	0.00760398448787164	0.00318537532508572
378	1	378	0.00760398448787164	0.00319382459650504
382	1	382	0.00760398448787164	0.00322762168218235
383	1	383	0.00760398448787164	0.00323607095360167
384	1	384	0.00760398448787164	0.003244520225021
385	1	385	0.00760398448787164	0.00325296949644032
386	1	386	0.00760398448787164	0.00326141876785965
395	2	790	0.0152079689757433	0.00667492442126715
399	1	399	0.00760398448787164	0.00337125929631088
400	1	400	0.00760398448787164	0.0033797085677302
401	1	401	0.00760398448787164	0.00338815783914953
402	2	804	0.0152079689757433	0.00679321422113771
407	2	814	0.0152079689757433	0.00687770693533097
408	2	816	0.0152079689757433	0.00689460547816962
411	1	411	0.00760398448787164	0.00347265055334279
413	1	413	0.00760398448787164	0.00348954909618144
414	1	414	0.00760398448787164	0.00349799836760076
416	3	1248	0.0228119534636149	0.0105446907313182
420	1	420	0.00760398448787164	0.00354869399611672
421	1	421	0.00760398448787164	0.00355714326753604
423	1	423	0.00760398448787164	0.00357404181037469
424	1	424	0.00760398448787164	0.00358249108179402
426	1	426	0.00760398448787164	0.00359938962463267
428	2	856	0.0152079689757433	0.00723257633494264
429	2	858	0.0152079689757433	0.00724947487778129
430	1	430	0.00760398448787164	0.00363318671030997
433	1	433	0.00760398448787164	0.00365853452456795
436	1	436	0.00760398448787164	0.00368388233882592
438	2	876	0.0152079689757433	0.00740156176332915
442	2	884	0.0152079689757433	0.00746915593468375
443	2	886	0.0152079689757433	0.0074860544775224
444	3	1332	0.0228119534636149	0.0112544295305416
446	1	446	0.00760398448787164	0.00376837505301918
447	1	447	0.00760398448787164	0.0037768243244385
449	1	449	0.00760398448787164	0.00379372286727715
451	2	902	0.0152079689757433	0.00762124282023161
453	1	453	0.00760398448787164	0.00382751995295446
455	1	455	0.00760398448787164	0.00384441849579311
457	1	457	0.00760398448787164	0.00386131703863176
459	1	459	0.00760398448787164	0.00387821558147041
462	1	462	0.00760398448787164	0.00390356339572839
463	2	926	0.0152079689757433	0.00782402533429542
465	1	465	0.00760398448787164	0.00392891120998636
466	2	932	0.0152079689757433	0.00787472096281138
467	2	934	0.0152079689757433	0.00789161950565003
468	1	468	0.00760398448787164	0.00395425902424434
470	1	470	0.00760398448787164	0.00397115756708299
473	1	473	0.00760398448787164	0.00399650538134097
475	1	475	0.00760398448787164	0.00401340392417962
479	1	479	0.00760398448787164	0.00404720100985692
480	1	480	0.00760398448787164	0.00405565028127625
483	2	966	0.0152079689757433	0.00816199619106844
487	1	487	0.00760398448787164	0.00411479518121152
490	2	980	0.0152079689757433	0.008280285990939
493	1	493	0.00760398448787164	0.00416549080972748
496	1	496	0.00760398448787164	0.00419083862398545
497	1	497	0.00760398448787164	0.00419928789540478
502	1	502	0.00760398448787164	0.00424153425250141
503	1	503	0.00760398448787164	0.00424998352392073
505	1	505	0.00760398448787164	0.00426688206675938
506	1	506	0.00760398448787164	0.00427533133817871
508	1	508	0.00760398448787164	0.00429222988101736
513	1	513	0.00760398448787164	0.00433447623811399
514	1	514	0.00760398448787164	0.00434292550953331
517	1	517	0.00760398448787164	0.00436827332379129
520	3	1560	0.0228119534636149	0.0131808634141478
525	1	525	0.00760398448787164	0.00443586749514589
528	2	1056	0.0152079689757433	0.00892243061880774
530	1	530	0.00760398448787164	0.00447811385224252
531	1	531	0.00760398448787164	0.00448656312366185
532	1	532	0.00760398448787164	0.00449501239508117
538	1	538	0.00760398448787164	0.00454570802359713
542	1	542	0.00760398448787164	0.00457950510927443
546	1	546	0.00760398448787164	0.00461330219495173
548	2	1096	0.0152079689757433	0.00926040147558076
556	1	556	0.00760398448787164	0.00469779490914498
558	1	558	0.00760398448787164	0.00471469345198364
560	2	1120	0.0152079689757433	0.00946318398964457
561	1	561	0.00760398448787164	0.00474004126624161
562	1	562	0.00760398448787164	0.00474849053766094
569	1	569	0.00760398448787164	0.00480763543759622
578	1	578	0.00760398448787164	0.00488367888037015
579	1	579	0.00760398448787164	0.00489212815178947
587	1	587	0.00760398448787164	0.00495972232314408
595	1	595	0.00760398448787164	0.00502731649449868
598	1	598	0.00760398448787164	0.00505266430875666
601	1	601	0.00760398448787164	0.00507801212301463
610	1	610	0.00760398448787164	0.00515405556578856
612	1	612	0.00760398448787164	0.00517095410862721
615	1	615	0.00760398448787164	0.00519630192288519
616	1	616	0.00760398448787164	0.00520475119430451
620	1	620	0.00760398448787164	0.00523854827998182
622	1	622	0.00760398448787164	0.00525544682282047
635	2	1270	0.0152079689757433	0.0107305747025434
639	1	639	0.00760398448787164	0.005399084436949
643	1	643	0.00760398448787164	0.0054328815226263
646	1	646	0.00760398448787164	0.00545822933688428
654	1	654	0.00760398448787164	0.00552582350823888
663	1	663	0.00760398448787164	0.00560186695101281
665	1	665	0.00760398448787164	0.00561876549385147
666	1	666	0.00760398448787164	0.00562721476527079
675	1	675	0.00760398448787164	0.00570325820804472
686	1	686	0.00760398448787164	0.0057962001936573
687	1	687	0.00760398448787164	0.00580464946507663
696	1	696	0.00760398448787164	0.00588069290785056
704	1	704	0.00760398448787164	0.00594828707920516
705	1	705	0.00760398448787164	0.00595673635062449
707	1	707	0.00760398448787164	0.00597363489346314
709	2	1418	0.0152079689757433	0.0119810668726036
720	1	720	0.00760398448787164	0.00608347542191437
721	1	721	0.00760398448787164	0.00609192469333369
722	1	722	0.00760398448787164	0.00610037396475302
731	1	731	0.00760398448787164	0.00617641740752695
736	1	736	0.00760398448787164	0.00621866376462358
737	1	737	0.00760398448787164	0.0062271130360429
741	1	741	0.00760398448787164	0.0062609101217202
742	2	1484	0.0152079689757433	0.0125387187862791
745	1	745	0.00760398448787164	0.00629470720739751
748	1	748	0.00760398448787164	0.00632005502165548
750	1	750	0.00760398448787164	0.00633695356449413
752	1	752	0.00760398448787164	0.00635385210733278
755	1	755	0.00760398448787164	0.00637919992159076
765	1	765	0.00760398448787164	0.00646369263578402
768	1	768	0.00760398448787164	0.00648904045004199
770	1	770	0.00760398448787164	0.00650593899288064
778	1	778	0.00760398448787164	0.00657353316423525
779	1	779	0.00760398448787164	0.00658198243565457
781	1	781	0.00760398448787164	0.00659888097849322
785	1	785	0.00760398448787164	0.00663267806417053
793	1	793	0.00760398448787164	0.00670027223552513
796	1	796	0.00760398448787164	0.00672562004978311
806	1	806	0.00760398448787164	0.00681011276397636
810	1	810	0.00760398448787164	0.00684390984965366
812	1	812	0.00760398448787164	0.00686080839249232
817	1	817	0.00760398448787164	0.00690305474958894
820	1	820	0.00760398448787164	0.00692840256384692
836	1	836	0.00760398448787164	0.00706359090655613
841	1	841	0.00760398448787164	0.00710583726365276
879	1	879	0.00760398448787164	0.00742690957758712
889	1	889	0.00760398448787164	0.00751140229178038
892	1	892	0.00760398448787164	0.00753675010603836
902	1	902	0.00760398448787164	0.00762124282023161
932	1	932	0.00760398448787164	0.00787472096281138
952	1	952	0.00760398448787164	0.00804370639119789
954	1	954	0.00760398448787164	0.00806060493403654
957	1	957	0.00760398448787164	0.00808595274829452
965	1	965	0.00760398448787164	0.00815354691964912
990	2	1980	0.0152079689757433	0.0167295574102645
1006	1	1006	0.00760398448787164	0.00849996704784146
1007	1	1007	0.00760398448787164	0.00850841631926079
1018	1	1018	0.00760398448787164	0.00860135830487337
1019	1	1019	0.00760398448787164	0.0086098075762927
1021	1	1021	0.00760398448787164	0.00862670611913135
1024	1	1024	0.00760398448787164	0.00865205393338932
1028	1	1028	0.00760398448787164	0.00868585101906663
1040	1	1040	0.00760398448787164	0.00878724227609853
1048	2	2096	0.0152079689757433	0.0177096728949063
1074	1	1074	0.00760398448787164	0.0090745175043556
1076	1	1076	0.00760398448787164	0.00909141604719425
1081	1	1081	0.00760398448787164	0.00913366240429088
1084	2	2168	0.0152079689757433	0.0183180204370977
1085	1	1085	0.00760398448787164	0.00916745948996818
1097	1	1097	0.00760398448787164	0.00926885074700009
1101	1	1101	0.00760398448787164	0.00930264783267739
1106	1	1106	0.00760398448787164	0.00934489418977402
1122	1	1122	0.00760398448787164	0.00948008253248322
1146	1	1146	0.00760398448787164	0.00968286504654704
1148	1	1148	0.00760398448787164	0.00969976358938569
1165	2	2330	0.0152079689757433	0.0196868024070284
1174	1	1174	0.00760398448787164	0.00991944464628815
1199	1	1199	0.00760398448787164	0.0101306764317713
1202	1	1202	0.00760398448787164	0.0101560242460293
1208	1	1208	0.00760398448787164	0.0102067198745452
1216	1	1216	0.00760398448787164	0.0102743140458998
1218	1	1218	0.00760398448787164	0.0102912125887385
1256	1	1256	0.00760398448787164	0.0106122849026728
1288	1	1288	0.00760398448787164	0.0108826615880913
1297	1	1297	0.00760398448787164	0.0109587050308652
1301	2	2602	0.0152079689757433	0.021985004233085
1325	1	1325	0.00760398448787164	0.0111952846306063
1327	1	1327	0.00760398448787164	0.011212183173445
1331	1	1331	0.00760398448787164	0.0112459802591223
1337	1	1337	0.00760398448787164	0.0112966758876382
1348	1	1348	0.00760398448787164	0.0113896178732508
1382	1	1382	0.00760398448787164	0.0116768931015079
1392	1	1392	0.00760398448787164	0.0117613858157011
1394	1	1394	0.00760398448787164	0.0117782843585398
1406	1	1406	0.00760398448787164	0.0118796756155717
1419	1	1419	0.00760398448787164	0.0119895161440229
1440	1	1440	0.00760398448787164	0.0121669508438287
1448	1	1448	0.00760398448787164	0.0122345450151833
1450	1	1450	0.00760398448787164	0.012251443558022
1455	1	1455	0.00760398448787164	0.0122936899151186
1460	1	1460	0.00760398448787164	0.0123359362722152
1496	1	1496	0.00760398448787164	0.012640110043311
1500	1	1500	0.00760398448787164	0.0126739071289883
1591	1	1591	0.00760398448787164	0.0134427908281469
1593	1	1593	0.00760398448787164	0.0134596893709855
1621	1	1621	0.00760398448787164	0.0136962689707267
1654	1	1654	0.00760398448787164	0.0139750949275644
1658	2	3316	0.0152079689757433	0.0280177840264834
1660	1	1660	0.00760398448787164	0.0140257905560804
1682	1	1682	0.00760398448787164	0.0142116745273055
1685	1	1685	0.00760398448787164	0.0142370223415635
1686	1	1686	0.00760398448787164	0.0142454716129828
1708	1	1708	0.00760398448787164	0.014431355584208
1768	1	1768	0.00760398448787164	0.0149383118693675
1775	1	1775	0.00760398448787164	0.0149974567693028
1803	1	1803	0.00760398448787164	0.0152340363690439
1825	1	1825	0.00760398448787164	0.0154199203402691
1857	1	1857	0.00760398448787164	0.0156902970256875
1888	1	1888	0.00760398448787164	0.0159522244396866
1908	1	1908	0.00760398448787164	0.0161212098680731
1909	1	1909	0.00760398448787164	0.0161296591394924
1912	1	1912	0.00760398448787164	0.0161550069537504
1918	1	1918	0.00760398448787164	0.0162057025822663
1981	1	1981	0.00760398448787164	0.0167380066816838
2002	1	2002	0.00760398448787164	0.0169154413814897
2018	1	2018	0.00760398448787164	0.0170506297241989
2055	1	2055	0.00760398448787164	0.0173632527667139
2083	1	2083	0.00760398448787164	0.017599832366455
2101	1	2101	0.00760398448787164	0.0177519192520029
2132	1	2132	0.00760398448787164	0.018013846666002
2173	1	2173	0.00760398448787164	0.0183602667941943
2193	1	2193	0.00760398448787164	0.0185292522225808
2197	1	2197	0.00760398448787164	0.0185630493082582
2203	1	2203	0.00760398448787164	0.0186137449367741
2209	1	2209	0.00760398448787164	0.0186644405652901
2217	2	4434	0.0152079689757433	0.0374640694732893
2235	1	2235	0.00760398448787164	0.0188841216221925
2292	1	2292	0.00760398448787164	0.0193657300930941
2353	1	2353	0.00760398448787164	0.0198811356496729
2370	1	2370	0.00760398448787164	0.0200247732638015
2372	1	2372	0.00760398448787164	0.0200416718066401
2375	1	2375	0.00760398448787164	0.0200670196208981
2394	2	4788	0.0152079689757433	0.0404551115557305
2415	1	2415	0.00760398448787164	0.0204049904776711
2416	1	2416	0.00760398448787164	0.0204134397490904
2424	1	2424	0.00760398448787164	0.020481033920445
2455	1	2455	0.00760398448787164	0.0207429613344441
2456	1	2456	0.00760398448787164	0.0207514106058635
2504	1	2504	0.00760398448787164	0.0211569756339911
2549	1	2549	0.00760398448787164	0.0215371928478607
2560	1	2560	0.00760398448787164	0.0216301348334733
2607	1	2607	0.00760398448787164	0.0220272505901816
2639	1	2639	0.00760398448787164	0.0222976272756
2701	1	2701	0.00760398448787164	0.0228214821035982
2719	1	2719	0.00760398448787164	0.0229735689891461
2730	1	2730	0.00760398448787164	0.0230665109747586
2740	1	2740	0.00760398448787164	0.0231510036889519
2769	1	2769	0.00760398448787164	0.0233960325601123
2770	1	2770	0.00760398448787164	0.0234044818315317
2801	1	2801	0.00760398448787164	0.0236664092455308
2828	1	2828	0.00760398448787164	0.0238945395738525
2922	1	2922	0.00760398448787164	0.0246887710872691
2925	1	2925	0.00760398448787164	0.0247141189015271
2982	1	2982	0.00760398448787164	0.0251957273724287
3003	1	3003	0.00760398448787164	0.0253731620722345
3029	1	3029	0.00760398448787164	0.025592843129137
3076	1	3076	0.00760398448787164	0.0259899588858453
3173	1	3173	0.00760398448787164	0.0268095382135198
3198	1	3198	0.00760398448787164	0.027020769999003
3260	1	3260	0.00760398448787164	0.0275446248270012
3299	1	3299	0.00760398448787164	0.0278741464123549
3356	1	3356	0.00760398448787164	0.0283557548832564
3367	1	3367	0.00760398448787164	0.028448696868869
3385	1	3385	0.00760398448787164	0.0286007837544169
3421	1	3421	0.00760398448787164	0.0289049575255126
3427	1	3427	0.00760398448787164	0.0289556531540285
3448	1	3448	0.00760398448787164	0.0291330878538344
3537	1	3537	0.00760398448787164	0.0298850730101543
3556	1	3556	0.00760398448787164	0.0300456091671215
3608	1	3608	0.00760398448787164	0.0304849712809264
3618	1	3618	0.00760398448787164	0.0305694639951197
3644	1	3644	0.00760398448787164	0.0307891450520222
3670	1	3670	0.00760398448787164	0.0310088261089246
3688	1	3688	0.00760398448787164	0.0311609129944725
3718	1	3718	0.00760398448787164	0.0314143911370523
3721	1	3721	0.00760398448787164	0.0314397389513102
3750	1	3750	0.00760398448787164	0.0316847678224707
3798	1	3798	0.00760398448787164	0.0320903328505983
3799	1	3799	0.00760398448787164	0.0320987821220176
3824	1	3824	0.00760398448787164	0.0323100139075008
3899	1	3899	0.00760398448787164	0.0329437092639502
3917	1	3917	0.00760398448787164	0.033095796149498
3927	1	3927	0.00760398448787164	0.0331802888636913
4012	1	4012	0.00760398448787164	0.033898476934334
4019	1	4019	0.00760398448787164	0.0339576218342692
4071	1	4071	0.00760398448787164	0.0343969839480742
4095	1	4095	0.00760398448787164	0.034599766462138
4096	1	4096	0.00760398448787164	0.0346082157335573
4132	1	4132	0.00760398448787164	0.034912389504653
4183	1	4183	0.00760398448787164	0.0353433023470386
4230	1	4230	0.00760398448787164	0.0357404181037469
4334	1	4334	0.00760398448787164	0.0366191423313568
4338	1	4338	0.00760398448787164	0.0366529394170341
4437	1	4437	0.00760398448787164	0.0374894172875473
4478	1	4478	0.00760398448787164	0.0378358374157396
4588	2	9176	0.0152079689757433	0.0775305145437309
4695	1	4695	0.00760398448787164	0.0396693293137333
4732	1	4732	0.00760398448787164	0.0399819523562483
4733	1	4733	0.00760398448787164	0.0399904016276676
4815	1	4815	0.00760398448787164	0.0406832418840523
4827	1	4827	0.00760398448787164	0.0407846331410842
4834	1	4834	0.00760398448787164	0.0408437780410195
4948	1	4948	0.00760398448787164	0.0418069949828226
4954	1	4954	0.00760398448787164	0.0418576906113386
5048	1	5048	0.00760398448787164	0.0426519221247552
5110	1	5110	0.00760398448787164	0.0431757769527534
5179	1	5179	0.00760398448787164	0.0437587766806868
5268	1	5268	0.00760398448787164	0.0445107618370068
5275	1	5275	0.00760398448787164	0.0445699067369421
5391	1	5391	0.00760398448787164	0.0455500222215838
5527	1	5527	0.00760398448787164	0.0466991231346121
5546	1	5546	0.00760398448787164	0.0468596592915793
5569	1	5569	0.00760398448787164	0.0470539925342238
5639	1	5639	0.00760398448787164	0.0476454415335766
5735	1	5735	0.00760398448787164	0.0484565715898318
5814	1	5814	0.00760398448787164	0.0491240640319585
5819	1	5819	0.00760398448787164	0.0491663103890552
5914	1	5914	0.00760398448787164	0.0499689911738911
5950	1	5950	0.00760398448787164	0.0502731649449868
5975	1	5975	0.00760398448787164	0.0504843967304699
6015	1	6015	0.00760398448787164	0.0508223675872429
6034	1	6034	0.00760398448787164	0.0509829037442101
6153	1	6153	0.00760398448787164	0.0519883670431099
6163	1	6163	0.00760398448787164	0.0520728597573031
6292	1	6292	0.00760398448787164	0.0531628157703961
6351	1	6351	0.00760398448787164	0.0536613227841363
6413	1	6413	0.00760398448787164	0.0541851776121345
6456	1	6456	0.00760398448787164	0.0545484962831655
6566	1	6566	0.00760398448787164	0.0554779161392913
6666	1	6666	0.00760398448787164	0.0563228432812239
6671	1	6671	0.00760398448787164	0.0563650896383205
6820	1	6820	0.00760398448787164	0.0576240310798
6948	1	6948	0.00760398448787164	0.0587055378214737
6954	1	6954	0.00760398448787164	0.0587562334499896
7039	1	7039	0.00760398448787164	0.0594744215206323
7054	1	7054	0.00760398448787164	0.0596011605919222
7078	1	7078	0.00760398448787164	0.059803943105986
7097	1	7097	0.00760398448787164	0.0599644792629532
7137	1	7137	0.00760398448787164	0.0603024501197262
7221	1	7221	0.00760398448787164	0.0610121889189495
7291	1	7291	0.00760398448787164	0.0616036379183023
7443	1	7443	0.00760398448787164	0.0628879271740398
7449	1	7449	0.00760398448787164	0.0629386228025557
7523	1	7523	0.00760398448787164	0.0635638688875858
7544	1	7544	0.00760398448787164	0.0637413035873917
7683	1	7683	0.00760398448787164	0.0649157523146779
7705	1	7705	0.00760398448787164	0.0651016362859031
7877	1	7877	0.00760398448787164	0.0665549109700271
7936	1	7936	0.00760398448787164	0.0670534179837673
7979	1	7979	0.00760398448787164	0.0674167366547983
8209	1	8209	0.00760398448787164	0.0693600690812431
8382	1	8382	0.00760398448787164	0.0708217930367864
8707	1	8707	0.00760398448787164	0.0735678062480672
8732	1	8732	0.00760398448787164	0.0737790380335504
8909	1	8909	0.00760398448787164	0.075274559074771
9024	1	9024	0.00760398448787164	0.0762462252879934
9111	1	9111	0.00760398448787164	0.0769813119014747
9330	1	9330	0.00760398448787164	0.078831702342307
9472	1	9472	0.00760398448787164	0.0800314988838512
9696	1	9696	0.00760398448787164	0.0819241356817802
10174	1	10174	0.00760398448787164	0.0859628874202178
10691	1	10691	0.00760398448787164	0.090331160744009
10731	1	10731	0.00760398448787164	0.0906691316007821
11015	1	11015	0.00760398448787164	0.0930687246838705
11023	1	11023	0.00760398448787164	0.0931363188552251
11245	1	11245	0.00760398448787164	0.0950120571103154
11473	1	11473	0.00760398448787164	0.0969384909939216
11577	1	11577	0.00760398448787164	0.0978172152215314
11609	1	11609	0.00760398448787164	0.0980875919069499
11858	1	11858	0.00760398448787164	0.100191460490362
12003	1	12003	0.00760398448787164	0.101416604846164
12204	1	12204	0.00760398448787164	0.103114908401449
12412	1	12412	0.00760398448787164	0.104872356856668
12528	1	12528	0.00760398448787164	0.10585247234131
12653	1	12653	0.00760398448787164	0.106908631268726
13060	1	13060	0.00760398448787164	0.110347484736391
13175	1	13175	0.00760398448787164	0.111319150949614
13363	1	13363	0.00760398448787164	0.112907613976447
13619	1	13619	0.00760398448787164	0.115070627459794
13827	1	13827	0.00760398448787164	0.116828075915014
13905	1	13905	0.00760398448787164	0.117487119085721
13963	1	13963	0.00760398448787164	0.117977176828042
14090	1	14090	0.00760398448787164	0.119050234298296
14100	1	14100	0.00760398448787164	0.11913472701249
14108	1	14108	0.00760398448787164	0.119202321183844
14351	1	14351	0.00760398448787164	0.12125549413874
14431	1	14431	0.00760398448787164	0.121931435852286
14850	1	14850	0.00760398448787164	0.125471680576984
14892	1	14892	0.00760398448787164	0.125826549976596
15360	1	15360	0.00760398448787164	0.12978080900084
15915	1	15915	0.00760398448787164	0.134470154638566
16315	1	16315	0.00760398448787164	0.137849863206296
16549	1	16549	0.00760398448787164	0.139826992718418
16606	1	16606	0.00760398448787164	0.140308601189319
16823	1	16823	0.00760398448787164	0.142142093087313
17291	1	17291	0.00760398448787164	0.146096352111557
18297	1	18297	0.00760398448787164	0.154596319159399
19075	1	19075	0.00760398448787164	0.161169852323634
19138	1	19138	0.00760398448787164	0.161702156423052
19961	1	19961	0.00760398448787164	0.168655906801157
20231	1	20231	0.00760398448787164	0.170937210084374
20389	1	20389	0.00760398448787164	0.172272194968628
20750	1	20750	0.00760398448787164	0.175322381951004
20985	1	20985	0.00760398448787164	0.177307960734546
21157	1	21157	0.00760398448787164	0.17876123541867
21257	1	21257	0.00760398448787164	0.179606162560602
22058	1	22058	0.00760398448787164	0.186374028967482
22112	1	22112	0.00760398448787164	0.186830289624126
22652	1	22652	0.00760398448787164	0.191392896190561
23398	1	23398	0.00760398448787164	0.197696052669378
24449	1	24449	0.00760398448787164	0.206576236931089
24596	1	24596	0.00760398448787164	0.20781827982973
25219	1	25219	0.00760398448787164	0.21308217592397
26134	1	26134	0.00760398448787164	0.220813259272653
26568	1	26568	0.00760398448787164	0.22448024306864
27970	1	27970	0.00760398448787164	0.236326121598535
28245	1	28245	0.00760398448787164	0.238649671238849
28532	1	28532	0.00760398448787164	0.241074612136195
29252	1	29252	0.00760398448787164	0.24715808755811
29699	1	29699	0.00760398448787164	0.250934911882548
30495	1	30495	0.00760398448787164	0.257660531932331
31765	1	31765	0.00760398448787164	0.268391106634875
31802	1	31802	0.00760398448787164	0.26870372967739
32983	1	32983	0.00760398448787164	0.278682319223613
33968	1	33968	0.00760398448787164	0.287004851571649
34010	1	34010	0.00760398448787164	0.287359720971261
34059	1	34059	0.00760398448787164	0.287773735270808
35984	1	35984	0.00760398448787164	0.304038582753009
37654	1	37654	0.00760398448787164	0.318148866023283
38828	1	38828	0.00760398448787164	0.328068310669571
39173	1	39173	0.00760398448787164	0.330983309309238
39592	1	39592	0.00760398448787164	0.334523554033936
44840	1	44840	0.00760398448787164	0.378865330442556
49249	1	49249	0.00760398448787164	0.416118168130362
51209	1	51209	0.00760398448787164	0.43267874011224
52137	1	52137	0.00760398448787164	0.440519663989374
54446	1	54446	0.00760398448787164	0.460029031696597
63260	1	63260	0.00760398448787164	0.534500909986532
77479	1	77479	0.00760398448787164	0.654641100297921
101434	1	101434	0.00760398448787164	0.857043397147864
142681	1	142681	0.00760398448787164	1.20555049538078
148550	1	148550	0.00760398448787164	1.2551392693408
205574	1	205574	0.00760398448787164	1.73695052275642
218290	1	218290	0.00760398448787164	1.84439145812457
220482	1	220482	0.00760398448787164	1.86291226107573
229826	1	229826	0.00760398448787164	1.94186225321791
253975	1	253975	0.00760398448787164	2.1459037087232
290483	1	290483	0.00760398448787164	2.45436970969993
409711	1	409711	0.00760398448787164	3.46175944248327
428322	1	428322	0.00760398448787164	3.61900883286834
1593560	1	1593560	0.00760398448787164	13.4644209629804
1890922	1	1890922	0.00760398448787164	15.9769132107738
2782658	1	2782658	0.00760398448787164	23.5114327091575
