Count	Number_Unique	Total_Count_Unique	Percent_Number_Unique	Percent_Total_Count
1	9284	9284	40.3248924988055	0.111885954420092
2	2768	5536	12.0227598488468	0.06671700168781
3	1349	4047	5.85935803327108	0.0487723457063886
4	886	3544	3.84832558745602	0.0427104505024564
5	611	3055	2.65386787125918	0.0368172760397868
6	549	3294	2.38457194978934	0.0396975801227684
7	438	3066	1.90244538070625	0.036949842336493
8	407	3256	1.76779741997133	0.0392396238250559
9	332	2988	1.44203622464492	0.0360098267780304
10	272	2720	1.18142726838379	0.0327800297310049
11	287	3157	1.24657950744907	0.0380465271546994
12	259	3108	1.12496199452721	0.0374560045602806
13	209	2717	0.907787864309603	0.0327438752864486
14	204	2856	0.886070451287843	0.0344190312175552
15	163	2445	0.707987664509404	0.0294658723133482
16	154	2464	0.668896321070234	0.0296948504622044
17	149	2533	0.647178908048473	0.0305264026869983
18	143	2574	0.62111801242236	0.0310205134292671
19	128	2432	0.555965773357078	0.0293092030536044
20	143	2860	0.62111801242236	0.0344672371436302
21	117	2457	0.508187464709204	0.0296104900915732
22	114	2508	0.495157016896147	0.0302251156490295
23	103	2369	0.447378708248273	0.028549959717923
24	108	2592	0.469096121270034	0.0312374400966047
25	94	2350	0.408287364809104	0.0283209815690667
26	103	2678	0.447378708248273	0.0322738675072173
27	80	2160	0.347478608348174	0.0260312000805039
28	82	2296	0.356165573556878	0.0276702015670541
29	69	2001	0.2997002997003	0.0241150145190224
30	70	2100	0.304043782304652	0.0253081111893788
31	55	1705	0.238891543239369	0.0205477759894718
32	72	2304	0.312730747513356	0.0277666134192042
33	89	2937	0.386569951787343	0.035395201220574
34	63	2142	0.273639404074187	0.0258142734131664
35	63	2205	0.273639404074187	0.0265735167488477
36	57	2052	0.247578508448074	0.0247296400764787
37	67	2479	0.291013334491595	0.0298756226849857
38	52	1976	0.225861095426313	0.0238137274810536
39	55	2145	0.238891543239369	0.0258504278577226
40	54	2160	0.234548060635017	0.0260312000805039
41	54	2214	0.234548060635017	0.0266819800825165
42	50	2100	0.217174130217608	0.0253081111893788
43	39	1677	0.169395821569735	0.0202103345069468
44	33	1452	0.143334925943622	0.0174987511652276
45	38	1710	0.165052338965382	0.0206080333970656
46	36	1656	0.156365373756678	0.019957253395053
47	45	2115	0.195456717195848	0.0254888834121601
48	29	1392	0.125960995526213	0.0167756622741025
49	35	1715	0.152021891152326	0.0206682908046593
50	37	1850	0.16070885636103	0.0222952408096908
51	28	1428	0.121617512921861	0.0172095156087776
52	34	1768	0.147678408547974	0.0213070193251532
53	29	1537	0.125960995526213	0.0185231270943215
54	36	1944	0.156365373756678	0.0234280800724535
55	29	1595	0.125960995526213	0.0192221130224091
56	34	1904	0.147678408547974	0.0229460208117034
57	23	1311	0.0999000999000999	0.0157994922710836
58	23	1334	0.0999000999000999	0.0160766763460149
59	23	1357	0.0999000999000999	0.0163538604209462
60	25	1500	0.108587065108804	0.0180772222781277
61	26	1586	0.112930547713156	0.0191136496887404
62	24	1488	0.104243582504452	0.0179326044999027
63	25	1575	0.108587065108804	0.0189810833920341
64	22	1408	0.0955566172957477	0.0169684859784025
65	24	1560	0.104243582504452	0.0188003111692528
66	26	1716	0.112930547713156	0.0206803422861781
67	19	1273	0.0825261694826912	0.015341535973371
68	19	1292	0.0825261694826912	0.0155705141222273
69	30	2070	0.130304478130565	0.0249465667438162
70	23	1610	0.0999000999000999	0.0194028852451904
71	22	1562	0.0955566172957477	0.0188244141322903
72	14	1008	0.0608087564609304	0.0121478933709018
73	21	1533	0.0912131346913956	0.0184749211682465
74	14	1036	0.0608087564609304	0.0124853348534269
75	13	975	0.0564652738565782	0.011750194480783
76	14	1064	0.0608087564609304	0.0128227763359519
77	20	1540	0.0868696520870434	0.0185592815388778
78	16	1248	0.0694957216696347	0.0150402489354023
79	20	1580	0.0868696520870434	0.0190413407996279
80	17	1360	0.0738392042739869	0.0163900148655025
81	13	1053	0.0564652738565782	0.0126902100392456
82	11	902	0.0477783086478739	0.0108704363299141
83	15	1245	0.0651522390652825	0.015004094490846
84	11	924	0.0477783086478739	0.0111355689233267
85	22	1870	0.0955566172957477	0.0225362704400659
86	9	774	0.0390913434391695	0.0093278466955139
87	16	1392	0.0694957216696347	0.0167756622741025
88	12	1056	0.052121791252226	0.0127263644838019
89	16	1424	0.0694957216696347	0.0171613096827026
90	14	1260	0.0608087564609304	0.0151848667136273
91	15	1365	0.0651522390652825	0.0164502722730962
92	9	828	0.0390913434391695	0.00997862669752649
93	12	1116	0.052121791252226	0.013449453374927
94	9	846	0.0390913434391695	0.010195553364864
95	11	1045	0.0477783086478739	0.0125937981870956
96	16	1536	0.0694957216696347	0.0185110756128028
97	13	1261	0.0564652738565782	0.015196918195146
98	9	882	0.0390913434391695	0.0106294066995391
99	12	1188	0.052121791252226	0.0143171600442771
100	10	1000	0.0434348260435217	0.0120514815187518
101	8	808	0.0347478608348174	0.00973759706715146
102	6	612	0.026060895626113	0.0073755066894761
103	6	618	0.026060895626113	0.00744781557858861
104	15	1560	0.0651522390652825	0.0188003111692528
105	14	1470	0.0608087564609304	0.0177156778325652
106	8	848	0.0347478608348174	0.0102196563279015
107	8	856	0.0347478608348174	0.0103160681800515
108	7	756	0.0304043782304652	0.00911092002817636
109	16	1744	0.0694957216696347	0.0210177837687031
110	8	880	0.0347478608348174	0.0106053037365016
111	5	555	0.0217174130217608	0.00668857224290725
112	8	896	0.0347478608348174	0.0107981274408016
113	9	1017	0.0390913434391695	0.0122563567045706
114	6	684	0.026060895626113	0.00824321335882623
115	10	1150	0.0434348260435217	0.0138592037465646
116	12	1392	0.052121791252226	0.0167756622741025
117	9	1053	0.0390913434391695	0.0126902100392456
118	9	1062	0.0390913434391695	0.0127986733729144
119	8	952	0.0347478608348174	0.0114730104058517
120	3	360	0.0130304478130565	0.00433853334675065
121	10	1210	0.0434348260435217	0.0145822926376897
122	6	732	0.026060895626113	0.00882168447172632
123	5	615	0.0217174130217608	0.00741166113403236
124	8	992	0.0347478608348174	0.0119550696666018
125	9	1125	0.0390913434391695	0.0135579167085958
126	8	1008	0.0347478608348174	0.0121478933709018
127	6	762	0.026060895626113	0.00918322891728887
128	8	1024	0.0347478608348174	0.0123407170752018
129	6	774	0.026060895626113	0.0093278466955139
130	8	1040	0.0347478608348174	0.0125335407795019
131	13	1703	0.0564652738565782	0.0205236730264343
132	10	1320	0.0434348260435217	0.0159079556047524
133	8	1064	0.0347478608348174	0.0128227763359519
134	8	1072	0.0347478608348174	0.0129191881881019
135	4	540	0.0173739304174087	0.00650780002012597
136	7	952	0.0304043782304652	0.0114730104058517
137	9	1233	0.0390913434391695	0.014859476712621
138	6	828	0.026060895626113	0.00997862669752649
139	4	556	0.0173739304174087	0.006700623724426
140	5	700	0.0217174130217608	0.00843603706312626
141	6	846	0.026060895626113	0.010195553364864
142	4	568	0.0173739304174087	0.00684524150265102
143	2	286	0.00868696520870434	0.00344672371436302
144	8	1152	0.0347478608348174	0.0138833067096021
145	2	290	0.00868696520870434	0.00349492964043802
146	7	1022	0.0304043782304652	0.0123166141121643
147	6	882	0.026060895626113	0.0106294066995391
148	6	888	0.026060895626113	0.0107017155886516
149	7	1043	0.0304043782304652	0.0125696952240581
150	4	600	0.0173739304174087	0.00723088891125108
151	5	755	0.0217174130217608	0.00909886854665761
152	6	912	0.026060895626113	0.0109909511451016
153	2	306	0.00868696520870434	0.00368775334473805
154	5	770	0.0217174130217608	0.00927964076943889
155	7	1085	0.0304043782304652	0.0130758574478457
156	7	1092	0.0304043782304652	0.013160217818477
157	7	1099	0.0304043782304652	0.0132445781891082
158	7	1106	0.0304043782304652	0.0133289385597395
159	4	636	0.0173739304174087	0.00766474224592615
160	4	640	0.0173739304174087	0.00771294817200115
161	6	966	0.026060895626113	0.0116417311471142
162	7	1134	0.0304043782304652	0.0136663800422645
163	3	489	0.0130304478130565	0.00589317446266963
164	6	984	0.026060895626113	0.0118586578144518
165	3	495	0.0130304478130565	0.00596548335178214
166	1	166	0.00434348260435217	0.0020005459321128
167	4	668	0.0173739304174087	0.00805038965452621
168	2	336	0.00868696520870434	0.00404929779030061
169	4	676	0.0173739304174087	0.00814680150667622
170	4	680	0.0173739304174087	0.00819500743275123
171	5	855	0.0217174130217608	0.0103040166985328
172	6	1032	0.026060895626113	0.0124371289273519
173	6	1038	0.026060895626113	0.0125094378164644
174	2	348	0.00868696520870434	0.00419391556852563
175	3	525	0.0130304478130565	0.0063270277973447
176	4	704	0.0173739304174087	0.00848424298920127
177	8	1416	0.0347478608348174	0.0170648978305526
178	4	712	0.0173739304174087	0.00858065484135128
179	3	537	0.0130304478130565	0.00647164557556972
180	2	360	0.00868696520870434	0.00433853334675065
181	2	362	0.00868696520870434	0.00436263630978815
182	2	364	0.00868696520870434	0.00438673927282566
183	6	1098	0.026060895626113	0.0132325267075895
184	4	736	0.0173739304174087	0.00886989039780133
185	6	1110	0.026060895626113	0.0133771444858145
186	5	930	0.0217174130217608	0.0112078778124392
187	3	561	0.0130304478130565	0.00676088113201976
188	1	188	0.00434348260435217	0.00226567852552534
189	5	945	0.0217174130217608	0.0113886500352205
190	2	380	0.00868696520870434	0.00457956297712569
191	3	573	0.0130304478130565	0.00690549891024478
192	4	768	0.0173739304174087	0.00925553780640139
193	4	772	0.0173739304174087	0.00930374373247639
194	2	388	0.00868696520870434	0.0046759748292757
195	1	195	0.00434348260435217	0.0023500388961566
196	7	1372	0.0304043782304652	0.0165346326437275
197	4	788	0.0173739304174087	0.00949656743677642
198	2	396	0.00868696520870434	0.00477238668142571
199	3	597	0.0130304478130565	0.00719473446669483
200	4	800	0.0173739304174087	0.00964118521500144
201	2	402	0.00868696520870434	0.00484469557053823
203	5	1015	0.0217174130217608	0.0122322537415331
204	4	816	0.0173739304174087	0.00983400891930147
205	3	615	0.0130304478130565	0.00741166113403236
206	4	824	0.0173739304174087	0.00993042077145149
207	6	1242	0.026060895626113	0.0149679400462897
209	1	209	0.00434348260435217	0.00251875963741913
210	3	630	0.0130304478130565	0.00759243335681364
211	2	422	0.00868696520870434	0.00508572520091326
212	1	212	0.00434348260435217	0.00255491408197538
213	3	639	0.0130304478130565	0.0077008966904824
214	2	428	0.00868696520870434	0.00515803409002577
215	1	215	0.00434348260435217	0.00259106852653164
219	1	219	0.00434348260435217	0.00263927445260664
220	2	440	0.00868696520870434	0.00530265186825079
221	3	663	0.0130304478130565	0.00799013224693245
222	4	888	0.0173739304174087	0.0107017155886516
223	3	669	0.0130304478130565	0.00806244113604496
226	4	904	0.0173739304174087	0.0108945392929516
227	2	454	0.00868696520870434	0.00547137260951332
228	4	912	0.0173739304174087	0.0109909511451016
229	2	458	0.00868696520870434	0.00551957853558833
230	4	920	0.0173739304174087	0.0110873629972517
231	3	693	0.0130304478130565	0.008351676692495
232	1	232	0.00434348260435217	0.00279594371235042
234	4	936	0.0173739304174087	0.0112801867015517
236	4	944	0.0173739304174087	0.0113765985537017
237	1	237	0.00434348260435217	0.00285620111994418
238	3	714	0.0130304478130565	0.00860475780438879
239	2	478	0.00868696520870434	0.00576060816596336
240	1	240	0.00434348260435217	0.00289235556450043
241	1	241	0.00434348260435217	0.00290440704601918
243	2	486	0.00868696520870434	0.00585702001811338
244	2	488	0.00868696520870434	0.00588112298115088
246	1	246	0.00434348260435217	0.00296466445361294
247	2	494	0.00868696520870434	0.00595343187026339
248	3	744	0.0130304478130565	0.00896630224995134
249	3	747	0.0130304478130565	0.0090024566945076
250	3	750	0.0130304478130565	0.00903861113906385
251	1	251	0.00434348260435217	0.0030249218612067
252	3	756	0.0130304478130565	0.00911092002817636
253	5	1265	0.0217174130217608	0.015245124121221
254	3	762	0.0130304478130565	0.00918322891728887
256	4	1024	0.0173739304174087	0.0123407170752018
257	1	257	0.00434348260435217	0.00309723075031921
258	2	516	0.00868696520870434	0.00621856446367593
259	1	259	0.00434348260435217	0.00312133371335672
260	1	260	0.00434348260435217	0.00313338519487547
262	2	524	0.00868696520870434	0.00631497631582595
263	2	526	0.00868696520870434	0.00633907927886345
264	3	792	0.0130304478130565	0.00954477336285143
265	1	265	0.00434348260435217	0.00319364260246923
269	3	807	0.0130304478130565	0.00972554558563271
270	4	1080	0.0173739304174087	0.0130156000402519
271	2	542	0.00868696520870434	0.00653190298316348
272	1	272	0.00434348260435217	0.00327800297310049
273	2	546	0.00868696520870434	0.00658010890923849
275	2	550	0.00868696520870434	0.00662831483531349
276	3	828	0.0130304478130565	0.00997862669752649
277	5	1385	0.0217174130217608	0.0166913019034712
278	2	556	0.00868696520870434	0.006700623724426
279	1	279	0.00434348260435217	0.00336236334373175
281	2	562	0.00868696520870434	0.00677293261353851
282	1	282	0.00434348260435217	0.00339851778828801
283	3	849	0.0130304478130565	0.0102317078094203
284	2	568	0.00868696520870434	0.00684524150265102
285	1	285	0.00434348260435217	0.00343467223284426
288	1	288	0.00434348260435217	0.00347082667740052
289	1	289	0.00434348260435217	0.00348287815891927
290	2	580	0.00868696520870434	0.00698985928087605
291	2	582	0.00868696520870434	0.00701396224391355
292	1	292	0.00434348260435217	0.00351903260347553
293	2	586	0.00868696520870434	0.00706216816998856
294	3	882	0.0130304478130565	0.0106294066995391
295	2	590	0.00868696520870434	0.00711037409606356
297	3	891	0.0130304478130565	0.0107378700332079
298	1	298	0.00434348260435217	0.00359134149258804
299	1	299	0.00434348260435217	0.00360339297410679
300	3	900	0.0130304478130565	0.0108463333668766
301	1	301	0.00434348260435217	0.00362749593714429
302	2	604	0.00868696520870434	0.00727909483732609
306	1	306	0.00434348260435217	0.00368775334473805
307	5	1535	0.0217174130217608	0.018499024131284
308	2	616	0.00868696520870434	0.00742371261555111
309	2	618	0.00868696520870434	0.00744781557858861
311	2	622	0.00868696520870434	0.00749602150466362
312	2	624	0.00868696520870434	0.00752012446770113
313	1	313	0.00434348260435217	0.00377211371536931
314	3	942	0.0130304478130565	0.0113524955906642
315	3	945	0.0130304478130565	0.0113886500352205
317	2	634	0.00868696520870434	0.00764063928288864
318	1	318	0.00434348260435217	0.00383237112296307
319	2	638	0.00868696520870434	0.00768884520896365
320	2	640	0.00868696520870434	0.00771294817200115
321	1	321	0.00434348260435217	0.00386852556751933
323	1	323	0.00434348260435217	0.00389262853055683
324	1	324	0.00434348260435217	0.00390468001207558
325	3	975	0.0130304478130565	0.011750194480783
326	3	978	0.0130304478130565	0.0117863489253393
327	3	981	0.0130304478130565	0.0118225033698955
328	1	328	0.00434348260435217	0.00395288593815059
329	1	329	0.00434348260435217	0.00396493741966934
331	1	331	0.00434348260435217	0.00398904038270685
333	2	666	0.00868696520870434	0.0080262866914887
334	2	668	0.00868696520870434	0.00805038965452621
336	4	1344	0.0173739304174087	0.0161971911612024
337	3	1011	0.0130304478130565	0.0121840478154581
338	2	676	0.00868696520870434	0.00814680150667622
339	1	339	0.00434348260435217	0.00408545223485686
340	1	340	0.00434348260435217	0.00409750371637561
341	1	341	0.00434348260435217	0.00410955519789436
342	1	342	0.00434348260435217	0.00412160667941312
344	1	344	0.00434348260435217	0.00414570964245062
345	2	690	0.00868696520870434	0.00831552224793874
347	1	347	0.00434348260435217	0.00418186408700688
348	3	1044	0.0130304478130565	0.0125817467055769
349	2	698	0.00868696520870434	0.00841193410008876
353	2	706	0.00868696520870434	0.00850834595223877
354	1	354	0.00434348260435217	0.00426622445763814
358	1	358	0.00434348260435217	0.00431443038371315
360	2	720	0.00868696520870434	0.0086770666935013
362	2	724	0.00868696520870434	0.00872527261957631
363	1	363	0.00434348260435217	0.0043746877913069
364	2	728	0.00868696520870434	0.00877347854565131
367	2	734	0.00868696520870434	0.00884578743476382
368	1	368	0.00434348260435217	0.00443494519890066
371	2	742	0.00868696520870434	0.00894219928691384
373	2	746	0.00868696520870434	0.00899040521298885
375	2	750	0.00868696520870434	0.00903861113906385
376	2	752	0.00868696520870434	0.00906271410210136
379	3	1137	0.0130304478130565	0.0137025344868208
380	1	380	0.00434348260435217	0.00457956297712569
381	5	1905	0.0217174130217608	0.0229580722932222
382	1	382	0.00434348260435217	0.00460366594016319
383	3	1149	0.0130304478130565	0.0138471522650458
385	2	770	0.00868696520870434	0.00927964076943889
386	1	386	0.00434348260435217	0.0046518718662382
388	1	388	0.00434348260435217	0.0046759748292757
389	1	389	0.00434348260435217	0.00468802631079445
390	1	390	0.00434348260435217	0.0047000777923132
391	2	782	0.00868696520870434	0.00942425854766391
393	2	786	0.00868696520870434	0.00947246447373892
394	4	1576	0.0173739304174087	0.0189931348735528
395	1	395	0.00434348260435217	0.00476033519990696
396	3	1188	0.0130304478130565	0.0143171600442771
400	1	400	0.00434348260435217	0.00482059260750072
401	2	802	0.00868696520870434	0.00966528817803895
403	2	806	0.00868696520870434	0.00971349410411395
404	2	808	0.00868696520870434	0.00973759706715146
407	1	407	0.00434348260435217	0.00490495297813198
410	2	820	0.00868696520870434	0.00988221484537648
413	1	413	0.00434348260435217	0.0049772618672445
414	3	1242	0.0130304478130565	0.0149679400462897
415	2	830	0.00868696520870434	0.010002729660564
418	1	418	0.00434348260435217	0.00503751927483825
419	2	838	0.00868696520870434	0.010099141512714
421	2	842	0.00868696520870434	0.010147347438789
423	1	423	0.00434348260435217	0.00509777668243201
425	2	850	0.00868696520870434	0.010243759290939
427	1	427	0.00434348260435217	0.00514598260850702
429	2	858	0.00868696520870434	0.010340171143089
430	3	1290	0.0130304478130565	0.0155464111591898
431	1	431	0.00434348260435217	0.00519418853458203
435	2	870	0.00868696520870434	0.0104847889213141
436	2	872	0.00868696520870434	0.0105088918843516
440	1	440	0.00434348260435217	0.00530265186825079
445	2	890	0.00868696520870434	0.0107258185516891
446	2	892	0.00868696520870434	0.0107499215147266
447	1	447	0.00434348260435217	0.00538701223888206
448	1	448	0.00434348260435217	0.00539906372040081
449	1	449	0.00434348260435217	0.00541111520191956
452	2	904	0.00868696520870434	0.0108945392929516
454	1	454	0.00434348260435217	0.00547137260951332
455	1	455	0.00434348260435217	0.00548342409103207
456	1	456	0.00434348260435217	0.00549547557255082
462	1	462	0.00434348260435217	0.00556778446166333
465	3	1395	0.0130304478130565	0.0168118167186588
466	3	1398	0.0130304478130565	0.016847971163215
468	1	468	0.00434348260435217	0.00564009335077584
469	1	469	0.00434348260435217	0.0056521448322946
473	1	473	0.00434348260435217	0.0057003507583696
477	1	477	0.00434348260435217	0.00574855668444461
481	2	962	0.00868696520870434	0.0115935252210392
482	2	964	0.00868696520870434	0.0116176281840767
484	1	484	0.00434348260435217	0.00583291705507587
485	1	485	0.00434348260435217	0.00584496853659462
489	1	489	0.00434348260435217	0.00589317446266963
490	1	490	0.00434348260435217	0.00590522594418838
493	1	493	0.00434348260435217	0.00594138038874464
494	1	494	0.00434348260435217	0.00595343187026339
500	2	1000	0.00868696520870434	0.0120514815187518
501	1	501	0.00434348260435217	0.00603779224089465
504	2	1008	0.00868696520870434	0.0121478933709018
514	1	514	0.00434348260435217	0.00619446150063843
515	1	515	0.00434348260435217	0.00620651298215718
517	2	1034	0.00868696520870434	0.0124612318903894
520	1	520	0.00434348260435217	0.00626677038975094
523	1	523	0.00434348260435217	0.00630292483430719
527	1	527	0.00434348260435217	0.0063511307603822
528	1	528	0.00434348260435217	0.00636318224190095
530	1	530	0.00434348260435217	0.00638728520493846
531	1	531	0.00434348260435217	0.00639933668645721
536	1	536	0.00434348260435217	0.00645959409405097
538	1	538	0.00434348260435217	0.00648369705708847
544	1	544	0.00434348260435217	0.00655600594620098
545	1	545	0.00434348260435217	0.00656805742771973
550	1	550	0.00434348260435217	0.00662831483531349
553	1	553	0.00434348260435217	0.00666446927986975
558	1	558	0.00434348260435217	0.00672472668746351
561	2	1122	0.00868696520870434	0.0135217622640395
570	1	570	0.00434348260435217	0.00686934446568853
575	2	1150	0.00868696520870434	0.0138592037465646
581	1	581	0.00434348260435217	0.0070019107623948
583	1	583	0.00434348260435217	0.0070260137254323
584	1	584	0.00434348260435217	0.00703806520695105
586	1	586	0.00434348260435217	0.00706216816998856
588	1	588	0.00434348260435217	0.00708627113302606
590	1	590	0.00434348260435217	0.00711037409606356
591	1	591	0.00434348260435217	0.00712242557758232
592	1	592	0.00434348260435217	0.00713447705910107
598	2	1196	0.00868696520870434	0.0144135718964272
599	1	599	0.00434348260435217	0.00721883742973233
602	1	602	0.00434348260435217	0.00725499187428859
607	1	607	0.00434348260435217	0.00731524928188235
613	1	613	0.00434348260435217	0.00738755817099486
615	1	615	0.00434348260435217	0.00741166113403236
617	3	1851	0.0130304478130565	0.0223072922912096
624	2	1248	0.00868696520870434	0.0150402489354023
626	1	626	0.00434348260435217	0.00754422743073863
628	1	628	0.00434348260435217	0.00756833039377613
631	1	631	0.00434348260435217	0.00760448483833239
634	1	634	0.00434348260435217	0.00764063928288864
639	1	639	0.00434348260435217	0.0077008966904824
640	1	640	0.00434348260435217	0.00771294817200115
643	1	643	0.00434348260435217	0.00774910261655741
644	1	644	0.00434348260435217	0.00776115409807616
648	1	648	0.00434348260435217	0.00780936002415117
649	1	649	0.00434348260435217	0.00782141150566992
650	1	650	0.00434348260435217	0.00783346298718867
664	1	664	0.00434348260435217	0.0080021837284512
670	1	670	0.00434348260435217	0.00807449261756371
674	1	674	0.00434348260435217	0.00812269854363872
680	1	680	0.00434348260435217	0.00819500743275123
684	1	684	0.00434348260435217	0.00824321335882623
687	1	687	0.00434348260435217	0.00827936780338249
689	1	689	0.00434348260435217	0.00830347076641999
692	1	692	0.00434348260435217	0.00833962521097625
701	1	701	0.00434348260435217	0.00844808854464501
704	1	704	0.00434348260435217	0.00848424298920127
705	1	705	0.00434348260435217	0.00849629447072002
706	2	1412	0.00868696520870434	0.0170166919044775
708	2	1416	0.00868696520870434	0.0170648978305526
711	1	711	0.00434348260435217	0.00856860335983253
725	1	725	0.00434348260435217	0.00873732410109506
726	1	726	0.00434348260435217	0.00874937558261381
729	1	729	0.00434348260435217	0.00878553002717006
738	2	1476	0.00868696520870434	0.0177879867216777
741	1	741	0.00434348260435217	0.00893014780539509
745	2	1490	0.00868696520870434	0.0179567074629402
749	1	749	0.00434348260435217	0.0090265596575451
754	1	754	0.00434348260435217	0.00908681706513886
756	1	756	0.00434348260435217	0.00911092002817636
759	1	759	0.00434348260435217	0.00914707447273262
761	1	761	0.00434348260435217	0.00917117743577012
765	1	765	0.00434348260435217	0.00921938336184513
779	1	779	0.00434348260435217	0.00938810410310766
784	1	784	0.00434348260435217	0.00944836151070141
792	1	792	0.00434348260435217	0.00954477336285143
793	1	793	0.00434348260435217	0.00955682484437018
800	1	800	0.00434348260435217	0.00964118521500144
806	1	806	0.00434348260435217	0.00971349410411395
807	1	807	0.00434348260435217	0.00972554558563271
817	1	817	0.00434348260435217	0.00984606040082022
819	1	819	0.00434348260435217	0.00987016336385773
820	1	820	0.00434348260435217	0.00988221484537648
826	1	826	0.00434348260435217	0.00995452373448899
847	1	847	0.00434348260435217	0.0102076048463828
848	1	848	0.00434348260435217	0.0102196563279015
850	2	1700	0.00868696520870434	0.0204875185818781
858	1	858	0.00434348260435217	0.010340171143089
860	1	860	0.00434348260435217	0.0103642741061266
862	1	862	0.00434348260435217	0.0103883770691641
864	1	864	0.00434348260435217	0.0104124800322016
871	1	871	0.00434348260435217	0.0104968404028328
886	1	886	0.00434348260435217	0.0106776126256141
910	1	910	0.00434348260435217	0.0109668481820641
913	1	913	0.00434348260435217	0.0110030026266204
920	1	920	0.00434348260435217	0.0110873629972517
932	1	932	0.00434348260435217	0.0112319807754767
937	1	937	0.00434348260435217	0.0112922381830704
939	1	939	0.00434348260435217	0.0113163411461079
955	1	955	0.00434348260435217	0.011509164850408
959	1	959	0.00434348260435217	0.011557370776483
960	1	960	0.00434348260435217	0.0115694222580017
980	1	980	0.00434348260435217	0.0118104518883768
983	1	983	0.00434348260435217	0.011846606332933
994	1	994	0.00434348260435217	0.0119791726296393
1003	1	1003	0.00434348260435217	0.0120876359633081
1010	1	1010	0.00434348260435217	0.0121719963339393
1020	2	2040	0.00868696520870434	0.0245850222982537
1026	1	1026	0.00434348260435217	0.0123648200382394
1049	1	1049	0.00434348260435217	0.0126420041131706
1066	1	1066	0.00434348260435217	0.0128468792989894
1096	1	1096	0.00434348260435217	0.013208423744552
1102	1	1102	0.00434348260435217	0.0132807326336645
1125	1	1125	0.00434348260435217	0.0135579167085958
1153	1	1153	0.00434348260435217	0.0138953581911208
1171	1	1171	0.00434348260435217	0.0141122848584584
1181	1	1181	0.00434348260435217	0.0142327996736459
1185	1	1185	0.00434348260435217	0.0142810055997209
1194	1	1194	0.00434348260435217	0.0143894689333897
1195	1	1195	0.00434348260435217	0.0144015204149084
1205	1	1205	0.00434348260435217	0.0145220352300959
1230	1	1230	0.00434348260435217	0.0148233222680647
1233	1	1233	0.00434348260435217	0.014859476712621
1278	1	1278	0.00434348260435217	0.0154017933809648
1293	1	1293	0.00434348260435217	0.0155825656037461
1299	1	1299	0.00434348260435217	0.0156548744928586
1312	2	2624	0.00868696520870434	0.0316230875052047
1322	1	1322	0.00434348260435217	0.0159320585677899
1344	1	1344	0.00434348260435217	0.0161971911612024
1364	1	1364	0.00434348260435217	0.0164382207915775
1366	1	1366	0.00434348260435217	0.016462323754615
1378	1	1378	0.00434348260435217	0.01660694153284
1390	1	1390	0.00434348260435217	0.016751559311065
1395	1	1395	0.00434348260435217	0.0168118167186588
1409	1	1409	0.00434348260435217	0.0169805374599213
1443	1	1443	0.00434348260435217	0.0173902878315589
1465	1	1465	0.00434348260435217	0.0176554204249714
1479	1	1479	0.00434348260435217	0.0178241411662339
1490	1	1490	0.00434348260435217	0.0179567074629402
1491	1	1491	0.00434348260435217	0.0179687589444589
1518	1	1518	0.00434348260435217	0.0182941489454652
1522	1	1522	0.00434348260435217	0.0183423548715402
1528	1	1528	0.00434348260435217	0.0184146637606528
1533	1	1533	0.00434348260435217	0.0184749211682465
1540	1	1540	0.00434348260435217	0.0185592815388778
1556	1	1556	0.00434348260435217	0.0187521052431778
1581	1	1581	0.00434348260435217	0.0190533922811466
1599	1	1599	0.00434348260435217	0.0192703189484841
1601	1	1601	0.00434348260435217	0.0192944219115216
1661	1	1661	0.00434348260435217	0.0200175108026467
1662	1	1662	0.00434348260435217	0.0200295622841655
1670	1	1670	0.00434348260435217	0.0201259741363155
1675	1	1675	0.00434348260435217	0.0201862315439093
1690	2	3380	0.00868696520870434	0.0407340075333811
1711	1	1711	0.00434348260435217	0.0206200848785843
1718	1	1718	0.00434348260435217	0.0207044452492156
1734	1	1734	0.00434348260435217	0.0208972689535156
1739	1	1739	0.00434348260435217	0.0209575263611094
1752	1	1752	0.00434348260435217	0.0211141956208532
1795	1	1795	0.00434348260435217	0.0216324093261595
1811	1	1811	0.00434348260435217	0.0218252330304595
1814	1	1814	0.00434348260435217	0.0218613874750158
1828	1	1828	0.00434348260435217	0.0220301082162783
1843	1	1843	0.00434348260435217	0.0222108804390596
1903	1	1903	0.00434348260435217	0.0229339693301847
1936	1	1936	0.00434348260435217	0.0233316682203035
1943	1	1943	0.00434348260435217	0.0234160285909348
2010	1	2010	0.00434348260435217	0.0242234778526911
2041	1	2041	0.00434348260435217	0.0245970737797724
2073	1	2073	0.00434348260435217	0.0249827211883725
2201	1	2201	0.00434348260435217	0.0265253108227727
2279	1	2279	0.00434348260435217	0.0274653263812354
2347	1	2347	0.00434348260435217	0.0282848271245105
2368	1	2368	0.00434348260435217	0.0285379082364043
2450	1	2450	0.00434348260435217	0.0295261297209419
2545	1	2545	0.00434348260435217	0.0306710204652233
2609	1	2609	0.00434348260435217	0.0314423152824235
2614	1	2614	0.00434348260435217	0.0315025726900172
2643	1	2643	0.00434348260435217	0.031852065654061
2661	1	2661	0.00434348260435217	0.0320689923213986
2802	1	2802	0.00434348260435217	0.0337682512155426
2804	2	5608	0.00868696520870434	0.0675847083571601
2949	1	2949	0.00434348260435217	0.0355398189987991
2971	1	2971	0.00434348260435217	0.0358049515922116
2983	1	2983	0.00434348260435217	0.0359495693704366
3006	1	3006	0.00434348260435217	0.0362267534453679
3124	1	3124	0.00434348260435217	0.0376488282645806
3228	1	3228	0.00434348260435217	0.0389021823425308
3332	1	3332	0.00434348260435217	0.040155536420481
3381	1	3381	0.00434348260435217	0.0407460590148998
3518	1	3518	0.00434348260435217	0.0423971119829688
3572	1	3572	0.00434348260435217	0.0430478919849814
3668	1	3668	0.00434348260435217	0.0442048342107816
3858	1	3858	0.00434348260435217	0.0464946156993445
3898	1	3898	0.00434348260435217	0.0469766749600945
3901	1	3901	0.00434348260435217	0.0470128294046508
3969	1	3969	0.00434348260435217	0.0478323301479259
4061	1	4061	0.00434348260435217	0.0489410664476511
4098	1	4098	0.00434348260435217	0.0493869712638449
4304	1	4304	0.00434348260435217	0.0518695764567078
4410	1	4410	0.00434348260435217	0.0531470334976955
4429	1	4429	0.00434348260435217	0.0533760116465517
4518	1	4518	0.00434348260435217	0.0544485935017206
4684	1	4684	0.00434348260435217	0.0564491394338335
4911	1	4911	0.00434348260435217	0.0591848257385901
4989	1	4989	0.00434348260435217	0.0601248412970527
5046	1	5046	0.00434348260435217	0.0608117757436216
5141	1	5141	0.00434348260435217	0.061956666487903
5212	1	5212	0.00434348260435217	0.0628123216757344
5221	1	5221	0.00434348260435217	0.0629207850094032
5224	1	5224	0.00434348260435217	0.0629569394539594
5244	1	5244	0.00434348260435217	0.0631979690843345
5566	1	5566	0.00434348260435217	0.0670785461333725
5622	1	5622	0.00434348260435217	0.0677534290984226
5820	1	5820	0.00434348260435217	0.0701396224391355
5852	1	5852	0.00434348260435217	0.0705252698477356
5960	1	5960	0.00434348260435217	0.0718268298517608
5992	1	5992	0.00434348260435217	0.0722124772603608
6359	1	6359	0.00434348260435217	0.0766353709777427
6493	1	6493	0.00434348260435217	0.0782502695012555
6739	1	6739	0.00434348260435217	0.0812149339548684
6775	1	6775	0.00434348260435217	0.0816487872895435
6836	1	6836	0.00434348260435217	0.0823839276621873
7267	1	7267	0.00434348260435217	0.0875781161967694
7397	1	7397	0.00434348260435217	0.0891448087942071
7431	1	7431	0.00434348260435217	0.0895545591658446
7437	1	7437	0.00434348260435217	0.0896268680549572
7518	1	7518	0.00434348260435217	0.0906030380579761
7824	1	7824	0.00434348260435217	0.0942907914027141
7866	1	7866	0.00434348260435217	0.0947969536265017
7887	1	7887	0.00434348260435217	0.0950500347383955
8166	1	8166	0.00434348260435217	0.0984123980821272
8363	1	8363	0.00434348260435217	0.100786539941321
8415	1	8415	0.00434348260435217	0.101413216980296
8558	1	8558	0.00434348260435217	0.103136578837478
8721	1	8721	0.00434348260435217	0.105100970325034
8866	1	8866	0.00434348260435217	0.106848435145254
8985	1	8985	0.00434348260435217	0.108282561445985
9048	1	9048	0.00434348260435217	0.109041804781666
9130	1	9130	0.00434348260435217	0.110030026266204
9173	1	9173	0.00434348260435217	0.11054823997151
9321	1	9321	0.00434348260435217	0.112331859236286
9653	1	9653	0.00434348260435217	0.116332951100511
10200	1	10200	0.00434348260435217	0.122925111491268
10328	1	10328	0.00434348260435217	0.124467701125669
10439	1	10439	0.00434348260435217	0.12580541557425
10492	1	10492	0.00434348260435217	0.126444144094744
10561	1	10561	0.00434348260435217	0.127275696319538
10832	1	10832	0.00434348260435217	0.13054164781112
10900	1	10900	0.00434348260435217	0.131361148554395
11033	1	11033	0.00434348260435217	0.132963995596389
11171	1	11171	0.00434348260435217	0.134627100045976
12178	1	12178	0.00434348260435217	0.146762941935359
12396	1	12396	0.00434348260435217	0.149390164906447
12459	1	12459	0.00434348260435217	0.150149408242129
12558	1	12558	0.00434348260435217	0.151342504912485
12654	1	12654	0.00434348260435217	0.152499447138285
12966	1	12966	0.00434348260435217	0.156259509372136
13121	1	13121	0.00434348260435217	0.158127489007542
13279	1	13279	0.00434348260435217	0.160031623087505
13310	1	13310	0.00434348260435217	0.160405219014587
13612	1	13612	0.00434348260435217	0.16404476643325
13622	1	13622	0.00434348260435217	0.164165281248437
13767	1	13767	0.00434348260435217	0.165912746068656
13829	1	13829	0.00434348260435217	0.166659937922819
14067	1	14067	0.00434348260435217	0.169528190524282
14069	1	14069	0.00434348260435217	0.169552293487319
14333	1	14333	0.00434348260435217	0.17273388460827
14920	1	14920	0.00434348260435217	0.179808104259777
16288	1	16288	0.00434348260435217	0.196294530977429
16420	1	16420	0.00434348260435217	0.197885326537905
16573	1	16573	0.00434348260435217	0.199729203210274
17094	1	17094	0.00434348260435217	0.206008025081543
17179	1	17179	0.00434348260435217	0.207032401010637
17583	1	17583	0.00434348260435217	0.211901199544213
17940	1	17940	0.00434348260435217	0.216203578446407
18264	1	18264	0.00434348260435217	0.220108258458483
18359	1	18359	0.00434348260435217	0.221253149202764
18464	1	18464	0.00434348260435217	0.222518554762233
18640	1	18640	0.00434348260435217	0.224639615509534
18672	1	18672	0.00434348260435217	0.225025262918134
18707	1	18707	0.00434348260435217	0.22544706477129
19128	1	19128	0.00434348260435217	0.230520738490685
19258	1	19258	0.00434348260435217	0.232087431088122
19333	1	19333	0.00434348260435217	0.232991292202029
19414	1	19414	0.00434348260435217	0.233967462205048
19635	1	19635	0.00434348260435217	0.236630839620692
20066	1	20066	0.00434348260435217	0.241825028155274
20710	1	20710	0.00434348260435217	0.24958618225335
21149	1	21149	0.00434348260435217	0.254876782640082
21206	1	21206	0.00434348260435217	0.255563717086651
21245	1	21245	0.00434348260435217	0.256033724865882
21376	1	21376	0.00434348260435217	0.257612468944839
21462	1	21462	0.00434348260435217	0.258648896355451
21495	1	21495	0.00434348260435217	0.25904659524557
21931	1	21931	0.00434348260435217	0.264301041187746
21957	1	21957	0.00434348260435217	0.264614379707233
23005	1	23005	0.00434348260435217	0.277244332338885
23764	1	23764	0.00434348260435217	0.286391406811618
23819	1	23819	0.00434348260435217	0.287054238295149
25265	1	25265	0.00434348260435217	0.304480680571264
25347	1	25347	0.00434348260435217	0.305468902055802
25562	1	25562	0.00434348260435217	0.308059970582334
25930	1	25930	0.00434348260435217	0.312494915781234
26015	1	26015	0.00434348260435217	0.313519291710328
26848	1	26848	0.00434348260435217	0.323558175815448
27211	1	27211	0.00434348260435217	0.327932863606755
27288	1	27288	0.00434348260435217	0.328860827683699
27472	1	27472	0.00434348260435217	0.33107830028315
27839	1	27839	0.00434348260435217	0.335501194000531
27862	1	27862	0.00434348260435217	0.335778378075463
28167	1	28167	0.00434348260435217	0.339454079938682
28460	1	28460	0.00434348260435217	0.342985164023676
28664	1	28664	0.00434348260435217	0.345443666253502
28940	1	28940	0.00434348260435217	0.348769875152677
29354	1	29354	0.00434348260435217	0.35375918850144
29476	1	29476	0.00434348260435217	0.355229469246728
29518	1	29518	0.00434348260435217	0.355735631470516
29532	1	29532	0.00434348260435217	0.355904352211778
30253	1	30253	0.00434348260435217	0.364593470386798
30263	1	30263	0.00434348260435217	0.364713985201986
31005	1	31005	0.00434348260435217	0.3736561844889
31086	1	31086	0.00434348260435217	0.374632354491919
31592	1	31592	0.00434348260435217	0.380730404140407
31810	1	31810	0.00434348260435217	0.383357627111495
33253	1	33253	0.00434348260435217	0.400747914943054
33999	1	33999	0.00434348260435217	0.409738320156043
34416	1	34416	0.00434348260435217	0.414763787949362
34492	1	34492	0.00434348260435217	0.415679700544787
34818	1	34818	0.00434348260435217	0.4196084835199
35475	1	35475	0.00434348260435217	0.42752630687772
35749	1	35749	0.00434348260435217	0.430828412813858
36623	1	36623	0.00434348260435217	0.441361407661247
37053	1	37053	0.00434348260435217	0.446543544714311
37713	1	37713	0.00434348260435217	0.454497522516687
38621	1	38621	0.00434348260435217	0.465440267735713
40201	1	40201	0.00434348260435217	0.484481608535341
41225	1	41225	0.00434348260435217	0.496822325610543
41424	2	82848	0.00868696520870434	0.998441140865549
42242	1	42242	0.00434348260435217	0.509078682315114
42813	1	42813	0.00434348260435217	0.515960078262321
42938	1	42938	0.00434348260435217	0.517466513452165
44582	1	44582	0.00434348260435217	0.537279149068993
44617	1	44617	0.00434348260435217	0.537700950922149
45805	1	45805	0.00434348260435217	0.552018110966426
47609	1	47609	0.00434348260435217	0.573758983626255
48385	1	48385	0.00434348260435217	0.583110933284806
49244	1	49244	0.00434348260435217	0.593463155909414
50215	1	50215	0.00434348260435217	0.605165144464122
50244	1	50244	0.00434348260435217	0.605514637428166
51329	1	51329	0.00434348260435217	0.618590494876011
52875	1	52875	0.00434348260435217	0.637222085304002
54590	1	54590	0.00434348260435217	0.657890376108661
56867	1	56867	0.00434348260435217	0.685331599526859
57511	1	57511	0.00434348260435217	0.693092753624935
59049	1	59049	0.00434348260435217	0.711627932200775
60638	1	60638	0.00434348260435217	0.730777736334072
63001	1	63001	0.00434348260435217	0.759255387162882
64578	1	64578	0.00434348260435217	0.778260573517954
64750	1	64750	0.00434348260435217	0.780333428339179
66679	1	66679	0.00434348260435217	0.803580736188852
66878	1	66878	0.00434348260435217	0.805978981011083
68669	1	68669	0.00434348260435217	0.827563184411168
69398	1	69398	0.00434348260435217	0.836348714438338
76219	1	76219	0.00434348260435217	0.918551869877744
78083	1	78083	0.00434348260435217	0.941015831428697
79923	1	79923	0.00434348260435217	0.9631905574232
81947	1	81947	0.00434348260435217	0.987582756017154
86989	1	86989	0.00434348260435217	1.0483463258347
88719	1	88719	0.00434348260435217	1.06919538886214
94685	1	94685	0.00434348260435217	1.14109452760301
98267	1	98267	0.00434348260435217	1.18426293440318
101487	1	101487	0.00434348260435217	1.22306870489356
104408	1	104408	0.00434348260435217	1.25827108240984
105233	1	105233	0.00434348260435217	1.26821355466281
107252	1	107252	0.00434348260435217	1.29254549584917
110641	1	110641	0.00434348260435217	1.33338796671622
115101	1	115101	0.00434348260435217	1.38713757428985
116734	1	116734	0.00434348260435217	1.40681764360997
118523	1	118523	0.00434348260435217	1.42837774404702
124136	1	124136	0.00434348260435217	1.49602270981177
125595	1	125595	0.00434348260435217	1.51360582134763
129235	1	129235	0.00434348260435217	1.55747321407589
134058	1	134058	0.00434348260435217	1.61559750944083
139288	1	139288	0.00434348260435217	1.6786267577839
150490	1	150490	0.00434348260435217	1.81362745375696
172231	1	172231	0.00434348260435217	2.07563871345614
187219	1	187219	0.00434348260435217	2.25626631845919
193194	1	193194	0.00434348260435217	2.32827392053374
194316	1	194316	0.00434348260435217	2.34179568279778
194758	1	194758	0.00434348260435217	2.34712243762906
208552	1	208552	0.00434348260435217	2.51336057369873
239258	1	239258	0.00434348260435217	2.88341336521352
