19 CASSLGSYEQYFGPG 12 CMV_pp65_25 11337383	3
26 CASSLTDTQYFGPG 8 Flu_M1_19 16682498	55
23 CASSHRGGVSYNEQFFGPG 6 MS_112 10934227	1
37 CASSLAGADTQY 8 Venturi_CMV	6
15 CSARDGGTDTQYFGPG 8 CMV_pp65_31 17404318	2
6 CASSSVNEQFFGPG 6 CMV1_050 0	147
