9,ARSPDRASEQF,6	1
8,ASSLGRVDTQY,8	819
10,ATGGTAGETQY,10	12
10,ATSGIGGDTQY,10	1
14,ASSPSGSGITGTQY,8	2
43,ASSEAGYEQY,12	2537
9,ASSHDRAGEQF,6	1
43,ASSETGSEQY,12	16
14,ATSGIAGETQY,10	6033
43,ASNETGYEQY,12	284
39,ASSPYSYEQY,12	8
43,ASSEEGYEQY,12	2
43,ASLYSYEQY,12	1
2,AISDPGLAGTDTQY,8	1
10,ATSGLAGGTQY,10	27
43,ASSGTGCEQY,12	2
44,ARSPWGGGRGNEQF,6	1
43,ASRTYSYEQY,12	1
14,ASSPSGSGVAETQY,8	4
15,SARGYYEQY,12	35
6,ASSPTSYTGELF,7	1
15,SARGSFEQY,12	6
43,ASSLYFYEQY,12	1
18,ASSLGGGAFEQL,6	358
26,ASSLADGANEKLF,3	1
9,ASSLDRSSEQF,6	1
10,ATGGIAAETQY,10	1
21,ASSQAGPPGNNEQF,6	1
42,ASSSFSGRADTQY,8	46
10,ATSGMAVETQY,10	1
17,ASSPQGSLNEQF,6	6
18,ASSLGGGGVEQF,6	4
14,ASSSSGNGVTDTQY,8	1
10,ASCGIAGETQY,10	2
43,ASIPYSYEQY,12	118
14,ATCGIAGETQY,10	3
26,ASSLDRTGPQETQY,10	9
10,ASSGIVAETQY,10	1
10,ATSVIAGETQY,10	632
10,ATSGIAVGTQY,10	1
13,ASSIDQGSYNEQF,6	95
43,VSSPYTYEQY,12	2
43,ASSETRYEQY,12	274
10,ATGGMAGETQY,10	42
10,ATSEIARETQY,10	3
14,ATSGIEGETQY,10	6
43,ASSPYYYEQY,12	162
15,SAMGSYEQY,12	29
18,ASSLGVGAFEQF,6	23
14,ASSPNGGGVTDTQY,8	2
43,ASSVIRGPAKGYEQY,12	2
18,ASSLGGGGLEQF,6	17
14,TSSPSGSGVADTQY,8	2
14,ASSPSGGGVTETQY,8	2
10,ATSGIDGETQY,10	1
43,ASSETGHEQY,6	1
26,VSSWDRDRVSKNIQY,9	1
14,ASSPSGSRVTETQY,8	1
43,ASSLGGMNAEAF,0	1
26,TSSLDSTGPQETQY,10	28
10,ATGGVAGETQY,10	47
10,TSGIAGETQY,10	1
10,ATSGMAGDTQY,10	2
20,SVEARGGVSDTQY,8	1
43,TSSETGYEQY,12	498
9,ASSRDRAGEQF,6	1
18,ASSLGGGVFEQF,6	79
10,ATSAVAGETQY,10	1
19,ASRGVGNEQF,6	6
8,VSSLGRVDTQY,8	2
22,AWSLHRKSSGNTIY,2	3
14,ASSPSGSVVTDTQY,8	17
43,ASSPYFSEQY,12	1
14,ASSPGGGGVTDTQY,8	2
21,ASSSPMTSGLYEQF,6	1
18,VSSLGRGAFEQF,6	1
9,ASSQGRTSEQF,6	2
26,ASSLDSTGTQETQY,10	8
10,ATSGIAGDTQY,10	1943
26,ASSAGEAYEQY,12	12
18,AISLGGGGFEQF,6	1
20,SVGPRGGQETQY,10	1
14,TSSPSGSGVTDTQY,8	194
10,ATSRVAGETQY,10	10
43,ASSPYCYEQY,12	76
43,ASSPYFYEQY,6	4
43,ASGPYFYEQY,12	2
18,ASSLAYSYEQY,12	2
37,ASSWLGGSETQY,10	2
43,ASCGTEYEQY,12	1
43,ASSEPGYEQY,12	11
32,AIRQTGVGHNEQF,6	1
15,SARCSYEQY,12	36
14,ASSPSGCGVTDTQY,8	19
15,SARGPCEQY,12	3
14,ASSPSGSGATGTQY,8	2
9,ASSQDLASEQF,6	52
43,ASSETEYEQF,6	1
10,ATSGVAGETQY,10	22774
43,ASNPYSYEQY,6	3
13,ASSIDQGSYDEQF,6	2
6,ASSPTSDTGELF,7	12
10,ATCGTAGETQY,10	8
43,ASSLIRGPTKGYEQY,12	1
10,ATGIAGETQY,10	1
21,ASSQKWEQGARSTDTQY,8	1
14,ASSPGGSGITDTQY,8	2
43,ASSPDSCEQY,12	1
14,ASSPSDSGVTDTQY,8	119
43,ASSRYSYEQY,12	79
23,ASSPEQDPRNIQY,9	10
14,ASSPSGSGVIDTQY,8	68
10,ATYGIAGETQY,10	2
18,ASSETGYEQY,12	1
10,ATSRIVGETQY,10	9
44,ASSREDTQY,8	1
42,ASSSFPDRADTQY,8	39
37,ASSVSYEQY,12	8
8,ASSLGKVDTQY,8	2
18,ASSRRTGNTDTQY,8	28
14,ASSPGGSGVTDTQY,8	354
14,ASTPRTTSVNEQF,6	1
44,ASSDRRDRGRTEAF,0	6
43,TSSPHSYEQY,12	1
42,ASSSSSDRADTQY,8	32
15,SARGSNEQY,12	11
9,ASRQGRASEQF,6	1
10,ATSSIAGETQY,10	2
14,ASSQSGSGVTDTQY,8	34
9,ASCQDRASEQF,6	72
8,ASSLGRVETQY,8	2
9,ASGQDCASEQF,6	1
24,ASSQGRSGGGTDTQY,8	12
21,ASSPQDREHEQY,12	1
42,ASRSFSDRADTQY,8	5
10,ATSGIAGGTQY,10	17048
14,ARGPSGSGVTDTQY,8	1
14,ASSPSSGGVTDTQY,8	1
10,AICGIAGETQY,10	3
38,ASSLTPQGAYNEQF,6	1
26,ASSWGRDRVSKNIQY,9	1
14,ASSPSGSGVTDTQY,8	187280
18,ASSLGRGAFEQF,6	135
14,ASIPSGSGVTDTQY,8	27
10,ATSGIATETQY,10	1
28,ASSEAGYEQY,12	1
10,ATGVIAGETQY,10	3
10,ATSGIVEETQY,10	4
44,ASSPGDTQY,8	2
43,ASSLVRSGDTIY,2	1
10,ATRRIAGETQY,10	2
18,ARSLGGGGFEQF,6	4
43,ASSTYSCEQY,12	1
42,ASSFGSGRETQY,10	1
10,AIRGIAGETQY,10	2
10,ATSGIPGETQY,10	141
10,ASGGIAGETQY,10	5
9,ASSLDRVSEQF,6	3
43,VSSETGHEQY,12	1
33,ASSYTTGTGAHEQY,12	2
14,ATSGIAEETQY,10	4
14,ATSGIARETQY,10	6
43,ASSDTGYEQY,12	177
9,ASSQDRESEQF,6	85
14,ASNGWGETQY,10	1
9,ASSPYSYEQY,12	3
21,ASSRVGPPGNNEQF,6	2
10,ATNGVAGETQY,10	22
42,ASSSFSDRTDTQY,8	3
10,ATSRMAGETQY,10	9
28,ASSETGYEQY,6	1
21,ASSSSMTSDLYEQF,6	1
43,ASSETWCEQY,12	1
14,ASSPSDGGVTDTQY,8	1
9,ARGQDRASEQF,6	1
18,ASSLGGGASEQY,6	1
10,ATSGRARETQY,10	1
14,ASSPSGSGVRDTQY,8	11
43,ASVPYSYEQY,12	1
10,ATSGITGETQY,8	1
9,ASSQGRAGEQF,6	3
15,SAREGSDTQY,8	37
27,ASSLGIIRQGSGNTIY,2	1
8,TSNPLDSTDTQY,8	1
43,ASNSYSYEQY,12	2
15,SARGQGVETQY,10	1
42,ASSSFSNRADTQY,8	1
43,VSSPSSYEQY,12	2
18,VSSLGGGGFEQF,6	12
43,ASSVAGYEQY,12	4
6,ASRPTSNTGELF,7	2
19,ASSLPEGMDQPQH,4	1
14,ASSPSGNGVTETQY,8	2
8,ASSLGGVDTQY,8	4
6,ASSPTSTTGELF,7	1
26,VSSLDSTGPQETQY,10	18
10,ATNGTAGETQY,10	4
14,ASSPSGSGVTDTQY,10	26
41,ASSPYSYEQY,12	1
43,ASSETECEQY,12	1
18,ASSLGGGASEQF,6	184
20,SVEARGGESETQY,8	23
43,ASSETGNEQY,12	18
10,ATSGIAEDTQY,10	1
43,ASSETGFEQY,12	30
43,ASNPHSYEQY,12	1
21,ASSQDRRYEQY,12	89
26,ASSLDSTGLQETQY,10	7
10,ATSGLAGETQY,10	6655
14,ASGPSGSGATDTQY,8	1
37,ASSLEGGAGETQY,10	1
14,ASRGGKETQY,10	136
21,ASSSSMSSGLYEQF,6	3
5,ASSLGGEQY,12	1
14,AISGIAGETQY,10	3
18,ASSLTNSYEQY,12	6
43,ASSETGHEQY,12	511
28,ASSPYSNEQY,12	1
15,SATGSYEQY,12	11
38,ASSLTSQGAYSEQF,6	1
10,ATRGIARETQY,10	5
38,ASSPSGGNYNEQF,6	1
43,ASPYSYEQY,12	5
14,ATRGIAGETQY,10	6
10,ATSGIGGETQY,10	991
14,ASSPSGTGVTDTQY,8	14
44,ASSPWGGGRGDEQF,6	1
43,ASSEIGYEQY,12	233
9,AISQDRASEQF,6	36
14,ASSPTGSGVTDTQY,8	5
10,ATRGIVGETQY,10	4
10,ATSEIEGETQY,10	2
9,ASSLDHASEQF,6	5
14,ASSPSRSGVTDTQY,8	4
42,ASSSFSDKADTQY,8	2
14,ASSPSGSGAADTQY,8	3
18,ASSLGGGVVEQF,6	1
10,ATSGLAVETQY,10	1
10,ATSGIERETQY,10	5
21,ASSQVGPPGNNEQF,6	262
14,ASSPSGSGLADTQY,8	2
26,ASSWDRDRVSKNIQY,9	260
10,ATTRIAGETQY,10	1
43,ASSERGYEQY,12	41
18,ASSLANSYEQY,6	7
18,ASILGGGGFEQF,6	1
21,ASSQKWGQGARNTDTQY,8	1
43,VSCPYSYEQY,12	1
9,ASSLDRASEQL,6	18
7,ASSPTSNTGELF,7	3
44,VSSRGDTQY,8	6
9,ASSLDRAGEQF,6	18
15,SARGLYEQY,12	1
6,ASSPTSNTGELF,7	4365
4,ASSLGGEQY,12	206
26,ASSLDSTGPQETQY,8	4
42,ASSAFSDRADTQY,8	2
14,ATNGIAGETQY,10	1
18,ASTPWGISSGANVLT,11	158
43,ASSLIREPAKGYEQY,12	1
9,ASSQDCASEQL,6	3
26,ASSLTDGANEKLF,3	568
20,SVEARGGESDTQY,10	1
21,ASSQAPIATLSYEQY,12	2
38,ASSPYSYEQY,12	4
9,ASSQDRAGEQF,6	1151
10,ATSELAGGTQY,10	1
15,SARGCYEQY,12	21
43,ASSLGQSSYNEQF,6	280
13,ASSLRYQETQY,10	4
18,ASSPGGGAFEQF,6	1
9,VSGQDRASEQF,6	1
26,ASSLASTGPQETQY,10	2
10,ATSGRAGDTQY,10	1
43,ATSETGYEQY,12	17
10,ATHGIAGETQY,10	1
21,ASSSSLTSGLYEQF,6	1
14,ASSPNGSGVTDTQY,8	103
14,ASSPSGSGGTDTQY,8	20
15,SARELARGNRETQY,10	2
43,ASRETGYEQY,12	167
42,ASSSFSARADTQY,8	1
15,SASGSYEQY,12	52
18,ASSLGGGGFEQY,6	3
14,ASSPCGSGVTDTQY,8	44
43,ASSETGYEQY,12	395103
26,ASSPEDYPLSHNEQF,6	1
20,SVHTGTGAGNTIY,2	1
18,ASSLGGWGFEQF,6	4
14,ASSPSGSEVADTQY,8	1
18,ASSQDRASEQF,6	2
10,ATSGTAEETQY,10	7
20,SVEGFGLGTTGETQY,10	4
18,ASSLGAGAVEQF,6	2
9,ASIQDRVSEQF,6	1
26,ASSWGQGGNTIY,2	180
18,ASSLGGGSFEQF,6	12
10,ATIGMAGETQY,10	1
10,ATSGVAGETQY,8	3
10,ATSQIAGETQY,10	1
18,ASSLASSYEQY,12	4
43,ASSETAYEQY,12	10
14,ASSPCGSGVTETQY,8	1
42,ASSSFTDSADTQY,8	1
10,ATSEIAEETQY,10	3
10,ATNGIPGETQY,10	2
43,ASSLYSYEQY,12	652
44,ASSRGDTQY,8	5114
43,ASSLCSYEQY,12	2
9,ASSQDRATEQF,6	12
6,ASSLTSNTGELF,7	5
10,ATIGTAGETQY,10	2
43,ASSTCSYEQY,12	1
26,ASSLDSIGPQETQY,10	14
20,SVERQGGDTQY,8	9
17,ASGLRGSLNEQF,6	1
17,ASSLQGSLNEQF,6	1300
43,ASSPYSYEQY,6	4853
10,ATSGMARETQY,10	17
10,SASGIAGETQY,10	7
20,SVEARGGELDTQY,8	2
21,ASSQKWGQGARSTDTQY,8	11
10,ATSGTAGETQY,8	2
20,SVPAGDSTDTQY,8	16
20,SVRHTETQY,10	1
18,TSSLANSYEQY,12	5
43,ASSPYSYEQY,12	857323
9,ASSEDRASEQF,6	34
10,ATRVIAGETQY,10	1
21,ASSQPRGMEYGTQY,8	3
18,ASSLDGGAFEQF,6	56
9,TSSLDRASEQF,6	2
43,ASSPYSCEQY,12	1540
43,ASSPHSCEQY,12	2
24,ASGQGRSGGGTDTQY,8	1
44,ASGRGDTQY,8	16
14,ASSPSGSWVTDTQY,8	17
43,TSIETGYEQY,12	3
31,ASSERGSFQETQY,10	61
9,ASSQDRTSEQL,6	1
9,ARSQDRASEQF,6	171
10,ATNGIGGETQY,10	2
42,ASSSFSDRADTQY,8	8892
23,ASSQGLGRNSGNTIY,2	1
9,ASSQDRVSEQF,6	331
43,ASSPYPYEQY,6	13
43,ASNEAGYEQY,12	1
43,ASSPDSYEQY,12	96
14,ATSPSGSGVTDTQY,8	8
10,ATSAIAGETQY,10	437
44,ASIHGDTQY,8	1
10,ATGAIAGETQY,10	1
43,ASSPYCYEQY,6	1
43,ASSSYSCEQY,12	1
8,ASNPLDSTDTQY,10	1
10,AISGIAGGTQY,10	13
43,ASSETCYEQY,12	1
18,ASSLGGGAFEQY,6	14
9,ASSQVRASEQF,6	49
14,ASNPSGSGVTDTQY,8	112
10,ATIGIAGGTQY,10	2
14,ATSGVAGETQY,10	20
14,ASSLSGSGVTDTQY,8	142
14,ASSLGGQGGDEQY,12	1
9,ASSQDHVSEQF,6	2
43,VSSPYPYEQY,12	4
30,ASSETGYEQY,12	4
18,ASLLGGGAFEQF,6	1
43,ASSETGCEQY,12	736
43,ASNGTGYEQY,12	1
33,ASSYFGRQETQY,10	4
9,ASNQDHASEQF,6	1
9,ASTLDRASEQF,6	1
26,ASSLDGAGPQETQY,10	1
18,ASSLVGGGFEQF,6	1
21,ASSQVSPPGNNEQF,6	3
15,SARDSYEQY,12	172
10,ATSGLAGDTQY,10	2
10,ASSGIEGETQY,10	2
15,SARGFYEQY,12	144
10,ATSGLAGETQY,8	2
10,ATSGLAEETQY,10	3
10,ATCGMAGETQY,10	5
26,ASSPGDYPLSYNEQF,6	1
18,ASSLGGGDFEQF,6	22
10,ATSKIAGETQY,10	2
2,AISVGKVSMNTEAF,0	258
20,SVEGRGGESDTQY,8	1
16,ATSDLAFRGEQY,12	1
10,ATSAMAGETQY,10	1
20,SVEARGGEPDTQY,8	7
9,ASSQDGASEQF,6	38
12,ASSPRGQGYEQY,12	220
18,ASSLGEGGFEQF,6	9
9,VSSQDRVSEQF,6	1
10,ATSGRAGGTQY,10	4
10,ATSGTAGDTQY,10	3
43,ASSRQGGSYNEQF,6	1
43,ASSRAGYEQY,12	1
18,ASSLANSFEQY,12	1
21,ASSSSMTSGLDEQF,6	1
6,ASSPTLNTGELF,7	3
43,ASNPYPYEQY,12	4
20,SVEARGSESDTQY,8	13
26,ASSLGGTATYEQY,12	10
15,SARVSYEQY,6	1
9,ASSLDSASEQF,6	1
10,AISRIAGETQY,10	2
14,ASSPSGSGATETQY,8	1
9,ASSQDRASEQL,6	1601
18,ASSLCGGAFEQF,6	6
43,ASSLGQSSYDEQF,6	1
9,ASSQGRASEQF,6	1361
10,AISGLAGETQY,10	10
9,ASSQGRVSEQF,6	2
43,AISETGYEQY,12	48
43,ASRPYSYEQY,12	336
42,ASSSFTDGADTQY,8	1
10,ATGGIGGETQY,10	2
9,TSSQGRASEQF,6	1
10,ATIGIVGETQY,10	2
2,AISVGKVSVNTEAF,0	1
21,ASSSSMTIGLYEQF,6	3
26,ASSRGADLYTDTQY,8	8
18,ASSLGGGPFEQF,6	12
9,ASSLDRTSEQF,6	3
9,ASGQDRANEQF,6	1
40,ASSETGYEQY,12	19
6,ASSPTGVETQY,10	83
43,ASGPCSYEQY,12	4
18,ASSLANSHEQY,12	11
43,ASGGTGYEQY,12	1
26,ASSLTDGASEKLF,3	4
42,VSSSFSDRADTQY,8	6
26,ASSWDRDRASKNIQY,9	1
10,ATSGISGGTQY,10	4
6,ASSPPSNTGELF,7	1
14,TSSPSGSGVTGTQY,8	1
26,ASSLDSSGPQETQY,10	3
6,TSSPTSNTGELF,7	4
18,TSSLGEGAFEQF,6	1
43,ASSPYPHEQY,12	4
26,ASSLGPSYEQY,12	33
14,ASSEAGTGPYNEQL,6	3
10,ATSRIAGETQY,10	4696
10,ATCAIAGETQY,10	1
43,ASSPYSHEQY,12	744
14,ASSPSVSGVTDTQY,8	22
10,ATSRISGETQY,10	1
44,ASRRGDTQY,8	3
10,ATSGIERGTQY,10	1
42,ASSSISDRADTQY,8	2
14,ASSPSGSGETDTQY,8	15
43,ASSLYSYEQY,6	3
26,ASSPEDYPLSYNEQL,6	1
9,ASSQDSASEQL,6	1
14,ASIPSGNGVTDTQY,8	2
9,ASSHDRASEQF,6	123
10,ATDGIAGETQY,10	12
15,SVRGSYEQY,12	196
18,ASSLGWGAFEQF,6	9
26,ASSLDSTEPQETQY,10	15
10,ATSGIAGEPQH,4	1
10,ATSGVTGETQY,10	17
37,ASSATGGQGYEQF,6	27
15,SARGSHEQY,12	374
16,ATSDTSGRGGDEQF,6	20
14,ATSGIAVETQY,10	1
18,ASSPLGNQETQY,10	3
21,ASSQPRGVEYGTQY,8	49
42,ASGLGSGRETQY,10	2
18,ASTLGGGAFEQF,6	3
6,ASSTTSNTGELF,7	2
14,ASSPSGSRVADTQY,8	4
15,SAKGSYEQY,12	223
15,SARDPYEQY,12	3
43,ASSLGQSSYNEQL,6	1
9,ASSQDRGSEQF,6	26
43,ASSPSPYEQY,12	15
43,ASTETGYEQY,12	12
10,ATGGIAGETQY,10	13871
10,ATSEIVGETQY,10	4
10,ATSGIGGETQY,8	1
10,ATCGVAGETQY,10	13
10,ASSEIAGETQY,10	7
28,ASSETEYEQY,12	1
26,ASSLGSTGPQETQY,10	69
43,ASSPSSYEQY,12	427
18,ASRVGGGAFEQF,6	3
20,SVEARGGGSDTQY,8	7
43,ASGEAGYEQY,12	6
42,ASSSFSDGADTQY,8	16
43,ASSKTGYEQY,12	288
10,ATSGIEGETQY,10	1247
37,TSSAMGGQGYEQF,6	1
43,ASGTYSYEQY,12	1
14,ASSPSGSGVPDTQY,8	25
43,ASSTYPYEQY,12	2
26,ASSLNGRKSTDTQY,8	1
9,ASSRDRASEQL,6	3
43,ASSPYTHEQY,12	1
43,ASNLIRGPAKGYEQY,12	2
26,ASGLDSTGPQETQY,10	64
10,ATSGIAGGTQY,8	1
26,ASSWDRDKVSKNIQY,9	1
26,ASSLDSTGRQETQY,10	5
18,ASGLGGGAVEQF,6	3
18,ASSLGAGGFEQF,6	3
10,ATSGMAGETQY,10	8476
9,ASSQGCASEQF,6	4
10,ATNGIVGETQY,10	5
26,ASSMTDGANEKLF,3	1
13,ASSIDQGCYNEQF,6	1
9,ASSQDRACEQF,6	48
26,ASSGDSTGPQETQY,10	1
14,ASRTQGEYEQY,12	2
18,ASSLGEGAFEQF,6	55
10,ATIGVAGETQY,10	4
43,ASNPCSYEQY,12	2
42,TSSSFSDRADTQY,8	8
26,ASSLDSTVPQETQY,10	9
29,ASSRTDLSTEAF,0	1
18,ASSLGGGAVEQY,12	1
44,ASSCGDTQY,8	5
20,SVETQSGANVLT,11	3
10,ATNGIAGETQY,10	3412
15,SARGSCEQY,6	1
10,ATSGMTGETQY,10	6
14,ASCPSGSGVTDTQY,8	6
26,ASSPEDCPLSYNEQF,6	1
44,ASSVDPGLAGREQY,12	1
14,TSGPSGSGVTDTQY,8	1
28,ASSTYSYEQY,12	1
9,ASSQDRTGEQF,6	1
14,ATSAIAGETQY,10	1
43,ASNLYSYEQY,12	3
9,ASSQGHASEQF,6	2
10,ATGGIVGETQY,10	24
43,ASGPSSYEQY,12	2
28,ASSPYSYEQY,12	888
18,ASSLANFYEQY,12	2
10,ATSGIKGETQY,10	1
20,SVEALGGESDTQY,8	1
28,ASNPYSYEQY,12	2
43,ASRPCSYEQY,12	1
43,ARRETGYEQY,12	1
9,VSSQDRASEQF,6	338
10,ATSGVAEETQY,10	8
14,ATSGLAGETQY,10	7
43,ASGPHSYEQY,12	1
34,ASSPTGGSYEQY,12	3
18,ASSLGGVAFEQF,6	17
10,ATCGLAGETQY,10	5
10,ATNEIAGETQY,10	2
42,ASNSFSDRADTQY,8	4
2,AISDPGLAGTGTQY,8	1
18,VSSLANSYEQY,12	6
43,ASGPYPYEQY,12	8
9,ASSRNRASEQF,6	1
26,ASRLDSTGPQETQY,10	12
18,ASRLGGGAFEQF,6	19
43,ASRLYSYEQY,12	1
10,ATSTIAGETQY,10	2
10,ATSGVARETQY,10	30
43,ASNPYSYEQY,12	460
14,TSRPSGSGVTDTQY,8	1
31,ASSETSGGSNEQF,6	1
43,ASSPSSHEQY,12	1
13,ASSIEQSDGYSETQY,10	1
43,VSSPYSYEQY,6	7
14,ASSPSGIGVTDTQY,8	21
43,ASSPYTYEQY,6	2
10,ATSRIAGGTQY,10	13
14,ASSPGGSGVTETQY,8	2
43,ASSETGDEQY,12	29
10,ATSRIAEETQY,10	2
10,ATSGIAGETQY,10	5232623
10,ASIGIAGETQY,10	1
14,ASSPSGSGVSDTQY,8	25
10,ATSGIGGGTQY,10	3
18,ASSLGGGALEQF,6	265
9,ASSQHRASEQF,6	11
26,ASGLTDGANEKLF,3	7
9,ASSQDRANEQF,6	177
25,ASSQDAVGNIQY,9	1
15,SARDGGRYEQY,12	13
13,ASSIEQRDGYSETQY,10	71
10,ATRGMAGETQY,10	4
42,ASSSLSDRADTQY,8	22
14,ASSETGYEQY,12	1
9,ASSQGGRGRGETQY,10	8
10,ATSGILGETQY,10	2
9,ASSQDHASEQF,6	536
26,AISPEDYPLSYNEQF,6	1
14,ASSPSGSAVTDTQY,8	11
18,ASSIGGGAFEQF,6	44
43,ASSLIRGPARGYEQY,12	1
28,ARSPYSYEQY,12	1
18,AISLGGGAFEQF,6	8
43,ASSSCSYEQY,12	2
43,ASSLGGTNTEAF,0	1
40,ASSPYSYEQY,6	1
26,ASSSDTGSHNEQF,6	1
10,ATNGIAGDTQY,10	3
15,SARGSYEQF,6	1
42,ASSLGPGRETQY,10	1
14,ASSASGSGVTDTQY,8	49
10,TSSGIAGETQY,10	2
10,ASSGIAGDTQY,10	2
10,ATSRTAGETQY,10	4
10,ATSEITGETQY,10	3
14,ASSSSGSGVTDTQY,8	108
18,ASSLANSYEQY,12	7230
2,AISDPELASTDTQY,8	1
43,ASSETGCEQY,6	2
9,ARSQDRASEQL,6	1
38,ASSLTSQGAYNEQF,6	123
18,ASSLGEGAVEQF,6	2
10,ATSGLSGETQY,10	1
42,ASSPFSDRADTQY,8	27
14,ASSNQGSEQY,12	24
26,ASSLVGTAYNEQF,6	1
18,ASSLLYGGVSPLH,5	2
14,ASSEARTGPYNEQF,6	1
6,ASSPTSNAGELF,7	6
43,ASSPSAYEQY,12	1
34,ASSPTGGFYEQY,12	45
10,ATNGIEGETQY,10	1
26,ASSLDSAGPQETQY,10	47
44,ASSRGGTQY,8	10
10,ASSGTAGETQY,10	4
9,TSSQDRASEQF,6	396
10,ATSEVAGETQY,10	17
43,ASSPYSNEQY,12	80
17,ASSLQGPLNEQF,6	1
18,ASSLGGGAFEQF,6	108347
43,ASSEAGFEQY,12	1
10,ATSGIARGTQY,10	16
18,ASSFGGGGFEQF,6	5
26,ASSLDGTGPQGTQY,10	1
43,ASRPYSYEQY,6	1
15,SAWGSYEQY,12	83
14,ASGLSGSGVTDTQY,8	1
10,ATNRIAGETQY,10	3
15,SARRSGLAGVAYNEQF,6	1
10,ATCGIAGGTQY,10	10
9,ARSQDRAGEQF,6	1
43,ASSLEGRRSGANVLT,11	5
4,ASGLGGEQY,12	2
43,ASSEIRYEQY,12	1
42,VSSSFSGRADTQY,8	1
10,ATSGMEGETQY,10	3
18,ASSLSGGGFEQF,6	5
42,ASSSFSDRAGTQY,8	13
31,ASSYSGGGSYEQY,12	35
9,ASGQDSASEQF,6	3
9,ASGQDRASEQY,6	1
9,ASSRLSAYEQY,12	1
43,ASSPYPCEQY,12	7
18,ASNLGGGGFEQF,6	4
10,ATREIAGETQY,10	1
43,ASSEKGYEQY,12	119
26,ASSLDSTGPQGTQY,10	86
43,ASSLHSYEQY,12	3
15,SAGGSHEQY,12	1
42,ASSPYSYEQY,12	1
26,ASSPEDYPLSYNEQF,6	56
10,ATCGIAGDTQY,10	1
28,ASSETGYEQY,12	378
9,ASGQDHASEQF,6	1
21,ASSSSMTSGLHEQF,6	2
43,ASGETEYEQY,12	1
15,SARGPDEQY,12	1
9,ARSRDRASEQF,6	1
43,ASREAGYEQY,12	1
14,ARSPSGSGVADTQY,8	1
10,ATSGIAWETQY,10	2
20,SAEARGGESDTQY,8	10
18,ASRLGGGGFEQF,6	2
10,ATRGLAGETQY,10	3
10,ATGGIAEETQY,10	3
38,ASSLTSQGAHNEQF,6	1
26,ASSLCSTGPQETQY,10	1
43,ASSPNSYEQY,12	66
43,TSSLYSYEQY,12	3
37,ASSAMGGRGYEQF,6	4
18,ASSLGRGGFEQF,6	16
10,AIGGIAGETQY,10	8
43,ASSPCSYEQY,6	6
15,SARGSSEQY,12	23
43,ASSPYTYEQY,12	170
43,ASSPSSYEQY,6	3
18,TSSLGGGAFEQF,6	142
15,SAGGSYEQY,12	605
9,ASGRDRASEQF,6	5
28,ASSPYSCEQY,12	6
9,ASSKDRASEQF,6	55
15,SARGSYEQY,12	269526
43,ASSPYSREQY,12	2
20,SVELAGGGNEQL,6	1
18,ASSLGGRALEQF,6	1
15,SARGSGTQY,8	1
43,ASSSYFYEQY,12	1
9,ARNQDHASEQF,6	1
10,ATSGIGRETQY,10	4
10,ATSGIVGDTQY,10	2
18,ASSLGGGGSEQF,6	10
26,ASSVDSTGPQETQY,10	4
10,ATGGITGETQY,10	10
10,ATRGIAEETQY,10	1
15,SAEGSYEQY,12	1
10,ATNGMAGETQY,10	9
12,ASAPRGQGYEQY,12	1
10,ATSGIVRDTQY,10	1
10,AISGITGETQY,10	2
14,ASSPSSSGVTDTQY,8	240
10,ATSGLVGETQY,10	6
10,ATSGIAETQY,10	1
10,ATSWIAGETQY,10	2
10,AISGIGGETQY,10	2
21,ASSRDRRYEQY,12	1
10,ATGEIAGETQY,10	22
10,ATCGITGETQY,10	1
43,ASSPRSYEQY,12	3
43,ASSLARSGNTIY,2	1
15,SAGGPYEQY,12	3
10,AINGIAGETQY,10	4
18,ASGLGGGASEQF,6	2
18,ASSLVGGAFEQF,6	10
20,SVEERGGESDTQY,8	3
32,ASSYSGGGSYEQY,12	1
18,ASSSGGGAFEQF,6	49
10,ASGIAGETQY,10	2
10,ATRGIAGETQY,10	2479
38,ASSPGGGNYNEQF,6	1
20,SVEARGGEADTQY,8	2
9,ASSQDRAGEQL,6	3
13,ASSIDQGSYNEQL,6	2
43,ASSKTGHEQY,12	1
10,ATSGVGGETQY,10	4
10,ATSVMAGETQY,10	1
2,ATCLGTGNNPETQY,10	1
9,ASNRDRASEQF,6	1
43,ASSETVYEQY,12	64
9,TSSLDRVSEQF,6	1
21,ASSLSGGAVEQF,6	2
10,ATSGIASETQY,10	4
10,ATSGITEETQY,10	4
10,ATRGIAGGTQY,10	6
10,ATSEIAGETQY,10	3951
14,ASSPSGGGVADTQY,8	5
21,ASSSSMTNGLYEQF,6	1
9,ASGQDRASEQL,6	7
43,ASSLEGMNTEAF,0	1
43,ASSPYFCEQY,12	1
9,TSSQDRASEQL,6	2
10,ATSGIAVETQY,10	618
43,ASSEAEYEQY,12	1
10,ATSGRAGETQY,10	563
2,AISVEKVSMNTEAF,0	2
14,ASSPSGSGVVDTQY,8	1
18,ASSLATSYEQY,12	1
18,ARSLGGGAFEQF,6	47
10,ATSGMGGETQY,10	3
6,ASSPTGVETQY,8	1
14,ASSPSASGVTDTQY,8	9
26,ASNLGGTATYEQY,12	1
15,SAGGTYEQY,12	1
26,ASSLGGGPSTDTQY,8	2
10,ASSGLAGETQY,10	3
14,ASSPSGSRVTDTQY,8	183
26,TSSLDSTGPQGTQY,10	1
30,ASSPYSYEQY,12	11
10,AISGVAGETQY,10	13
14,ASSPGGSRVTDTQY,8	2
43,ASGPYSDEQY,12	2
10,ATSELARDTQY,10	1
43,ASSLGGMNTEAF,0	312
10,ATGGIAGETQY,8	2
26,ASSLVSGSREGDEQF,6	3
43,ASSETRCEQY,12	1
26,TSRLDSTGPQETQY,10	1
9,ASSQDRTSEQF,6	621
20,SVELAGGGNEQF,6	16
18,ASSLSGGAVEQF,6	1
44,ASIRGDTQY,8	1
18,ASSLANSREQY,12	1
20,SVRQRGVQETQY,10	5
18,ASSVGGGVFEQF,6	1
9,ASSQGRASEQL,6	2
43,ASSETWYEQY,6	1
43,ASSPHSHEQY,12	2
43,TSSLGQSSYNEQF,6	2
18,ASSLGGGCFEQF,6	3
10,ATSAIAGGTQY,10	1
43,VSSGTGYEQY,12	2
43,ATSPYSYEQY,12	47
14,ATSGTAGETQY,10	7
44,ASSRRDTQY,8	3
26,ASSSDSTGPQETQY,10	46
9,ATSQDRASEQF,6	42
20,SVKARGGESDTQY,8	1
26,ASSLLSSGDTDTQY,8	2
42,ASSSFSVRAGTQY,8	1
18,ASSVGGGGFEQF,6	8
10,ATSGGAGETQY,10	3
43,ASSPFSYEQY,12	32
26,ASSLDTTGPQETQY,10	2
9,VSSLDRASEQF,6	1
10,ATSGIAEETQY,10	2301
9,ASSQDCKSEQF,6	1
9,ASSQDRASEQY,6	118
43,ASSETEYEQY,12	305
20,SVTDSVEGLAYEQY,12	1
9,ASSQDRGSEQL,6	1
10,ATRGTAGETQY,10	2
26,ASSLDSTGPQDTQY,10	11
10,ATSSDGESGNTIY,2	225
17,ASSLQGSLNEQL,6	8
26,ASSLDSTGPLETQY,10	3
2,AIRRTGVGHNEQF,6	1
20,SVWGGGSYNEQF,6	14
10,ATSRIAAETQY,10	1
20,SVDARGGESDTQY,8	3
10,ATSGIADETQY,10	2
26,TSSLDSTGPKETQY,10	1
26,ASSPDSTGPQETQY,10	1
14,ASSLRGSGVTDTQY,8	1
9,ARSLDRASEQL,6	1
43,ASIETGYEQY,12	46
10,ATGGRAGETQY,10	2
10,ATSEIAGGTQY,10	19
43,VSSPYSYEQY,12	921
10,AISGTAGETQY,10	7
14,ASSSSGSGVADTQY,8	1
14,ATSGIAGDTQY,10	5
10,ATSRIAGDTQY,10	3
31,ASTATSEYNEQL,6	1
8,ARSLGRVDTQY,8	2
18,ASCLADSYEQY,12	1
18,ASSFGGGAFEQF,6	14
8,ASSRAGGPPCTDTQY,8	1
10,ATCGIEGETQY,10	2
13,ASPPLNSLKSQETQY,10	1
29,ASSSRDRGSGEQF,6	1
10,ATGGIEGETQY,10	3
10,ATNGIAAETQY,10	1
42,ASSSFLDRADTQY,8	6
17,ASSLRGSLNEQF,6	7
14,ASRPSGSGVTDTQY,8	65
42,ASSSFSDRAETQY,8	29
10,ATSAIAGETQY,8	1
10,ASSGIAGETQY,10	3310
10,ATIRIAGETQY,10	1
14,ASGPSGSGVTDTQY,8	406
18,ASSLGGVGFEQF,6	2
8,ASNPLDSTGTQY,8	2
18,ATSLGGGAFEQF,6	3
6,ASSPTSNPGELF,7	1
43,ASSPYSDEQY,12	73
43,ASSLGQSSYSEQF,6	2
10,ATRGVAGETQY,10	12
10,ASSGIARETQY,10	3
18,ASGLANSYEQY,12	11
26,ASSLTDRANEKLF,3	1
43,ASSLGQSPYNEQF,6	1
14,ATSGIGGETQY,10	2
14,ATSGITGETQY,10	3
20,SVESHLAGGRNEQF,6	1
43,ASGLYSYEQY,12	13
18,ASSLGGAGFEQF,6	2
18,ASSLGGAAFEQF,6	15
14,ATSEIAGETQY,10	2
23,ASSQAQGARQPQH,4	2
20,SVEVRGGGSDTQY,8	1
44,ASSSGDTQY,8	1
10,ATSATAGETQY,10	5
18,ASSLGGGACEQF,6	11
10,ATSIIAGETQY,10	3
40,ASSPYSYEQY,12	56
42,ASSSFTDRDDTQY,8	1
43,ASTPYSYEQY,12	54
10,ATSEKAGETQY,10	2
14,ASSPIGSGVTDTQY,8	15
43,ASSSRTDTQY,8	38
13,ASPSLNSLKSQETQY,10	23
26,ASSLDSKGPQETQY,10	4
10,ATSGMAGGTQY,10	35
10,ATTGIAGGTQY,10	1
9,ASSQDPASEQF,6	46
9,ASSQDRASEQY,12	1
6,ASSNPGPDTQY,8	1
10,ATMGIAGETQY,10	1
43,TSSETGHEQY,12	4
43,ASSPYADEQY,12	1
10,AISGIAGETQY,10	3507
26,ASSLDSTGPKETQY,10	7
43,ASSPYSDEQY,6	1
21,TSSSSMTSGLYEQF,6	1
21,ASGQVGPPGNNEQF,6	1
14,ASGPSGSGVADTQY,8	12
43,TSSETMYEQY,12	1
43,ASRPYPYEQY,12	1
43,VSSPHSYEQY,12	1
19,ASSSGSGNEQF,6	4
10,ATSGLARETQY,10	5
18,ASSVGGGAFEQF,6	108
10,ATSGVAGDTQY,10	10
9,ASSLDRESEQF,6	2
42,ASSSFSDRVDTQY,8	4
43,ASSEKGHEQY,12	1
18,ASSLGGGFEQF,6	1
10,ATSALAGETQY,10	2
18,ASSLGGEAFEQF,6	66
10,ATCGISGETQY,10	1
9,ASSLDRASEQF,6	6018
43,ASSPYAYEQY,6	1
18,ASSLGGGAIEQF,6	6
9,ASSRDRASEQF,6	981
15,SASGSCEQY,12	1
9,ASSRDRVSEQF,6	1
26,ASSLYSTGPQETQY,10	3
10,ATSGIAGETQY,8	658
10,ATSGIEGGTQY,10	4
21,VSSSSMTSGLYEQF,6	2
37,ASSLSDNEQF,6	5
21,ASSLRSAKNIQY,9	11
14,ASSEAGTGPCNEQF,6	1
26,ASSLDSTGAQETQY,10	4
18,ASSVGGGASEQF,6	1
37,ASSPTQGNTIY,2	4
9,ASSQARASEQF,6	20
26,ASSLVSTGPQETQY,10	3
17,TSSLQGSLNEQF,6	1
10,ATSGKAGETQY,10	148
9,ASSQGRASEQY,6	1
14,ASSGIAGETQY,10	3
17,ASNLQGSLNEQF,6	1
6,ASGPTSNTGELF,7	8
43,ASSPHSYEQY,12	1584
43,ASSGTAYEQY,12	1
10,ATNGIAGGTQY,10	12
43,ASSPYPYEQY,12	3538
21,ASSSSMTSGLYEQL,6	3
18,ASSLSNSYEQY,12	1
18,ASSLGAGAFEQF,6	3
18,ASSLVNSYEQY,12	11
14,ASGPSGSGVTGTQY,8	1
18,ASSVGGGAVEQF,6	1
15,SARVSYEQY,12	39
10,ATSGITGGTQY,10	11
14,ASSLSSSGVTDTQY,8	1
18,ASSLGGGAYEQF,6	13
18,ASSIANSYEQY,12	3
43,ASSPYTCEQY,12	1
10,ATIGIARETQY,10	3
28,ASSPYPYEQY,12	1
18,ASSLGGRGFEQF,6	13
42,ATSSFSDRADTQY,8	3
10,ATVGIAGETQY,10	2
10,ASSGMAGETQY,10	4
43,ASNLGGMNTEAF,0	2
10,ATSGTAGGTQY,10	15
10,ATSELAGETQY,10	4
14,ASSPSGSGITDTQY,10	1
9,TSSQDRACEQF,6	2
18,ASTPRGISSGANVLT,11	2
10,ATSSGGESGNTIY,2	1
20,SVEARGGASDTQY,8	1
43,ASSPYLYEQY,12	3
18,VSSLGGGAVEQF,6	1
14,ASSPSGSRATDTQY,8	3
17,ASSLQGSLDEQF,6	1
10,ATGGVAGGTQY,10	1
15,SARGAYEQY,12	38
18,ASRLANSYEQY,12	6
27,ASSSDGTNEQF,6	3
21,ASGQDRRYEQY,12	1
38,ASSSAGVRGETQY,10	1
28,ASGPYSYEQY,12	2
43,ASSGAGYEQY,12	6
43,ASNETGCEQY,12	1
9,ASSRGRASEQF,6	2
14,AISPSGSGVTDTQY,8	22
18,ASILGGGALEQF,6	1
18,ASSLGGGDVEQF,6	1
43,ARSEAGYEQY,12	2
8,ASNPLDSIDTQY,8	1
18,ASSLGGGVFEQL,6	1
18,ARSLGGGAVEQF,6	2
43,ASGSYSYEQY,12	1
17,ASSLQGSLNEQY,6	3
26,ASSWDWDRVSKNIQY,9	1
21,ASSRPGRLETQY,10	2
14,ASSPSGSGVKDTQY,8	39
26,ASSWGRGGNTIY,2	2
42,ASSSVSDRADTQY,8	1
10,ATRGIGGETQY,10	1
43,ASSTYSYEQY,12	126
43,TSSPYSCEQY,12	1
14,ATSEITGETQY,10	1
14,ASSPSGSGVADTQY,8	1142
9,ASSPDRASEQF,6	65
44,AISRGDTQY,8	2
42,ASGSFSDRADTQY,8	23
43,ASSLIWGPAKGYEQY,12	4
20,SVDQRQETQY,10	4
31,ASTATSEYNEQF,6	29
15,SARGPYEQY,12	1147
14,ASSPRGSGVTDTQY,8	107
10,ATSGIAIETQY,10	1
14,ASIPSGSGITDTQY,8	1
14,ATSGRAGETQY,10	2
9,ARSEDRASEQF,6	1
10,ATSGMAGETQY,8	2
27,ASSLVGSALAYNEQF,6	1
26,ASSSDTGSRNEQF,6	2
43,ASSGKGCEQY,12	1
43,ARSETGYEQY,12	138
21,ASSSSKTSGLYEQF,6	1
43,ASSETEYEQY,6	1
10,ATGGIAGGTQY,10	52
10,ATSGIAEGTQY,10	10
10,ATSGIEEETQY,10	1
43,ASSPHSYEQY,6	8
43,VSSLGQSSYNEQF,6	1
43,ASCPYSYEQY,12	27
42,ASSSFSDSADTQY,8	1
14,TSSSSGSGVTDTQY,8	1
37,ASSAMGRQGYEQF,6	1
43,ASSPCSCEQY,12	2
21,ASRLRSAKNIQY,9	1
9,ASGQDGASEQF,6	2
18,ASSLGGGAVEQL,6	1
43,ASSPCYYEQY,12	1
43,ASSLYPYEQY,12	4
10,ATGGIARETQY,10	10
18,ASSLGGGALEQL,6	1
37,ASSPYSYEQY,12	5
14,ATSGIAGGTQY,10	14
15,SARASYEQY,12	25
18,TSSLGGGGFEQF,6	3
14,ASNPSGSGVTETQY,8	2
18,ASSLGGWAFEQF,6	26
10,AISGIAEETQY,10	3
21,ASSSSMTGGLYEQF,6	1
10,ATSGIARETQY,10	5922
21,ASSSSMTSGPYEQF,6	2
43,ASSLIRRPAKGYEQY,12	1
15,SARSPYEQY,12	1
26,ASSLDITGPQETQY,10	3
18,ASSVGGGDFEQF,6	1
15,SARSSYEQY,12	118
14,ASSPSGNGATDTQY,8	2
15,SARGSYEQY,6	273
14,ASSPSGSGATDTQY,8	328
6,ASSPTSNIGELF,7	2
26,ASSLDSTGPPETQY,10	8
9,ASSLARASEQF,6	2
18,ASSLGGEGFEQF,6	17
18,ASSLANSCEQY,12	12
18,ASTPWGISPGANVLT,11	1
14,ASSPSGNGVTDTQY,8	276
43,ASRETRYEQY,12	1
14,ASSRSGSGVTDTQY,8	19
10,ATNGIARETQY,10	1
20,SVAARGGESDTQY,8	1
43,ARSPYSYEQY,12	421
18,ASSSVSSGANVLT,11	14
14,ASTPRTTSANEQF,6	5
3,ASSPYSYEQY,12	2
10,ATSGIVVETQY,10	2
14,ATIGIAGETQY,10	3
26,ASSMDSTGPQETQY,10	9
18,ASSLGVGGFEQF,6	3
26,ASSSRSSYNEQF,6	1
14,ASSSSGGGVTDTQY,8	1
43,ASTETGYEQY,6	1
43,ASGPYSYEQY,6	13
14,ASSPSGGGVTDTQY,8	378
26,ASSLDSTGPHETQY,10	18
18,ASSLSGGAFEQF,6	43
43,ASSAAGYEQY,12	1
43,ASSPYFYEQY,12	314
14,ASSPSGSGVTGTQY,8	490
18,ASSSGGGAVEQF,6	5
10,ATNGVVGETQY,10	1
14,ASSEDPGQAYEQY,12	28
18,AISLANSYEQY,12	2
28,ASRETGYEQY,12	1
26,ASSLVPTGRGGDEQF,6	1
18,ASSLDGGGFEQF,6	34
10,ATCGIAEETQY,10	3
9,ARSHDRASEQF,6	1
9,ASSQYRASEQF,6	6
14,ASSPGGNGVTDTQY,8	1
16,ATSDLAFRGEQY,6	59
10,ATSGISRETQY,10	2
43,ASSPPSYEQY,12	1
18,ARSLGGGVFEQF,6	1
43,ASSPYSCEQY,6	4
9,ASGQVRASEQF,6	2
13,ASRLGGQGNEQY,12	3
18,ASSLGGGGFEQF,6	14777
9,ASSRDRTSEQF,6	2
20,SVNRGDNSYEQY,12	1
12,ASSPRRQGYEQY,12	1
9,ASSQDCASEQF,6	342
43,ASSLGGINTEAF,0	1
43,ASSPHPYEQY,12	6
10,ATSGIAKETQY,10	4
42,ASSSFSERADTQY,8	7
21,VSSQPRGVEYGTQY,8	1
26,ASSLDSTGHQETQY,10	5
28,TSSPYSYEQY,12	1
14,ASSPYSYEQY,12	1
10,ASSGIVGETQY,10	4
18,ASSLANPHEQY,12	1
2,AISDPGLASTDTQY,8	90
18,ASSLANPYEQY,12	87
26,ASSLDSTGPQDTQY,8	1
6,ASSSTSNTGELF,7	3
9,ASTQDRASEQF,6	39
21,ASSSSMTSGLYEQF,6	567
14,ASGPGGSGVTDTQY,8	1
8,ASSRAGGPPSTDTQY,8	22
18,TSSLGGGDFEQF,6	1
15,SARGSDEQY,12	33
43,ARSLIRGPAKGYEQY,12	1
8,ASSLGRADTQY,8	1
42,ASSSFSDRPDTQY,8	1
15,SAGGSSEQY,12	1
42,ASSSSSDRTDTQY,8	1
14,ASTPSGSGVTDTQY,8	11
18,ASGLGGGGFEQF,6	27
26,ASSSTDGANEKLF,3	4
43,ASSETWYEQY,12	66
9,ASNLDRASEQF,6	1
10,ATSGLGGETQY,10	2
10,ATSGVAGGTQY,10	69
43,TSSETGYEQY,6	2
43,ASSPYSFEQY,12	26
10,ATSVLAGETQY,10	2
14,ASSPRGSGVTETQY,8	1
26,ARSLDSTGPQETQY,10	8
26,ASSLDNTGPQETQY,10	20
4,ASSLGREQY,12	1
14,ASSPSGSGITDTQY,8	103
43,ASSSYSHEQY,12	2
43,ASRQYSYEQY,12	1
14,TSSPGGSGVADTQY,8	1
10,AIIGIAGETQY,10	1
23,ASSQDLGRNSGNTIY,2	20
6,ASSPIGVETQY,10	1
20,SVESRGGESDTQY,8	3
18,ASSLDGGTFEQF,6	2
15,SARRSYEQY,12	12
8,ASSSGRVDTQY,8	1
10,AISGIAGDTQY,10	2
18,ASSVANSYEQY,12	1
18,ASSLGGGTFEQF,6	61
9,ASRLDRASEQF,6	5
21,ASSSSTTSGLYEQF,6	1
43,ASSATGYEQY,12	30
26,AISLDSTGPQETQY,10	3
28,ASSERGYEQY,12	2
28,ASSPYSYEQY,6	4
14,ASSPSGSGVKETQY,8	1
6,ASGTGPSYEQY,12	1
14,VSSPSGSGVTDTQY,8	176
6,ASSPTPNTGELF,7	31
10,ATSGAAGETQY,10	41
43,ASSPYSSEQY,12	69
43,VSGPYSYEQY,12	1
43,ASSQYSYEQY,12	7
10,ATSGIALETQY,10	1
20,SVEVRGGESDTQY,8	3
44,ARSRGDTQY,8	4
14,ARSPSGSGVTDTQY,8	114
10,ATSVSAGETQY,10	1
26,ASSLNSTGPQETQY,10	18
42,ASSLGSGRETQY,10	208
9,ASNQDRASEQF,6	257
43,ARSPSSYEQY,12	1
10,ATSGVVGETQY,10	25
43,ASSPFSDRADTQY,8	1
15,SARSMYEQY,12	1
43,TSGPYSYEQY,12	3
10,ATIEIAGETQY,10	1
14,ATSGISGETQY,10	1
18,ASSLGGEAVEQF,6	2
10,ATGRIAGETQY,10	9
26,TSSLGSTGPQETQY,10	2
2,AISVGKVSTNTEAF,0	1
43,ASSLAGQLNTEAF,0	2
10,ATSGTAGETQY,10	7433
44,TSSRGDTQY,8	3
10,ATSGLTGETQY,10	5
18,VSSLGGGAFEQF,6	106
10,ASSGVAGETQY,10	14
9,ASRQDRASEQF,6	228
10,ATSETAGETQY,10	5
26,VSSLVPTGRGGDEQF,6	1
18,ASSLGGRAFEQF,6	75
10,ATCEIAGETQY,10	2
18,ASSLGGGGFEQL,6	39
21,ASSQDLARGLTDTQY,8	4
6,ASSPASNTGELF,7	9
18,ASSLAGGAFEQF,6	4
39,ASSPYSHEQY,12	1
10,ATSGVPGETQY,10	2
10,ATSGTEGETQY,10	2
9,ASSQDRAREQF,6	22
26,ASSLESAGPQETQY,10	1
42,ASSTFSDRADTQY,8	2
43,TSSPYSYEQY,12	626
26,ASSGDLIYEQY,12	2
43,ASSSYSYEQY,6	7
18,ASSLGGGGCEQF,6	1
13,ASSIEQRGGYSETQY,10	1
10,AISGIARETQY,10	4
26,ASSLDSTRPQETQY,10	10
43,TSSEAGYEQY,12	2
43,ATSGIAGETQY,10	23
43,ASSQDRASEQF,6	1
14,ASSEAGTGPYNEQF,6	412
17,ASSDPGFRQETQY,10	4
43,AISPYSYEQY,12	111
18,ASNLANSYEQY,12	1
10,ATSGITGETQY,10	3815
43,ASCETGYEQY,12	19
26,ASSLDSTGPRETQY,10	37
43,ASSVTGYEQY,12	229
10,ATSGTTGETQY,10	4
10,ATSEMAGETQY,10	6
18,ASSSGGGGFEQF,6	5
10,ATGGIAGDTQY,10	3
42,ASSLFSNRADTQY,8	1
2,AIRQTGVGHNEQF,6	41
9,VSSQDRASEQL,6	1
10,ASNGIAGETQY,10	2
10,ATSGIVRETQY,10	120
6,ASSPTSSTGELF,7	10
26,ASNLDSTGPQETQY,10	30
42,ASSSFSVRADTQY,8	9
26,ASSLDSTGPQETQY,10	29890
26,ASSWDRGRVSKNIQY,9	3
9,ASGLDRASEQF,6	10
18,ASILGGGAFEQY,6	1
9,ASGQHRASEQF,6	1
43,ARGPYSYEQY,12	3
18,ASNLGGGAFEQF,6	34
18,ASCLGGGAFEQF,6	3
43,ARSPYPYEQY,12	3
43,ASSLGHSSYNEQF,6	1
43,ASSLGQSSHNEQF,6	2
2,AISDPGLTSTDTQY,8	1
10,ATSGISGETQY,10	699
9,ASSRDCASEQF,6	3
44,ASSHGDTQY,8	4
31,ASSGTSGGSNEQF,6	7
15,SVGGSYEQY,12	1
14,ASSPSGSGLTDTQY,8	46
20,SVEARGGDSDTQY,8	2
18,ASILGGGAFEQF,6	8
28,ASSPCSYEQY,12	2
9,TSSLDRACEQF,6	4
26,ASSWDRDRVFKNIQY,9	1
14,ASSPSGSGGTGTQY,8	2
9,ASGQDRASEQF,6	1654
10,ASSGIAEETQY,10	2
43,TSSGTGYEQY,12	1
10,ATSGIVAETQY,10	2
33,ASSYIRGVAGSQETQY,10	3
43,ASSEAGCEQY,12	2
44,ASSLGDTQY,8	2
14,ASSEAGTGTYNEQF,6	1
20,SVEVQGGESDTQY,8	1
6,ASSLNRGEQF,6	1
9,ASSRDHASEQF,6	1
21,ASSSSVTSGLYEQF,6	3
43,ASSETGYEQY,6	443
20,SVEAQGGESDTQY,8	3
14,TSSPNGSGVTDTQY,8	1
9,ASSQDRAIEQF,6	24
20,SVETRGGESDTQY,8	2
14,ASSPSGSGIADTQY,8	1
9,ASIQDRASEQF,6	43
33,ASSPQRRREREQY,12	1
28,ASSSRTDTQY,8	1
43,ASSPCSYEQY,12	1426
14,ASGPSGNGVTDTQY,8	1
28,ASGETGYEQY,12	1
43,ARIPYSYEQY,12	1
43,VSSPCSYEQY,12	4
9,ASSQDRASEQF,6	426098
29,ASSETGYEQY,12	1
43,AISGTGYEQY,12	1
15,SARGPYEQY,6	2
14,ATGGIAGETQY,10	22
37,ASSPSRDTQY,8	3
8,ASRPSGSGVTDTQY,8	1
14,ASSPNGNGVTDTQY,8	1
14,ASSEAGAGPYNEQF,6	2
13,ASSIEQRDGYLETQY,10	1
37,ASSREDTQY,8	1
31,ASGERGSFQETQY,10	1
26,ASSLTDGVNEKLF,3	1
43,ASSGTGYEQY,12	1100
9,ASGQDRAGEQF,6	3
10,ATSGMVGETQY,10	9
43,ASSGKGYEQY,12	1
10,ATSGIVGETQY,10	8072
10,ATGGLAGETQY,10	12
26,ASSLDCTGPQETQY,10	7
14,ASSPSCSGVTDTQY,8	39
43,ASSETVYEQY,6	1
43,ASGPYSCEQY,12	4
2,AISVGKVPMNTEAF,0	1
43,ASSPYSYEQF,6	6
9,ASRQDRASEQL,6	1
17,ASSLQGSFNEQF,6	2
42,ASSSFSDRADTQY,10	1
43,ASREKGYEQY,12	1
20,SVEARGGESDTQY,8	4695
43,ASSLIRGPAKGYEQY,12	481
43,VSGETGYEQY,12	3
18,ASGLGGGAFEQL,6	1
6,ASSPTSNSGELF,7	5
13,ASNLGLAGPLGYNEQF,6	13
9,ASSLERASEQF,6	1
26,ASSLDSTGSQETQY,10	21
10,ATCRIAGETQY,10	4
14,ASSPSSSRVTDTQY,8	2
14,ASSLSGSGVIDTQY,8	1
14,ASSPSSSGVTGTQY,8	1
9,ASSQDRTNEQF,6	1
42,ASSSFSYRADTQY,8	1
41,ASSETGYEQY,12	1
10,ASSGIAGGTQY,10	12
18,ASSLGGGAAEQF,6	1
17,ASSLQGSPNEQF,6	3
10,ATSGIARETQY,8	4
26,ASSFDSTGPQETQY,10	18
9,ASCLDRASEQF,6	3
43,ASSEAGYEQY,6	4
10,ATCGIVGETQY,10	4
27,ASSPAVLSGGNTGELF,7	1
26,ASILDSTGPQETQY,10	4
28,TSSETGYEQY,12	2
10,ATSGTVGETQY,10	15
10,ATSGRVGETQY,10	1
44,ASSPWGGGRGNEQF,6	79
15,SARYSYEQY,12	1
42,ASSSCSDRADTQY,8	2
10,ATSGSAGETQY,10	4
42,ASSLFSDRADTQY,8	9
9,ASSQDRPSEQF,6	63
3,ASSETGYEQY,12	1
43,ASSPCSHEQY,12	2
28,ASSPHSYEQY,12	3
37,ASSAMGGQGYEQL,6	5
10,ATCGIAGETQY,10	4029
42,ASSSLSGRADTQY,8	2
10,ASSVIAGETQY,10	1
18,ATSGIAGETQY,10	1
43,ASRPYSCEQY,12	1
43,ASSRQRSSYNEQF,6	1
39,ASSETGYEQY,12	1
18,ASSSANSYEQY,12	8
23,ASSLDSTGPQETQY,10	3
20,SVEARGDESDTQY,8	5
15,SASDSYEQY,12	1
18,ASSLADSYEQY,12	9
6,ARSPTSNTGELF,7	8
28,ASSETWYEQY,12	1
43,ASTPYPYEQY,12	1
43,ASSLVRSGNTIY,2	24
43,ASSPYYYEQY,6	1
10,ATSGIAQETQY,10	1
42,ASMLVGLTGELF,7	1
14,ASSPGGSGVADTQY,8	2
18,ASGLGGGAFEQF,6	172
4,ASSPTSGGIIAKNIQY,9	2
18,ASILANSYEQY,12	2
6,ASSPSSNTGELF,7	1
26,ASSWDSTGPQGTQY,10	1
10,ATSGTGGETQY,10	2
10,ATSRITGETQY,10	3
10,ATSGTARETQY,10	11
2,ATSDPGLASTDTQY,8	1
15,SARFGSQAGEQF,6	2
43,ASSGIAGETQY,10	1
38,ASSETGYEQY,12	2
21,ASSSSMTCGLYEQF,6	3
15,SARGSCEQY,12	380
42,ARSSFSDRADTQY,8	1
20,SVEAWGGESDTQY,8	4
43,TSSPYSYEQY,6	3
9,ASSHDHASEQF,6	1
9,ASSQDSASEQF,6	68
10,ATSGVEGETQY,10	5
42,AISSFSDRADTQY,8	1
10,ATNGIAVETQY,10	2
43,ASSSYPYEQY,12	4
14,ASSPSGSEVTDTQY,8	155
43,ASSGTGHEQY,12	2
43,ASGETGYEQY,6	3
43,ASGETGYEQY,12	906
18,ASSLGNSYEQY,12	1
21,ASSLRSAKSIQY,9	1
43,ASSAYSYEQY,12	74
43,ASSESGYEQY,12	85
43,ASSPCPYEQY,12	5
38,ASSNPGQGPNEQF,6	2
43,VSSETGYEQY,12	291
10,AISGIAVETQY,10	2
14,ASSPSGSGVTETQY,8	488
9,ASSQERASEQF,6	74
26,ASSLDSRGPQETQY,10	3
20,SVEARVGESDTQY,8	1
10,ATGGISGETQY,10	2
16,ATSDLALRGEQY,6	1
43,ARGETGYEQY,12	2
18,ASSLGGGAVEQF,6	1367
9,ARSQNRASEQF,6	1
19,ASSLPGSTIY,2	2
10,ATKGIAGETQY,10	1
10,SASGTAGETQY,10	1
9,ASSQDHASEQL,6	3
43,ASSEAGHEQY,12	2
20,SVGARGGESDTQY,8	25
10,ATRGITGETQY,10	2
8,ASSPSGSGVTDTQY,8	10
20,SVEFHLAGGRNEQF,6	2
10,AISGMAGETQY,10	2
20,SVTLSWVTDTQY,8	1
14,ATSGMAGETQY,10	7
10,ATTGIAGETQY,10	134
6,ASIPTSNTGELF,7	1
10,ATSGIAAETQY,10	343
10,ATSGIVGGTQY,10	12
26,ASSFSRNNEQF,6	1
14,ATSRIAGETQY,10	4
14,ASSEAGTGPYDEQF,6	1
10,ATSVVAGETQY,10	5
18,ASSLGGGRFEQF,6	1
43,VSSPYAYEQY,12	1
44,ASSRGETQY,8	22
15,SARGTYEQY,12	69
8,ASNPLDGTDTQY,8	1
6,ASSPTSNTRELF,7	8
6,VSSPTSNTGELF,7	4
10,ATSVIAVETQY,10	2
44,VSSRRDTQY,8	1
10,ATSRKAGETQY,10	3
43,ASSLYSCEQY,12	4
43,ASSPWSYEQY,12	2
9,ASSKDRAGEQF,6	1
37,ASSETGYEQY,12	6
26,ASSLHSTGPQETQY,10	3
14,ASSPSGRGVTDTQY,8	68
18,ASSSGGEAFEQF,6	1
21,ASSPSAGGTSGANVLT,11	6
9,ASGQDRTSEQF,6	1
37,ASSSFSDRADTQY,8	1
10,ATSGVSGETQY,10	2
10,ATGGIAVETQY,10	1
10,ASSGITGETQY,10	2
18,ASSLGGRAVEQF,6	2
20,SVEARGCESDTQY,8	1
15,SAGGSCEQY,12	1
6,ASNPTSNTGELF,7	2
18,ARSLANSYEQY,12	2
10,ATSRIGGETQY,10	2
10,ATCGIARETQY,10	3
43,ASSQTGYEQY,12	21
18,ASGLGGGALEQF,6	1
10,ATNGITGETQY,10	1
37,ASSSGTGSVIQY,9	1
18,ASSLAISYEQY,12	3
14,ASSPSGSEATDTQY,8	1
15,SAGGSYEQY,6	1
14,ASSPSGREVTDTQY,8	1
9,ASSQDRSSEQF,6	40
18,ATSLANSYEQY,12	2
10,ATSRLAGETQY,10	6
43,ASSPYAYEQY,12	142
10,ATSRRAGETQY,10	1
43,ARSPYSYEQY,6	2
43,ASSMYSYEQY,12	1
26,ASSLESTGPQETQY,10	3
43,ASGPYSYEQY,12	2119
14,VSNPSGSGVTDTQY,8	1
10,AISGIVGETQY,10	9
26,ASSLAVPGLTSGGAQEQY,12	13
9,ASSQDLASEQY,6	2
43,VSSETGSEQY,12	1
20,SVEAREGESDTQY,8	1
10,ATSGPAGETQY,10	10
9,ASGQGRASEQF,6	6
43,ASSSYSYEQY,12	664
37,ASSAMGGQGYEQF,6	418
26,ASSWDSTGPQETQY,10	8
42,ASSSFTDRADTQY,8	142
10,ATSVIARETQY,10	4
9,ASSLGRASEQF,6	7
14,ATSGIVGETQY,10	6
10,ATIGIAGETQY,10	607
18,ASSSGRGAFEQF,6	1
6,ASSPTGVGTQY,10	1
9,ASRQDRVSEQF,6	1
8,ASNPLDSTDTQY,8	149
26,ASSLRQDTGELF,7	2
10,ATNGLAGETQY,10	4
43,ASSEARYEQY,12	2
26,ASSLDGTGPQETQY,10	45
43,ASSPYSHEQY,6	2
20,SVEARGGESGTQY,8	5
9,AISQDRASEQL,6	1
9,ASSQNRASEQF,6	179
15,SVRGFYEQY,12	1
10,ATSGIMGETQY,10	7
20,SVEARRGESDTQY,8	4
10,ATSRIARETQY,10	7
43,ASGETGHEQY,12	3
