0	ASSEIAGRTDTQY	8	8	3
0	ASSETIQETQY	10	599	1
0	ASSGPGLYNEQF	6	1	1
0	ASSQDRDSYEQY	12	4	1
1	ASSARFSTGETQY	10	2164	7
1	ASSDGGGYGYT	1	30	172
1	ASSELGTTINEQF	6	434	10
1	ASSLLPLQREEGEQY	12	1	4
1	ATQDPKETQY	10	3	6
1	ATQDSKETQY	10	433	2737
1	ATQGSKETQY	10	2	23
1	ATWTRGQETQY	10	11	3
10	AISRVGGEEQY	12	40	7
10	AISRVGGETQY	10	50	32
10	AISSGGGKSYEQY	12	16	3
10	ASSRVGGEEQY	12	18	13
10	ASSRVGGETQY	10	56	19
10	ASSSGGGKSYEQY	12	15	6
10	ATCRVGGEEQY	12	6	4
10	ATCRVGGETQY	10	9	11
10	ATGREGQAYEQY	12	4	1
10	ATGRVGGEEQY	12	64	31
10	ATGRVGGETQY	10	113	76
10	ATGSGGGKSYEQY	12	26	31
10	ATIRVGGEEQY	12	22	10
10	ATIRVGGETQY	10	48	10
10	ATISGGGKSYEQY	12	6	8
10	ATNRVGGEEQY	12	104	13
10	ATNRVGGETQY	10	74	25
10	ATNSGGGKSYEQY	12	3	6
10	ATRRVGGEEQY	12	20	17
10	ATRRVGGETQY	10	41	29
10	ATRSGGGKSYEQY	12	11	3
10	ATSAGGGKSYEQY	12	5	3
10	ATSCGGGKSYEQY	12	8	3
10	ATSFGGGKSYEQY	12	9	4
10	ATSGEGQAYEQY	12	1	2
10	ATSGVGGEEQY	12	251	48
10	ATSGVGGETQY	10	260	104
10	ATSIMENIQY	9	5	221
10	ATSIVGGEEQY	12	14	5
10	ATSIVGGETQY	10	25	12
10	ATSKVGGEEQY	12	15	19
10	ATSKVGGETQY	10	30	15
10	ATSPEDGTDTQY	8	33	59
10	ATSPGGGKSYEQY	12	12	7
10	ATSRAGGEEQY	12	42	38
10	ATSRAGGETQY	10	77	49
10	ATSRDDSIYNEQF	6	326	1
10	ATSRDGGEEQY	12	6	7
10	ATSRDGGNNEQF	6	90	76
10	ATSREGQACEQY	12	2	1
10	ATSREGQAYEQY	12	1270	1005
10	ATSREGQAYEQY	6	1	1
10	ATSREGRAYEQY	12	2	1
10	ATSRERQAYEQY	12	1	1
10	ATSRFGGEEQY	12	26	15
10	ATSRGGGEEQY	12	314	15
10	ATSRGGGETQY	10	668	32
10	ATSRGGQAYEQY	12	1	2
10	ATSRIGGEEQY	12	22	9
10	ATSRIGGETQY	10	28	16
10	ATSRLGGETQY	10	31	7
10	ATSRVCGEEQY	12	17	5
10	ATSRVDGEEQY	12	28	12
10	ATSRVEGETQY	10	37	14
10	ATSRVGAEEQY	12	3	1
10	ATSRVGEEEQY	12	21	11
10	ATSRVGEETQY	10	39	22
10	ATSRVGGAEQY	12	1	1
10	ATSRVGGDEQY	12	1	1
10	ATSRVGGDEQY	6	34	11
10	ATSRVGGDTQY	10	94	38
10	ATSRVGGEEQY	12	32383	29137
10	ATSRVGGETQY	10	73543	50278
10	ATSRVGGGEQY	12	44	28
10	ATSRVGGGTQY	10	89	50
10	ATSRVGGKEQY	12	21	8
10	ATSRVGREEQY	12	22	17
10	ATSRVGRETQY	10	84	61
10	ATSRVGVEEQY	12	9	2
10	ATSRVGVETQY	10	20	11
10	ATSRVGWEEQY	12	20	9
10	ATSRVGWETQY	10	52	17
10	ATSRVRGDTQY	10	1	1
10	ATSRVRGETQY	10	1073	81
10	ATSRVSGEEQY	12	91	20
10	ATSRVVGEEQY	12	8	10
10	ATSRVVGETQY	10	19	5
10	ATSRVWGETQY	10	39	6
10	ATSSEGGKSYEQY	12	12	2
10	ATSSERDRGLDEQY	12	119	11
10	ATSSGCGKSYEQY	12	12	5
10	ATSSGDGKSYEQY	12	4	6
10	ATSSGGEKSYEQY	12	13	3
10	ATSSGGGESYEQY	12	29	7
10	ATSSGGGKAYEQY	12	10	2
10	ATSSGGGKCYEQY	12	6	1
10	ATSSGGGKFYEQY	12	4	3
10	ATSSGGGKPYEQY	12	98	10
10	ATSSGGGKSCEQY	12	83	4
10	ATSSGGGKSDEQY	12	8	2
10	ATSSGGGKSFEQY	12	1	1
10	ATSSGGGKSHEQY	12	16	39
10	ATSSGGGKSNEQY	12	2	1
10	ATSSGGGKSYEQY	12	14555	9620
10	ATSSGGGKSYEQY	6	10	7
10	ATSSGGGKYYEQY	12	17	6
10	ATSSGGGNSYEQY	12	8	6
10	ATSSGGGRSYEQY	12	633	12
10	ATSSGGRKSYEQY	12	18	5
10	ATSSGSGKSYEQY	12	25	3
10	ATSSRGGKSYEQY	12	7	5
10	ATSSVGGEEQY	12	49	3
10	ATSSVGGETQY	10	145	14
10	ATSSWGGKSYEQY	12	8	1
10	ATSTWGQSNEQF	6	2	67
10	ATSYGGGKSYEQY	12	4	4
10	TSRVGGETQY	10	2	1
12	AISPPRGNEQF	6	7	4
12	ARSPPRGNEQF	6	3	13
12	ASAPPRGNEQF	6	5	3
12	ASFISVGASGNTIY	2	349	1
12	ASLPPRGNEQF	6	3	8
12	ASPPPRGNEQF	6	13	33
12	ASSGTIRGGETQY	10	1	1
12	ASSPLGGISGNTIY	2	147	1
12	ASSPLRGNEQF	6	6	18
12	ASSPLTRNNEQF	6	4	1
12	ASSPPGGNEQF	6	9	15
12	ASSPPGSGNTIY	2	116	296
12	ASSPPKGNEQF	6	7	7
12	ASSPPNRDEQY	12	35	463
12	ASSPPRENEQF	6	2	1
12	ASSPPRGDEQF	6	12	34
12	ASSPPRGNEQF	6	5046	15241
12	ASSPPRGNEQL	6	13	34
12	ASSPPRGNEQY	6	10	14
12	ASSPPRGSEQF	6	11	28
12	ASSPPSGGYYNEQF	6	169	1
12	ASSPPWGNEQF	6	3	4
12	ASSPQRGNEQF	6	1	4
12	ASSPRQGGTDTQY	8	1	1337
12	ASSPRTDTQY	8	1	2474
12	ASSPSGRIANEQF	6	1	1
12	ASSPSRGNEQF	6	3	13
12	ASSQLPKPSYEQY	12	384	256
12	ASSQPRGNEQF	6	1	4
12	ASSSPRGNEQF	6	7	10
12	VSSPPRGNEQF	6	5	23
13	AISSSGDYPQETQY	10	24	5
13	ARRLTSGSYNEQF	6	2	3
13	ARSSSGDYPQETQY	10	39	29
13	ASCSSGDYPQETQY	10	3	2
13	ASGLTSGSYNEQF	6	4	3
13	ASGLTSGTYNEQF	6	4	4
13	ASGPDTDTQY	8	3	3
13	ASGSSGDYPQETQY	10	30	8
13	ASILTSGSYNEQF	6	2	4
13	ASISSGDYPQETQY	10	17	5
13	ASNPDTDTQY	8	1	1
13	ASNSSGDYPQETQY	10	398	9
13	ASRGTSGAYNEQF	6	13	1
13	ASRLASGSYNEQF	6	9	6
13	ASRLNSGSYNEQF	6	1	1
13	ASRLTGGSYNEQF	6	19	7
13	ASRLTRGSYNEQF	6	14	2
13	ASRLTSGPYNEQF	6	8	21
13	ASRLTSGSCNEQF	6	4	4
13	ASRLTSGSDNEQF	6	2	1
13	ASRLTSGSYNEQF	6	3368	2901
13	ASRLTSGSYNEQL	6	11	4
13	ASRLTSGSYNEQY	6	4	6
13	ASRLTSGSYSEQF	6	10	3
13	ASRLTSGTYNEQF	6	1	1
13	ASRLTSGYYNEQF	6	1	1
13	ASRLTSSSYNEQF	6	1	2
13	ASRLTSVSYNEQF	6	3	3
13	ASRPGQGAADTQY	8	177	282
13	ASRSSGDYPQETQY	10	9	3
13	ASRSTSGSYNEQF	6	4	10
13	ASRWTSGSYNEQF	6	2	1
13	ASSALAGGSYEQY	12	1	1
13	ASSASGDYPQETQY	10	8	14
13	ASSEGDSRETQY	10	1	1
13	ASSIAGEIGKNEQF	6	284	53
13	ASSIAPSPTDTQY	5	1	4
13	ASSIDRLAGVGNEQF	6	2915	119
13	ASSITPSPTDTQY	5	184	1077
13	ASSITPSPTDTQY	8	1	6
13	ASSITPSPTGTQY	5	1	6
13	ASSKTSGSLETQY	10	1095	30
13	ASSLAEIYNEQF	6	11	2
13	ASSLNSGTYNEQF	6	2	1
13	ASSLSGDYPQETQY	10	15	15
13	ASSLTGGTYNEQF	6	3	1
13	ASSLTSGAYNEQF	6	3	1
13	ASSLTSGTYDEQF	6	2	3
13	ASSLTSGTYNEQF	6	1789	982
13	ASSLTSGTYNEQL	6	14	3
13	ASSLTSGTYNEQY	6	1	3
13	ASSMEGQMSSYNEQF	6	7	1
13	ASSMRGGYNEQF	6	119	1910
13	ASSMRGGYSEQF	6	1	3
13	ASSMRSPYEQY	12	1	1
13	ASSMRSSYEQY	12	82	1079
13	ASSMTSGGYNEQF	6	5	1
13	ASSMTSRSLETQY	10	1	3
13	ASSMWGGYNEQF	6	1	1
13	ASSMYLAKGYNEQF	6	347	840
13	ASSMYLAKGYNEQL	6	2	1
13	ASSMYLAKGYSEQF	6	3	1
13	ASSNRDRIWETQY	10	2	44
13	ASSPDTDTQY	8	1397	1140
13	ASSPDTGTQY	8	1	2
13	ASSPETDTQY	8	3	4
13	ASSPNTDTQY	8	2	1
13	ASSPSGDYPQETQY	10	19	20
13	ASSPTSGRPHNEQF	6	1	1
13	ASSPTSGWQETQY	10	67	126
13	ASSRRTGATGELF	7	1	2
13	ASSSAGDYPQETQY	10	5	1
13	ASSSCGDYPQETQY	10	8	5
13	ASSSFGDYPQETQY	10	15	8
13	ASSSPGDYPQETQY	10	35	18
13	ASSSSEDYPQETQY	10	14	7
13	ASSSSGAYPQETQY	10	2	1
13	ASSSSGDCPQETQY	10	62	22
13	ASSSSGDDPQETQY	10	107	10
13	ASSSSGDHPQETQY	10	23	19
13	ASSSSGDSPQETQY	10	6	1
13	ASSSSGDYHQETQY	10	8	9
13	ASSSSGDYLQETQY	10	13	51
13	ASSSSGDYPKETQY	10	3	2
13	ASSSSGDYPQDTQY	10	30	11
13	ASSSSGDYPQETQY	10	22911	14999
13	ASSSSGDYPQGTQY	10	64	21
13	ASSSSGDYPRETQY	10	48	17
13	ASSSSGDYSQETQY	10	21	5
13	ASSSSGDYTQETQY	10	7	2
13	ASSSSGEYPQETQY	10	51	13
13	ASSSSGGYPQETQY	10	45	28
13	ASSSSGHYPQETQY	10	46	1
13	ASSSSGNYPQETQY	10	33	7
13	ASSSSGVYPQETQY	10	6	2
13	ASSSSGYYPQETQY	10	28	5
13	ASSSSRDYPQETQY	10	24	12
13	ASSSSVDYPQETQY	10	15	2
13	ASSSSWDYPQETQY	10	16	9
13	ASSSYGDYPQETQY	10	15	12
13	ASSTLAGGSYEQY	12	146	948
13	ASSTSGDYPQETQY	10	5	1
13	ASSVRGGYNEQF	6	2	3
13	ASSWDRGRGNTIY	2	13	3
13	ASSWSGDYPQETQY	10	11	6
13	ASSYRGSPGTQY	8	7	1
13	ASTHYWSRSSGANVLT	11	12	4
13	ASTSSGDYPQETQY	10	5	1
13	ATGQSVYNEQF	6	24	3
13	TSSSSGDYPQETQY	10	17	20
13	VSSSSGDYPQETQY	10	15	16
14	AIRASGPAYEQY	12	11	10
14	AISERGNSYNEQF	6	15	28
14	AITYAGSANEQF	6	3	4
14	ARNPGPTEQF	6	3	3
14	ARRASGPAYEQY	12	13	1
14	ARSERGNSYNEQF	6	6	4
14	ASAASGYNEQF	6	1	374
14	ASDPGPTEQF	6	4	9
14	ASGASGPAYEQY	12	19	9
14	ASGERGNSYNEQF	6	21	166
14	ASGETGYEQY	12	12	2
14	ASIERGNSYNEQF	6	6	23
14	ASIETGYEQY	12	3	1
14	ASINGGSTDTQY	8	8	869
14	ASKASGPAYEQY	12	4	2
14	ASMASGPAYEQY	12	10	4
14	ASMMTSGPYEQY	12	497	58
14	ASNERGNSYNEQF	6	9	16
14	ASNETGYEQY	12	6	1
14	ASNLGPTEQF	6	2	3
14	ASNMVGTDTDTQY	8	781	83
14	ASNPGLTEQF	6	3	8
14	ASNPGPNEQF	6	7	24
14	ASNPGPSEQF	6	3	3
14	ASNPGPTEQF	6	2237	6459
14	ASNPGPTEQL	6	7	31
14	ASNPGSTEQF	6	2	2
14	ASNPGTTEQF	6	2	1
14	ASNTGPTEQF	6	2	3
14	ASNTVGTDTDTQY	8	2	1
14	ASRAGGPAYEQY	12	33	5
14	ASRAIGPAYEQY	12	6	2
14	ASRANGPAYEQY	12	3	2
14	ASRASEPAYEQY	12	10	1
14	ASRASGLAYEQY	12	9	1
14	ASRASGPACEQY	12	23	1
14	ASRASGPAHEQY	12	28	6
14	ASRASGPAYEQY	12	13160	3265
14	ASRASGPAYEQY	6	10	2
14	ASRASGPSYEQY	12	15	2
14	ASRASGPTYEQY	12	9	6
14	ASRASGQAYEQY	12	3	1
14	ASRASGSAYEQY	12	9	1
14	ASRASGTAYEQY	12	4	2
14	ASRASRPAYEQY	12	16	3
14	ASRDSGPAYEQY	12	6	1
14	ASRERGNSYNEQF	6	3	6
14	ASRFEGSFETQY	10	4	1
14	ASRSSGPAYEQY	12	10	1
14	ASRTGGDTQY	8	1	292
14	ASRTSGPAYEQY	12	16	11
14	ASRVQGIGNEQF	6	16	128
14	ASRVSGPAYEQY	12	7	1
14	ASSASGPAYEQY	12	16	2
14	ASSEARGISGNTIY	2	2	485
14	ASSEGGNSYNEQF	6	36	79
14	ASSEILETQY	10	1161	364
14	ASSEKGNSYNEQF	6	6	4
14	ASSEKGYEQY	12	8	1
14	ASSEMGNSYNEQF	6	8	4
14	ASSERANSYNEQF	6	3	4
14	ASSERENSYNEQF	6	4	9
14	ASSERGDSYNEQF	6	30	131
14	ASSERGKSYNEQF	6	8	15
14	ASSERGNAYNEQF	6	9	8
14	ASSERGNCYNEQF	6	3	1
14	ASSERGNFYNEQF	6	2	7
14	ASSERGNPYNEQF	6	19	43
14	ASSERGNSCNEQF	6	25	27
14	ASSERGNSDNEQF	6	5	2
14	ASSERGNSHNEQF	6	15	42
14	ASSERGNSNNEQF	6	1	3
14	ASSERGNSYDEQF	6	14	27
14	ASSERGNSYEQY	12	2	4
14	ASSERGNSYNEQF	6	15053	22286
14	ASSERGNSYNEQL	6	40	67
14	ASSERGNSYNEQY	6	19	20
14	ASSERGNSYSEQF	6	42	34
14	ASSERGNTYNEQF	6	4	4
14	ASSERGNYYNEQF	6	5	5
14	ASSERGTSYNEQF	6	6	1
14	ASSERGYSYNEQF	6	1	3
14	ASSERRNSYNEQF	6	51	9
14	ASSERVNSYNEQF	6	8	6
14	ASSERWNSYNEQF	6	22	9
14	ASSESGNSYNEQF	6	7	4
14	ASSESRGGTRGYEQY	12	158	1983
14	ASSESRGRTRGYEQY	12	2	1
14	ASSETGHEQY	12	9	3
14	ASSETGYEQY	12	9512	1607
14	ASSETWYEQY	12	102	2
14	ASSEVEETQY	10	64	5
14	ASSEVGQHYEQY	12	187	3
14	ASSGRGNSYNEQF	6	29	128
14	ASSGTGYEQY	12	24	97
14	ASSGTPNEQF	6	1	1
14	ASSGVDSGNTIY	2	2602	236
14	ASSGVDSGSTIY	2	54	2
14	ASSKRGNSYNEQF	6	3	11
14	ASSLATGLAASSYEQY	12	7	10
14	ASSNYNEQF	6	1	277
14	ASSPGPTEQF	6	8	5
14	ASSRDTTEQY	12	960	3
14	ASSRQGSSTDTQY	8	60	306
14	ASSVFVAGKSVNEQF	6	1	1427
14	ASSVGGGRNNEQF	6	1826	1
14	ASSVRGNSYNEQF	6	4	5
14	ASSVRQVLGDTQY	8	222	3747
14	ASSVRQVRGDTQY	8	2	1
14	ASSVRRVLGDTQY	8	1	8
14	ASSWTPNEQF	6	16	1030
14	ASSYAGSANEQF	6	2	2
14	ASTASGPAYEQY	12	3	1
14	ASTGLAGYGNEQF	6	1	1
14	ASTPETGFASYEQY	12	3	1
14	ASTYAGLANEQF	6	1	1
14	ASTYAGPANEQF	6	2	3
14	ASTYAGSANEQF	6	1641	1700
14	ASTYAGSANEQL	6	9	4
14	ASTYAGSASEQF	6	2	2
14	ASTYAGSAYEQF	6	1	1
14	ASVASDYNEQF	6	2	7
14	ASVASGYNEQF	6	142	8194
14	ASVASGYNEQY	6	1	6
14	ASVTSGYNEQF	6	1	5
14	ASVVSGYNEQF	6	1	5
14	ASYGQISGNIQY	9	4	1
14	ATGLADYYEQY	12	13	2
14	ATRASGPAYEQY	12	5	13
14	ATSRVGGEEQY	12	31	12
14	ATSRVGGETQY	10	67	25
14	ATSSGGGKSYEQY	12	11	2
14	TSRASGPAYEQY	12	4	7
14	TSSERGNSYNEQF	6	8	11
14	TSSETGYEQY	12	7	12
14	VSNPGPTEQF	6	1	2
14	VSRASGPAYEQY	12	12	1
14	VSSERGNSYNEQF	6	13	10
15	ARDSSSYNEQF	6	1	1
15	ASLAGDTDTQY	8	2	5
15	SAAGRSGGMETQY	10	1	1243
15	SAAKEAPYEQY	12	2	7
15	SACLAGDTDTQY	8	6	22
15	SADARGTQNEQF	6	4	6
15	SADASCTQNEQF	6	2	3
15	SADASGTQNEQF	6	319	6236
15	SADASGTQNEQY	6	1	4
15	SADASSTQNEQF	6	1	5
15	SADATDYNEQF	6	3	4
15	SADETDYNEQF	6	15	18
15	SADGADYNEQF	6	52	99
15	SADGIDYNEQF	6	10	23
15	SADGKDYNEQF	6	15	27
15	SADGRDYNEQF	6	8	7
15	SADGSDYNEQF	6	5	7
15	SADGTDCNEQF	6	41	45
15	SADGTDDNEQF	6	6	7
15	SADGTDHNEQF	6	32	60
15	SADGTDSNEQF	6	2	6
15	SADGTDYDEQF	6	31	56
15	SADGTDYIEQF	6	1	1
15	SADGTDYNEQF	6	22253	41127
15	SADGTDYNEQL	6	83	104
15	SADGTDYNEQY	6	21	35
15	SADGTDYSEQF	6	29	60
15	SADGTDYTEQF	6	2	3
15	SADGTDYYEQF	6	3	2
15	SADGTEYNEQF	6	27	41
15	SADGTGYNEQF	6	35	66
15	SADGTHYNEQF	6	7	3
15	SADGTNYNEQF	6	8	20
15	SADGTVYNEQF	6	2	6
15	SADGTYYNEQF	6	29	38
15	SADLGLASSYEQY	12	131	1
15	SADRDRGRNEQF	6	59	1
15	SADRGRETQY	10	78	118
15	SADRTDYNEQF	6	106	27
15	SADSGRAYNEQF	6	39	88
15	SADSSGTQNEQF	6	1	1
15	SADVTDYNEQF	6	8	15
15	SADWTDYNEQF	6	24	11
15	SAEEGPQETQY	10	3	31
15	SAEEIPQETQY	10	3	5
15	SAEERAQETQY	10	1	4
15	SAEERPQDTQY	10	2	2
15	SAEERPQETQY	10	1941	3568
15	SAEGRPQETQY	10	3	6
15	SAEGTDYNEQF	6	26	41
15	SAGASGSTDTQY	8	13	3
15	SAGDSSSYNEQF	6	1	7
15	SAGERPQETQY	10	4	6
15	SAGGGVETQY	10	11	3
15	SAGGSVEETQY	10	2	1
15	SAGGTDYNEQF	6	30	66
15	SAGLAGDTDTQY	8	32	118
15	SAGLAGPYNEQF	6	1	1352
15	SAGLAGRGNEQY	12	4	9
15	SAGVGGFSEQF	6	3	4
15	SAHGTDYNEQF	6	5	5
15	SAHTGYQETQY	10	5	1
15	SAIASGSTDTQY	8	13	1
15	SAIIAGGAQETQY	10	5	1
15	SAILAGDTDTQY	8	17	16
15	SAIPGQGNNEQF	6	3	1
15	SAIRLAGVGGRGTQY	10	2	1
15	SAKDSSSYNEQF	6	1	3
15	SAKERPQETQY	10	2	1
15	SALKEAPYEQY	12	19	5
15	SALNGQPPYNEQF	6	3	1
15	SALSGSGRGTDTQY	8	1	1
15	SALWTSGRYEQF	6	448	1
15	SANGTDYNEQF	6	12	18
15	SANLAGDTDTQY	8	10	40
15	SAPASGRDSDTQY	8	5954	1
15	SAPDTGNYGYT	1	2	63
15	SAPKDAPYEQY	12	7	11
15	SAPKEAAYEQY	12	4	3
15	SAPKEAHYEQY	12	6	11
15	SAPKEALYEQY	12	9	9
15	SAPKEAPCEQY	12	215	76
15	SAPKEAPDEQY	12	4	12
15	SAPKEAPHEQY	12	27	70
15	SAPKEAPYEQY	12	14534	36346
15	SAPKEAPYEQY	6	8	31
15	SAPKEARYEQY	12	6	5
15	SAPKEASYEQY	12	23	38
15	SAPKEATYEQY	12	4	9
15	SAPKEDPYEQY	12	5	17
15	SAPKEGPYEQY	12	9	5
15	SAPKEPPYEQY	12	4	7
15	SAPKESPYEQY	12	7	18
15	SAPKETPYEQY	12	8	24
15	SAPKEVPYEQY	12	6	10
15	SAPKGAPYEQY	12	26	98
15	SAPKKAPYEQY	12	7	8
15	SAPKQAPYEQY	12	1	1
15	SAPLAAATDTQY	8	1300	147
15	SAPNEAPYEQY	12	14	8
15	SAPPRSGGGYNEQF	6	65	2164
15	SAPREAPYEQY	12	20	81
15	SAPSVLGYNEQF	6	2	1
15	SAPTEAPYEQY	12	3	3
15	SAPTLAKNIQY	9	281	40
15	SAQKEAPYEQY	12	8	7
15	SAQTGGSYNEQF	6	2	1
15	SARAGGSTDTQY	8	26	8
15	SARAGTEGETQY	10	3	1
15	SARAIGSTDTQY	8	6	3
15	SARANGSTDTQY	8	5	3
15	SARARGSTDTQY	8	25	4
15	SARASGGTDTQY	8	28	5
15	SARASGRTDTQY	8	6	3
15	SARASGSADTQY	8	16	4
15	SARASGSIDTQY	8	5	2
15	SARASGSKDTQY	8	4	3
15	SARASGSRDTQY	8	3	3
15	SARASGSTDTQY	10	2	1
15	SARASGSTDTQY	8	9918	4195
15	SARASGSTETQY	8	2	1
15	SARASGSTGTQY	8	11	11
15	SARASRSTDTQY	8	33	6
15	SARASVSTDTQY	8	5	1
15	SARASWSTDTQY	8	4	5
15	SARDASSYNEQF	6	6	6
15	SARDESGTDTQY	8	342	1079
15	SARDETFALATDTQY	8	3	1
15	SARDGAGRRTEAF	0	3	5
15	SARDGTGRRAEAF	0	1	1
15	SARDGTGRRTEAF	0	621	932
15	SARDHGQSPYNEQF	6	2	8
15	SARDHGQSSYNEQF	6	139	3331
15	SARDHRQSSYNEQF	6	1	2
15	SARDIQGYIEQF	6	27	44
15	SARDKLAGGPEQF	6	1	1
15	SARDLGLGETQY	10	3	1
15	SARDNQREWAEQY	12	53	262
15	SARDPARPSYEQY	12	4866	41
15	SARDPGQSSYNEQF	6	1	2
15	SARDPRTSGSTDTQY	8	2	1
15	SARDPSGRAYNEQF	6	1	1
15	SARDPSSYNEQF	6	2	6
15	SARDQYTGELF	7	49	18
15	SARDRDSGQSLYEQY	12	1	2003
15	SARDRGQSSYNEQF	6	1	2
15	SARDRGSGTYEQY	12	1	1227
15	SARDSGSTDTQY	8	10	5
15	SARDSSPYNEQF	6	1	8
15	SARDSSSHNEQF	6	1	6
15	SARDSSSYNEQF	6	536	5839
15	SARDYLGPTNEKLF	3	4	1
15	SAREAIWNEQF	6	1	1
15	SARESSSYNEQF	6	1	8
15	SARGEVETQY	10	3	3
15	SARGGASAYEQY	12	3	2
15	SARGGGETQY	10	8	1468
15	SARGGIETQY	10	5	4
15	SARGGTGAYEQY	12	3	1
15	SARGGTSACEQY	12	5	6
15	SARGGTSAYEQY	12	1776	486
15	SARGGTSVYEQY	12	2	2
15	SARGGVETQY	10	3002	8221
15	SARGGVGTQY	10	6	15
15	SARGHGQSSYNEQF	6	1	14
15	SARGNNEQF	6	2	1
15	SARGNRVVDGYT	1	9	1
15	SARGQGGVAADTQY	8	81	197
15	SARGRVETQY	10	3	6
15	SARGVVETQY	10	1	5
15	SARKEAPYEQY	12	6	8
15	SARKGLTYEQY	12	1	1
15	SARKNGDTQY	8	17	1
15	SARLAERGNEQY	12	5	3
15	SARLAGDTDTQY	8	9	13
15	SARLAGGGNEQY	12	4	10
15	SARLAGKGNEQY	12	1	6
15	SARLAGRGDEQY	12	3	13
15	SARLAGRGKEQY	12	2	3
15	SARLAGRGNEQY	12	2330	7000
15	SARLAGRGNEQY	6	3	6
15	SARLAGRGSEQY	12	3	8
15	SARLAGRSNEQY	12	2	4
15	SARLSGRGNEQY	12	3	2
15	SARLTGRGNEQY	12	2	3
15	SARLVGRGNEQY	12	1	57
15	SARNTGGGYNEQF	6	1	1
15	SARPLAGLYEQY	12	2	1
15	SARPLGGIRDYEQF	6	371	263
15	SARPLGGIRDYEQL	6	6	1
15	SARQDDSYEQY	12	78	4
15	SARQERTTYNEQF	6	1	1
15	SARRAISYNEQF	6	2	1
15	SARSSGSTDTQY	8	10	2
15	SARSSSVLGTQY	10	230	197
15	SARTSGSTDTQY	8	4	2
15	SARVDGFSEQF	6	2	2
15	SARVGGFGEQF	6	2	3
15	SARVGGFSEQF	6	1337	3609
15	SARVGGLSEQF	6	4	7
15	SARVGLAYNEQF	6	4	1
15	SARVGRFSEQF	6	1	5
15	SARWSRIPNEQF	6	4	1
15	SASAEGSGGYNEQF	6	13	1
15	SASAFPGSGSTEQF	6	1	325
15	SASASGKIPYEQY	12	181	1
15	SASELSPYNEQF	6	7	1
15	SASELSSCNEQF	6	2	1
15	SASELSSYEQY	12	1	1
15	SASELSSYNEQF	6	1976	148
15	SASEPSSYNEQF	6	2	1
15	SASGLSSYNEQF	6	4	2
15	SASIAGDTDTQY	8	14	21
15	SASKEAPYEQY	12	9	11
15	SASLAAATDTQY	8	2	1
15	SASLAADTDTQY	8	2	4
15	SASLAASSYEQY	12	1	2
15	SASLACDTDTQY	8	12	8
15	SASLADDTDTQY	8	18	20
15	SASLAGDADTQY	8	69	36
15	SASLAGDIDTQY	8	12	10
15	SASLAGDKDTQY	8	4	10
15	SASLAGDRDTQY	8	4	5
15	SASLAGDSDTQY	8	6	2
15	SASLAGDTDTQY	10	2	6
15	SASLAGDTDTQY	8	20275	26364
15	SASLAGDTETQY	8	8	10
15	SASLAGDTGTQY	8	56	53
15	SASLAGETDTQY	8	12	15
15	SASLAGGTDTQY	8	32	51
15	SASLAGHTDTQY	8	2	3
15	SASLAGNTDTQY	8	17	13
15	SASLAGVTDTQY	8	5	5
15	SASLAGYTDTQY	1	22	17
15	SASLASDTDTQY	8	6	30
15	SASLAVDTDTQY	8	14	9
15	SASLEGDTDTQY	8	14	21
15	SASLGGDTDTQY	8	8	6
15	SASLLKTSGRETQY	10	6	8036
15	SASLPGDTDTQY	8	18	1
15	SASLSGDTDTQY	8	19	1
15	SASLTGDTDTQY	8	38	11
15	SASLVGDTDTQY	8	15	37
15	SASPAGDTDTQY	8	52	74
15	SASPGGRGYEQY	12	203	1078
15	SASPLAGGGKNIQY	9	1	1
15	SASPLPPAIVTDTQY	8	1	517
15	SASQAGDTDTQY	8	1	2
15	SASRAGDTDTQY	8	8	5
15	SASSPETQY	10	1587	497
15	SASSSGQGRQETQY	10	15	3
15	SASVAGDTDTQY	8	8	7
15	SATETPANEQF	6	2	1
15	SATGLITDTQY	8	91	835
15	SATKEAPYEQY	12	13	17
15	SATLAGDTDTQY	8	2	3
15	SATSGGRNHEQY	12	1	1
15	SATSGGRNYEQY	12	690	745
15	SAVGTDYNEQF	6	5	10
15	SAYGTDYNEQF	6	24	28
15	SVDASGTQNEQF	6	2	13
15	SVDGTDYNEQF	6	28	49
15	SVEERPQETQY	10	1	5
15	SVPKEAPYEQY	12	8	14
15	SVRDSSSYNEQF	6	1	12
15	SVRGGVETQY	10	2	4
15	SVSLAGDTDTQY	8	19	55
15	SVTSGGRNYEQY	12	2	1
16	ATGLKGFDEQF	6	1792	124
16	ATSASQPGLAADTQY	8	4	1
16	ATSDDNEQF	6	7	1
16	ATSDFAASGRAEQF	6	1	18
16	ATSDFATSGRAEQF	6	167	1970
16	ATSDLATSGRAEQF	6	1	2
16	ATSDLTDTGELF	7	122	19
16	ATSDPGSHYEQY	12	22	2
16	ATSDQRTGATGELF	7	2	5
16	ATSDSRETQY	10	10	161
16	ATSGTGNTDTQY	8	1	1316
17	ASRLGKNEQF	6	72	24964
17	ASRRGKNEQF	6	1	19
17	ASSEEWGSETQY	10	3	314
17	ASSESGQGAVKNIQY	9	7	1
17	ASSGGGQRQETQY	10	1	106
17	ASSKTSGRITDTQY	8	20	2
18	AISLEQNYEQY	12	4	1
18	AISNTGTYNEQF	6	2	5
18	AISSETYEQY	12	1	1
18	ARSDHYEQY	12	1	3
18	ARSLEQNYEQY	12	7	3
18	ASEGSIGTQY	10	1	7
18	ASGLAGGPSEQY	6	2	1
18	ASGLEQNYEQY	12	11	7
18	ASGLGAGGPPDTQY	8	2	5
18	ASGPLPGTQY	10	1	8
18	ASGVTGVGSGNTIY	2	1	1
18	ASINTGTYNEQF	6	3	1
18	ASKGPIGTQY	10	1	4
18	ASKGSIGTQY	10	234	5775
18	ASMPGPGGPEQY	12	9	136
18	ASNLEQNYEQY	12	3	1
18	ASRLEQNYEQY	12	69	6
18	ASRLGAGGPPDTQY	8	218	1615
18	ASRLGPAHYEQY	12	1147	1571
18	ASRLGPARYEQY	12	2	8
18	ASRLSPAHYEQY	12	2	1
18	ASRPGTGYGELF	7	3	11
18	ASRPLYFNEQF	6	11	3
18	ASSDHCEQY	12	1	1
18	ASSDHYEQY	12	348	5086
18	ASSDQYEQY	12	2	3
18	ASSEHYEQY	12	2	6
18	ASSFSAKNIQY	9	2	675
18	ASSHRTGAYNEQF	6	1308	10
18	ASSLAGAETQY	10	16	2
18	ASSLATGLAASSYEQY	12	4	1
18	ASSLDSASYEQY	12	116	3111
18	ASSLEKNYEQY	12	3	2
18	ASSLELNYEQY	12	3	2
18	ASSLEQDYEQY	12	31	13
18	ASSLEQKYEQY	12	2	2
18	ASSLEQNCEQY	12	11	7
18	ASSLEQNHEQY	12	4	3
18	ASSLEQNYEQY	12	6962	5543
18	ASSLEQNYEQY	6	3	7
18	ASSLEQSYEQY	12	10	11
18	ASSLERNYEQY	12	29	11
18	ASSLESASYEQY	12	1	1
18	ASSLGDTQY	8	27	561
18	ASSLGGGTDTQY	8	86	189
18	ASSLGGPYNEQF	6	3	1
18	ASSLGPAHYEQY	12	3	1
18	ASSLGQNYEQY	12	15	14
18	ASSLKQNYEQY	12	6	4
18	ASSLLGLAGGRNEQF	6	3	1
18	ASSLQGGEQY	12	4	1572
18	ASSLRFPGSGHEQY	12	85	1
18	ASSLRLFSDTQY	8	170	47
18	ASSLRWQGGFSGANVLT	11	183	46
18	ASSLSGKARDTQY	8	97	108
18	ASSLSGRAVSETQY	10	81	887
18	ASSLSQSYGYT	1	8	86
18	ASSLSSQNEQF	6	389	14
18	ASSLWGFAAHYEQY	12	1145	4
18	ASSLWGTGELF	7	16	42
18	ASSNAGTYNEQF	6	7	1
18	ASSNIGTYNEQF	6	2	3
18	ASSNSGTYNEQF	6	3	1
18	ASSNTGAYNEQF	6	1	3
18	ASSNTGKYNEQF	6	2	1
18	ASSNTGTYNEQF	6	2312	2914
18	ASSNTGTYNEQL	6	8	5
18	ASSNTGTYNEQY	6	1	3
18	ASSNTGTYSEQF	6	4	3
18	ASSPGTYNEQF	6	10	1
18	ASSPLCFNEQF	6	5	1
18	ASSPLPGTQY	10	248	5310
18	ASSPLYFNEQF	6	1597	1487
18	ASSPLYFNEQL	6	2	2
18	ASSPLYFSEQF	6	4	2
18	ASSPLYLNEQF	6	3	4
18	ASSPPGVAGPNEQF	6	19	2
18	ASSPPYFNEQF	6	4	1
18	ASSPQGGEQY	12	332	1091
18	ASSPQGLGYNEQF	6	48	302
18	ASSPRQGSGDTQY	8	2814	15
18	ASSPSDRPGYT	1	49	69
18	ASSRAPQGNEQF	6	3	5
18	ASSRTLDTTYYNEQF	6	1	1
18	ASSRTPQGDEQF	6	2	3
18	ASSRTPQGNEQF	6	307	3050
18	ASSSEAYEQY	12	5	4
18	ASSSEQNYEQY	12	3	5
18	ASSSESYEQY	12	1	1
18	ASSSETYEQY	12	1083	1035
18	ASSSETYEQY	6	133	1
18	ASSSGAANYINYGYT	1	2	61
18	ASSSGLAGAENEQF	6	351	1
18	ASSSNKPYEQY	12	1	3
18	ASSSTEATTFNEQF	6	14	2
18	ASSSTGTYNEQF	6	2	5
18	ASSVEQNYEQY	12	59	2
18	ASSVTGVGSGNTIY	2	744	93
18	ASTRGPKVETQY	10	1	1
18	ATSNTGTYNEQF	6	2	3
18	ATWTRGQETQY	10	2	2
18	TSSPQGGEQY	12	1	1
18	VSSLEQNYEQY	12	4	10
19	AIIQLISGNTIY	2	118	29
19	AIKTGIDEQY	12	1	7
19	AINGDRGDYEQY	12	3	18
19	AISFVGTNQETQY	10	116	52
19	AISGGQGFQETQY	10	90	48
19	AISHRGGAKNIQY	9	16	4
19	AISRREAKNIQY	9	2	20
19	AISSNKPYEQY	12	41	9
19	AISWDRDNSPLH	5	11	3
19	AITLLGATSEQY	12	4	4
19	AITTEIDEQY	12	1	8
19	AITTGIDEQY	12	285	12451
19	AITTGSDEQY	12	2	8
19	ARGGGQGFQETQY	10	1	2
19	ARIQLISGNTIY	2	56	5
19	ARNGDRGDYEQY	12	4	8
19	ARSFVGTNQETQY	10	105	99
19	ARSGGQGFQETQY	10	104	125
19	ARSHRGGAKNIQY	9	9	8
19	ARSSGQGGQEETQY	10	7	4
19	ARSSNKPYEQY	12	33	54
19	ARTLLGATSEQY	12	3	1
19	ASALLGATSEQY	12	10	1
19	ASCFVGTNQETQY	10	10	7
19	ASCGGQGFQETQY	10	15	11
19	ASCSNKPYEQY	12	3	3
19	ASDGDRGDYEQY	12	4	21
19	ASGDQAPGNTIY	2	1	7
19	ASGDQASGNTIY	2	131	2808
19	ASGDQASRNTIY	2	1	1
19	ASGDQAYGNTIY	2	1	2
19	ASGFVGTNQETQY	10	227	385
19	ASGFVGTSQETQY	10	1	1
19	ASGGGQGFQETQY	10	191	431
19	ASGGWSYNEQF	6	1	1
19	ASGHRGGAKNIQY	9	242	15
19	ASGHRGRAKNIQY	9	1	1
19	ASGPNKPYEQY	12	1	1
19	ASGQGAGTSGRETQY	10	4	1
19	ASGQGASREQY	12	2	1
19	ASGRGASREQY	12	1332	523
19	ASGRGASSEQY	12	10	4
19	ASGRGFSGNTIY	2	5	1
19	ASGRREAKNIQY	9	6	52
19	ASGSNKPYEQY	12	100	93
19	ASIELISGNTIY	2	53	3
19	ASIFVGTNQETQY	10	83	268
19	ASIGGQGFQETQY	10	73	228
19	ASIHLISGNTIY	2	28	1
19	ASIHRGGAKNIQY	9	25	29
19	ASIKGGDGNTIY	2	5	1
19	ASIKLISGNTIY	2	87	17
19	ASILLISGNTIY	2	10	2
19	ASIQFISGNTIY	2	128	6
19	ASIQIISGNTIY	2	102	1
19	ASIQLIAGNTIY	2	36	2
19	ASIQLICGNTIY	2	29	2
19	ASIQLIFGNTIY	2	49	2
19	ASIQLIPGNTIY	2	232	85
19	ASIQLISANTIY	2	22	2
19	ASIQLISENTIY	2	65	4
19	ASIQLISGDTIY	2	514	26
19	ASIQLISGHTIY	2	5	2
19	ASIQLISGITIY	2	9	1
19	ASIQLISGNTIY	2	110367	16045
19	ASIQLISGSTIY	2	296	71
19	ASIQLISGTTIY	2	13	1
19	ASIQLISRNTIY	2	74	8
19	ASIQLISVNTIY	2	41	4
19	ASIQLITGNTIY	2	21	2
19	ASIQLIYGNTIY	2	43	2
19	ASIQLMSGNTIY	2	50	3
19	ASIQLSSGNTIY	2	790	4
19	ASIQLTSGNTIY	2	404	26
19	ASIQLVSGNTIY	2	175	13
19	ASIQSISGNTIY	2	89	10
19	ASIQVISGNTIY	2	839	21
19	ASIRLISGNTIY	2	369	12
19	ASIRREAKNIQY	9	10	7
19	ASISNKPYEQY	12	52	24
19	ASKGDRGDYEQY	12	2	3
19	ASKQLISGNTIY	2	2	2
19	ASKRGGTDTQY	8	141	2437
19	ASLQLISGNTIY	2	29	1
19	ASMQLISGNTIY	2	358	16
19	ASNEDRGDYEQY	12	2	3
19	ASNFVGTNQETQY	10	75	255
19	ASNGDGGDYEQY	12	2	310
19	ASNGDKGDYEQY	12	1	7
19	ASNGDMGDYEQY	12	1	3
19	ASNGDREDYEQY	12	3	4
19	ASNGDRGDCEQY	12	6	11
19	ASNGDRGDYEQY	12	3943	16660
19	ASNGDRGDYEQY	6	9	29
19	ASNGDRGEYEQY	12	4	15
19	ASNGDRGGYEQY	12	11	27
19	ASNGDRGNYEQY	12	1	4
19	ASNGDRGYYEQY	12	4	3
19	ASNGDRRDYEQY	12	2	7
19	ASNGDRVDYEQY	12	1	1
19	ASNGDSGDYEQY	12	5	3
19	ASNGERGDYEQY	12	5	9
19	ASNGGQGFQETQY	10	94	338
19	ASNGGRGDYEQY	12	7	10
19	ASNGNRGDYEQY	12	5	3
19	ASNGYRGDYEQY	12	4	4
19	ASNHRGGAKNIQY	9	8	12
19	ASNRDRGDYEQY	12	3	4
19	ASNRGRSEWAEAF	0	52	3
19	ASNRREAKNIQY	9	2	6
19	ASNSNKPYEQY	12	33	25
19	ASNVDRGDYEQY	12	1	7
19	ASRAGTGKAETQY	10	3	1
19	ASRFVGTNQETQY	10	73	91
19	ASRGGQGFQETQY	10	77	83
19	ASRGWFGTDTQY	8	1	1
19	ASRHGQGGSPLH	5	16	1
19	ASRHRGGAKNIQY	9	26	11
19	ASRILAGGYNEQF	6	4	1
19	ASRKGQAYEQY	12	46	7
19	ASRLAASSYEQY	12	2	1
19	ASRQLISGNTIY	2	39	3
19	ASRRHVQETQY	10	2	1
19	ASRRREAKNIQY	9	5	8
19	ASRSGLAYEQY	12	1	2042
19	ASRSGQGGQEETQY	10	1	7
19	ASRSNKPYEQY	12	584	42
19	ASRWDRDNSPLH	5	7	1
19	ASSAGQGFQETQY	10	12	15
19	ASSAGQGGQEETQY	10	3	5
19	ASSANKPYEQY	12	455	70
19	ASSATGGIRNEQF	6	1	1
19	ASSCREAKNIQY	9	2	9
19	ASSCVGTNQETQY	10	58	134
19	ASSCVGTSQETQY	10	1	1
19	ASSDRGGAKNIQY	9	10	1
19	ASSEGQGFQETQY	10	70	132
19	ASSFAGTNQETQY	10	270	311
19	ASSFARVRSYNEQF	6	227	139
19	ASSFATSGSSYEQY	12	138	51
19	ASSFDGTNQETQY	10	16	14
19	ASSFFGTNQETQY	10	144	97
19	ASSFGGTNQETQY	10	43	30
19	ASSFGQSWSDEQF	6	2	1
19	ASSFIGTNQETQY	10	95	195
19	ASSFKTGNYNEQF	6	3	1
19	ASSFLGTNQETQY	10	26	24
19	ASSFPGKGIQETQY	10	3	1
19	ASSFPGQGIQETQY	10	1984	459
19	ASSFPGQGIQGTQY	10	2	2
19	ASSFPGQGVQETQY	10	7	2
19	ASSFSTGGMRSYEQY	12	54	487
19	ASSFVATNQETQY	10	34	23
19	ASSFVETNQETQY	10	84	135
19	ASSFVGADQETQY	10	1	2
19	ASSFVGAKQETQY	10	1	2
19	ASSFVGANQETQY	10	452	523
19	ASSFVGANQGTQY	10	1	2
19	ASSFVGINQETQY	10	65	70
19	ASSFVGKNQETQY	10	121	235
19	ASSFVGPNQETQY	10	8	7
19	ASSFVGRNQETQY	10	77	29
19	ASSFVGSNQETQY	10	14	20
19	ASSFVGTDQETQY	10	250	414
19	ASSFVGTIQETQY	10	19	35
19	ASSFVGTKQETQY	10	177	258
19	ASSFVGTNEETQY	10	38	21
19	ASSFVGTNHETQY	10	27	83
19	ASSFVGTNKETQY	10	59	56
19	ASSFVGTNLETQY	10	15	20
19	ASSFVGTNPETQY	10	16	23
19	ASSFVGTNQDTQY	10	182	211
19	ASSFVGTNQETQY	10	153482	257253
19	ASSFVGTNQGTQY	10	284	924
19	ASSFVGTNRDTQY	10	1	1
19	ASSFVGTNRETQY	10	179	132
19	ASSFVGTNRGTQY	10	1	1
19	ASSFVGTSQETQY	10	219	279
19	ASSFVGTTQETQY	10	26	48
19	ASSFVGTYQETQY	10	12	5
19	ASSFVGYEQY	12	100	10
19	ASSFVRTNQETQY	10	709	744
19	ASSFVRTSQETQY	10	2	3
19	ASSFVVTNQETQY	10	68	94
19	ASSFVWTNQETQY	10	147	47
19	ASSFWDRRGTQY	10	11	1
19	ASSGAQGFQETQY	10	24	20
19	ASSGDRGDYEQY	12	6	24
19	ASSGEQGFQETQY	10	69	85
19	ASSGGEGFQETQY	10	208	49
19	ASSGGHGFQETQY	10	293	56
19	ASSGGKGFQETQY	10	185	232
19	ASSGGKGLQETQY	10	1	1
19	ASSGGLGFQETQY	10	13	20
19	ASSGGPGFQETQY	10	12	13
19	ASSGGQAFQETQY	10	32	28
19	ASSGGQCFQETQY	10	52	58
19	ASSGGQDFQETQY	10	64	113
19	ASSGGQGCQETQY	10	877	60
19	ASSGGQGFEETQY	10	32	38
19	ASSGGQGFHETQY	10	22	29
19	ASSGGQGFKETQY	10	51	59
19	ASSGGQGFLETQY	10	6	17
19	ASSGGQGFPETQY	10	13	8
19	ASSGGQGFQDTQY	10	156	182
19	ASSGGQGFQETQY	10	138491	258640
19	ASSGGQGFQGTQY	10	373	559
19	ASSGGQGFRETQY	10	245	180
19	ASSGGQGGQEETQY	10	5	2
19	ASSGGQGIQETQY	10	29	6
19	ASSGGQGLQETQY	10	388	1130
19	ASSGGQGLQGTQY	10	3	2
19	ASSGGQGPQETQY	10	1	1
19	ASSGGQGSQETQY	10	482	724
19	ASSGGQGSQGTQY	10	1	1
19	ASSGGQGVQETQY	10	48	33
19	ASSGGQGYQETQY	10	30	34
19	ASSGGQRFQETQY	10	6	11
19	ASSGGQSFQETQY	10	64	139
19	ASSGGQVFQETQY	10	90	84
19	ASSGGRGFQETQY	10	287	601
19	ASSGGRGFRETQY	10	3	2
19	ASSGRQGFQETQY	10	419	209
19	ASSGRQGSQETQY	10	1	2
19	ASSGVLQGGTDTQY	8	88	2651
19	ASSGVQGFQETQY	10	129	115
19	ASSHGGGAKNIQY	9	12	1
19	ASSHKGGAKNIQY	9	11	7
19	ASSHMGGAKNIQY	9	18	2
19	ASSHRAGAKNIQY	9	2	1
19	ASSHREAKNIQY	9	4	4
19	ASSHREGAKNIQY	9	9	43
19	ASSHRGAAKNIQY	9	3	1
19	ASSHRGEAKNIQY	9	13	19
19	ASSHRGGAENIQY	9	11	11
19	ASSHRGGAKDIQY	9	13	10
19	ASSHRGGAKNIQY	9	12420	5686
19	ASSHRGGAKSIQY	9	36	6
19	ASSHRGGAKTIQY	9	10	4
19	ASSHRGGANNIQY	9	3	1
19	ASSHRGGARNIQY	9	7	4
19	ASSHRGGDKNIQY	9	7	2
19	ASSHRGGGKNIQY	9	8	1
19	ASSHRGGPKNIQY	9	3	3
19	ASSHRGGSKNIQY	9	10	6
19	ASSHRGGTKNIQY	9	6	8
19	ASSHRGGVKNIQY	9	9	2
19	ASSHRGRAKNIQY	9	10	23
19	ASSHRGVAKNIQY	9	5	5
19	ASSHRRGAKNIQY	9	66	6
19	ASSHRVGAKNIQY	9	9	5
19	ASSHRWGAKNIQY	9	25	3
19	ASSHSGGAKNIQY	9	11	6
19	ASSIQRALNEQF	6	1	1
19	ASSIVGTNQETQY	10	7	14
19	ASSIVQGTQY	8	15	1
19	ASSLADTVYNEQF	6	3	1
19	ASSLAGTNQETQY	10	1	2
19	ASSLATGLAASSYEQY	12	34	58
19	ASSLDRDNSPLH	5	12	1
19	ASSLEAATYEQY	12	1	6
19	ASSLEAMTYEQY	12	1	5
19	ASSLEATAYEQY	12	4	31
19	ASSLEATTCEQY	12	1	5
19	ASSLEATTYEQY	12	954	6477
19	ASSLEATTYEQY	6	1	12
19	ASSLEETTYEQY	12	1	2
19	ASSLEGGGGYKNIQY	9	4	1
19	ASSLERTTKNIQY	9	1	1
19	ASSLESTTYEQY	12	2	4
19	ASSLFRPVESSYNEQF	6	4	3
19	ASSLGATTYEQY	12	4	10
19	ASSLGGAGETQY	10	421	273
19	ASSLGQGGQEETQY	10	18	9
19	ASSLGTPNEQF	6	26	1
19	ASSLGTSGSTDTQY	8	1689	1
19	ASSLIPYEQY	12	1	94
19	ASSLKETQY	10	15	1
19	ASSLLGSEDTQY	8	1	1267
19	ASSLLGSGRANEQF	6	1	1516
19	ASSLNKPYEQY	12	56	39
19	ASSLPGGGALEQF	6	136	504
19	ASSLPQWGDQETQY	10	7	1
19	ASSLQATTYEQY	12	3	1
19	ASSLQESSYEQY	12	3	1
19	ASSLRDTQY	8	2	77
19	ASSLREAKNIQY	9	8	8
19	ASSLRGGAKNIQY	9	11	1
19	ASSLRYQETQY	10	1	1
19	ASSLSGRFNEQF	6	1	1
19	ASSLSPRDRGLGTQY	8	254	330
19	ASSLVGTDQETQY	10	2	1
19	ASSLVGTKQETQY	10	1	2
19	ASSLVGTNQETQY	10	441	949
19	ASSLVGTSQETQY	10	2	2
19	ASSLVRTNQETQY	10	1	1
19	ASSLWTLTGDRDNEQF	6	1	1
19	ASSLYHRDRGRYEQY	12	5	2
19	ASSLYTALAKNIQY	9	13	2
19	ASSNRGGAKNIQY	9	17	12
19	ASSPATIVDLQADEAF	0	1	31
19	ASSPGQGGQEETQY	10	9	10
19	ASSPIADLAKNIQY	9	11	1
19	ASSPKYGQSSYNEQF	6	3	1
19	ASSPNKPYEQY	12	153	174
19	ASSPPGALETQY	10	239	571
19	ASSPPGQGVEQY	12	66	2067
19	ASSPPHNEQF	6	15	1
19	ASSPPVLDTQY	8	39	1721
19	ASSPPVVGEQY	12	702	160
19	ASSPSDRRANIQY	9	2	2
19	ASSPYNEQF	6	8	20
19	ASSQGAGTSGKETQY	10	2	1
19	ASSQGAGTSGRETQY	10	1702	190
19	ASSQPGQGEEQY	12	925	10
19	ASSQRGGAKNIQY	9	6	3
19	ASSRDRDNSPLH	5	16	6
19	ASSRGAVETQY	10	1	1
19	ASSRGEAKNIQY	9	11	14
19	ASSRGQGFQETQY	10	104	121
19	ASSRHSTNIQY	9	2	520
19	ASSRKEAKNIQY	9	1	1
19	ASSRMEAKNIQY	9	3	4
19	ASSRPGDRYEQY	12	1	3
19	ASSRPGDWYEQY	12	287	4251
19	ASSRREAENIQY	9	7	7
19	ASSRREAKDIQY	9	5	8
19	ASSRREAKNIQY	9	3479	6825
19	ASSRREAKSIQY	9	7	11
19	ASSRREDKNIQY	9	2	2
19	ASSRREGKNIQY	9	4	3
19	ASSRREPKNIQY	9	1	2
19	ASSRRESKNIQY	9	4	3
19	ASSRRETKNIQY	9	1	4
19	ASSRRGAKNIQY	9	2	11
19	ASSRRGGAKNIQY	9	22	11
19	ASSRRKAKNIQY	9	4	11
19	ASSRSEAKNIQY	9	2	4
19	ASSSDKPYEQY	12	87	99
19	ASSSEQGGQEETQY	10	58	3
19	ASSSGHGGQEETQY	10	5	2
19	ASSSGKGGQEETQY	10	14	7
19	ASSSGLGGQEETQY	10	1	5
19	ASSSGQGCQEETQY	10	6	2
19	ASSSGQGFQETQY	10	5	1
19	ASSSGQGGHEETQY	10	2	2
19	ASSSGQGGKEETQY	10	9	3
19	ASSSGQGGQEETQY	10	15503	6448
19	ASSSGQGGQEGTQY	10	16	5
19	ASSSGQGGQGETQY	10	31	5
19	ASSSGQGGREETQY	10	16	8
19	ASSSGQGVQEETQY	10	12	1
19	ASSSGQRGQEETQY	10	67	2
19	ASSSGQVGQEETQY	10	6	1
19	ASSSGRGGQEETQY	10	22	11
19	ASSSIKPYEQY	12	7	4
19	ASSSKKPYEQY	12	41	40
19	ASSSNEPYEQY	12	78	66
19	ASSSNKAYEQY	12	18	16
19	ASSSNKHYEQY	12	23	19
19	ASSSNKLYEQY	12	35	29
19	ASSSNKPCEQY	12	69	63
19	ASSSNKPDEQY	12	15	10
19	ASSSNKPFEQY	12	2	6
19	ASSSNKPHEQY	12	52	147
19	ASSSNKPSEQY	12	2	3
19	ASSSNKPYEQF	6	2	2
19	ASSSNKPYEQY	12	56970	65817
19	ASSSNKPYEQY	6	49	54
19	ASSSNKRYEQY	12	20	11
19	ASSSNKSYEQY	12	36	30
19	ASSSNKTYEQY	12	23	24
19	ASSSNMPYEQY	12	8	5
19	ASSSNNPYEQY	12	61	46
19	ASSSNRPYEQY	12	169	219
19	ASSSNRPYEQY	6	1	1
19	ASSSNTPYEQY	12	6	5
19	ASSSPEGRYNEQF	6	2	1
19	ASSSPGQGIQETQY	10	3	5
19	ASSSQIWSWKNEQF	6	1	1
19	ASSSREAKNIQY	9	2	2
19	ASSSRQGGQEETQY	10	21	1
19	ASSSSKPYEQY	12	329	185
19	ASSSSKPYEQY	6	2	1
19	ASSSTKPYEQY	12	5	7
19	ASSSVGTNQETQY	10	160	344
19	ASSSVQGGQEETQY	10	13	1
19	ASSSYKPYEQY	12	4	4
19	ASSTLAGRSYNEQF	6	2	1
19	ASSVEATTYEQY	12	3	3
19	ASSVGQGFQETQY	10	164	108
19	ASSVVGTNQETQY	10	93	119
19	ASSVYRGPNSPLH	5	108	173
19	ASSWDKDNSPLH	5	3	1
19	ASSWDMDNSPLH	5	3	1
19	ASSWDRDDSPLH	5	4	2
19	ASSWDRDNSPLH	5	11296	1225
19	ASSWDRDSSPLH	5	11	1
19	ASSWDRGNSPLH	5	15	2
19	ASSWDRNNSPLH	5	10	2
19	ASSWERDNSPLH	5	21	4
19	ASSWGQGFQETQY	10	105	49
19	ASSWGRDNSPLH	5	26	2
19	ASSWNKPYEQY	12	17	25
19	ASSWNRDNSPLH	5	6	1
19	ASSWVRDNSPLH	5	1	2
19	ASSWYRDNSPLH	5	12	1
19	ASSYRGGAKNIQY	9	14	1
19	ASSYVGTNQETQY	10	10	37
19	ASTAGTGRCEQY	12	2	1
19	ASTAGTGRHEQY	12	1	2
19	ASTAGTGRYEQY	12	2508	682
19	ASTDPSKGAYEQY	12	64	387
19	ASTFLGATSEQY	12	7	1
19	ASTFVGTNQETQY	10	15	667
19	ASTGGQGFQETQY	10	13	621
19	ASTHRGGAKNIQY	9	4	27
19	ASTLLGATIEQY	12	6	2
19	ASTLLGATREQY	12	4	2
19	ASTLLGATSEQY	12	6262	2447
19	ASTLLGATSEQY	6	6	1
19	ASTLLGETSEQY	12	1	4
19	ASTLLGTTSEQY	12	4	1
19	ASTLLGVTSEQY	12	11	4
19	ASTLLRATSEQY	12	3	1
19	ASTLLWATSEQY	12	5	1
19	ASTLPGATSEQY	12	5	3
19	ASTLRGATSEQY	12	36	3
19	ASTLVGATSEQY	12	9	1
19	ASTQLISGNTIY	2	105	22
19	ASTRREAKNIQY	9	3	1
19	ASTSGRETQY	10	1	3655
19	ASTSLGATSEQY	12	8	2
19	ASTSNKPYEQY	12	13	2
19	ASTSTGALGETQY	10	1	1159
19	ASTTGTGRYEQY	12	1	1
19	ASVQLISGNTIY	2	105	15
19	ASWDQASGNTIY	2	1	3
19	ATIQLISGNTIY	2	30	59
19	ATNGDRGDYEQY	12	1	21
19	ATNPINEQF	6	5	2
19	ATSFVGTNQETQY	10	15	11
19	ATSGGQGFQETQY	10	8	7
19	ATSRAGATTDTQY	8	897	44
19	ATSRREAKNIQY	9	1	33
19	ATTLLGATSEQY	12	2	2
19	ATWTRGQETQY	10	2	1
19	TSIQLISGNTIY	2	54	5
19	TSNGDRGDYEQY	12	1	4
19	TSSFVGTNQETQY	10	72	65
19	TSSGGQGFQETQY	10	152	88
19	TSSHRGGAKNIQY	9	6	4
19	TSSRREAKNIQY	9	5	2
19	TSSSNKPYEQY	12	12	50
19	VSIQLISGNTIY	2	97	12
19	VSNGDRGDYEQY	12	4	4
19	VSSFVGTNQETQY	10	163	126
19	VSSGGQGFQETQY	10	138	224
19	VSSHRGGAKNIQY	9	16	4
19	VSSRREAKNIQY	9	3	2
19	VSSSGQGGQEETQY	10	9	5
19	VSSSNKPYEQY	12	40	106
19	VSSWDRDNSPLH	5	8	3
19	VSTLLGATSEQY	12	8	1
2	AIGEGPSGRAAYEQY	12	7	1
2	AIGGTGGDYNEQF	6	6	2
2	AIGPGLASDEQF	6	30	44
2	AIGVDIQETQY	10	64	93
2	AIGVDIQGTQY	10	2	1
2	AIIGTGGDYNEQF	6	4	5
2	AIKPGLASDEQF	6	6	8
2	AIKVDIQETQY	10	32	22
2	AIMPGLASDEQF	6	14	11
2	AIMVDIQETQY	10	42	12
2	AIRADIQETQY	10	83	108
2	AIREDIQETQY	10	12	20
2	AIRGDIQETQY	10	246	17
2	AIRGKGGDYNEQF	6	1	2
2	AIRGNNEQF	6	2	1
2	AIRGTGGDCNEQF	6	4	13
2	AIRGTGGDHNEQF	6	3	5
2	AIRGTGGDYDEQF	6	2	5
2	AIRGTGGDYNEQF	6	3942	1680
2	AIRGTGGEYNEQF	6	7	4
2	AIRGTGGYYNEQF	6	3	2
2	AIRGTGVDYNEQF	6	2	1
2	AIRGTRGDYNEQF	6	12	2
2	AIRLDIQETQY	10	97	15
2	AIRLGLASDEQF	6	24	65
2	AIRMDIQETQY	10	108	17
2	AIRPALASDEQF	6	1	3
2	AIRPELASDEQF	6	9	11
2	AIRPGIASDEQF	6	28	19
2	AIRPGLAADEQF	6	3	5
2	AIRPGLALDEQF	6	6	13
2	AIRPGLAPDEQF	6	20	38
2	AIRPGLASDEQF	6	18307	26252
2	AIRPGLASDEQL	6	47	52
2	AIRPGLASDEQY	6	17	25
2	AIRPGLASGEQF	6	46	41
2	AIRPGLASNEQF	6	6	5
2	AIRPGLASYEQF	6	18	4
2	AIRPGLATDEQF	6	4	6
2	AIRPGLESDEQF	6	7	10
2	AIRPGLGSDEQF	6	10	7
2	AIRPGLSSDEQF	6	12	2
2	AIRPGLTSDEQF	6	10	171
2	AIRPGLVSDEQF	6	16	18
2	AIRPGPASDEQF	6	14	23
2	AIRPGQASDEQF	6	10	8
2	AIRPGRASDEQF	6	161	12
2	AIRPRLASDEQF	6	124	13
2	AIRPVLASDEQF	6	12	15
2	AIRQGLASDEQF	6	9	9
2	AIRRGLASDEQF	6	7	6
2	AIRRTGGDYNEQF	6	2	1
2	AIRSGLASDEQF	6	10	18
2	AIRTGLASDEQF	6	11	5
2	AIRVDIEETQY	10	20	9
2	AIRVDIHETQY	10	8	460
2	AIRVDIKETQY	10	11	13
2	AIRVDILETQY	10	2	5
2	AIRVDIPETQY	10	6	3
2	AIRVDIQDTQY	10	61	30
2	AIRVDIQETQY	10	50512	49730
2	AIRVDIQETQY	9	74	75
2	AIRVDIQGTQY	10	134	283
2	AIRVDIRETQY	10	88	175
2	AIRVDMQETQY	10	206	10
2	AIRVDSQETQY	10	383	11
2	AIRVDTQDTQY	10	1	1
2	AIRVDTQETQY	10	93	101
2	AIRVDVQETQY	10	94	50
2	AIRVEIQETQY	10	55	38
2	AIRVGIQETQY	10	106	202
2	AIRVNIQETQY	10	39	30
2	AIRVYIQETQY	10	25	15
2	AISDQRGITYNEQF	6	2	1
2	AISEDPSGRAAYEQY	12	3	2
2	AISEGLSGRAAYEQY	12	2	1
2	AISEGPSGKAAYEQY	12	4	1
2	AISEGPSGRAACEQY	12	4	2
2	AISEGPSGRAAYEQY	12	3199	269
2	AISEGPSGWAAYEQY	12	2	1
2	AISENAGAGETQY	10	2	1
2	AISESAGKKETQY	10	1	2
2	AISESAGKQETQY	10	413	449
2	AISETAGKQETQY	10	1	2
2	AISGDSTDTQY	8	67	62
2	AISGGMYNEQF	6	10	1
2	AISGSFQRDGNEQF	6	5	1
2	AISPGLASDEQF	6	17	14
2	AISQPSGGETQY	10	186	154
2	AISVDIQETQY	10	24	18
2	AITGDTDFYGYT	1	65	25
2	AITGGGRVLPGEQY	12	1	3
2	AITSGGRGLPGEQY	12	5	3
2	AITSGGRVLPGEQY	12	143	2515
2	AITSGGRVPPGEQY	12	1	4
2	AIWVDIQETQY	10	4	3
2	ASRPGLASDEQF	6	8	29
2	ASRVDIQETQY	10	28	41
2	ATNRDRETQY	10	91	22
2	ATRGTGGDYNEQF	6	5	4
2	ATRPGLASDEQF	6	17	91
2	ATRVDIQETQY	10	149	73
2	ATRVGIQETQY	10	3	1
2	ATTGSDNEQF	6	107	5166
2	ATTSGRAGETQY	10	3	1
2	ATWTRGQETQY	10	90	48
20	SAARDSPLYNEQF	6	4	20
20	SADGLAVTDTQY	8	26	100
20	SADGRTNEQF	6	2	2
20	SADYTDTQY	8	156	669
20	SAEAGGGGAGEQF	6	5	2
20	SAEGTGGKNIQY	9	1	135
20	SAGDGKNIQY	9	5	1
20	SAIAGGETQY	10	1227	8449
20	SAIAGGGTQY	10	5	20
20	SAIGGGETQY	10	2	2
20	SALRAGETQY	10	1	1
20	SALSGQGGEQF	6	181	10
20	SAMAGGETQY	10	2	8
20	SAQDRDLNYEQY	12	12	15
20	SARGAGGYNEQF	6	12	2
20	SARGGAGDNEQF	6	1	1
20	SARTGTSGSLEQF	6	2	5
20	SATDSSYEQY	12	13	6114
20	SAVAGGETQY	10	4	73
20	SVAGQSGNEQF	6	3	37
20	SVAKQSGNEQF	6	1	6
20	SVALDSPLYNEQF	6	2	3
20	SVAQDSPLYNEQF	6	1	11
20	SVARDGPLYNEQF	6	3	10
20	SVARDRPLYNEQF	6	4	3
20	SVARDSLLYNEQF	6	2	1
20	SVARDSPLCNEQF	6	3	11
20	SVARDSPLYDEQF	6	6	12
20	SVARDSPLYHEQF	6	1	2
20	SVARDSPLYNEQF	6	1858	9296
20	SVARDSPLYNEQL	6	11	19
20	SVARDSPLYNEQY	6	4	7
20	SVARDSPLYSEQF	6	3	13
20	SVARDSTLYNEQF	6	3	7
20	SVARESPLYNEQF	6	2	9
20	SVARGLHYEQY	12	2	3
20	SVARKSGNEQF	6	2	3
20	SVARQSDNEQF	6	1	5
20	SVARQSGNEQF	6	566	4392
20	SVARQSGNEQY	6	3	4
20	SVARYSPLYNEQF	6	5	6
20	SVATPNSYEQY	12	4979	1
20	SVATSGGGEQF	6	1	1
20	SVAWDSPLYNEQF	6	2	4
20	SVCTGTSGSLEQF	6	2	2
20	SVDALAVTDTQY	8	1	2
20	SVDELAVTDTQY	8	20	13
20	SVDERTNEQF	6	3	4
20	SVDGGTNEQF	6	11	9
20	SVDGIAVTDTQY	8	27	11
20	SVDGLAASSYEQY	12	1	6
20	SVDGLAATDTQY	8	46	24
20	SVDGLADTDTQY	8	8	5
20	SVDGLAFTDTQY	8	24	11
20	SVDGLAGTDTQY	8	138	8
20	SVDGLAITDTQY	8	10	14
20	SVDGLALTDTQY	8	3	4
20	SVDGLAVADTQY	8	46	52
20	SVDGLAVIDTQY	8	6	6
20	SVDGLAVKDTQY	8	7	8
20	SVDGLAVPDTQY	8	1	5
20	SVDGLAVRDTQY	8	5	4
20	SVDGLAVSDTQY	8	3	2
20	SVDGLAVTDTQY	10	6	4
20	SVDGLAVTDTQY	8	21336	24373
20	SVDGLAVTETQY	8	16	9
20	SVDGLAVTGTQY	8	53	57
20	SVDGLEVTDTQY	8	8	15
20	SVDGLGVTDTQY	8	15	7
20	SVDGLSVTDTQY	8	7	8
20	SVDGLTVTDTQY	8	14	24
20	SVDGLVVTDTQY	8	14	19
20	SVDGPAVTDTQY	8	51	22
20	SVDGQAVTDTQY	8	5	5
20	SVDGRAVTDTQY	8	133	8
20	SVDGRTDEQF	6	2	9
20	SVDGRTNEQF	6	2261	3645
20	SVDGRTNEQL	6	6	7
20	SVDGRTNEQY	6	4	3
20	SVDGVAVTDTQY	8	17	8
20	SVDLDFLGRAETQY	10	3	1
20	SVDRDSPLYNEQF	6	2	9
20	SVDRLAVTDTQY	8	11	39
20	SVDRPGQGDNEQF	6	30	243
20	SVDRSVGINEQF	6	1	70
20	SVDSGGPNEQF	6	1	1
20	SVDSGTDTQY	8	133	6
20	SVDSLTGGETQY	10	96	163
20	SVDVLAVTDTQY	8	16	7
20	SVDWLAVTDTQY	8	17	7
20	SVEAEGGGAGEQF	6	1	1
20	SVEAGEGGAGEQF	6	8	1
20	SVEAGGCGAGEQF	6	4	2
20	SVEAGGDGAGEQF	6	2	3
20	SVEAGGGDAGEQF	6	4	7
20	SVEAGGGGAGEQF	6	4501	4247
20	SVEAGGGGAGEQL	6	15	10
20	SVEAGGGGAGEQY	6	4	3
20	SVEAGGGGEGEQF	6	1	3
20	SVEAGGGGSGEQF	6	3	3
20	SVEAGGGGVGEQF	6	2	6
20	SVEAGGGSAGEQF	6	3	3
20	SVEAGRGGAGEQF	6	10	6
20	SVEARGGGAGEQF	6	5	7
20	SVEATGDETQY	10	2	1
20	SVEDALAGYEQY	12	3	15
20	SVEDPLAGYEQY	12	1	16
20	SVEDRDLNYEQY	12	2	3
20	SVEDSGAAYNEQF	6	2	1
20	SVEDSLAGYEQY	12	279	9673
20	SVEDSLASYEQY	12	1	5
20	SVEDSMRGYEQY	12	2	1
20	SVEDSRAGYEQY	12	1	4
20	SVEDSTRGHEQY	12	6	1
20	SVEDSTRGYEQY	12	8972	333
20	SVEDVYYEQY	12	1	3800
20	SVEEDNYNEQF	6	12	2
20	SVEEGTSGRALRNEQF	6	103	13376
20	SVEESLAGYEQY	12	3	6
20	SVEGGGGYNEQF	6	8	2
20	SVEGIQRDTQY	8	5	1
20	SVEGLAVTDTQY	8	12	5
20	SVEGRTNEQF	6	5	3
20	SVEGSLAGYEQY	12	1	121
20	SVEGSTRGYEQY	12	20	2
20	SVEGTGGKNIQY	9	281	5705
20	SVEGTVTYNEQF	6	13206	2
20	SVEGVGDYNEQF	6	254	22
20	SVEKIHNEQF	6	388	289
20	SVEKQGYEQY	12	1	4663
20	SVELWERETQY	10	66	2
20	SVENIHNEQF	6	1	1
20	SVEPTSGRSETQY	10	466	56
20	SVETGGKETQY	10	5	28
20	SVEVGGGGAGEQF	6	4	5
20	SVEWDLKAYEQY	12	3	1
20	SVEYGTFYNEQF	6	6	1
20	SVGAGGGGAGEQF	6	8	13
20	SVGELETQY	10	387	4098
20	SVGGGGLAGMNEQF	6	1	505
20	SVGGLAVTDTQY	8	37	50
20	SVGGRTNEQF	6	3	9
20	SVGGTGGKNIQY	9	1	6
20	SVGGVSSYNEQF	6	4	1
20	SVGIMGGELF	7	9	74
20	SVGLAGTGSEQF	6	691	10
20	SVGLGQGVGTQY	10	1	553
20	SVGLVGETQY	10	70	4994
20	SVGPNQETQY	10	762	831
20	SVGQGASGNTIY	2	41	9
20	SVGQSRIYEQY	12	3	1
20	SVGRVGETQY	10	4	2
20	SVHLGETQY	10	1	1
20	SVHTGTSGSLEQF	6	4	7
20	SVKDRDLNYEQY	12	1	1
20	SVKITGVGNTIY	2	3	2212
20	SVLDGKASYEQY	12	2	1
20	SVLDGQASYEQY	12	414	37
20	SVLGNNEQF	6	2	1
20	SVLTGTSGSLEQF	6	2	7
20	SVMDSYEQY	12	86	244
20	SVNGLAVTDTQY	8	6	9
20	SVNGRTNEQF	6	4	2
20	SVPRDSPLYNEQF	6	1	1
20	SVQDGDLNYEQY	12	8	2
20	SVQDRDLDYEQY	12	5	1
20	SVQDRDLKYEQY	12	5	2
20	SVQDRDLNCEQY	12	5	1
20	SVQDRDLNHEQY	12	4	2
20	SVQDRDLNYEQY	12	4622	2424
20	SVQDRDLNYEQY	6	3	1
20	SVQDRDLSYEQY	12	13	5
20	SVQDRDVNYEQY	12	2	1
20	SVQDRELNYEQY	12	6	2
20	SVQDRGLNYEQY	12	13	3
20	SVQDRNLNYEQY	12	1	2
20	SVQDRYLNYEQY	12	3	2
20	SVQDSDLNYEQY	12	5	1
20	SVQEVSGRGDEQF	6	2223	91
20	SVQGAGTTDTQY	8	8	3
20	SVQGRDLNYEQY	12	11	2
20	SVQTVYSENTIY	2	1	1
20	SVQTVYSGNTIY	2	152	780
20	SVRADQETQY	10	855	322
20	SVRAGTSGSLEQF	6	3	8
20	SVRDRDLNYEQY	12	9	8
20	SVRDSSSYEQY	12	373	2
20	SVRLAGGYNEQF	6	1	1
20	SVRPNQETQY	10	2	1
20	SVRSGTSGSLEQF	6	2	3
20	SVRTETSGSLEQF	6	2	1
20	SVRTGASGSLEQF	6	11	7
20	SVRTGNSGSLEQF	6	1	2
20	SVRTGSSGSLEQF	6	6	2
20	SVRTGTSESLEQF	6	1	3
20	SVRTGTSGGLEQF	6	36	10
20	SVRTGTSGNLEQF	6	1	1
20	SVRTGTSGRLEQF	6	3	3
20	SVRTGTSGSIEQF	6	8	25
20	SVRTGTSGSLEQF	6	2316	3485
20	SVRTGTSGSLEQL	6	18	5
20	SVRTGTSGSLEQY	6	2	3
20	SVRTGTSGSPEQF	6	5	21
20	SVRTGTSGSREQF	6	22	1
20	SVRTGTSVSLEQF	6	2	1
20	SVRTGTTTDTQY	8	2	81
20	SVRTRTSGSLEQF	6	4	3
20	SVRTVTSGSLEQF	6	3	1
20	SVRVTGGINEQF	6	2	2603
20	SVSGQIQETQY	10	424	470
20	SVSGQTQETQY	10	2	1
20	SVSPRSSGRSYEQF	6	1	135
20	SVSQGAKNIQY	9	2	206
20	SVSRDSPLYNEQF	6	5	3
20	SVTGGLHYEQY	12	3	23
20	SVTGTGTQY	8	67	1780
20	SVTPGKAGGDTQY	8	65	1
20	SVTRDSPLYNEQF	6	1	14
20	SVTRGLHYEQY	12	965	1491
20	SVTRGPHYEQY	12	2	5
20	SVTRQSGNEQF	6	1	4
20	SVTVGLAGPYNEQF	6	118	6
20	SVVAGGGGAGEQF	6	1	7
20	SVVDSLAGYEQY	12	1	1
20	SVVGLAVTDTQY	8	9	7
20	SVVNDGNTIY	2	34	4
20	SVWDRYNEQF	6	2	3301
20	SVYGAGRTHQETQY	10	55	4
20	SVYGLAVTDTQY	8	14	4
20	SVYGRTNEQF	6	4	4
21	ARSLGPAGEGEETQY	10	2	2
21	ARSLLQGERETQY	10	1	5
21	ASGGQYNEQF	6	4442	20
21	ASGGRYNEQF	6	6	1
21	ASGLGPAGEGEETQY	10	3	3
21	ASGQASNEQF	6	5	11
21	ASILGPAGEGEETQY	10	3	1
21	ASIQASNEQF	6	1	3
21	ASNLLQGERETQY	10	1	1
21	ASRLGPAGEGEETQY	10	4	2
21	ASRQASNEQF	6	7	2
21	ASSHTSESYNEQF	6	1	316
21	ASSKASNEQF	6	6	3
21	ASSLATGLAASSYEQY	12	8	13
21	ASSLGPAGEGEDTQY	10	8	1
21	ASSLGPAGEGEETQY	10	3541	3210
21	ASSLGPAGEGEGTQY	10	8	2
21	ASSLGPAGEGGETQY	10	5	1
21	ASSLGPAGEGKETQY	10	4	1
21	ASSLGPAGEREETQY	10	3	2
21	ASSLGPAGGGEETQY	10	162	2
21	ASSLGPAGKGEETQY	10	2	5
21	ASSLGPAVEGEETQY	10	1	2
21	ASSLGPTGEGEETQY	10	1	2
21	ASSLGPVGEGEETQY	10	2	2
21	ASSLGSAGEGEETQY	10	3	1
21	ASSLGTAGEGEETQY	10	6	1
21	ASSLIQGERETQY	10	2	1
21	ASSLLEGERETQY	10	4	3
21	ASSLLQGEGETQY	10	3	4
21	ASSLLQGERETQY	10	440	5949
21	ASSLLRGERETQY	10	2	12
21	ASSLRPAGEGEETQY	10	2	5
21	ASSPDGPPSVEQY	12	146	3503
21	ASSPLQGERETQY	10	1	10
21	ASSPTGLGYNEQF	6	507	5
21	ASSQAGNEQF	6	3	8
21	ASSQAINEQF	6	1	1
21	ASSQANNEQF	6	1	2
21	ASSQARNEQF	6	2	2
21	ASSQASGRASEQF	6	208	1
21	ASSQASNEQF	6	2390	4063
21	ASSQASNEQL	6	58	9
21	ASSQASNEQY	6	3	3
21	ASSQASSEQF	6	7	2
21	ASSQDLDSLGGNTIY	2	1	1
21	ASSQEVRSGEQF	6	1	1
21	ASSQRGEETQY	10	9	3
21	ASSQSSNEQF	6	4	2
21	ASSRASNEQF	6	3	10
21	ASSSGPAGEGEETQY	10	1	5
21	ASSVGPAGEGEETQY	10	1	2
21	ASSYEMTGYEQY	12	111	2532
21	ASSYETTGYEQY	12	1	4
21	ASSYGMTGYEQY	12	1	7
21	TSSLGPAGEGEETQY	10	3	2
21	VSSQASNEQF	6	3	3
22	AWRGGGKNIQY	9	68	38
22	AWSPHMGLLETQY	10	1	1
22	AWSQPGRLTDTQY	8	348	811
22	AWSSTGTQY	8	12	1
23	ASGQENPLAGAHNEQF	6	2	3
23	ASIQENPLAGAHNEQF	6	2	2
23	ASREQVMSSYEQY	12	280	1
23	ASSPHRAVSYNEQF	6	9	2
23	ASSQAPGRETQY	10	4	1
23	ASSQDWTDTQY	8	2	2
23	ASSQEDMGLPVNEQF	6	20	1
23	ASSQEDPLAGAHNEQF	6	4	5
23	ASSQENPLAGAHNEQF	6	1913	1718
23	ASSQENPLAGAHNEQL	6	4	3
23	ASSQENPLAGAHNEQY	6	2	2
23	ASSQENPLAGAHSEQF	6	3	36
23	ASSQENPLAGANNEQF	6	1	1
23	ASSQENPLAGARNEQF	6	2	3
23	ASSQENPLAGAYNEQF	6	4	1
23	ASSQENPLTGAHNEQF	6	4	1
23	ASSQENPPAGAHNEQF	6	1	2
23	ASSQESPLAGAHNEQF	6	5	4
23	ASSQETGSYIQY	9	342	3
23	ASSQETPLAGAHNEQF	6	1	6
23	ASSQGNPLAGAHNEQF	6	4	5
23	ASSQGRKYSYEQY	12	2	1
23	ASSQVGVGIQY	9	5	1
23	ASSRENPLAGAHNEQF	6	2	9
23	TSSQENPLAGAHNEQF	6	2	1
24	ASRKGQAYEQY	12	8	1
24	ASRQDPPGKRSYEQY	12	1	2
24	ASSHVLNSYNEQF	6	2	1926
24	ASSLATGLAASSYEQY	12	2	6
24	ASSQAQQETQY	10	2	754
24	ASSQDLPGKRSYEQY	12	1	5
24	ASSQDPPGKRPYEQY	12	2	28
24	ASSQDPPGKRSYEQY	12	251	3357
24	ASSQDPPGKRSYEQY	6	2	5
24	ASSQDPPGKSSYEQY	12	4	3
24	ASSQDPPGRRSYEQY	12	1	2
24	ASSQDPPRKRSYEQY	12	1	4
24	ASSQDPQGKRSYEQY	12	1	1
24	ASSQGPPGKRSYEQY	12	1	13
24	ASSQGRKYSYEQY	12	1	1
24	ASSQPDGRGTDTQY	8	71	2512
24	ASSQPDGRGTGTQY	8	1	6
24	ASSQTTTSGEINEQF	6	1	1
25	AISQDASQETQY	10	3	1
25	ASGQDASQETQY	10	1	1
25	ASGQGRKYSYEQY	12	1	2
25	ASSAGTSGRSDNEQF	6	1	1
25	ASSQDAGQETQY	10	1	1
25	ASSQDASQDTQY	10	1	1
25	ASSQDASQETQY	10	587	360
25	ASSQDASRETQY	10	3	1
25	ASSQDRTDTQY	8	4	1
25	ASSQDRVDRRAAPYEQY	12	65	25
25	ASSQDWADTQY	8	7	1
25	ASSQDWKDTQY	8	3	1
25	ASSQDWTDTQY	8	2840	781
25	ASSQDWTGTQY	8	4	2
25	ASSQEASQETQY	10	2	1
25	ASSQENPLAGAHNEQF	6	6	5
25	ASSQERKGGGWDEQF	6	2	3
25	ASSQERKVGGWDEQF	6	152	3024
25	ASSQERKVGGWGEQF	6	1	4
25	ASSQGRKYSYEQY	12	720	824
25	ASSQGRRYSYEQY	12	1	2
25	ASSQGWTDTQY	8	58	2
25	ASSQKAEINEQF	6	1	1227
25	ASSQNWTDTQY	8	1	1
25	ASSRDWTDTQY	8	3	1
25	ASSTGTSGRSDNEQF	6	59	1464
25	ASSTGTSGRSDNEQL	6	1	3
25	TSSQDWTDTQY	8	4	3
26	ASGDQPSGSSYNEQF	6	1	8
26	ASGRGLAAGDTQY	8	3	1
26	ASGWQLGEDEQF	6	4	1
26	ASHTGTGGSGELF	7	73	6
26	ASKGRGHSYNEQF	6	18	26
26	ASRLQGPTDTQY	8	1	1
26	ASSDQPSGSSCNEQF	6	1	2
26	ASSDQPSGSSHNEQF	6	1	10
26	ASSDQPSGSSYNEQF	6	343	5316
26	ASSDQPSGSSYNEQY	6	1	10
26	ASSDQPSRSSYNEQF	6	3	4
26	ASSGQPSGSSYNEQF	6	1	16
26	ASSITLTDTQY	8	135	586
26	ASSITPTDTQY	8	1	1
26	ASSLAGVHNEQF	6	11	1
26	ASSLAGWTSGTYNEQF	6	2	1
26	ASSLASGNQETQY	10	1	126
26	ASSLATGRTKNIQY	9	389	1
26	ASSLDAGGNRSNEQF	6	1	2056
26	ASSLDAVGSGANVLT	11	108	2
26	ASSLDPGGSSYNEQF	6	4	1
26	ASSLDQGIQYEQY	12	4006	928
26	ASSLDQGTQYEQY	12	9	2
26	ASSLEGGGTDTQY	8	2673	76
26	ASSLELSYNEQF	6	3	1
26	ASSLETSGTPGDTQY	8	11	70
26	ASSLGAGGGEQY	12	195	55
26	ASSLGESGNTIY	2	2499	1
26	ASSLGGGGTDTQY	8	6	1
26	ASSLGGSTGELF	7	1085	331
26	ASSLIEGRGEQY	12	2	1
26	ASSLQGPTDTQY	8	376	1217
26	ASSLSLAGGTDTQY	8	1	1
26	ASSLSSGDTYEQY	12	94	1497
26	ASSLSSGYTYEQY	12	1	2
26	ASSPTGARTGGAGNTIY	2	34	251
26	ASSPTGYNEQF	6	738	59
26	ASSPTSGRADTQY	8	127	750
26	ASSRGLAAGDTQY	8	1433	278
26	ASSRGPAAGDTQY	8	2	1
26	ASSRQLGEDEQF	6	3	1
26	ASSSDQGIQYEQY	12	1	1
26	ASSSGLAGGPYNEQF	6	434	3
26	ASSSGRGYEQY	12	1	3851
26	ASSVGARGSNEQF	6	2	2
26	ASSWGTSGTGELF	7	8	15
26	ASSWPPGGENYNEQF	6	9	1
26	ASSWQIGEDEQF	6	3	2
26	ASSWQLGEDEQF	6	2004	470
26	ASSWQLGEDEQL	6	4	3
26	ASSWQLGEYEQF	6	3	1
26	ASTGYTDTQY	8	220	97
27	ASSFSDSVGETQY	10	64	20
27	ASSFWREIETQY	10	863	2
27	ASSLATGLAASSYEQY	12	2	6
27	ASSLDPGPYEQY	12	383	389
27	ASSLGTNSYNEQF	6	104	1
27	ASSLKGGRSYNEQF	6	6	4
27	ASSPRRGQGNYEQY	12	1	1
27	ASSQERKVGGWDEQF	6	1	2
27	ASSRETGVHNEQF	6	19	2
27	ASSRRDASGTDTQY	8	7	140
27	ASSSPETSGSRKETQY	10	712	10
27	ASSTSWQQETQY	10	41	104
28	ASGLEGTSGTADEQF	6	2	7
28	ASNLEGTSGTADEQF	6	2	3
28	ASRKGQAYEQY	12	1288	58
28	ASRKGRAYEQY	12	3	1
28	ASRLGAVEQF	6	2	1
28	ASSFLFSAGVSYEQY	12	1	2
28	ASSLAREETQY	10	4	2
28	ASSLATGLAASSYEQY	12	16	22
28	ASSLEETSGTADEQF	6	1	21
28	ASSLEGNSGTADEQF	6	2	7
28	ASSLEGSSGTADEQF	6	2	4
28	ASSLEGTGGTADEQF	6	4	7
28	ASSLEGTRGTADEQF	6	4	4
28	ASSLEGTSETADEQF	6	1	2
28	ASSLEGTSGTADEQF	6	1671	5776
28	ASSLEGTSGTADEQL	6	1	14
28	ASSLEGTSGTADEQY	6	1	7
28	ASSLEGTSGTTDEQF	6	2	1
28	ASSLEGTSGTVDEQF	6	1	2
28	ASSLEGTSRTADEQF	6	2	3
28	ASSLEGTSVTADEQF	6	3	2
28	ASSLEVTSGTADEQF	6	1	4
28	ASSLGAAEQF	6	1	6
28	ASSLGAVEQF	6	190	5153
28	ASSLGAVEQL	6	2	21
28	ASSLGGTSGTADEQF	6	9	14
28	ASSLGRGRSITDTQY	8	56	18
28	ASSLIGVSTHNEQF	6	5	4
28	ASSLISALPGSYEQY	12	1	2
28	ASSLLFSAEVSYEQY	12	19	4
28	ASSLLFSAGASYEQY	12	1	5
28	ASSLLFSAGVSYEQY	12	324	3301
28	ASSLLSSAGVSYEQY	12	1	2
28	ASSLPGGYNEQF	6	417	1
28	ASSQDASQETQY	10	1	1
28	ASSQRDEQY	12	6	2784
28	ASSSEGTSGTADEQF	6	2	9
28	ASSVEGTSGTADEQF	6	1	3
28	ASSVGAVEQF	6	2	5
28	ASSWEGTSGTADEQF	6	2	1
29	ARSLISALPGSYEQY	12	2	2
29	ASGLAREETQY	10	11	1
29	ASILAREETQY	10	11	2
29	ASRSTGNIHNEQF	6	1	2
29	ASSDGSSFSLYNEQF	6	9	2
29	ASSFISALPGSYEQY	12	4	3
29	ASSFLVRSHEQY	12	242	724
29	ASSLAGEETQY	10	11	4
29	ASSLAREDSRTDTQY	8	806	4
29	ASSLAREDTQY	10	8	2
29	ASSLAREETQY	10	8463	3170
29	ASSLAREGTQY	10	12	29
29	ASSLARGETQY	10	9	8
29	ASSLATGLAASSYEQY	12	7	9
29	ASSLILALPGSYEQY	12	5	2
29	ASSLISALLGSYEQY	12	9	2
29	ASSLISALPESYEQY	12	3	2
29	ASSLISALPGPYEQY	12	10	5
29	ASSLISALPGSHEQY	12	5	3
29	ASSLISALPGSYEQY	12	6283	1245
29	ASSLISALPGSYEQY	6	3	2
29	ASSLISALSGSYEQY	12	4	2
29	ASSLISAPPGSYEQY	12	10	2
29	ASSLISARPGSYEQY	12	41	2
29	ASSLISSLPGSYEQY	12	6	1
29	ASSLISTLPGSYEQY	12	3	1
29	ASSLLFSAGVSYEQY	12	1	1
29	ASSLPREETQY	10	10	3
29	ASSLRSALPGSYEQY	12	2	3
29	ASSLSETQY	10	37	456
29	ASSLTSALPGSYEQY	12	5	6
29	ASSLVGSYEQY	12	2	1
29	ASSLVREETQY	10	5	3
29	ASSLVSALPGSYEQY	12	6	5
29	ASSPTLGRVSYNEQF	6	28	23
29	ASSSAREETQY	10	11	5
29	ASSSISALPGSYEQY	12	5	47
29	ASSSRTGYGNEQF	6	177	1
29	ASSVAREETQY	10	86	5
29	ASSWAREETQY	10	26	1
29	ASSWRLTSSYEQY	12	9	1804
29	TSSLISALPGSYEQY	12	2	1
29	VSSLAREETQY	10	11	2
3	ASRKGQAYEQY	12	21	2
3	ASSFSGTRDQETQY	10	3	1
3	ASSLAGSGDIQY	9	1	5
3	ASSLATGLAASSYEQY	12	4	4
3	ASSLDRYNEQF	6	83	515
3	ASSLGGSGDIQY	9	2	4
3	ASSLMGSGDIQY	9	1	2
3	ASSLVGSGDIQY	9	245	2262
3	ASSLVGSRDIQY	9	1	1
30	ASRARPLGGVTDTQY	8	1	1
30	ASREGRSYEQY	12	2	1
30	ASRKGQAYEQY	12	48	3
30	ASSLATGLAASSYEQY	12	4	1
30	ASSLEGTSGTADEQF	6	1	8
30	ASSLGAVEQF	6	2	3
30	ASSLPLAGEVGLSYNEQF	6	754	11
30	ASSQDASQETQY	10	2	1
30	ASSQDPPGKRSYEQY	12	2	7
30	ASSQDWTDTQY	8	10	3
30	ASSQERKVGGWDEQF	6	1	4
30	ASSQGRKYSYEQY	12	1	2
30	ASSSRGQGADTQY	8	1	240
31	ARSHPSGVIYEQY	12	1	2
31	ASAGAQCNEQF	6	1	3
31	ASAGAQYNEQF	12	154	3058
31	ASGVAGKKIYEQY	12	1	1
31	ASGYSAGVGETQY	10	2	2
31	ASRAGVPEQF	6	84	2229
31	ASRDGDYEQY	12	7	1
31	ASRGTYEQY	12	34	21
31	ASRPTSLNEQF	6	2	1764
31	ASRSLEPNEQF	6	8	1342
31	ASSDGDCEQY	12	2	1
31	ASSDGDYEQY	12	2098	569
31	ASSDGDYEQY	6	3	1
31	ASSDGGYEQY	12	4	2
31	ASSDSAGVGETQY	10	3	2
31	ASSDYRGGNEQF	6	2	1
31	ASSEKGRYEQY	12	156	309
31	ASSFSRSNYNEQF	6	1	1
31	ASSGGDYEQY	12	5	1
31	ASSHPSGVIYEQY	12	109	1009
31	ASSHPSGVVYEQY	12	1	4
31	ASSHSAGVGETQY	10	1	4
31	ASSKGGGPCEQY	12	1	1
31	ASSKGGGPYEQY	12	99	423
31	ASSLTSGRYNEQF	6	17	2
31	ASSMMGGVETQY	10	17	7
31	ASSQGGIGYEQY	12	1	1
31	ASSRQGARDEQF	6	255	1
31	ASSSGRAENEQF	6	69	1439
31	ASSSRTGGSYEQY	12	1	197
31	ASSVADAGNTIY	2	391	1
31	ASSVAGKKIYEQY	12	1352	75
31	ASSYLAGVGETQY	10	2	4
31	ASSYPAGVGETQY	10	3	6
31	ASSYSAGFGETQY	10	1	2
31	ASSYSAGGGETQY	10	16	1
31	ASSYSAGVEETQY	10	3	4
31	ASSYSAGVGDTQY	10	1	4
31	ASSYSAGVGETQY	10	1943	4096
31	ASSYSAGVGGTQY	10	2	4
31	ASSYSAVVGETQY	10	1	1
31	ASSYSEGVGETQY	10	1	1
31	ASSYSGERDTQY	8	239	23
31	ASSYSGERGTQY	8	1	1
31	ASSYSGSGNTIY	2	9	1
31	ASSYSNNEQF	6	5	1
31	ASSYTGGEQY	6	1	120
31	ATTGSYEQF	6	253	1
31	ATWARGQETQY	10	1	4
31	ATWTGGQETQY	10	1	1
31	ATWTKGQETQY	10	2	1
31	ATWTRGQETQY	10	546	477
31	TSSSGRAENEQF	6	1	3
31	VSSYSAGVGETQY	10	2	3
32	AIRGTGGDYNEQF	6	3	1
32	AIRPGLASDEQF	6	15	12
32	AIRVDIQETQY	10	49	37
32	ARSDGSEGEQF	6	1	1
32	ASNEQRTAYQETQY	10	1	1
32	ASSAGEGGTQY	10	2696	1
32	ASSDGSEGEQF	6	1439	1197
32	ASSDGSEGEQY	6	2	1
32	ASSDRSEGEQF	6	1	3
32	ASSDSSGSYNEQF	6	102	2046
32	ASSGGSEGEQF	6	3	1
32	ASSGGTGGNEQF	6	34	77
32	ASSLTSGRYNEQF	6	4	1
32	ASSRGAGTYNEQF	6	12	1
32	ATWTRGQETQY	10	645	333
32	ATWTRGQGTQY	10	4	3
33	AIRPGLASDEQF	6	7	8
33	AIRVDIQETQY	10	29	19
33	AIWTRGQETQY	10	372	252
33	ARSLTSGRYNEQF	6	12	4
33	ARWTRGQETQY	10	1	1
33	ASAGAQYNEQF	12	1	11
33	ASCTALSYEQY	12	194	257
33	ASGAKLYEQY	12	11	5
33	ASGLTSGRYNEQF	6	16	4
33	ASILTSGRYNEQF	6	17	3
33	ASNLTSGRYNEQF	6	9	3
33	ASRPTSPAAIQY	9	1463	1
33	ASRSPSGTDTQY	8	75	755
33	ASSDGDYEQY	12	23	4
33	ASSEGQGAKNIQY	9	9	2
33	ASSFTSGRYNEQF	6	22	1
33	ASSFVGTNQETQY	10	3	5
33	ASSGGQGFQETQY	10	6	6
33	ASSHPSGVIYEQY	12	2	2
33	ASSLASGRYNEQF	6	15	5
33	ASSLGTTQVNEQF	6	9	1
33	ASSLISGRYNEQF	6	6	2
33	ASSLSSGRYNEQF	6	8	1
33	ASSLTSERYNEQF	6	67	2
33	ASSLTSGCYNEQF	6	8	6
33	ASSLTSGLYNEQF	6	8	2
33	ASSLTSGRCNEQF	6	18	1
33	ASSLTSGRYDEQF	6	122	4
33	ASSLTSGRYNEQF	6	11662	2672
33	ASSLTSGRYNEQL	6	39	5
33	ASSLTSGRYNEQY	6	19	3
33	ASSLTSGRYSEQF	6	16	2
33	ASSLTSGSYNEQF	6	5	1
33	ASSLTSRRYNEQF	6	15	2
33	ASSLTSWRYNEQF	6	5	3
33	ASSMTSGRYNEQF	6	3	1
33	ASSSTSGRYNEQF	6	18	3
33	ASSWTSGRYNEQF	6	7	1
33	ASSYAGAEDTQY	8	49	122
33	ASSYATKNPDTQY	8	44	42
33	ASSYSAGVGETQY	10	6	10
33	ASSYSWGNEQF	6	2	1
33	ASTGLGTTTDTQY	8	9	1
33	ASTLTSGRYNEQF	6	4	6
33	ASTPTGVKETQY	10	1	33
33	ASTQQGADTQY	8	17	47
33	ASWTRGQETQY	10	589	196
33	ATCARGQETQY	10	14	3
33	ATCTRGQETQY	10	508	245
33	ATGTRGQETQY	10	462	95
33	ATLARGQETQY	10	6	1
33	ATLTRGQETQY	10	489	141
33	ATRARGQETQY	10	7	3
33	ATRTRGQDTQY	10	1	1
33	ATRTRGQETQY	10	1390	1259
33	ATRTRSQETQY	10	2	1
33	ATSLTSGRYNEQF	6	1	1
33	ATSTRGQETQY	10	48	25
33	ATWAGGQETQY	10	6	3
33	ATWARDQETQY	10	1	3
33	ATWARGQETQY	10	2558	1311
33	ATWARGQGTQY	10	7	3
33	ATWARGRETQY	10	7	5
33	ATWDRGQETQY	10	3	2
33	ATWIRGQETQY	10	342	233
33	ATWNRGQETQY	10	374	283
33	ATWPRGQETQY	10	596	15
33	ATWSRGQDTQY	10	2	1
33	ATWSRGQETQY	10	620	114
33	ATWTGGQETQY	10	1200	617
33	ATWTIGQETQY	10	187	120
33	ATWTKGQETQY	10	343	197
33	ATWTRAQETQY	10	48	23
33	ATWTRCQETQY	10	316	124
33	ATWTRDQETQY	10	449	328
33	ATWTRGEETQY	10	168	43
33	ATWTRGHETQY	10	561	101
33	ATWTRGKETQY	10	135	81
33	ATWTRGLETQY	10	64	48
33	ATWTRGPETQY	10	42	49
33	ATWTRGQDTQY	10	690	347
33	ATWTRGQETQY	10	563445	457336
33	ATWTRGQETQY	8	1	1
33	ATWTRGQGTQY	10	1608	1082
33	ATWTRGRETQY	10	771	583
33	ATWTRRQETQY	10	43	11
33	ATWTRSQETQY	10	448	152
33	ATWTRVQETQY	10	218	122
33	ATWTSGQETQY	10	101	105
33	ATWTTGQETQY	10	33	9
33	ATWTVGQETQY	10	2	1
33	TSSLTSGRYNEQF	6	5	1
33	VSSLTSGRYNEQF	6	10	2
34	AIRVDIQETQY	10	2	2
34	ASAGAQYNEQF	12	1	2
34	ASRDRTGGVYEQY	12	164	128
34	ASSYRLDKNIQY	9	3	1
34	ASSYSAGVGETQY	10	2	2
34	ASSYSASGSDTQY	8	4	17
34	ATWTRGQETQY	10	247	117
35	AIRPGLASDEQF	6	12	2
35	AIRVDIQETQY	10	19	18
35	ASRRDSKTVNTDTQY	8	1	1
35	ASSLTSGRYNEQF	6	22	4
35	ATWTRGQDTQY	10	1	1
35	ATWTRGQETQY	10	488	236
35	ATWTRGQGTQY	10	1	1
36	AIRGTGGDYNEQF	6	2	3
36	AIRPGLASDEQF	6	5	13
36	AIRVDIQETQY	10	42	106
36	AIRVDIQGTQY	10	1	1
36	AIRVDVQETQY	10	1	1
36	ASSYSRDYRAPYEQY	12	2	2
36	ATWTRGQETQY	10	18	6
37	AIREGRSYEQY	12	5	5
37	AISLATGLAASSYEQY	12	1	2
37	ARREGRSYEQY	12	3	2
37	ARSLATGLAASSYEQY	12	4	3
37	ASGLATGLAASSYEQY	12	2	7
37	ASGLLADTQY	8	2	8
37	ASISGTSYNEQF	6	2	3
37	ASLEGRSYEQY	12	5	3
37	ASNLATGLAASSYEQY	12	1	5
37	ASQEGRSYEQY	12	2	3
37	ASREDRSYEQY	12	1	1
37	ASREGQSYEQY	12	6	4
37	ASREGRFYEQY	12	6	2
37	ASREGRPYEQY	12	9	12
37	ASREGRSCEQY	12	9	3
37	ASREGRSDEQY	12	1	1
37	ASREGRSHEQY	12	6	14
37	ASREGRSYEQY	12	4295	4806
37	ASREGRSYEQY	6	3	5
37	ASRGGRSYEQY	12	4	13
37	ASRKGQAYEQY	12	217	28
37	ASRKGQSYEQY	12	1	1
37	ASRKGRSYEQY	12	3	1
37	ASRLATGLAASSYEQY	12	2	1
37	ASRSGTSYNEQF	6	2	3
37	ASSAGTPSYNEQF	6	6	3
37	ASSARPRTSGSLDTQY	8	1	2
37	ASSARPRTSGSSDTQY	8	92	3554
37	ASSARPRTSRSSDTQY	8	1	14
37	ASSFGTSYNEQF	6	2	3
37	ASSFIAGFTDTQY	8	40	1
37	ASSFLGLLETQY	10	2	1
37	ASSFREGTDTQY	8	46	299
37	ASSFVELLETQY	10	1	6
37	ASSFVGLLETQY	10	115	5397
37	ASSFVGLLGTQY	10	1	30
37	ASSGRPDDEQF	6	2	2
37	ASSGRPGDEQF	6	537	3418
37	ASSGRPGDEQL	6	2	6
37	ASSGRPGDEQY	6	1	1
37	ASSLAAGLAASSYEQY	12	1	211
37	ASSLAEGLPYNEQF	6	7	1
37	ASSLAHEQY	12	3	1
37	ASSLAKGLAASSYEQY	12	3	2
37	ASSLARGLAASSYEQY	12	4	2
37	ASSLATGLAAGSYEQY	12	4	5
37	ASSLATGLAASCYEQY	12	1	1
37	ASSLATGLAASPYEQY	12	6	4
37	ASSLATGLAASSCEQY	12	2	1
37	ASSLATGLAASSHEQY	12	3	6
37	ASSLATGLAASSYEQY	12	1668	3080
37	ASSLATGLAASSYEQY	6	2	4
37	ASSLATGLAVSSYEQY	12	1	3
37	ASSLATGLEASSYEQY	12	1	3
37	ASSLATGLSASSYEQY	12	1	1
37	ASSLATGLTASSYEQY	12	4	3
37	ASSLATGLVASSYEQY	12	5	11
37	ASSLATGPAASSYEQY	12	5	12
37	ASSLATRLAASSYEQY	12	5	7
37	ASSLDGPGTGAYEQY	12	24	2
37	ASSLFRNEQF	6	7	1
37	ASSLGAHPNEQF	6	80	230
37	ASSLGGLAGETQY	10	20	1
37	ASSLGGLAGGKANEQF	6	8	1
37	ASSLGLEGEQF	6	36	629
37	ASSLGPPYNEQF	6	2	1
37	ASSLGQQETQY	10	1399	5
37	ASSLGRQETQY	10	143	2550
37	ASSLIGVSTHNEQF	6	2	4
37	ASSLITHTYNEQF	6	608	83
37	ASSLLADTQY	8	212	8560
37	ASSLLSREQY	12	9	5134
37	ASSLLSREQY	6	1	10
37	ASSLLSSGSMTYNEQF	6	1	4217
37	ASSLNPGDYEQY	12	1	1
37	ASSLRADTQY	8	2	2
37	ASSLSPPCNEQF	6	4	4
37	ASSLSPPYNEQF	6	1409	2418
37	ASSLSPPYNEQL	6	3	6
37	ASSLSSPYNEQF	6	3	2
37	ASSLSTGLAASSYEQY	12	1	4
37	ASSLTQGAKDTQY	8	42	32
37	ASSLTTGLAASSYEQY	12	4	5
37	ASSLVTGLAASSYEQY	12	3	5
37	ASSLYTIGNAGTQY	10	358	115
37	ASSPATSGSTDTQY	8	52	1
37	ASSPGRNSPLH	5	15	22
37	ASSPGTSYNEQF	6	1	9
37	ASSPHPGGSYNEQF	6	1	12
37	ASSPKAGNEQF	6	2	4
37	ASSPNAGNEQF	6	458	16100
37	ASSPNAGSEQF	6	1	87
37	ASSPPRRGEQF	6	712	1
37	ASSPQPPYEQY	12	51	1440
37	ASSPQTPYEQY	12	1	1
37	ASSPTTRSDTQY	8	46	3030
37	ASSQGLPYNEQF	6	3	1
37	ASSQSGLANEQF	6	3	1
37	ASSRVSGVSSYEQY	12	8	13
37	ASSSATGLAASSYEQY	12	6	8
37	ASSSDPGGETQY	10	1	2
37	ASSSDSGGDTQY	10	2	1
37	ASSSDSGGETQY	10	242	1469
37	ASSSETSYNEQF	6	2	3
37	ASSSGASYNEQF	6	1	13
37	ASSSGNSYNEQF	6	1	9
37	ASSSGTNYNEQF	6	1	4
37	ASSSGTRYNEQF	6	2	8
37	ASSSGTSAYNEQF	6	4	1
37	ASSSGTSCNEQF	6	2	11
37	ASSSGTSYDEQF	6	7	13
37	ASSSGTSYNEQF	6	768	5438
37	ASSSGTSYNEQY	6	1	2
37	ASSSHPGGSYNEQF	6	107	3878
37	ASSSHPGSSYNEQF	6	1	2
37	ASSSPNRVTSTDTQY	8	14	5
37	ASSSPSGLSTDTQY	8	70	921
37	ASSSVGLLETQY	10	1	7
37	ASSSYNFEQF	6	36	357
37	ASSTGLITDTQY	8	56	3277
37	ASSVGRQETQY	10	1	7
37	ASSVLADTQY	8	1	5
37	ASSWGRQETQY	10	1	2
37	ASSYREPYEQY	12	1	1153
37	TSREGRSYEQY	12	1	4
37	TSSLATGLAASSYEQY	12	6	5
37	VSSGRPGDEQF	6	2	5
37	VSSSGTSYNEQF	6	1	12
38	ASGLATGLAASSYEQY	12	3	2
38	ASGLDGPGTGAYEQY	12	139	2
38	ASNLDGPGTGAYEQY	12	52	4
38	ASRADLGNNEQF	6	3	9
38	ASRKGQAYEQY	12	453	2
38	ASRTDLGNNEQF	6	218	4651
38	ASRTGLGNNEQF	6	1	7
38	ASSAYGTDTQY	8	2051	23
38	ASSFRGYQGTQY	8	3	1
38	ASSIDGPGTGAYEQY	12	13	1
38	ASSLAAGLAASSYEQY	12	3	1
38	ASSLAGPGTGAYEQY	12	2	6
38	ASSLATGLAASPYEQY	12	7	2
38	ASSLATGLAASSYEQY	12	1397	253
38	ASSLATVLAASSYEQY	12	2	2
38	ASSLDCPGTGAYEQY	12	87	1
38	ASSLDGAGTGAYEQY	12	29	1
38	ASSLDGPETGAYEQY	12	44	1
38	ASSLDGPGAGAYEQY	12	245	6
38	ASSLDGPGKGAYEQY	12	45	1
38	ASSLDGPGTGACEQY	12	118	1
38	ASSLDGPGTGAHEQY	12	107	3
38	ASSLDGPGTGAYEQY	12	80701	1865
38	ASSLDGPGTGAYEQY	6	126	2
38	ASSLDGPGTGDYEQY	12	39	3
38	ASSLDGPGTGTYEQY	12	44	1
38	ASSLDGPGTGVYEQY	12	64	1
38	ASSLDGPGTRAYEQY	12	52	1
38	ASSLDGPGTVAYEQY	12	19	5
38	ASSLDGPVTGAYEQY	12	40	2
38	ASSLDSPGTGAYEQY	12	67	1
38	ASSLEGPGTGAYEQY	12	96	2
38	ASSLGAAGGPDTQY	8	37	99
38	ASSLGGPGTGAYEQY	12	394	2
38	ASSLGSTYTYNEQF	6	4	1
38	ASSLLADTQY	8	1	1
38	ASSLLPSSFHEQF	6	47	2229
38	ASSLLPSSLHEQF	6	1	2
38	ASSLLTSGGLYEQF	6	2	1
38	ASSLMALSSYNEQF	6	453	1
38	ASSLRRGSTDTQY	8	55	16
38	ASSLSPRNEQF	6	54	1769
38	ASSLSTGLAASSYEQY	12	2	1
38	ASSLVGPGTGAYEQY	12	20	7
38	ASSPGTENEQF	6	1	1
38	ASSPGTSGASGGEQF	6	1	1
38	ASSPQGMHNEQF	6	126	1
38	ASSPVAGEEQY	12	53	640
38	ASSSADGYEQY	12	1	26
38	ASSSATGLAASSYEQY	12	5	1
38	ASSSDGPGTGAYEQY	12	70	4
38	TSSLDGPGTGAYEQY	12	47	1
39	ASSLATGLAASSYEQY	12	19	10
4	ASRKGQAYEQY	12	15	1
4	ASRPMTSGTTTYNEQF	6	3	1
4	ASSEQGGTDTQY	8	2	3242
4	ASSFRLAAGGSDTQY	8	24	255
4	ASSFVGTNQETQY	10	1	2
4	ASSLATGLAASSYEQY	12	122	114
4	ASSLDPGDYEQY	12	3	1
4	ASSLDRGAGNEQF	6	2	4997
4	ASSLDSGRTGSEQY	12	3	1
4	ASSLGGQNEQF	6	1	2
4	ASSLGGYDEQF	6	1	2
4	ASSLGTGGLNIQY	9	11	1
4	ASSLNPGDYEQY	12	1558	872
4	ASSLNPGGYEQY	12	4	1
4	ASSLQETQY	10	1	110
4	ASSLRGYEQY	12	2	1
4	ASSLRLAAGGSDTQY	8	1	3
4	ASSLTMGGRSYEQY	12	11	34
4	ASSLVGQNEQF	6	130	4173
4	ASSLVYGTGGSYNEQF	6	85	6
4	ASSRPQGAGELF	7	51	7
4	ASSSGTGIYEQY	12	5	1
4	ASSSYRGKADTQY	8	4	1
4	ASSVVGQNEQF	6	1	11
4	ATSQGGGENIQY	9	1279	5
40	AISSPNRVTSTDTQY	8	53	11
40	ARSSPNRVTSTDTQY	8	52	22
40	ASCSPNRVTSTDTQY	8	13	1
40	ASGLANMVGLNEQF	6	2	1
40	ASGLATGLAASSYEQY	12	2	2
40	ASGSPNRVTSTDTQY	8	189	32
40	ASISPNRVTSTDTQY	8	76	11
40	ASNSPNRVTSTDTQY	8	67	88
40	ASRKGQAYEQY	12	624	30
40	ASRSPNRVTSTDTQY	8	47	7
40	ASSAPNRVTSTDTQY	8	25	6
40	ASSHLNTDTQY	8	2	1
40	ASSLAFGTNGSGYEQF	6	8	1
40	ASSLAFGTSGSGHEQF	6	7	1
40	ASSLAFGTSGSGYEQF	6	16461	144
40	ASSLAFGTSGSGYEQY	6	30	1
40	ASSLANMVGLNEQF	6	152	794
40	ASSLATGLAASSCEQY	12	1	1
40	ASSLATGLAASSYEQY	12	312	159
40	ASSLEALPKYNEQF	6	16	1
40	ASSLGRRNEQF	6	2	1
40	ASSLIGQGIGDEQF	6	5	1
40	ASSLIGVSTHNEQF	6	11	6
40	ASSLNGGLAGRQETQY	10	10	1
40	ASSLPNRVTSTDTQY	8	108	31
40	ASSLVMADTQY	8	59	1
40	ASSPGDSSYNEQF	6	1	2
40	ASSPPNRVTSTDTQY	8	122	54
40	ASSPRGRGFDTQY	8	7	1
40	ASSRTSAQETQY	10	1408	1
40	ASSSANRVTSTDTQY	8	31	9
40	ASSSHNRVTSTDTQY	8	37	36
40	ASSSLNRVTSTDTQY	8	61	68
40	ASSSPDRVTSTDTQY	8	150	28
40	ASSSPIRVTSTDTQY	8	25	1
40	ASSSPKRVTSTDTQY	8	34	3
40	ASSSPNGVTSTDTQY	8	154	34
40	ASSSPNKVTSTDTQY	8	66	20
40	ASSSPNMVTSTDTQY	8	80	11
40	ASSSPNRATSTDTQY	8	128	43
40	ASSSPNRETSTDTQY	8	1	1
40	ASSSPNRGTSTDTQY	8	526	18
40	ASSSPNRITSTDTQY	8	166	19
40	ASSSPNRLTSTDTQY	8	304	15
40	ASSSPNRVASTDTQY	8	133	49
40	ASSSPNRVISTDTQY	8	51	14
40	ASSSPNRVNSTDTQY	8	35	6
40	ASSSPNRVPSTDTQY	8	5	2
40	ASSSPNRVSSTDTQY	8	48	7
40	ASSSPNRVTGTDTQY	8	141	38
40	ASSSPNRVTITDTQY	8	38	11
40	ASSSPNRVTNTDTQY	8	58	12
40	ASSSPNRVTRTDTQY	8	72	16
40	ASSSPNRVTSADTQY	8	208	50
40	ASSSPNRVTSIDTQY	8	40	6
40	ASSSPNRVTSKDTQY	8	32	9
40	ASSSPNRVTSPDTQY	8	7	2
40	ASSSPNRVTSRDTQY	8	23	3
40	ASSSPNRVTSSDTQY	8	26	6
40	ASSSPNRVTSTDTQY	10	15	6
40	ASSSPNRVTSTDTQY	8	98959	34350
40	ASSSPNRVTSTETQY	8	39	8
40	ASSSPNRVTSTGTQY	8	190	53
40	ASSSPNRVTTTDTQY	8	7	2
40	ASSSPNSVTSTDTQY	8	65	13
40	ASSSPNTVTSTDTQY	8	8	3
40	ASSSPNWVTSTDTQY	8	9	6
40	ASSSPTRVTSTDTQY	8	24	3
40	ASSSPYRVTSTDTQY	8	15	3
40	ASSSRNRVTSTDTQY	8	44	28
40	ASSSSNRVTSTDTQY	8	89	24
40	ASSSTNRVTSTDTQY	8	117	32
40	ASSTPNRVTSTDTQY	8	9	4
40	ASSWPNRVTSTDTQY	8	44	4
40	ASTSPNRVTSTDTQY	8	9	3
40	TSSSPNRVTSTDTQY	8	1274	36
40	VSSSPNRVTSTDTQY	8	100	68
41	ASSLATGLAASSYEQY	12	12	8
41	ASSPGGHEQY	12	136	2
41	ASSSPNRVTSTDTQY	8	139	47
41	ASSSQQGIGETQY	10	481	1178
42	AIGLATGLAASSYEQY	12	2	2
42	AIILATGLAASSYEQY	12	2	5
42	AIRPGLASDEQF	6	9	3
42	AISLAAGLAASSYEQY	12	5	4
42	AISLAKGLAASSYEQY	12	1	1
42	AISLAMGLAASSYEQY	12	1	1
42	AISLATGLAANSYEQY	12	3	1
42	AISLATGLAASPYEQY	12	3	3
42	AISLATGLAASSCEQY	12	2	2
42	AISLATGLAASSHEQY	12	2	2
42	AISLATGLAASSYEQY	12	2039	1308
42	AISLATGLAASSYEQY	6	2	1
42	AISLATGPAASSYEQY	12	6	2
42	AISLSTGLAASSYEQY	12	1	1
42	AISSATGLAASSYEQY	12	3	2
42	ARGLATGLAASSYEQY	12	27	44
42	ARRLATGLAASSYEQY	12	2	3
42	ARSLAAGLAASSYEQY	12	6	5
42	ARSLATGIAASSYEQY	12	2	3
42	ARSLATGLAASSCEQY	12	2	3
42	ARSLATGLAASSYEQY	12	1466	1806
42	ARSLATGLAASSYEQY	6	3	1
42	ARSLATGLADSSYEQY	12	1	1
42	ARSLATGLTASSYEQY	12	3	1
42	ARSLATGPAASSYEQY	12	6	3
42	ARSLATRLAASSYEQY	12	1	3
42	ARSLVTGLAASSYEQY	12	4	3
42	ARSSATGLAASSYEQY	12	1	3
42	ASCLATGLAASSYEQY	12	222	517
42	ASCLATRLAASSYEQY	12	1	1
42	ASDLATGLAASSYEQY	12	24	16
42	ASGFYDGAYEQY	12	1	1
42	ASGLAAGLAASSYEQY	12	10	18
42	ASGLAKGLAASSYEQY	12	3	6
42	ASGLAMGLAASSYEQY	12	7	18
42	ASGLARGLAASSYEQY	12	3	5
42	ASGLATELAASSYEQY	12	2	7
42	ASGLATGLAAGSYEQY	12	12	21
42	ASGLATGLAANSYEQY	12	7	10
42	ASGLATGLAARSYEQY	12	1	2
42	ASGLATGLAASFYEQY	12	6	5
42	ASGLATGLAASPYEQY	12	15	18
42	ASGLATGLAASSCEQY	12	9	15
42	ASGLATGLAASSDEQY	12	2	2
42	ASGLATGLAASSHEQY	12	9	11
42	ASGLATGLAASSYEQY	12	4935	9009
42	ASGLATGLAASSYEQY	6	5	8
42	ASGLATGLADSSYEQY	12	2	1
42	ASGLATGLAGSSYEQY	12	3	3
42	ASGLATGLASSSYEQY	12	3	2
42	ASGLATGLATSSYEQY	12	4	7
42	ASGLATGLAVSSYEQY	12	8	6
42	ASGLATGLEASSYEQY	12	3	4
42	ASGLATGLTASSYEQY	12	14	3
42	ASGLATGLVASSYEQY	12	11	4
42	ASGLATGPAASSYEQY	12	8	10
42	ASGLATRLAASSYEQY	12	2	12
42	ASGLETGLAASSYEQY	12	3	3
42	ASGLSTGLAASSYEQY	12	7	4
42	ASGLTTGLAASSYEQY	12	4	7
42	ASGLVTGLAASSYEQY	12	6	8
42	ASGSATGLAASSYEQY	12	9	6
42	ASGVATGLAASSYEQY	12	2	1
42	ASILAAGLAASSYEQY	12	9	3
42	ASILAKGLAASSYEQY	12	2	1
42	ASILAMGLAASSYEQY	12	1	3
42	ASILATGLAAGSYEQY	12	5	3
42	ASILATGLAANSYEQY	12	1	1
42	ASILATGLAASSCEQY	12	8	5
42	ASILATGLAASSHEQY	12	3	4
42	ASILATGLAASSYEQY	12	2211	1161
42	ASILATGLAPSSYEQY	12	1	1
42	ASILATGLEASSYEQY	12	2	1
42	ASILATVLAASSYEQY	12	5	2
42	ASILETGLAASSYEQY	12	1	1
42	ASILSTGLAASSYEQY	12	7	2
42	ASILVTGLAASSYEQY	12	2	3
42	ASISATGLAASSYEQY	12	4	1
42	ASIVATGLAASSYEQY	12	1	1
42	ASKLATGLAASSYEQY	12	181	65
42	ASMKGQAYEQY	12	9	1
42	ASMLATGLAASSYEQY	12	136	116
42	ASNLAAGLAASSYEQY	12	8	10
42	ASNLAMGLAASSYEQY	12	5	6
42	ASNLASGLAASSYEQY	12	2	1
42	ASNLATGLAAGSYEQY	12	8	5
42	ASNLATGLAAISYEQY	12	1	3
42	ASNLATGLAANSYEQY	12	1	4
42	ASNLATGLAASPYEQY	12	6	7
42	ASNLATGLAASSHEQY	12	2	3
42	ASNLATGLAASSYEQY	12	1940	3044
42	ASNLATGLAASSYEQY	6	3	1
42	ASNLATGLAVSSYEQY	12	5	1
42	ASNLATGLVASSYEQY	12	3	3
42	ASNLATGPAASSYEQY	12	7	2
42	ASNLATRLAASSYEQY	12	2	4
42	ASNLTTGLAASSYEQY	12	1	16
42	ASNLVTGLAASSYEQY	12	3	5
42	ASNSATGLAASSYEQY	12	3	1
42	ASREGRSYEQY	12	45	43
42	ASRIATGLAASSYEQY	12	2	3
42	ASRKGQAYEQY	12	2609	193
42	ASRKGQDYEQY	12	12	1
42	ASRKRQAYEQY	12	2	1
42	ASRLAAGLAASSYEQY	12	3	10
42	ASRLADSLYNEQF	6	6	1
42	ASRLATGLAAGSYEQY	12	5	2
42	ASRLATGLAASFYEQY	12	1	1
42	ASRLATGLAASPYEQY	12	9	5
42	ASRLATGLAASSCEQY	12	3	1
42	ASRLATGLAASSHEQY	12	3	1
42	ASRLATGLAASSYEQY	12	1463	1735
42	ASRLATGLAASSYEQY	6	1	3
42	ASRLATGLAASYYEQY	12	2	3
42	ASRLATRLAASSYEQY	12	1	2
42	ASRLETGLAASSYEQY	12	1	2
42	ASRLGTGLAASSYEQY	12	1	3
42	ASRSATGLAASSYEQY	12	3	2
42	ASRVATGLAASSYEQY	12	10	2
42	ASSCATGLAASSYEQY	12	29	2
42	ASSENWGLSYEQY	12	2	2
42	ASSFAAGLAASSYEQY	12	2	3
42	ASSFATGLAASPYEQY	12	4	2
42	ASSFATGLAASSHEQY	12	2	1
42	ASSFATGLAASSYEQY	12	1287	749
42	ASSFATGLAVSSYEQY	12	1	1
42	ASSFATGLVASSYEQY	12	2	3
42	ASSFGSDTQY	8	65	1926
42	ASSFGTGLAASSYEQY	12	1	1
42	ASSFRGGRDNEQF	6	2	3
42	ASSFRRGRDNEQF	6	196	2011
42	ASSFRTSGRTDTYNEQF	6	2	1
42	ASSFSTGLAASSYEQY	12	1	2
42	ASSFTHAQETQY	10	1	4
42	ASSFVGLLETQY	10	3	44
42	ASSFVGTNQETQY	10	9	8
42	ASSFYDGAYEQY	12	114	46
42	ASSGGQGFQETQY	10	3	3
42	ASSGRPGDEQF	6	5	22
42	ASSIAMGLAASSYEQY	12	1	3
42	ASSIATGLAASPYEQY	12	1	3
42	ASSIATGLAASSYEQY	12	501	1138
42	ASSIATGLAASSYEQY	6	2	1
42	ASSIATGLGASSYEQY	12	1	1
42	ASSIATGLTASSYEQY	12	1	1
42	ASSIRTSGRANEQF	6	1	4
42	ASSLAAELAASSYEQY	12	5	5
42	ASSLAAGIAASSYEQY	12	7	5
42	ASSLAAGLAAGSYEQY	12	16	40
42	ASSLAAGLAAISYEQY	12	3	3
42	ASSLAAGLAANSYEQY	12	9	6
42	ASSLAAGLAARSYEQY	12	3	8
42	ASSLAAGLAASFYEQY	12	9	4
42	ASSLAAGLAASPYEQY	12	11	21
42	ASSLAAGLAASSCEQY	12	10	9
42	ASSLAAGLAASSHEQY	12	14	6
42	ASSLAAGLAASSYEQY	12	7085	9515
42	ASSLAAGLAASSYEQY	6	3	13
42	ASSLAAGLAASTYEQY	12	1	9
42	ASSLAAGLAASYYEQY	12	3	4
42	ASSLAAGLADSSYEQY	12	4	4
42	ASSLAAGLASSSYEQY	12	2	1
42	ASSLAAGLATSSYEQY	12	5	3
42	ASSLAAGLAVSSYEQY	12	5	2
42	ASSLAAGLEASSYEQY	12	4	2
42	ASSLAAGLGASSYEQY	12	2	2
42	ASSLAAGLTASSYEQY	12	12	216
42	ASSLAAGLVASSYEQY	12	7	11
42	ASSLAAGPAASSYEQY	12	15	10
42	ASSLAAGRAASSYEQY	12	2	5
42	ASSLAAGVAASSYEQY	12	2	2
42	ASSLAARLAASSYEQY	12	8	11
42	ASSLAAVLAASSYEQY	12	10	6
42	ASSLAEGLAASSYEQY	12	30	22
42	ASSLAFGTSGSGYEQF	6	79	1
42	ASSLAGGLAASSYEQY	12	2	12
42	ASSLAIGLAASSYEQY	12	4	9
42	ASSLAKGLAACSYEQY	12	1	1
42	ASSLAKGLAAGSYEQY	12	1	7
42	ASSLAKGLAASPYEQY	12	5	9
42	ASSLAKGLAASSCEQY	12	6	5
42	ASSLAKGLAASSYEQY	12	1192	3154
42	ASSLAKGLAVSSYEQY	12	1	4
42	ASSLAKGLTASSYEQY	12	3	3
42	ASSLAKGPAASSYEQY	12	2	5
42	ASSLAKRLAASSYEQY	12	6	2
42	ASSLAMELAASSYEQY	12	1	3
42	ASSLAMGLAAGSYEQY	12	5	11
42	ASSLAMGLAANSYEQY	12	3	5
42	ASSLAMGLAASAYEQY	12	1	3
42	ASSLAMGLAASPYEQY	12	5	21
42	ASSLAMGLAASSCEQY	12	3	14
42	ASSLAMGLAASSHEQY	12	5	7
42	ASSLAMGLAASSYEQY	12	3140	8381
42	ASSLAMGLAASSYEQY	6	5	1
42	ASSLAMGLADSSYEQY	12	1	4
42	ASSLAMGLPASSYEQY	12	5	1
42	ASSLAMGLSASSYEQY	12	3	4
42	ASSLAMGLTASSYEQY	12	3	3
42	ASSLAMGLVASSYEQY	12	3	12
42	ASSLAMGPAASSYEQY	12	3	9
42	ASSLAMGRAASSYEQY	12	3	2
42	ASSLAMRLAASSYEQY	12	1	10
42	ASSLAMVLAASSYEQY	12	2	2
42	ASSLAPGLAASSYEQY	12	168	239
42	ASSLAQGAFTDTQY	8	6066	630
42	ASSLAQGALTDTQY	8	10	1
42	ASSLARELAASSYEQY	12	1	1
42	ASSLARGLAASSCEQY	12	3	3
42	ASSLARGLAASSHEQY	12	2	6
42	ASSLARGLAASSYEQY	12	937	1848
42	ASSLARGLATSSYEQY	12	2	2
42	ASSLARGLTASSYEQY	12	1	2
42	ASSLARGLVASSYEQY	12	1	1
42	ASSLARGPAASSYEQY	12	2	3
42	ASSLARRLAASSYEQY	12	1	3
42	ASSLASGLAASSYEQY	12	760	747
42	ASSLASGPAASSYEQY	12	2	1
42	ASSLATALAANSYEQY	12	1	1
42	ASSLATALAASPYEQY	12	1	1
42	ASSLATALAASSYEQY	12	448	312
42	ASSLATELAAGSYEQY	12	3	6
42	ASSLATELAANSYEQY	12	1	2
42	ASSLATELAASPYEQY	12	4	4
42	ASSLATELAASSCEQY	12	3	4
42	ASSLATELAASSHEQY	12	3	3
42	ASSLATELAASSYEQY	12	2313	2451
42	ASSLATELAASSYEQY	6	3	2
42	ASSLATELAASTYEQY	12	2	1
42	ASSLATELVASSYEQY	12	2	7
42	ASSLATGAAASSYEQY	12	1	2
42	ASSLATGAFTDTQY	8	4	1
42	ASSLATGIAAGSYEQY	12	8	5
42	ASSLATGIAANSYEQY	12	3	4
42	ASSLATGIAARSYEQY	12	5	2
42	ASSLATGIAASPYEQY	12	3	7
42	ASSLATGIAASSYEQY	12	2123	2703
42	ASSLATGIAASTYEQY	12	1	2
42	ASSLATGIATSSYEQY	12	2	2
42	ASSLATGIAVSSYEQY	12	2	2
42	ASSLATGIVASSYEQY	12	2	1
42	ASSLATGLAACPYEQY	12	1	2
42	ASSLATGLAACSYEQY	12	262	434
42	ASSLATGLAADSYEQY	12	4	5
42	ASSLATGLAAGFYEQY	12	5	1
42	ASSLATGLAAGPYEQY	12	18	12
42	ASSLATGLAAGSCEQY	12	12	12
42	ASSLATGLAAGSDEQY	12	2	1
42	ASSLATGLAAGSHEQY	12	4	9
42	ASSLATGLAAGSYEQY	12	6302	7957
42	ASSLATGLAAGSYEQY	6	7	15
42	ASSLATGLAAGYYEQY	12	1	4
42	ASSLATGLAAIPYEQY	12	8	10
42	ASSLATGLAAISYEQY	12	908	889
42	ASSLATGLAANFYEQY	12	1	2
42	ASSLATGLAANPYEQY	12	7	9
42	ASSLATGLAANSCEQY	12	7	2
42	ASSLATGLAANSHEQY	12	5	3
42	ASSLATGLAANSYEQY	12	2269	2834
42	ASSLATGLAARFYEQY	12	1	2
42	ASSLATGLAARPYEQY	12	8	5
42	ASSLATGLAARSCEQY	12	3	3
42	ASSLATGLAARSYEQY	12	1829	1863
42	ASSLATGLAARSYEQY	6	5	2
42	ASSLATGLAASAHEQY	12	2	1
42	ASSLATGLAASAYEQY	12	851	580
42	ASSLATGLAASCHEQY	12	2	2
42	ASSLATGLAASCYEQY	12	836	425
42	ASSLATGLAASFYEQY	12	1566	1956
42	ASSLATGLAASHYEQY	12	2	3
42	ASSLATGLAASLYEQY	12	5	11
42	ASSLATGLAASNYEQY	12	1	2
42	ASSLATGLAASPCEQY	12	17	7
42	ASSLATGLAASPDEQY	12	3	1
42	ASSLATGLAASPHEQY	12	1	17
42	ASSLATGLAASPYEQY	12	7049	9157
42	ASSLATGLAASPYEQY	6	9	8
42	ASSLATGLAASSCEQY	12	5027	6005
42	ASSLATGLAASSCEQY	6	5	2
42	ASSLATGLAASSDEQY	12	921	647
42	ASSLATGLAASSFEQY	12	85	135
42	ASSLATGLAASSGEQY	12	3	3
42	ASSLATGLAASSHEQY	12	3669	5246
42	ASSLATGLAASSHEQY	6	1	4
42	ASSLATGLAASSNEQF	6	1	2
42	ASSLATGLAASSNEQY	12	379	357
42	ASSLATGLAASSREQY	12	11	10
42	ASSLATGLAASSSEQY	12	165	162
42	ASSLATGLAASSWEQY	12	2	6
42	ASSLATGLAASSYEQF	6	45	63
42	ASSLATGLAASSYEQY	12	2661551	3977362
42	ASSLATGLAASSYEQY	6	3316	4330
42	ASSLATGLAASSYNEQF	6	8	12
42	ASSLATGLAASTYEQY	12	410	975
42	ASSLATGLAASYYEQY	12	833	874
42	ASSLATGLAATSYEQY	12	131	130
42	ASSLATGLADGSYEQY	12	3	5
42	ASSLATGLADSSCEQY	12	1	1
42	ASSLATGLADSSYEQY	12	724	766
42	ASSLATGLAESSYEQY	12	3	1
42	ASSLATGLAFSSYEQY	12	1	1
42	ASSLATGLAGSSYEQY	12	907	682
42	ASSLATGLAISSYEQY	12	6	3
42	ASSLATGLAPSSYEQY	12	330	332
42	ASSLATGLASDEQF	6	1	3
42	ASSLATGLASRSYEQY	12	2	1
42	ASSLATGLASSSHEQY	12	1	1
42	ASSLATGLASSSYEQY	12	1016	880
42	ASSLATGLASSSYEQY	6	1	2
42	ASSLATGLATGSYEQY	12	6	5
42	ASSLATGLATSPYEQY	12	5	5
42	ASSLATGLATSSCEQY	12	3	3
42	ASSLATGLATSSYEQY	12	2178	3376
42	ASSLATGLATSTYEQY	12	2	1
42	ASSLATGLAVGSYEQY	12	6	7
42	ASSLATGLAVSFYEQY	12	1	2
42	ASSLATGLAVSPYEQY	12	11	7
42	ASSLATGLAVSSCEQY	12	4	4
42	ASSLATGLAVSSDEQY	12	4	1
42	ASSLATGLAVSSHEQY	12	3	3
42	ASSLATGLAVSSYEQY	12	2290	4301
42	ASSLATGLAVSSYEQY	6	4	4
42	ASSLATGLEASPYEQY	12	4	2
42	ASSLATGLEASSYEQY	12	1113	1219
42	ASSLATGLEASSYEQY	6	2	3
42	ASSLATGLGASSYEQY	12	908	823
42	ASSLATGLMASSYEQY	12	10	3
42	ASSLATGLPAGSYEQY	12	11	1
42	ASSLATGLPASSYEQY	12	3145	79
42	ASSLATGLRASSYEQY	12	97	29
42	ASSLATGLSAGSYEQY	12	5	2
42	ASSLATGLSASPYEQY	12	10	1
42	ASSLATGLSASSYEQY	12	3050	678
42	ASSLATGLSSSSYEQY	12	3	2
42	ASSLATGLTAGSYEQY	12	13	2
42	ASSLATGLTANSYEQY	12	4	3
42	ASSLATGLTASPYEQY	12	13	7
42	ASSLATGLTASSYEQY	12	4484	2224
42	ASSLATGLTASSYEQY	6	1	1
42	ASSLATGLVACSYEQY	12	2	1
42	ASSLATGLVAGSYEQY	12	4	11
42	ASSLATGLVAISYEQY	12	3	2
42	ASSLATGLVASPYEQY	12	7	10
42	ASSLATGLVASSCEQY	12	5	9
42	ASSLATGLVASSHEQY	12	3	11
42	ASSLATGLVASSYEQY	12	3408	5201
42	ASSLATGLVASYYEQY	12	1	5
42	ASSLATGLVDSSYEQY	12	1	1
42	ASSLATGLWASSYEQY	12	39	16
42	ASSLATGMAASSYEQY	12	9	2
42	ASSLATGPAAGSYEQY	12	7	14
42	ASSLATGPAANSYEQY	12	8	5
42	ASSLATGPAARSYEQY	12	1	3
42	ASSLATGPAASPYEQY	12	11	11
42	ASSLATGPAASSCEQY	12	10	11
42	ASSLATGPAASSHEQY	12	3	9
42	ASSLATGPAASSYEQY	12	5272	7430
42	ASSLATGPAASSYEQY	6	6	3
42	ASSLATGPADSSYEQY	12	1	1
42	ASSLATGPASSSYEQY	12	2	1
42	ASSLATGPATSSYEQY	12	4	6
42	ASSLATGPAVSSYEQY	12	6	7
42	ASSLATGPEASSYEQY	12	2	1
42	ASSLATGPPASSYEQY	12	10	1
42	ASSLATGPSASSYEQY	12	8	4
42	ASSLATGPTASSYEQY	12	9	4
42	ASSLATGPVASSYEQY	12	6	6
42	ASSLATGQAASSYEQY	12	200	537
42	ASSLATGRAASSYEQY	12	1021	742
42	ASSLATGSAASSYEQY	12	8	3
42	ASSLATGTAASSYEQY	12	9	5
42	ASSLATGVAASSYEQY	12	915	534
42	ASSLATILAASSYEQY	12	7	13
42	ASSLATKLAASSYEQY	12	2	4
42	ASSLATRLAAGSYEQY	12	4	6
42	ASSLATRLAANSYEQY	12	2	6
42	ASSLATRLAARSYEQY	12	4	7
42	ASSLATRLAASPYEQY	12	5	10
42	ASSLATRLAASSCEQY	12	1	13
42	ASSLATRLAASSDEQY	12	1	3
42	ASSLATRLAASSHEQY	12	2	5
42	ASSLATRLAASSYEQY	12	2754	6130
42	ASSLATRLAASSYEQY	6	4	6
42	ASSLATRLATSSYEQY	12	5	5
42	ASSLATRLAVSSYEQY	12	3	6
42	ASSLATRLEASSYEQY	12	5	1
42	ASSLATRLTASSYEQY	12	3	2
42	ASSLATRPAASSYEQY	12	6	7
42	ASSLATRRAASSYEQY	12	1	3
42	ASSLATVLAAGSYEQY	12	9	6
42	ASSLATVLAARSYEQY	12	1	2
42	ASSLATVLAASPYEQY	12	10	7
42	ASSLATVLAASSCEQY	12	8	4
42	ASSLATVLAASSHEQY	12	3	4
42	ASSLATVLAASSYEQY	12	3400	2242
42	ASSLATVLAASSYEQY	6	3	2
42	ASSLATVLTASSYEQY	12	9	1
42	ASSLATWLAASSYEQY	12	7	2
42	ASSLAVGLAASSYEQY	12	28	20
42	ASSLDGPGTGAYEQY	12	778	18
42	ASSLEAGLAASSYEQY	12	5	10
42	ASSLEGTSGTADEQF	6	2	2
42	ASSLEMGLAASSYEQY	12	4	4
42	ASSLEQGAFTDTQY	8	4	1
42	ASSLERIPYEQY	12	1	1
42	ASSLETGLAAGSYEQY	12	4	1
42	ASSLETGLAASPYEQY	12	3	1
42	ASSLETGLAASSCEQY	12	1	1
42	ASSLETGLAASSYEQY	12	954	1155
42	ASSLETGLATSSYEQY	12	1	2
42	ASSLGAGAYEQY	12	7	939
42	ASSLGAGLAASSYEQY	12	7	10
42	ASSLGAHPNEQF	6	1	5
42	ASSLGRGRETQY	10	1	1
42	ASSLGTGLAAGSYEQY	12	4	1
42	ASSLGTGLAANSYEQY	12	1	3
42	ASSLGTGLAASPYEQY	12	2	4
42	ASSLGTGLAASSCEQY	12	2	1
42	ASSLGTGLAASSHEQY	12	2	1
42	ASSLGTGLAASSYEQY	12	912	753
42	ASSLGTGLVASSYEQY	12	1	3
42	ASSLGTRLAASSYEQY	12	2	2
42	ASSLIGVSTHNEQF	6	44	21
42	ASSLISALPGSYEQY	12	1	1
42	ASSLLADTQY	8	3	35
42	ASSLLFSAGVSYEQY	12	1	3
42	ASSLNPGDYEQY	12	3	1
42	ASSLPQGAFTDTQY	8	1	1
42	ASSLPTGLAASSYEQY	12	99	63
42	ASSLRTGLAASSYEQY	12	158	69
42	ASSLSAGLAASSYEQY	12	7	3
42	ASSLSPPYNEQF	6	14	16
42	ASSLSTGLAASPYEQY	12	13	4
42	ASSLSTGLAASSHEQY	12	3	3
42	ASSLSTGLAASSYEQY	12	2317	1261
42	ASSLSTGLAASSYEQY	6	3	1
42	ASSLSTGLAVSSYEQY	12	5	5
42	ASSLSTGPAASSYEQY	12	4	5
42	ASSLSTRLAASSYEQY	12	3	3
42	ASSLTAGLAASSYEQY	12	4	6
42	ASSLTHAQDTQY	10	1	2
42	ASSLTHAQETQY	10	168	4281
42	ASSLTMGLAASSYEQY	12	2	7
42	ASSLTSGRYNEQF	6	2	2
42	ASSLTTELAASSYEQY	12	3	1
42	ASSLTTGIAASSYEQY	12	1	1
42	ASSLTTGLAAGSYEQY	12	3	5
42	ASSLTTGLAASSCEQY	12	2	5
42	ASSLTTGLAASSHEQY	12	3	2
42	ASSLTTGLAASSYEQY	12	1707	2999
42	ASSLTTGLAASTYEQY	12	1	3
42	ASSLTTGLEASSYEQY	12	1	2
42	ASSLTTGLVASSYEQY	12	2	2
42	ASSLTTRLAASSYEQY	12	1	3
42	ASSLTTVLAASSYEQY	12	2	2
42	ASSLVAGLAASSYEQY	12	16	7
42	ASSLVALGETQY	10	640	127
42	ASSLVKGLAASSYEQY	12	4	7
42	ASSLVMGLAASSYEQY	12	4	6
42	ASSLVTGIAASSYEQY	12	5	6
42	ASSLVTGLAAGSYEQY	12	10	9
42	ASSLVTGLAARSYEQY	12	3	2
42	ASSLVTGLAASPYEQY	12	9	8
42	ASSLVTGLAASSCEQY	12	15	6
42	ASSLVTGLAASSDEQY	12	1	1
42	ASSLVTGLAASSYEQY	12	5513	4364
42	ASSLVTGLAASSYEQY	6	4	3
42	ASSLVTGLADSSYEQY	12	3	1
42	ASSLVTGLASSSYEQY	12	2	2
42	ASSLVTGLATSSYEQY	12	3	2
42	ASSLVTGLSASSYEQY	12	2	3
42	ASSLVTGLVASSYEQY	12	8	6
42	ASSLVTGPAASSYEQY	12	9	4
42	ASSLVTLGETQY	10	1	2
42	ASSLVTRLAASSYEQY	12	3	5
42	ASSLVTVLAASSYEQY	12	5	2
42	ASSLWTGLAASSYEQY	12	96	81
42	ASSLYTIGNAGTQY	10	2	3
42	ASSPALREGGTDTQY	8	692	199
42	ASSPATGLAASSYEQY	12	10	7
42	ASSPGLAGGGTQY	8	42	686
42	ASSPKSGVEQF	6	421	1
42	ASSPLVVEETQY	10	3	2
42	ASSPNAGNEQF	6	333	109
42	ASSPNGGSPYNEQF	6	4	1
42	ASSPNGGSSHNEQF	6	4	1
42	ASSPNGGSSYDEQF	6	24	1
42	ASSPNGGSSYNEQF	6	5504	190
42	ASSPNGGSSYNEQY	6	3	1
42	ASSRATGLAASSYEQY	12	5	3
42	ASSRQDASYEQY	12	1	2
42	ASSRTDSQETQY	10	24	229
42	ASSSAAGLAASSYEQY	12	7	2
42	ASSSAKGLAASSYEQY	12	1	3
42	ASSSATALAASSYEQY	12	1	2
42	ASSSATGIAASSYEQY	12	7	2
42	ASSSATGLAAGSYEQY	12	9	5
42	ASSSATGLAASAYEQY	12	3	2
42	ASSSATGLAASPYEQY	12	24	7
42	ASSSATGLAASSCEQY	12	10	3
42	ASSSATGLAASSHEQY	12	7	3
42	ASSSATGLAASSYEQY	12	4599	3643
42	ASSSATGLAASSYEQY	6	9	2
42	ASSSATGLAGSSYEQY	12	5	2
42	ASSSATGLAVSSYEQY	12	3	3
42	ASSSATGLPASSYEQY	12	9	1
42	ASSSATGLTASSYEQY	12	6	2
42	ASSSATGLVASSYEQY	12	4	1
42	ASSSATGPAASSYEQY	12	13	4
42	ASSSATVLAASSYEQY	12	8	2
42	ASSSGTSYNEQF	6	7	42
42	ASSSHPGGSYNEQF	6	2	24
42	ASSSNKPYEQY	12	3	5
42	ASSSPNRLTSTDTQY	8	1	1
42	ASSSPNRVTSTDTQY	8	236	60
42	ASSSPSGLSTDTQY	8	1	9
42	ASSSSTGLAASSYEQY	12	7	7
42	ASSSTHAQETQY	10	1	5
42	ASSSTTGLAASSYEQY	12	2	1
42	ASSSYNFEQF	6	3	4
42	ASSTQGAFPGNTIY	2	153	33
42	ASSVAAGLAASSYEQY	12	4	5
42	ASSVATGLAASSCEQY	12	2	1
42	ASSVATGLAASSYEQY	12	1357	811
42	ASSVATGLAVSSYEQY	12	1	1
42	ASSVATGRAASSYEQY	12	1	1
42	ASSVATRLAASSYEQY	12	1	1
42	ASSYNSDYYNEQF	6	308	352
42	ASSYNSGYYNEQF	6	4	1
42	ASTARRGQGQETQY	10	1	2
42	ASTIFNTGELF	7	2	36
42	ASTLATGLAASSYEQY	12	186	195
42	ASVLATGLAASSYEQY	12	57	7
42	ATSLATGLAASSYEQY	12	183	232
42	ATWTRGQETQY	10	1	3
42	TSGLATGLAASSYEQY	12	15	3
42	TSSIATGLAASSYEQY	12	2	1
42	TSSLAQGAFTDTQY	8	2	2
42	TSSLATGLAAGSYEQY	12	8	3
42	TSSLATGLAASPYEQY	12	13	6
42	TSSLATGLAASSHEQY	12	7	5
42	TSSLATGLAASSYEQY	12	6395	2502
42	TSSLATGLSASSYEQY	12	6	1
42	TSSLATGLTASSYEQY	12	6	2
42	TSSLATGLVASSYEQY	12	4	3
42	TSSLATGPAASSYEQY	12	12	2
42	TSSLATVLAASSYEQY	12	3	1
42	TSSSATGLAASSYEQY	12	9	2
42	VSGLATGLAASSYEQY	12	3	6
42	VSRKGQAYEQY	12	4	1
42	VSRLATGLAASSYEQY	12	1	3
42	VSSLAAGLAASSYEQY	12	8	8
42	VSSLAKGLAASSYEQY	12	4	3
42	VSSLAMGLAASSYEQY	12	2	5
42	VSSLATELAASSYEQY	12	9	2
42	VSSLATGLAAGSYEQY	12	8	7
42	VSSLATGLAAISYEQY	12	5	1
42	VSSLATGLAASPYEQY	12	3	7
42	VSSLATGLAASSCEQY	12	7	9
42	VSSLATGLAASSDEQY	12	1	2
42	VSSLATGLAASSHEQY	12	3	6
42	VSSLATGLAASSYEQY	12	2947	3144
42	VSSLATGLATSSYEQY	12	2	4
42	VSSLATGLAVSSYEQY	12	1	3
42	VSSLATGLTASSYEQY	12	4	1
42	VSSLATGLVASSYEQY	12	4	2
42	VSSLATGPAASSYEQY	12	9	4
42	VSSLATGVAASSYEQY	12	3	1
42	VSSLATRLAASSYEQY	12	2	5
42	VSSLATVLAASSYEQY	12	2	4
42	VSSLETGLAASSYEQY	12	2	3
42	VSSLSTGLAASSYEQY	12	5	3
42	VSSPNGGSSYNEQF	6	4	1
42	VSSSATGLAASSYEQY	12	3	2
43	AIRKGQAYEQY	12	1244	27
43	AIRKGQTYEQY	12	1	2
43	AISLIGVSTHNEQF	6	15	4
43	ARRKGQAYEQY	12	936	173
43	ARRRGQAYEQY	12	1	2
43	ARSLIGVSTHNEQF	6	15	1
43	ASGKGQACEQY	12	8	1
43	ASGKGQAHEQY	12	9	1
43	ASGKGQAYEQY	12	3670	144
43	ASGLATGLAASSYEQY	12	7	6
43	ASGLIGVSTHNEQF	6	25	18
43	ASGPNLYNEQF	6	2	42
43	ASGSDLYNEQF	6	1	14
43	ASGSNLYNEQF	6	276	7735
43	ASILIGVSTHNEQF	6	27	3
43	ASKKGQAYEQY	12	1322	91
43	ASMKGQAYEQY	12	967	37
43	ASNLIGVSTHNEQF	6	6	3
43	ASREGQAYEQY	12	5813	200
43	ASREGRSYEQY	12	27	3
43	ASRKAQAYEQY	12	239	6
43	ASRKEQAYEQY	12	945	59
43	ASRKGEAYEQY	12	386	17
43	ASRKGHAYEQY	12	621	32
43	ASRKGKAYEQY	12	869	268
43	ASRKGLAASSYEQY	12	1	1
43	ASRKGLAYEQY	12	411	141
43	ASRKGPAYEQY	12	154	4
43	ASRKGQACEQY	12	2110	90
43	ASRKGQADEQY	12	393	13
43	ASRKGQAFEQY	12	53	2
43	ASRKGQAHEQY	12	2248	125
43	ASRKGQANEQY	12	216	18
43	ASRKGQASEQY	12	78	5
43	ASRKGQAYEQF	6	39	2
43	ASRKGQAYEQY	12	1304554	83921
43	ASRKGQAYEQY	6	1586	70
43	ASRKGQDHEQY	12	3	1
43	ASRKGQDYEQY	12	651	45
43	ASRKGQGYEQY	12	673	26
43	ASRKGQPYEQY	12	166	10
43	ASRKGQSYEQY	12	1143	42
43	ASRKGQTYEQY	12	951	89
43	ASRKGQVYEQY	12	1018	63
43	ASRKGRAYEQY	12	3977	232
43	ASRKRQAYEQY	12	2600	61
43	ASRKVQAYEQY	12	1064	41
43	ASRLIGQGIGDEQF	6	20	1
43	ASRLIGVSTHNEQF	6	36	5
43	ASRMGQAYEQY	12	101	5
43	ASRNGQAYEQY	12	3489	27
43	ASRQGQAYEQY	12	2608	92
43	ASRRGQACEQY	12	6	1
43	ASRRGQAYEQY	12	3800	229
43	ASRRGRAYEQY	12	15	1
43	ASRRRQAYEQY	12	5	1
43	ASRTGQAYEQY	12	155	9
43	ASSDTLRDTQY	8	3	1
43	ASSEGQGAKNSPLH	5	109	570
43	ASSEKWGLSYEQY	12	3	1
43	ASSENRGLSYEQY	12	2	1
43	ASSENWGLSYEQY	12	791	1160
43	ASSENWGPSYEQY	12	8	2
43	ASSESWGLSYEQY	12	2	3
43	ASSFVGTNQETQY	10	3	1
43	ASSGGLSQNEQF	6	468	4080
43	ASSGGLSQNEQL	6	2	15
43	ASSGGLSRNEQF	6	2	11
43	ASSGPRGDNEQF	6	1	6
43	ASSGPRGGNEQF	6	281	7089
43	ASSGPRGGNEQL	6	2	55
43	ASSGRLSQNEQF	6	4	5
43	ASSGRRGGNEQF	6	1	2
43	ASSIIAGGPLTNEQF	6	3	1
43	ASSIRTSGRANEQF	6	151	1470
43	ASSKGQAYEQY	12	774	38
43	ASSLAMGLAASSYEQY	12	4	2
43	ASSLAQGGADTQY	8	361	457
43	ASSLARGLAASSYEQY	12	1	1
43	ASSLATELAASSYEQY	12	2	1
43	ASSLATGLAAGSYEQY	12	5	1
43	ASSLATGLAANSYEQY	12	3	2
43	ASSLATGLAARSYEQY	12	5	2
43	ASSLATGLAASAYEQY	12	3	1
43	ASSLATGLAASPYEQY	12	13	3
43	ASSLATGLAASSYEQY	12	4271	1297
43	ASSLATGLAASSYEQY	6	10	1
43	ASSLATGLADSSYEQY	12	3	1
43	ASSLATGLATSSYEQY	12	4	5
43	ASSLATGLAVSSYEQY	12	2	1
43	ASSLATGLEASSYEQY	12	2	1
43	ASSLATGRAASSYEQY	12	2	1
43	ASSLATLVSDTQY	8	7	1
43	ASSLATRLAASSYEQY	12	1	1
43	ASSLDGPGTGAYEQY	12	305	3
43	ASSLERIPYEQY	12	558	134
43	ASSLFAGRRDTYYNEQF	6	14	1
43	ASSLGGLAKNIQY	9	1	1
43	ASSLGGLTEQF	6	10	45
43	ASSLGHRGDEQY	12	183	361
43	ASSLGPGANVLT	11	110	83
43	ASSLGRGRETQY	10	13	467
43	ASSLGTGLAASSYEQY	12	4	1
43	ASSLGVLYQETQY	10	7	1
43	ASSLHDATGVSSPLH	5	21	1
43	ASSLIEQGIGDEQF	6	4	1
43	ASSLIEVSTHNEQF	6	8	3
43	ASSLIGASTHNEQF	6	13	8
43	ASSLIGISTHNEQF	6	16	2
43	ASSLIGQGIGDEQF	6	5949	654
43	ASSLIGQGVGDEQF	6	12	3
43	ASSLIGRGIGDEQF	6	9	4
43	ASSLIGVATHNEQF	6	61	4
43	ASSLIGVFTHNEQF	6	5	4
43	ASSLIGVPTHNEQF	6	29	47
43	ASSLIGVSAHNEQF	6	15	15
43	ASSLIGVSNHNEQF	6	7	2
43	ASSLIGVSTDNEQF	6	5	1
43	ASSLIGVSTHDEQF	6	23	6
43	ASSLIGVSTHNEQF	6	14729	7344
43	ASSLIGVSTHNEQL	6	37	11
43	ASSLIGVSTHNEQY	6	18	9
43	ASSLIGVSTHSEQF	6	18	10
43	ASSLIGVSTHYEQF	6	4	1
43	ASSLIGVSTNNEQF	6	5	5
43	ASSLIGVSTQNEQF	6	15	1
43	ASSLIGVSTRNEQF	6	20	13
43	ASSLIGVSTYNEQF	6	9	5
43	ASSLIGVYTHNEQF	6	15	4
43	ASSLIRVSTHNEQF	6	11	2
43	ASSLIVVSTHNEQF	6	18	5
43	ASSLIWVSTHNEQF	6	16	1
43	ASSLMGVSTHNEQF	6	5	6
43	ASSLSGSGRSTDTQY	8	1250	15
43	ASSLSGVSTHNEQF	6	5	6
43	ASSLTEETQY	10	2	1
43	ASSLTGVSTHNEQF	6	6	5
43	ASSLVGSSYNEQF	6	620	542
43	ASSLVGSTGELF	7	2000	13
43	ASSLVGVSTHNEQF	6	56	5
43	ASSPGDSSCNEQF	6	1	5
43	ASSPGDSSYNEQF	6	216	7142
43	ASSPGLAGSETQY	10	4	1
43	ASSPLGVEETQY	10	2	2
43	ASSPLVVEETQY	10	193	1160
43	ASSPNAGNEQF	6	1	13
43	ASSPPAGGWTDTQY	8	1	1
43	ASSPPTGAYEQY	12	13	2
43	ASSPQTSGSYEQY	12	14	14
43	ASSPRQDQLAKNIQY	9	14	1
43	ASSPVDSYEQY	12	1	1
43	ASSQQGQETQY	10	37	2
43	ASSRQDASYEQY	12	68	343
43	ASSRRHGDGAETQY	10	4	1
43	ASSSATGLAASSYEQY	12	5	2
43	ASSSGTSYNEQF	6	4	5
43	ASSSIGQGIGDEQF	6	5	4
43	ASSSIGVSTHNEQF	6	8	26
43	ASSSLYEQY	12	3	1
43	ASSSNKPYEQY	12	7	2
43	ASSSPNRVTSTDTQY	8	457	42
43	ASSSRQGGRNEQF	6	89	2263
43	ASSSTWDSPYEQY	12	15	1
43	ASSVIGVSTHNEQF	6	3	5
43	ASSYRAGLAKNIQY	9	1	38
43	ASSYSGRVYNEQF	6	77	574
43	ASSYSGRVYSEQF	6	1	3
43	ASTKGQAYEQY	12	111	7
43	ASTLIGVSTHNEQF	6	7	1
43	ASTSRQGGRNEQF	6	1	6
43	ASWKGQAYEQY	12	139	4
43	ATMPGGGNEQF	6	11	13
43	ATTDTYEQY	12	1	1
43	TSGKGQAYEQY	12	2	1
43	TSRKGQAYEQY	12	1108	43
43	TSSLIGVSTHNEQF	6	7	1
43	VSRKGQAYEQY	12	2170	140
43	VSRKGRAYEQY	12	6	2
43	VSSLATGLAASSYEQY	12	7	2
43	VSSLIGVSTHNEQF	6	7	3
44	ARSGNQETQY	10	5	1
44	ASGGNQETQY	10	2	5
44	ASRVTRAANNEQF	6	1	1
44	ASSAGPSSYEQY	12	1509	1
44	ASSCSRIGEKFTDTQY	8	18	1
44	ASSGKQETQY	10	5	3
44	ASSGNQETQY	10	582	6585
44	ASSGNQGTQY	10	2	12
44	ASSGNRETQY	10	1	11
44	ASSGYQETQY	10	1	2
44	ASSLATGLAASSYEQY	12	9	10
44	ASSRNQETQY	10	1	6
44	ASSTRPGTSGTVEQF	6	495	1
44	ASSVAAESYNEQF	6	40	34
44	ASSVAFQDQDTQY	8	1	4553
44	ASSVAGGRAPSYNEQF	6	1	1327
44	ASSVATGGYEQY	12	5	633
44	ASSVGTRSYNEQF	6	4	1
44	ASSVGTYTDTQY	8	288	1
44	ASSVLAGNNHNEQF	6	1	3538
44	ASSVRDAAHEQF	6	17	12
44	ASSVTPAGVQETQY	10	540	15
44	ASSVTRAANNEQF	6	224	274
44	ASSYSRIGEKFTDTQY	8	12037	218
44	ASSYSRIGEKFTGTQY	8	23	1
44	ASSYSRIGEKSTDTQY	8	28	1
5	ASRKGQAYEQY	12	6	1
5	ASRYRGGYNEQF	6	2	1
5	ASSLATGLAASSYEQY	12	13	33
5	ASSLDRGSYNEQF	6	7	1
5	ASSLGTGADNEQF	6	88	3591
5	ASSLGTGADNEQL	6	1	11
5	ASSLNPGDYEQY	12	4	3
5	ASSPGGQGAFNEQF	6	1	1684
5	ASSTYPGQGNEQF	6	24	449
5	ASSYPPDNEQF	6	176	7
5	ASSYRGGYNEQF	6	274	630
6	AISLQDNEQF	6	1	4
6	ARSLSSYEQY	12	20	1
6	ASAGAGGSYNEQF	6	5	5
6	ASGLEGRETQY	10	2	3
6	ASGLQDNEQF	6	4	17
6	ASGLSSYEQY	12	55	30
6	ASGLTGTGNTIY	2	1	3440
6	ASILQDNEQF	6	3	6
6	ASILSSYEQY	12	6	1
6	ASIRSGSNSYNEQF	6	2	1
6	ASNLQDNEQF	6	1	3
6	ASNLSSYEQY	12	12	1
6	ASPPRDRDTNEQF	6	2	1
6	ASRAGAYEQY	12	3	2
6	ASRDEGETGTPNNEQF	6	286	179
6	ASRDEGGTGTPNNEQF	6	2	1
6	ASRDRVGETQY	10	2	1
6	ASRLQDNEQF	6	14	2
6	ASRLSSYEQY	12	117	2
6	ASRPGAYEQY	12	1	19
6	ASRSEAYEQY	12	1	4
6	ASRSGACEQY	12	2	3
6	ASRSGAYEQY	12	378	5021
6	ASRVEGAANEQF	6	2	1
6	ASSFDFLTSTDTQY	8	1223	98
6	ASSFEFLTSTDTQY	8	1	1
6	ASSFPGSKNIQY	9	1	1
6	ASSFQDNEQF	6	1	2
6	ASSFRAELTYEQY	12	1	7392
6	ASSFSSYEQY	12	3	2
6	ASSGDPYNEQF	6	1	1
6	ASSGDRDTYNEQF	6	1	1637
6	ASSKPGQGWNEAF	0	6	3
6	ASSKPGQGWTEAF	0	1032	910
6	ASSLAADIAEQY	12	1	2
6	ASSLAGGDNEQF	6	62	1674
6	ASSLATGLAASSYEQY	12	8	7
6	ASSLEGRETQY	10	772	248
6	ASSLGRLGHTDTQY	8	13	1
6	ASSLGRQETYEQY	12	1965	64
6	ASSLGSYEQY	12	50	7
6	ASSLISYEQY	12	8	2
6	ASSLKIGFAEQF	6	2	2861
6	ASSLNSYEQY	12	10	4
6	ASSLPGSADTQY	8	1	2031
6	ASSLQANEQF	6	2	1
6	ASSLQDDEQF	6	4	13
6	ASSLQDHEQF	6	1	1
6	ASSLQDNEQF	6	3990	12340
6	ASSLQDNEQL	6	11	33
6	ASSLQDNEQY	6	7	20
6	ASSLQDSEQF	6	5	24
6	ASSLQENEQF	6	7	7
6	ASSLQGNEQF	6	9	22
6	ASSLQGQLVSYNEQF	6	33	1
6	ASSLQNNEQF	6	4	12
6	ASSLQYNEQF	6	7	6
6	ASSLRDNEQF	6	4	19
6	ASSLRETQY	10	6	8
6	ASSLRLESGNTIY	2	178	180
6	ASSLRLGSGNTIY	2	1	1
6	ASSLRQGRYNEQF	6	693	571
6	ASSLRQGRYNEQY	6	1	1
6	ASSLRRPDNEQF	6	8	2
6	ASSLRSYEQY	12	40	6
6	ASSLSCYEQY	12	4	3
6	ASSLSGYEQY	12	43	28
6	ASSLSIYEQY	12	15	5
6	ASSLSNYEQY	12	18	71
6	ASSLSRYEQY	12	29	4
6	ASSLSSCEQY	12	37	8
6	ASSLSSHEQY	12	22	5
6	ASSLSSYEQY	12	26369	7205
6	ASSLSSYEQY	6	20	7
6	ASSLSTYEQY	12	5	3
6	ASSLVDTQY	8	8	1
6	ASSLVRDEQF	6	185	2209
6	ASSLVRDEQY	6	1	3
6	ASSLWRPDDEQF	6	1	1
6	ASSLWRPDNEQF	6	1544	198
6	ASSPPFGVAGDQETQY	10	1541	163
6	ASSPPFGVAGDQGTQY	10	2	1
6	ASSPPFGVAGGQETQY	10	4	1
6	ASSPRGDNEQF	6	1	104
6	ASSPRTESSYNEQF	6	284	138
6	ASSQAGAGTGELF	7	11	11
6	ASSRAGGWVEQY	12	6	3
6	ASSRTGGRVEQY	12	2	1
6	ASSRTGGWIEQY	12	2	1
6	ASSRTGGWVEQY	12	1552	688
6	ASSSGTGETQY	10	132	1
6	ASSSQDNEQF	6	9	9
6	ASSSSSYEQY	12	24	9
6	ASSSYFQPSYEQY	12	3	1
6	ASSVQDNEQF	6	21	6
6	ASSVSSYEQY	12	139	6
6	ASSVVRDEQF	6	1	2
6	ASSWEAGVLYEQY	12	141	686
6	ASSYSTGTYEQY	12	1	1
6	ASTLDRSGANVLT	11	14	80
6	ASTWGTSGGETQY	10	197	896
6	ATRAGGGDEQY	12	2450	476
6	ATRAGGGDEQY	6	9	2
6	ATRAGGGEEQY	12	2	1
6	ATRGGGGDEQY	12	3	1
6	TSSLSSYEQY	12	16	2
6	VSSLSSYEQY	12	28	5
7	ASAGAGGSHNEQF	6	4	3
7	ASAGAGGSYNEQF	6	2024	3654
7	ASAGAGGSYNEQL	6	7	14
7	ASAGAGGSYNEQY	6	3	6
7	ASAGAGGSYSEQF	6	1	2
7	ASAGAGVSYNEQF	6	3	1
7	ASAGARGSYNEQF	6	12	5
7	ASAGSGGSYNEQF	6	3	1
7	ASGLDGRAYSEQF	6	3	2
7	ASGLDGRAYSEQY	12	6	1
7	ASGLVLPRNEQF	6	56	4
7	ASGLVTGGRDTIY	2	86	114
7	ASGPTRNEQY	12	156	2458
7	ASGRNRGLSGNTIY	2	16	618
7	ASSLQDNEQF	6	1	6
7	ASSLSSYEQY	12	8	2
7	ASVGAGGSYNEQF	6	2	7
7	VSAGAGGSYNEQF	6	37	44
8	ASSERGNSYNEQF	6	1	1
8	ASSLGRGAEQF	6	5	1
8	ASSLRSSYNEQF	6	2	1
8	ASSPGSGRLNEQY	12	48	1366
8	ASSPRTGGVLYEQY	12	2	3
8	ASSPYAGTGGNTIY	2	2952	74
8	ASSSRAGGVLYEQY	12	2	1
8	ASSSRTGGVLYEQY	12	743	691
9	ASSHRQGKGETQY	10	1	784
9	ASSLATGLAASSYEQY	12	3	1
9	ASSPGPAEQF	6	19	7
9	ASSPGPVEQF	6	4492	2954
9	ASSPGPVEQL	6	7	6
9	ASSPGPVEQY	6	4	3
9	ASSPGSVEQF	6	7	2
9	ASSPREGRGIHNEQF	6	8	1
9	ASSPRPVEQF	6	4	1
9	ASSQDSWYNEQF	6	1	1
9	ASSQLAGVVGDEQF	6	12	3
9	ASSQPQRAGTDTQY	8	2	1
9	ASSQVAGREETQY	10	3	1
9	ASSVRPGPGETQY	10	20	1
