0	ASGELGTTINEQF	6	1	3
0	ASSDLGTTINEQF	6	3	1
0	ASSDVGTETQY	10	454	1
0	ASSEGTANYGYT	1	2	1
0	ASSELGATINEQF	6	4	4
0	ASSELGNTINEQF	6	2	3
0	ASSELGTAINEQF	6	2	2
0	ASSELGTIINEQF	6	1	1
0	ASSELGTNINEQF	6	1	2
0	ASSELGTTINEQF	6	1162	1138
0	ASSELGTTINEQL	6	7	2
0	ASSELGTTINEQY	6	2	2
0	ASSELWTTINEQF	6	1	2
0	ASSESGSYNEQF	6	294	89
0	ASSPTGLGYNEQF	6	2	3
0	ASSQQGKETQY	10	47	1
0	VSSELGTTINEQF	6	3	1
1	AISELGTTINEQF	6	598	218
1	ARSELGATINEQF	6	1	1
1	ARSELGNTINEQF	6	5	1
1	ARSELGTTINEQF	6	1165	110
1	ASGELGNTINEQF	6	5	1
1	ASGELGTTINEQF	6	4025	239
1	ASIELGTTINEQF	6	616	32
1	ASLTPGRLNIQY	9	217	1
1	ASNELGTTINEQF	6	1391	39
1	ASNELGTTINEQY	6	3	1
1	ASNELWTTINEQF	6	1	1
1	ASRELGITINEQF	6	1	1
1	ASRELGTTINEQF	6	774	105
1	ASSALGNTINEQF	6	1	1
1	ASSALGTTINEQF	6	168	21
1	ASSDLGTTINEQF	6	1366	306
1	ASSDLGTTTNEQF	6	2	17
1	ASSDLWTTINEQF	6	1	1
1	ASSEFGTTINEQF	6	675	62
1	ASSEIGTTINEQF	6	183	18
1	ASSELATTINEQF	6	85	3
1	ASSELEATINEQF	6	4	1
1	ASSELETTINEQF	6	1155	81
1	ASSELETTINEQY	6	3	1
1	ASSELETTTNEQF	6	4	1
1	ASSELGAAINEQF	6	6	1
1	ASSELGATIDEQF	6	12	1
1	ASSELGATINEQF	6	4458	348
1	ASSELGATINEQL	6	21	3
1	ASSELGATINEQY	6	5	1
1	ASSELGITINEQF	6	2310	51
1	ASSELGNTINEQF	6	1915	128
1	ASSELGPTINEQF	6	126	8
1	ASSELGSTINEQF	6	1433	62
1	ASSELGTAINEQF	6	3127	379
1	ASSELGTAISEQF	6	3	2
1	ASSELGTIINEQF	6	1011	180
1	ASSELGTITNEQF	6	4	1
1	ASSELGTNINEQF	6	630	221
1	ASSELGTPINEQF	6	147	9
1	ASSELGTSINEQF	6	714	238
1	ASSELGTTFNEQF	6	383	15
1	ASSELGTTIDEQF	6	3072	178
1	ASSELGTTIGEQF	6	1	1
1	ASSELGTTIHEQF	6	159	12
1	ASSELGTTIIEQF	6	59	8
1	ASSELGTTINEQF	6	2079308	129456
1	ASSELGTTINEQL	6	10032	396
1	ASSELGTTINEQY	12	156	17
1	ASSELGTTINEQY	6	2618	283
1	ASSELGTTISEQF	6	3001	102
1	ASSELGTTITEQF	6	84	7
1	ASSELGTTIYEQF	6	87	8
1	ASSELGTTIYEQY	12	4	2
1	ASSELGTTLNEQF	6	192	5
1	ASSELGTTMNEQF	6	456	10
1	ASSELGTTMSEQF	6	2	1
1	ASSELGTTNNEQF	6	921	43
1	ASSELGTTSNEQF	6	477	48
1	ASSELGTTTNEQF	6	5756	298
1	ASSELGTTTNEQL	6	15	3
1	ASSELGTTTNEQY	6	4	1
1	ASSELGTTVNEQF	6	3043	129
1	ASSELGTTYNEQF	6	52	6
1	ASSELRATINEQF	6	4	1
1	ASSELRTTINEQF	6	1315	133
1	ASSELRTTINEQL	6	2	2
1	ASSELVTTINEQF	6	702	23
1	ASSELWTTINEQF	6	762	348
1	ASSELWTTINEQL	6	4	4
1	ASSESGTIINEQF	6	2	2
1	ASSESGTTINEQF	6	1933	129
1	ASSESRTVFSYEQY	12	920	6
1	ASSEVGTTIDEQF	6	1	2
1	ASSEVGTTINEQF	6	626	85
1	ASSGLGATINEQF	6	15	2
1	ASSGLGTTINEQF	6	5453	260
1	ASSGLGTTINEQL	6	18	1
1	ASSGRLDSTDTYNEQF	6	46415	132
1	ASSGRLDSTNTYNEQF	6	27	1
1	ASSGTLDSTDTYNEQF	6	25	1
1	ASSKGGDYNEQF	6	13	2
1	ASSKLGTAINEQF	6	4	1
1	ASSKLGTTINEQF	6	1471	74
1	ASSLGTPNEQF	6	1	1
1	ASSPTGLGYNEQF	6	59	11
1	ASSQLGTTINEQF	6	117	8
1	ASSSGTSGETQY	10	3	1323
1	ASSVGTRYDEQF	6	17	49
1	ASSVLGNTINEQF	6	1	1
1	ASSVLGTTINEQF	6	2379	34
1	ASSVSGTTINEQF	6	3	1
1	ASSYSIRTDKETQY	10	1	2
1	ASTDFQETQY	10	1	1
1	ASTELGTTINEQF	6	66	16
1	ASVLKYWTGETQY	10	5	4
1	ATSELGTTINEQF	6	109	99
1	TSSELGTTINEQF	6	2490	72
1	TSSELGTTINEQY	6	3	1
1	TSSELGTTTNEQF	6	4	1
1	VSSELGTAINEQF	6	2	1
1	VSSELGTTINEQF	6	3678	140
1	VSSELGTTINEQL	6	12	1
10	AISKKGRDSGNTIY	2	2	2
10	ASSKKGRDSGNTIY	2	3	4
10	ASSRVGGETQY	10	2	1
10	ATCKKGRDSGNTIY	2	2	5
10	ATGKKGRDSGNTIY	2	7	4
10	ATIKKGRDSGNTIY	2	4	6
10	ATSEKGRDSGNTIY	2	15	4
10	ATSGVGGETQY	10	4	1
10	ATSIGGFDTQY	8	1	4454
10	ATSKEGRDSGNTIY	2	10	3
10	ATSKKGGDSGNTIY	2	9	4
10	ATSKKGRDCGNTIY	2	1	3
10	ATSKKGRDPGNTIY	2	21	1
10	ATSKKGRDSENTIY	2	6	2
10	ATSKKGRDSGNTIY	2	4103	2158
10	ATSKKGRDSGSTIY	2	6	2
10	ATSKKGRDYGNTIY	2	2	1
10	ATSKKGRGSGNTIY	2	4	3
10	ATSKNGRDSGNTIY	2	2	10
10	ATSKRGRDSGNTIY	2	6	3
10	ATSRESSYNEQF	6	125	1
10	ATSRTPGQFDEQY	12	6	211
10	ATSRVGGEEQY	12	180	3
10	ATSRVGGETQY	10	1109	1422
10	ATSRVGVETQY	10	3	4513
10	ATSSGGGKSYEQY	12	252	540
11	ASSQGGEQY	12	150	1
12	ASAPAGETQY	10	4	1
12	ASSAMRPGGPDNEQF	6	2409	1
12	ASSELGTTINEQF	6	3	1
12	ASSGKSGEQY	12	407	1
12	ASSHLRRTGDYNEQF	6	1	2
12	ASSPDRLDIQY	9	1	1
12	ASSPGLNQETQY	10	1	5230
12	ASSPGNSGSYEQY	12	4100	1
12	ASSPGQGETQY	10	126	189
12	ASSPGQRVETQY	10	1	538
12	ASSPKSSSYNEQF	6	7016	1
12	ASSPLGQGYEQY	12	1	1
12	ASSPLGRTGDYNEQF	6	2	1
12	ASSPLRGTGDYNEQF	6	1	2
12	ASSPLRRKGDYNEQF	6	2	1
12	ASSPLRRTGDYNEQF	6	896	801
12	ASSPLRRTGGYNEQF	6	5	2
12	ASSPNRQHNEQF	6	4180	10
12	ASSPPALAGKNEQF	6	1	21849
12	ASSPPGQGYEQY	12	189	645
12	ASSPPRGNEQF	6	408	593
12	ASSPPRGNEQL	6	1	1
12	ASSPQSLLGFPTDTQY	8	1	2
12	ASSPQSLLGSPTDTQY	8	505	3860
12	ASSPQSLLGSPTGTQY	8	2	6
12	ASSPQSLLGSRTDTQY	8	1	6
12	ASSPRRIQGNEQF	6	5619	7
12	ASSPSAGPGGNSPLH	5	1	5
12	ASSPSGEQF	6	3	1431
12	ASSPTGLGYNEQF	6	14	8
12	ASSPTGNSFEQY	12	395	4
12	ASSQSGSSGEQY	12	153	176
12	ASSRDGNTIY	2	2095	3
12	ASSRDRGDIQY	9	1	11039
12	ASSRGGQASYEQY	12	354	756
12	ASSRGGRASYEQY	12	1	1
12	ASSSDRPISGNTIY	2	2	5259
12	ASSSRTANSEQY	12	2	1679
12	ASTPPRGNEQF	6	5	1
12	ASYREPHVDEQF	6	3405	1
12	VSSPPGQGYEQY	12	1	4
12	VSSPQSLLGSPTDTQY	8	2	3
13	AITSGANEQY	12	2	1
13	AITSGVNEQY	12	38	17
13	ASNRDSSSSGANVLT	11	36	37
13	ASRSGAGGYNEQF	6	362	38
13	ASSIARSSYNEQF	6	1	367
13	ASSIFGELF	7	143	65
13	ASSIGGSGEETQY	10	11338	8
13	ASSIGGSGEGTQY	10	29	1
13	ASSKGRRSTDTQY	8	2	13991
13	ASSKSPSLAGVQETQY	10	1	1872
13	ASSLAEIYNEQF	6	1	2
13	ASSMAEGGTYEQY	12	1	801
13	ASSNRASTVPYEQY	12	7	116
13	ASSPTGLGYNEQF	6	3	2
13	ASSTRETQY	10	8	1
13	ASTSGVNEQY	12	17	80
13	ATASGVNEQY	12	50	88
13	ATGQSVYNEQF	6	3	1
13	ATISGVNEQY	12	12	12
13	ATNSGVNEQY	12	8	23
13	ATPSGVNEQY	12	3	47
13	ATSSGVNEQY	12	9	152
13	ATTAGVNEQY	12	7	11
13	ATTLGVNEQY	12	11	37
13	ATTPGVNEQY	12	50	122
13	ATTSAVNEQY	12	3	127
13	ATTSEVNEQY	12	11	96
13	ATTSGANEQY	12	34	164
13	ATTSGDNEQY	12	1	15
13	ATTSGFNEQY	12	11	27
13	ATTSGGNEQY	12	5	47
13	ATTSGINEQY	12	7	32
13	ATTSGLNEQY	12	5	10
13	ATTSGVDEQY	12	164	69
13	ATTSGVKEQY	12	13	17
13	ATTSGVNEQF	6	25	37
13	ATTSGVNEQY	12	21643	52995
13	ATTSGVNEQY	6	20	57
13	ATTSGVNIQY	9	2	2
13	ATTSGVSEQY	12	43	73
13	ATTSGVYEQY	12	3	5
13	ATTSRVNEQY	12	17	16
13	ATTSVVNEQY	12	11	62
13	ATTSWVNEQY	12	6	9
13	ATTTGVNEQY	12	10	29
14	ASAGTSTDTQY	8	460	700
14	ASAGTSTGTQY	8	2	2
14	ASASSKETQY	10	3	5154
14	ASEGRQGAEQY	12	5446	1
14	ASFRVGETQY	10	11787	1
14	ASGENGYEQY	12	2	6
14	ASGLAGYEQY	12	151	2
14	ASKNGGSTDTQY	8	1	1
14	ASKWDSSYNEQF	6	2	8175
14	ASNIGYNEQF	6	24999	7
14	ASNNGGSTDTQY	8	1711	582
14	ASNNGGSTGTQY	8	3	2
14	ASNNRGSTDTQY	8	3	1
14	ASNRDEKETQY	10	3	14
14	ASNRDGKETQY	10	331	6894
14	ASNWDGKETQY	10	1	14
14	ASPSSGGTNTDTQY	8	6	7
14	ASRADDGETQY	10	4	27885
14	ASRAGALQGTQY	8	121	1
14	ASRASGPAYEQY	12	2	263
14	ASRDRGWDEQF	6	173	26
14	ASRDRGWDEQL	6	1	1
14	ASREGQYNEQF	6	14216	2
14	ASRETDTQY	8	1	1055
14	ASRGAGEDTQY	8	1	7
14	ASRQGSGNTIY	2	1	1
14	ASSAGLADTQY	8	271	2
14	ASSAMGRGSNEQY	12	60	1
14	ASSAPGLAGEGGPEQY	12	1	1952
14	ASSDNGYNEQF	6	3	46415
14	ASSDWGYQETQY	10	1	2731
14	ASSEAGTTYEQY	12	3826	1
14	ASSEALTKNTEAF	0	1	4
14	ASSEAQRGNQETQY	10	5	32
14	ASSEDGYEQY	12	86	5
14	ASSEGEAYNEQF	6	1457	1
14	ASSEKGYEQY	12	1	9
14	ASSELGTTINEQF	6	42	1
14	ASSENGYEQY	12	425	3216
14	ASSENGYEQY	6	1	1
14	ASSERASGGKETQY	10	264	242
14	ASSEREGPYNEQF	6	830	189
14	ASSERGNSYNEQF	6	4	1366
14	ASSEVEETQY	10	7	2
14	ASSEYSNRLTDTQY	8	1973	8
14	ASSFYNEQF	6	1	312
14	ASSGEGQETQY	10	10435	2
14	ASSLATGLAASSYEQY	12	1	1
14	ASSLDIPGRNIQY	9	1	7755
14	ASSLGQGEQF	6	1	11980
14	ASSLMGVTDTQY	8	994	74
14	ASSLRFPGSGHEQY	12	9	18
14	ASSPFGVRNSYEQY	12	1	2725
14	ASSPSGGTNTDTQY	8	3	5
14	ASSPTGLGYNEQF	6	38	27
14	ASSRADRQETQY	10	1	1
14	ASSRDSAYEQY	12	1	2
14	ASSSRGGTNTDTQY	8	3	1
14	ASSSSGGANTDTQY	8	3	3
14	ASSSSGGTKTDTQY	8	3	2
14	ASSSSGGTNTDTQY	8	1475	801
14	ASSSSGGTSTDTQY	8	3	2
14	ASSSSWGTNTDTQY	8	1	5
14	ASSVMRREQY	12	1	404
14	ASSVNSGQSFLTEAF	0	2	2
14	ASSWDSAYEQY	12	95	2224
14	ASSWDSAYEQY	6	1	1
14	ASSYTSPAGGLGADTQY	8	15	41
14	ASTLSDSCEQY	12	1	1
14	ASTLSDSYEQY	12	261	557
14	ASTSSSYNEQF	6	1	24482
14	ASTVLAGYNEQF	6	2	1
14	ATSRVGGETQY	10	2	1
15	SADGADYNEQF	6	1	5
15	SADGKDYNEQF	6	1	4
15	SADGTDCNEQF	6	1	4
15	SADGTDYNEQF	6	421	2643
15	SADGTEYNEQF	6	3	6
15	SADGTGYNEQF	6	2	6
15	SADPSGGCYNEQF	6	1	2
15	SADPSGGSYNEQF	6	338	641
15	SADPSGVSYNEQF	6	1	1
15	SADRGRETQY	10	607	1632
15	SADRGRGTQY	10	2	3
15	SAEGTDYNEQF	6	1	1
15	SAGAGRGDYEQY	12	1	3017
15	SAGEGGSYNSPLH	5	38	8
15	SAGGNNEQF	6	17171	2
15	SAGGSNEQF	6	34	7
15	SAGPSGGSYNEQF	6	1	3
15	SAGRGRETQY	10	2	2
15	SAGRHWETQY	10	1	3
15	SAGRSSYEQY	12	1	17
15	SAGSPETQY	10	6	2
15	SAGSPRASDTQY	8	1	1
15	SAGTRDTYEQY	12	25	44
15	SAGVITSGGALIEQF	6	3	2
15	SAHREGSTDTQY	8	2	6618
15	SAIEGGSYNSPLH	5	3	3
15	SAISPETQY	10	9	4
15	SAITRDTYEQY	12	14	17
15	SAKGSGGKETQY	10	1	835
15	SAKTRDTYEQY	12	3	3
15	SALGDYTYNEQF	6	1	16860
15	SALHDQETQY	10	1	1626
15	SALLGAADNEQF	6	3	14045
15	SANGGLKFYEQY	12	2700	1
15	SANSLAGGFDEQY	12	1	386
15	SANSPETQY	10	1	2
15	SAPFTLYEQY	12	74	1
15	SAPGRGYEQY	12	1	12
15	SAPKEAPYEQY	12	433	566
15	SAPLAAATDTQY	8	782	413
15	SAPLSAATDTQY	8	1	2
15	SAPLVAATDTQY	8	2	1
15	SAPPLAGFTDTQY	8	4	2
15	SAPSGAETQY	10	790	319
15	SAQDKGSYNEQF	6	24	1
15	SAQDKISYNEQF	6	14	2
15	SAQDKRSYNEQF	6	19	1
15	SAQDKSCYNEQF	6	1	3
15	SAQDKSFYNEQF	6	4	2
15	SAQDKSSYDEQF	6	8	1
15	SAQDKSSYEQY	12	1	1
15	SAQDKSSYNEQF	6	7891	414
15	SAQDKSSYNEQY	6	16	2
15	SAQDKSYYNEQF	6	3	1
15	SAQPGGASAYEQY	12	143	365
15	SAQYKSSYNEQF	6	3	1
15	SARAITSGGALIEQF	6	4	7
15	SARARDTYEQY	12	35	26
15	SARDGAEWADTQY	8	164	1
15	SARDGGPQETQY	10	20519	2
15	SARDKALYASTDTQY	8	1	2289
15	SARDLQLEYTDTQY	8	150	53
15	SARDLRAGGYNEQF	6	4105	1
15	SARDPLAGGEQF	6	6	1
15	SARDPLAGGEQY	12	8	4
15	SARDRAQGYEQY	12	1	208
15	SARDSGGAGETQY	10	2571	7
15	SARDTGGGYNEQF	6	107	253
15	SARDTRGGYNEQF	6	1	1
15	SAREFQETQY	10	3	67
15	SAREGESYNSPLH	5	2	4
15	SAREGGCYNSPLH	5	2	2
15	SAREGGFYNSPLH	5	4	3
15	SAREGGPYNSPLH	5	22	11
15	SAREGGSCNSPLH	5	5	23
15	SAREGGSHNSPLH	5	6	4
15	SAREGGSYDSPLH	5	8	5
15	SAREGGSYNSPLH	5	7338	5945
15	SAREGGSYSSPLH	5	5	4
15	SAREGGYYNSPLH	5	6	6
15	SAREGVSYNSPLH	5	5	3
15	SAREGWSYNSPLH	5	4	28
15	SARELAKNIQY	9	1	1
15	SARERGSYNSPLH	5	4	3
15	SARGGGSYNSPLH	5	19	16
15	SARGGNEQF	6	10	11
15	SARGLALGQETQY	10	219	928
15	SARGLARGRQETQY	10	352	5
15	SARGNNEQF	6	18	1
15	SARGPGSGNTIY	2	1	2281
15	SARGVVAGTDTQY	8	5	2
15	SARGWGDSGNTIY	2	1	1102
15	SARIRDTYEQY	12	10	4
15	SARKGGSYNSPLH	5	2	1
15	SARKNGDTQY	8	7	2
15	SARKQQETQY	10	5	4
15	SARLITSGGALIEQF	6	2	1
15	SARLTGLNNEQF	6	7449	1
15	SARMTGLHEQY	12	1	1
15	SARMTGLYEQY	12	239	491
15	SARNRDTYEQY	12	12	1
15	SARNRLAGGGTQY	10	1	1
15	SARNRLAGGGTQY	8	40	170
15	SARNSGGAGETQY	10	2	3109
15	SARPGITDTQY	8	4	13980
15	SARQGGSYNSPLH	5	1	2
15	SARSGAMVYEQF	6	2921	1
15	SARSGQSSYEQY	12	1	37
15	SARSPETQY	10	7	2
15	SARSPRASDTQY	8	264	170
15	SARSRDTYEQY	12	8	24
15	SARSRLPSYEQY	12	16468	1
15	SARTGDTYEQY	12	35	14
15	SARTGRETQY	10	14804	2
15	SARTKDTYEQY	12	3	3
15	SARTMDTYEQY	12	11	4
15	SARTRDAYEQY	12	17	12
15	SARTRDIYEQY	12	11	8
15	SARTRDNYEQY	12	9	11
15	SARTRDSYEQY	12	13	7
15	SARTRDTCEQY	12	81	11
15	SARTRDTHEQY	12	10	6
15	SARTRDTYEQF	6	9	5
15	SARTRDTYEQY	12	15237	9147
15	SARTRDTYEQY	6	11	8
15	SARTRETYEQY	12	28	8
15	SARTRGTYEQY	12	34	31
15	SARTRNTYEQY	12	5	2
15	SARTRYTYEQY	12	19	4
15	SARTSDTYEQY	12	7	4
15	SARTTDTYEQY	12	3	5
15	SARVGSGNTIY	2	535	34
15	SARVIASGGALIEQF	6	2	2
15	SARVINSGGALIEQF	6	2	4
15	SARVITGGGALIEQF	6	1	1
15	SARVITRGGALIEQF	6	5	6
15	SARVITSGEALIEQF	6	2	1
15	SARVITSGGALIEQF	6	1648	1564
15	SARVITSGGALIEQL	6	8	5
15	SARVITSGGALIEQY	6	2	6
15	SARVITSGGALTEQF	6	2	2
15	SARVITSGGALVEQF	6	2	4
15	SARVITSGGDLIEQF	6	1	5
15	SARVITSGGGLIEQF	6	2	4
15	SARVNTGFSGEQY	12	18	64
15	SARVRGYNEQF	6	8	18
15	SARVTTSGGALIEQF	6	3	1
15	SARVVTSGGALIEQF	6	4	4
15	SARYPGSVSYNEQF	6	1	1616
15	SASCPETQY	10	2	2
15	SASDRGQETQY	10	5658	1
15	SASGQETQY	10	2	1
15	SASGVAGIAKNIQY	9	3	2
15	SASKGGRGQETQY	10	1	71
15	SASKSGGNYEQY	12	2594	1
15	SASLAGDTDTQY	10	1	1
15	SASLAGDTDTQY	8	258	378
15	SASLAGGTDTQY	8	2	3
15	SASLSGGRSYNEQF	6	2546	25
15	SASPPETQY	10	3	6
15	SASPQGQTYEQY	12	3672	1
15	SASRHWDTQY	10	2	3
15	SASRHWETQY	10	502	1536
15	SASRPEPGDTQY	8	172	74
15	SASRQETQY	10	1445	1582
15	SASRQGTQY	10	2	3
15	SASRSGSYNEQF	6	2	1
15	SASSGTGSYNEQF	6	648	1
15	SASSPETQY	10	2620	1920
15	SASSQETQY	10	1	3
15	SASSSGQGRQETQY	10	5	4
15	SASTQETQY	10	1	4
15	SASYLGVKETQY	10	2705	2
15	SASYQGREQY	12	34	2
15	SATEGGSYNSPLH	5	3	2
15	SATVITSGGALIEQF	6	1	4
15	SAVPNREQY	12	516	5
15	SVPELAKNIQY	9	1	1
15	SVREGGSYNSPLH	5	6	3
15	SVRTRDTYEQY	12	9	5
15	SVRVITSGGALIEQF	6	12	2
16	ATGLKGFDEQF	6	700	1579
16	ATGLKGFDEQL	6	5	3
16	ATGLKGFNEQF	6	1	1
16	ATGLRGFDEQF	6	3	2
16	ATGTGHNEQF	6	3	1
16	ATGTGYDEQF	6	3	1
16	ATGTGYNEQF	6	3010	415
16	ATMITDTQY	8	327	410
16	ATSAGSISHEQY	12	1	11
16	ATSAGSISYEQY	12	214	7892
16	ATSAWSISYEQY	12	1	19
16	ATSDPRLKTDTQY	8	807	495
16	ATSDSDRGETQY	10	1	5744
16	ATSDSLAGVYNEQF	6	13500	2
16	ATSDSRETQY	10	104	638
16	ATSDYGRFTDTQY	8	1	6123
16	ATSGPRLKTDTQY	8	3	1
16	ATSPKGTDTQY	8	1	132
17	ASRLGKNEQF	6	371	915
17	ASRLGKNEQL	6	1	3
17	ASRLGKNEQY	6	2	2
17	ASRLGKSEQF	6	1	3
17	ASRLRKNEQF	6	1	1
17	ASSELGTTINEQF	6	8	1
17	ASSEPRAGGYNEQF	6	637	10114
17	ASSEPRAGGYNEQL	6	4	26
17	ASSERAGEDEQY	12	6893	1
17	ASSEVLRETQY	10	1	21776
17	ASSGPRAGGYNEQF	6	5	15
17	ASSKTSGRITDTQY	8	4	1
18	AISLRFPGSGHEQY	12	73	270
18	ARSLRFPGSGHEQY	12	92	89
18	ARSPLYFNEQF	6	2	3
18	ASAPQIGFYTDTQY	4	1	5309
18	ASCLRFPGSGHEQY	12	10	256
18	ASGLRFPGSGHEQY	12	870	430
18	ASGLRFSGSGHEQY	12	1	3
18	ASGPLLRGLEETQY	10	79	2
18	ASGPLYFNEQF	6	5	4
18	ASGRTGGNNEQF	6	62	15
18	ASGSRFPGSGHEQY	12	1	1
18	ASILRFPGSGHEQY	12	85	219
18	ASILRFPGSRHEQY	12	1	1
18	ASIPLLRGLEETQY	10	44	2
18	ASIPLYFNEQF	6	1	8
18	ASNLRFPGSGHEQY	12	93	176
18	ASNLRSPGSGHEQY	12	3	1
18	ASPLGGGHYNEQF	6	1	1
18	ASRLRFPGSGHEQY	12	58	390
18	ASRLTPLGNEQY	12	1	2860
18	ASRPLLRGLEETQY	10	23	2
18	ASRPLYFNEQF	6	1	4
18	ASSENGYEQY	12	1	1
18	ASSFGQGLEQY	12	5459	26
18	ASSFRFPGSGHEQY	12	48	41
18	ASSFVGTNQETQY	10	1	1
18	ASSGPGLATNEQF	6	471	109
18	ASSIRFPGSGHEQY	12	18	119
18	ASSLEAGFEQY	12	4	3
18	ASSLGAGFEQY	12	3377	1153
18	ASSLGAGFEQY	6	3	2
18	ASSLGAGLEQY	12	11	2
18	ASSLGDGFEQY	12	7	3
18	ASSLGFPGSGHEQY	12	113	68
18	ASSLGGGFEQY	12	3	5
18	ASSLGSGDTDTQY	8	4	1
18	ASSLGTPNEQF	6	1	3
18	ASSLLFPGSGHEQY	12	98	38
18	ASSLLYFNEQF	6	1	6
18	ASSLPFPGSGHEQY	12	10	6
18	ASSLQFPGSGHEQY	12	148	149
18	ASSLQLPGSGHEQY	12	1	1
18	ASSLRCPGSGHEQY	12	53	26
18	ASSLRFAGSGHEQY	12	64	84
18	ASSLRFLGSGHEQY	12	113	116
18	ASSLRFPASGHEQY	12	6	20
18	ASSLRFPESGHEQY	12	159	103
18	ASSLRFPGCGHEQY	12	22	23
18	ASSLRFPGGGHEQY	12	447	484
18	ASSLRFPGIGHEQY	12	66	253
18	ASSLRFPGNGHEQY	12	62	2581
18	ASSLRFPGRGHEQY	12	75	111
18	ASSLRFPGSAHEQY	12	15	148
18	ASSLRFPGSEHEQY	12	118	179
18	ASSLRFPGSGDEQY	12	100	63
18	ASSLRFPGSGHEQF	6	41	41
18	ASSLRFPGSGHEQY	12	180527	224844
18	ASSLRFPGSGHEQY	6	325	348
18	ASSLRFPGSGLEQY	12	9	21
18	ASSLRFPGSGNEQY	12	151	127
18	ASSLRFPGSGPEQY	12	5	8
18	ASSLRFPGSGQEQY	12	156	130
18	ASSLRFPGSGREQY	12	390	318
18	ASSLRFPGSGYEQY	12	243	124
18	ASSLRFPGSRHEQY	12	138	163
18	ASSLRFPGSVHEQY	12	73	134
18	ASSLRFPGSWHEQY	12	59	37
18	ASSLRFPGTGHEQY	12	14	543
18	ASSLRFPGVGHEQY	12	1	1
18	ASSLRFPRSGHEQY	12	109	160
18	ASSLRFPVSGHEQY	12	78	68
18	ASSLRFPWSGHEQY	12	55	27
18	ASSLRFQGSGHEQY	12	61	63
18	ASSLRFRGSGHEQY	12	65	43
18	ASSLRFSGSGHEQY	12	200	593
18	ASSLRFTGSGHEQY	12	52	89
18	ASSLRFTGSGNEQY	12	1	2
18	ASSLRIPGSGHEQY	12	9	29
18	ASSLRLPESGHEQY	12	1	1
18	ASSLRLPGSGHEQY	12	586	901
18	ASSLRLPGSGNEQY	12	2	1
18	ASSLRLPGSGREQY	12	2	1
18	ASSLRMGTKNIQY	9	78	115
18	ASSLRSPESGHEQY	12	1	1
18	ASSLRSPGGGHEQY	12	1	3
18	ASSLRSPGSGHEQY	12	302	690
18	ASSLRVPGSGHEQY	12	34	88
18	ASSLRYPGSGHEQY	12	22	59
18	ASSLSNRRDEQF	6	19557	7
18	ASSLWFPGSGHEQY	12	159	187
18	ASSPGGSYEQY	12	162	1
18	ASSPHYFNEQF	6	1	1
18	ASSPLHFNEQF	6	3	2
18	ASSPLLGGLEETQY	10	96	1
18	ASSPLLRALEETQY	10	13	2
18	ASSPLLRGLEDTQY	10	71	3
18	ASSPLLRGLEETQY	10	65432	1317
18	ASSPLLRGLEGTQY	10	149	2
18	ASSPLLRGLGETQY	10	96	2
18	ASSPLLRGLVETQY	10	8	3
18	ASSPLLRGSEETQY	10	64	2
18	ASSPLLRRLEETQY	10	27	1
18	ASSPLLRWLEETQY	10	29	1
18	ASSPLLTGLEETQY	10	6	1
18	ASSPLPRGLEETQY	10	60	1
18	ASSPLVRGLEETQY	10	67	2
18	ASSPLYFNEQF	6	1811	3949
18	ASSPLYFNEQL	6	6	8
18	ASSPLYFNEQY	6	4	7
18	ASSPLYLNEQF	6	4	12
18	ASSPLYSNEQF	6	2	11
18	ASSPPYFNEQF	6	3	10
18	ASSPQCLGYNEQF	6	3	10
18	ASSPQGLGYNEQF	6	1043	1271
18	ASSPQGLGYNEQL	6	4	54
18	ASSPQGLGYSEQF	6	2	1
18	ASSPQGMGYNEQF	6	1	1
18	ASSPRGLGYNEQF	6	5	2
18	ASSPTGLGYNEQF	6	53	29
18	ASSRGARDYNEQF	6	94	1
18	ASSRLLRGLEETQY	10	23	1
18	ASSSRFPGSGHEQY	12	179	235
18	ASSVRFPGSGHEQY	12	86	138
18	ASSWTPYNEQF	6	1	507
18	ASTKRKGKAYEQY	12	1637	36
18	ASTLGGGHYNEQF	6	624	422
18	ASTLGGGRYNEQF	6	1	1
18	ASTLRFPGSGHEQY	12	13	421
18	ASTPRPNSYNEQF	6	1	1
18	ATSLRFPGSGHEQY	12	10	137
18	TSSLRFPGSGHEQY	12	76	104
18	TSSLRFPGSGYEQY	12	1	1
18	TSSPLYFNEQF	6	2	3
18	VSSLRFPGSGHEQY	12	118	376
18	VSSPLYFNEQF	6	1	2
19	AIRHGQGGSPLH	5	19	30
19	AISFSSPYEQY	12	11	1
19	AISFVGTNQETQY	10	1	25
19	AISLGSGDTDTQY	8	7	10
19	AISLGTPNEQF	6	1	6
19	ARGEEGAGIQY	9	1	1
19	ARGGGGSIAKNIQY	9	1	2
19	ARRHGQGGSPLH	5	34	39
19	ARSFSSPYEQY	12	16	49
19	ARSFVGTNQETQY	10	1	11
19	ARSGGQGFQETQY	10	13	11
19	ARSLGSGDTDTQY	8	14	7
19	ARSLGTPNEQF	6	3	114
19	ARSPSYRRAGGRIYNEQF	6	1	1
19	ASCFSSPYEQY	12	2	10
19	ASGEEGAGIQY	9	591	36
19	ASGEGGSIAKNIQY	9	2	1
19	ASGFSSPYEQY	12	22	37
19	ASGGEGSIAKNIQY	9	1	2
19	ASGGGASIAKNIQY	9	1	1
19	ASGGGGCIAKNIQY	9	2	2
19	ASGGGGSIAENIQY	9	5	3
19	ASGGGGSIAKNIQY	9	2150	3076
19	ASGGGGSIAKSIQY	9	3	6
19	ASGGGGSIARNIQY	9	1	3
19	ASGGGGSIDKNIQY	9	1	2
19	ASGGGGSIPKNIQY	9	1	2
19	ASGGGGSISKNIQY	9	2	1
19	ASGGGGSMAKNIQY	9	3	4
19	ASGGGGSTAKNIQY	9	3	3
19	ASGGGGSVAKNIQY	9	1	1
19	ASGGGQGFQETQY	10	21	7
19	ASGGGRSIAKNIQY	9	2	1
19	ASGGGVSIAKNIQY	9	2	4
19	ASGHGQGGSPLH	5	13	11
19	ASGLGDRVNEQY	12	2	6
19	ASGLGSGDTDTQY	8	23	7
19	ASGLGTPNEQF	6	6	45
19	ASGRSGLRGSYNEQF	6	11	3
19	ASGRSLGEQY	12	5	3
19	ASIFSSPYEQY	12	19	32
19	ASIGGQGFQETQY	10	4	5
19	ASILGSGDTDTQY	8	5	6
19	ASILGTPNEQF	6	3	24
19	ASILTRGSYEQY	12	2544	4
19	ASIQLISGNTIY	2	11	741
19	ASIRSLGEQY	12	5	2
19	ASISNKPYEQY	12	1	1
19	ASLHGQGGSPLH	5	34	36
19	ASNFSSPYEQY	12	7	12
19	ASNGDRGDYEQY	12	1000	403
19	ASNGDRGEYEQY	12	2	1
19	ASNGDRGNYEQY	12	1	1
19	ASNGGRGDYEQY	12	2	2
19	ASNLGSGDTDTQY	8	25	6
19	ASNRSLGEQY	12	4	1
19	ASPHGQGGSPLH	5	13	19
19	ASQHGQGGSPLH	5	39	41
19	ASRAYRAGQDEQY	12	703	681
19	ASRAYRAVQDEQY	12	2	2
19	ASRDGQGGSPLH	5	20	1
19	ASRFSSPYEQY	12	2	10
19	ASRFVGTNQETQY	10	1	3
19	ASRGGGSIAKNIQY	9	2	11
19	ASRGGQGFQETQY	10	5	2
19	ASRHAQGGSPLH	5	8	10
19	ASRHAQVGSPLH	5	1	1
19	ASRHEQGGSPLH	5	13	11
19	ASRHGEGGSPLH	5	14	10
19	ASRHGHGGSPLH	5	5	11
19	ASRHGKGGSPLH	5	31	22
19	ASRHGPGGSPLH	5	1	2
19	ASRHGQAGSPLH	5	4	120
19	ASRHGQCGSPLH	5	22	13
19	ASRHGQDGSPLH	5	11	86
19	ASRHGQGASPLH	5	15	54
19	ASRHGQGCSPLH	5	20	14
19	ASRHGQGDSPLH	5	17	31
19	ASRHGQGGSPLH	5	25343	34384
19	ASRHGQGRSPLH	5	1	7
19	ASRHGQGSSPLH	5	12	24
19	ASRHGQGVSPLH	5	19	35
19	ASRHGQRGSPLH	5	2	8
19	ASRHGQSGSPLH	5	13	13
19	ASRHGQVGSPLH	5	16	66
19	ASRHGRGGSPLH	5	40	48
19	ASRHRQGGSPLH	5	28	136
19	ASRHVQGGSPLH	5	20	39
19	ASRKAAGVLDTQY	8	4	1
19	ASRLAGGRGETQY	10	89	2392
19	ASRLGQGGSPLH	5	7	5
19	ASRLGSGDTDTQY	8	4	3
19	ASRLGTPNEQF	6	2	18
19	ASRLRDTQY	8	1	2
19	ASRNGQGGSPLH	5	16	33
19	ASRPGQGGSPLH	5	3	1
19	ASRQGAGTSGRETQY	10	1	2
19	ASRQGQGGSPLH	5	25	23
19	ASRRGQGGSPLH	5	52	84
19	ASRRSLGEQY	12	4	2
19	ASRTLAGITDTQY	8	5	33465
19	ASRTWSVSNNEQF	6	1	1
19	ASRYGQGGSPLH	5	53	49
19	ASSCSSPYEQY	12	4	4
19	ASSEGQGFQETQY	10	7	3
19	ASSELGTTINEQF	6	13	4
19	ASSFAGTNQETQY	10	6	11
19	ASSFASPYEQY	12	6	2
19	ASSFCSPYEQY	12	18	14
19	ASSFFSPYEQY	12	7	8
19	ASSFGTPNEQF	6	3	74
19	ASSFIGTNQETQY	10	1	3
19	ASSFLAGTDTQY	8	3074	403
19	ASSFLASTDTQY	8	1	1
19	ASSFLVGTDTQY	8	4	3
19	ASSFPSPYEQY	12	15	37
19	ASSFRDTQY	8	1	5
19	ASSFRMDEQY	12	4	1
19	ASSFSAGTDTQY	8	1	1
19	ASSFSAPYEQY	12	4	3
19	ASSFSLPYEQY	12	6	38
19	ASSFSPPYEQY	12	28	39
19	ASSFSSAYEQY	12	7	2
19	ASSFSSHYEQY	12	5	24
19	ASSFSSLYEQY	12	7	17
19	ASSFSSPCEQY	12	23	22
19	ASSFSSPDEQY	12	2	2
19	ASSFSSPHEQY	12	8	13
19	ASSFSSPYEQF	6	3	3
19	ASSFSSPYEQY	12	18548	33535
19	ASSFSSPYEQY	5	32	45
19	ASSFSSPYEQY	6	16	20
19	ASSFSSRYEQY	12	11	14
19	ASSFSSSYEQY	12	7	8
19	ASSFSSTYEQY	12	9	14
19	ASSFSTPYEQY	12	4	4
19	ASSFTSPYEQY	12	4	1
19	ASSFVAGTDTQY	8	1	6
19	ASSFVGANQETQY	10	5	20
19	ASSFVGKNQETQY	10	4	11
19	ASSFVGTDQETQY	10	4	9
19	ASSFVGTIQETQY	10	2	10
19	ASSFVGTKQETQY	10	1	10
19	ASSFVGTNQDTQY	10	4	11
19	ASSFVGTNQETQY	10	2191	12258
19	ASSFVGTNQGTQY	10	7	15
19	ASSFVGTNRETQY	10	6	13
19	ASSFVGTSQETQY	10	6	34
19	ASSFVGYEQY	12	12	7
19	ASSFVRTNQETQY	10	1	24
19	ASSFVVTNQETQY	10	3	7
19	ASSFWYNEQF	6	1	1
19	ASSFYRGVGVKSYHEQY	12	1	8837
19	ASSFYSPYEQY	12	11	31
19	ASSGEQGFQETQY	10	1	4
19	ASSGGEGFQETQY	10	6	2
19	ASSGGHGFQETQY	10	6	3
19	ASSGGKGFQETQY	10	7	10
19	ASSGGPGFQETQY	10	1	4
19	ASSGGQAFQETQY	10	3	2
19	ASSGGQDFQETQY	10	2	1
19	ASSGGQGCQETQY	10	2	10
19	ASSGGQGFEETQY	10	3	4
19	ASSGGQGFHETQY	10	2	1
19	ASSGGQGFKETQY	10	4	6
19	ASSGGQGFQDTQY	10	12	3
19	ASSGGQGFQETQY	10	8676	8215
19	ASSGGQGFQGTQY	10	20	16
19	ASSGGQGFRETQY	10	5	7
19	ASSGGQGLQETQY	10	30	25
19	ASSGGQGSQETQY	10	10	21
19	ASSGGQSFQETQY	10	1	4
19	ASSGGQVFQETQY	10	8	7
19	ASSGGRGFQETQY	10	14	10
19	ASSGRQGFQETQY	10	2	4
19	ASSGSLGEQY	12	3	3
19	ASSGVQGFQETQY	10	10	3
19	ASSHRGGAKNIQY	9	152	4
19	ASSIGSGDTDTQY	8	2	1
19	ASSINGDTQY	8	1	10269
19	ASSKGGDYNEQF	6	5	1
19	ASSKSLGEQY	12	2	2
19	ASSLADTVYNEQF	6	1	10899
19	ASSLCSGDTDTQY	8	14	22
19	ASSLDSGDTDTQY	8	4	4
19	ASSLETPNEQF	6	5	42
19	ASSLGAPNEQF	6	7	135
19	ASSLGCGDTDTQY	8	6	29
19	ASSLGDGVNEQY	12	20	4
19	ASSLGDMVNEQY	12	2	2
19	ASSLGDRVKEQY	12	5	2
19	ASSLGDRVNEQY	12	1157	1874
19	ASSLGDRVSEQY	12	2	4
19	ASSLGDTQY	8	2	8
19	ASSLGGGDTDTQY	8	21	3
19	ASSLGIGDTDTQY	8	16	4
19	ASSLGIPNEQF	6	3	84
19	ASSLGKPNEQF	6	9	199
19	ASSLGLHNEQF	6	1	12605
19	ASSLGLHYEQY	12	2	1
19	ASSLGNGDTDTQY	8	4	1
19	ASSLGNRVNEQY	12	31	2
19	ASSLGRGDTDTQY	8	22	13
19	ASSLGRPNEQF	6	7	134
19	ASSLGSEDTDTQY	8	10	4
19	ASSLGSGATDTQY	8	2	11
19	ASSLGSGDADTQY	8	28	10
19	ASSLGSGDIDTQY	8	13	3
19	ASSLGSGDKDTQY	8	10	8
19	ASSLGSGDRDTQY	8	4	6
19	ASSLGSGDTDTQY	10	6	2
19	ASSLGSGDTDTQY	8	16884	7184
19	ASSLGSGDTGTQY	8	32	10
19	ASSLGSGETDTQY	8	23	8
19	ASSLGSGGTDTQY	8	21	17
19	ASSLGSGHTDTQY	8	6	4
19	ASSLGSGNTDTQY	8	2683	4
19	ASSLGSGVTDTQY	8	4	5
19	ASSLGSGYTDTQY	8	14	5
19	ASSLGSRDTDTQY	8	14	6
19	ASSLGSVDTDTQY	8	6	3
19	ASSLGSWDTDTQY	8	7	2
19	ASSLGTANEQF	6	5	18
19	ASSLGTPDEQF	6	8	90
19	ASSLGTPNEQF	6	5004	67212
19	ASSLGTPNEQL	6	19	150
19	ASSLGTPNEQY	6	8	125
19	ASSLGTPSEQF	6	26	610
19	ASSLGTQNEQF	6	3	43
19	ASSLGTRNEQF	6	4	22
19	ASSLGTSNEQF	6	5	27
19	ASSLGTTNEQF	6	2	37
19	ASSLHIGGREQY	12	1	4
19	ASSLIMDEQY	12	1	1
19	ASSLLGLGNIQY	9	1	14658
19	ASSLLGSEDTQY	8	227	225
19	ASSLNKPYEQY	12	1	2
19	ASSLPIGGREQY	12	317	3906
19	ASSLPIGSREQY	12	1	2
19	ASSLQDNYEQY	12	1	1
19	ASSLQTETQY	10	1	14735
19	ASSLRDTQY	8	652	9261
19	ASSLRFPGSGHEQY	12	21	36
19	ASSLRIDEQY	12	7	1
19	ASSLRMDEQY	12	3826	170
19	ASSLRMEEQY	12	6	1
19	ASSLRTGNYEQY	12	13	37
19	ASSLRTPNEQF	6	3	55
19	ASSLRWGVSGNTIY	2	1	5066
19	ASSLSDTQY	8	1	9
19	ASSLSLPGRDTQY	8	3	3
19	ASSLSSGDTDTQY	8	6	9
19	ASSLSSGGIPYNEQF	6	1	5050
19	ASSLSSPYEQY	12	76	127
19	ASSLVGTNQETQY	10	8	72
19	ASSLVSGDTDTQY	8	16	2
19	ASSLWAVNLPGEQY	12	44	109
19	ASSLWTPGNTIY	2	3	16817
19	ASSLWTPNEQF	6	3	16
19	ASSPIADLAKNIQY	9	3	1
19	ASSPNKPYEQY	12	1	3
19	ASSPPGALETQY	10	1	288
19	ASSPPHNEQF	6	47612	1
19	ASSPPRGEETQY	10	4	1
19	ASSPPRGGETQY	10	4732	244
19	ASSPPVSSLNTEAF	0	1	330
19	ASSPQDNYEQY	12	107	1293
19	ASSPRDTQY	8	2	31
19	ASSPRVLHEQF	6	4	2
19	ASSPSGGAPGANVLT	11	8	2
19	ASSPSYRGAGGRIYNEQF	6	2	1
19	ASSPSYRRAGGRIYNEQF	6	417	134
19	ASSPSYRRAGGRTYNEQF	6	1	2
19	ASSPTGLGYNEQF	6	16	15
19	ASSPTGTGLYNEQF	6	2	4
19	ASSPYNEQF	6	10	1
19	ASSQGAGTSGRETQY	10	117	684
19	ASSRGLGEQY	12	53	70
19	ASSRGQGFQETQY	10	8	6
19	ASSRILGEQY	12	3	4
19	ASSRLWGAIGNTIY	2	1	1
19	ASSRREAKNIQY	9	113	1
19	ASSRRLGEQY	12	8	5
19	ASSRSFGEQY	12	4	2
19	ASSRSGLRGSYNEQF	6	5432	160
19	ASSRSHGEQY	12	1	2
19	ASSRSLGEQY	12	3377	3022
19	ASSRSLGEQY	6	2	3
19	ASSRSLREQY	12	5	2
19	ASSSGSGDTDTQY	8	7	6
19	ASSSGTPNEQF	6	1	60
19	ASSSLAGTDTQY	8	5	2
19	ASSSNKPYEQY	12	355	4600
19	ASSSNKPYEQY	6	1	2
19	ASSSPGLAGADTQY	8	1	2413
19	ASSSPYEQY	12	3	9
19	ASSSQGAPYNEQF	6	2	8111
19	ASSSRDRGFYEQY	12	1	1
19	ASSSSLGEQY	12	2	5
19	ASSSSSPYEQY	12	26	62
19	ASSSVGTNQETQY	10	451	16
19	ASSTRTSVSAIQY	9	19748	1
19	ASSVGQGFQETQY	10	5	5
19	ASSVGSGDTDTQY	8	5	3
19	ASSVGTPNEQF	6	1	361
19	ASSVLGSEDTQY	8	1	2
19	ASSVSSPYEQY	12	5	171
19	ASSWGQGFQETQY	10	7	1
19	ASSWGTPNEQF	6	2	15
19	ASTFSSPYEQY	12	4	14
19	ASTFVGTNQETQY	10	2	4
19	ASTRTSGYEQY	12	1	1
19	ASTSGGDRSSYNEQF	6	239	23
19	ASTSLYNEQF	6	1	1
19	ASTTSTYEQY	12	17	25
19	ASVGGGSIAKNIQY	9	1	3
19	ASWHGQGGSPLH	5	70	188
19	ATRHGQGGSPLH	5	5	11
19	ATSFSSPYEQY	12	2	2
19	ATSLGSGDTDTQY	8	1	8
19	TSRHGQGGSPLH	5	10	62
19	TSSFSSPYEQY	12	16	39
19	TSSGGQGFQETQY	10	4	4
19	TSSLGSGDTDTQY	8	7	4
19	VSRHGQGGSPLH	5	12	104
19	VSSFSSPYEQY	12	11	20
19	VSSGGQGFQETQY	10	4	11
19	VSSLGSGDTDTQY	8	9	3
19	VSSLGTPNEQF	6	2	30
19	VSSLRDTQY	8	1	3
19	VSSRSGLRGSYNEQF	6	7	2
2	AIGEPRSSTDTQY	8	1	10
2	AIGYGGDSYEQY	12	1320	70
2	AIKLAGANNEQF	6	1348	3
2	AIKVDIQETQY	10	1	1
2	AIRGDNEYQETQY	10	1	8
2	AIRGGGTFYEQF	6	1	1238
2	AIRLTSGDNEQF	6	18	173
2	AIRTRGGSGNEQF	6	3	2
2	AIRVDIQETQY	10	839	1065
2	AIRVDIQGTQY	10	1	5
2	AISEGLAGGTDTQY	8	227	2
2	AISEGQESTDTQY	8	1	517
2	AISELGTTINEQF	6	13	2
2	AISEPRGSTDTQY	8	79	16
2	AISEPRSGTDTQY	8	2	9
2	AISEPRSSTDTQY	8	331	8854
2	AISERGDNEQF	6	2	13224
2	AISERTDTQY	8	1	11311
2	AISESDRGTYNEQF	6	56	271
2	AISESIAGRSGEQF	6	1	1
2	AISESMAASGNNEQF	6	2	1
2	AISESMLGGQSNIQY	9	71	317
2	AISEYDRGTYNEQF	6	1	2
2	AISGDDEYQETQY	10	1	18
2	AISGDNDYQETQY	10	1	5
2	AISGDNEYQETQY	10	244	9813
2	AISGENEYQETQY	10	1	9
2	AISGGMYNEQF	6	3	1368
2	AISGSFQRDGNEQF	6	3	1
2	AISPGHGYEQY	12	5	1
2	AISPGQGYEQF	6	1	1
2	AISPGQGYEQY	12	5837	404
2	AISPGQGYEQY	6	8	3
2	AISPGRGYEQY	12	9	1
2	AISPTGLRNEQY	12	2	211
2	AISQPSGGETQY	10	172	522
2	AISVDNEYQETQY	10	1	2
2	ARGGGAADEQF	6	1	6
2	ASGELGTTINEQF	6	1	2
2	ASGGGAADEQF	6	293	2089
2	ASGGGGADEQF	6	1	7
2	ASRGSDTDTQY	8	17	559
2	ASSEAGGETQY	10	1	3
2	ASSELGTTINEQF	6	781	64
2	ASSELGTTTNEQF	6	3	1
2	ASSPTGLGYNEQF	6	2	4
2	ASTRTSGYEQY	12	1	5
2	ATNRDRETQY	10	48	41
2	ATSEPRSSTDTQY	8	1	20
2	ATWTRGQETQY	10	1	2
20	SAANPGTRYEQY	12	5	1
20	SAEGQGVSEQF	6	45	1741
20	SAERGETQY	10	23	11
20	SALDGQASYEQY	12	1	3
20	SALSGQGGEQF	6	38	12
20	SALSRTGVDEQY	12	4	3
20	SANMVERTDTQY	8	3	1
20	SAQGHPDTQY	8	13	12
20	SAQPDPNSYSEQF	6	2	531
20	SARGAGLYEQY	12	121	229
20	SARGTASYEQY	12	170	1
20	SARGTGGRDEQY	12	1	4780
20	SARTGGALITDTQY	8	146	151
20	SATGGSYNEQF	6	1	5355
20	SATGKDTQY	8	1	1
20	SATTGASYNEQF	6	1	2
20	SATVELGNTIY	2	2	4398
20	SAVGQGVSEQF	6	1	1
20	SVADYNEQF	6	12	5
20	SVAISNEQF	6	3	35621
20	SVAMGNEQF	6	1	1
20	SVANPGTRYEQY	12	585	369
20	SVARDSPLYNEQF	6	1	676
20	SVDASTRDTQY	8	5	15685
20	SVDDPETYEQY	12	73	1
20	SVDLGDRDDEQF	6	2	1267
20	SVDLLARHNEQF	6	3892	22
20	SVDRSVGINEQF	6	273	132
20	SVDSGAPGDEQY	12	267	396
20	SVDSGTDTQY	8	32	2
20	SVDTSQSTDTQY	8	2	6
20	SVDWTATDTQY	8	1950	1
20	SVEARGTDTQY	8	1	2012
20	SVEDHLGQGYEQY	12	1	4529
20	SVEDPRTTSGNTDTQY	8	8615	1
20	SVEDVGGEQY	12	1729	1
20	SVEEEETYEQY	12	1	1403
20	SVEGGETQY	10	41	13
20	SVEGHPDTQY	8	7	4
20	SVEGQGVSEQF	6	1	3
20	SVEGVGDYNEQF	6	57	15
20	SVEIGETQY	10	12	8
20	SVEKATTYNEQF	6	1	1
20	SVEKGETQY	10	4	15
20	SVEKSQSTDTQY	8	2	3
20	SVELWERETQY	10	21	7
20	SVEPAVRFEDTQY	8	3917	132
20	SVEPAVRLEDTQY	8	20	2
20	SVEQGVGYNEQF	6	6570	2
20	SVERAETQY	10	3	3
20	SVEREETQY	10	10	5
20	SVERGDTQY	10	18	9
20	SVERGETQY	10	13782	8849
20	SVERGGTQY	10	17	12
20	SVERRETQY	10	5	3
20	SVERWGGTKNIQY	9	21116	1
20	SVESFSYNEQF	6	1	3205
20	SVESGETQY	10	4	3
20	SVETGETQY	10	2	20
20	SVETGGKETQY	10	15813	1
20	SVETPQSTDTQY	4	4	5
20	SVETSQSTDTQY	8	1098	957
20	SVETSQSTGTQY	8	2	1
20	SVETYQSTDTQY	8	2	1
20	SVFDGQASYEQY	12	2	2
20	SVGPAVRFEDTQY	8	8	1
20	SVGPGSTDTQY	8	2	2865
20	SVGQGASGNTIY	2	155	131
20	SVGQGGDTQY	8	9459	61
20	SVGRGETQY	10	16	35
20	SVGTSQSTDTQY	8	3	1
20	SVHGHPDTQY	8	4	3
20	SVIGVHEQF	6	1	26
20	SVKGHPDTQY	8	12	10
20	SVKRGETQY	10	12	1
20	SVLDGQASYEQY	12	644	720
20	SVLDGRASYEQY	12	1	1
20	SVLGHPDTQY	8	2	3
20	SVLGRTGVDEQY	12	47	5
20	SVLIRTGVDEQY	12	7	1
20	SVLPLLAASEQY	12	1	1
20	SVLPRDRGYEQY	12	1	545
20	SVLQGPETQY	10	405	441
20	SVLRRTGVDEQY	12	2	1
20	SVLSRTGVDEQY	12	2648	607
20	SVLSRTGVDEQY	6	11	1
20	SVLSRTVVDEQY	12	1	1
20	SVPGGGRYNEQF	6	5	10411
20	SVQAHPDTQY	8	3	2
20	SVQGDPDTQY	8	1	6
20	SVQGHLDTQY	8	5	6
20	SVQGHPDTQY	10	3	1
20	SVQGHPDTQY	8	6696	6475
20	SVQGHPGTQY	8	14	10
20	SVQGHSDTQY	8	6	3
20	SVQGNPDTQY	8	8	6
20	SVQGPPDTQY	8	2	18
20	SVQGRPDTQY	8	18	27
20	SVQRGETQY	10	4	3
20	SVQSHPDTQY	8	5	3
20	SVRADQETQY	10	170	798
20	SVRDRYNEQF	6	3	2
20	SVRGGGETQY	10	3429	1
20	SVRGHPDTQY	8	10	4
20	SVRTGTTTDTQY	8	311	737
20	SVSGGKRDTQY	8	1881	1
20	SVSTGTTTDTQY	8	2	3
20	SVSWMGQVSYNEQF	6	12745	1
20	SVTPGKAGGDTQY	8	3	10
20	SVTVGLAGPYNEQF	6	34	8
20	SVVDYNEQF	6	4314	1139
20	SVVDYNEQY	6	2	4
20	SVVEYNEQF	6	7	2
20	SVVGDTRSYEQY	12	16	19
20	SVVGGDQETQY	10	2	3
20	SVVGGDYEQY	12	1	4715
20	SVVGYNEQF	6	12	8
20	SVVNDGNTIY	2	4	2
20	SVVYYNEQF	6	10	2
20	SVWDRYNEQF	6	557	463
21	AISHLRSGTRGYNEQF	6	5	6
21	AISPAGLGYNEQF	6	1	3
21	AISPTGLGYNEQF	6	502	1753
21	AISPTGLGYNEQY	6	1	2
21	AITAGNEQF	6	2	1
21	ARGPTGLGYNEQF	6	11	10
21	ARSPAGLGYNEQF	6	1	5
21	ARSPTGLGYDEQF	6	1	2
21	ARSPTGLGYNEQF	6	643	927
21	ASAAGNEQF	6	9	4
21	ASCPTGLGYNEQF	6	126	330
21	ASDPTGLGYNEQF	6	3	1
21	ASGHLRSGTRGYNEQF	6	6	92
21	ASGPAGLGYNEQF	6	5	3
21	ASGPRDRGTYEQY	12	4	3
21	ASGPTGLCYNEQF	6	1	1
21	ASGPTGLGCNEQF	6	5	1
21	ASGPTGLGDNEQF	6	1	1
21	ASGPTGLGYNEQF	6	2609	1983
21	ASGPTGLGYNEQL	6	10	6
21	ASGPTGLGYNEQY	6	3	4
21	ASGPTGLVYNEQF	6	2	2
21	ASGPTSLGYNEQF	6	1	3
21	ASGQDNNYEQY	12	2	3
21	ASIHLRSGTRGYNEQF	6	5	23
21	ASIPTCLGYNEQF	6	1	1
21	ASIPTGLCYNEQF	6	1	3
21	ASIPTGLGYNEQF	6	708	577
21	ASIPTGLGYNEQL	6	4	5
21	ASIPTSLGYNEQF	6	2	1
21	ASKPTGLGYNEQF	6	11	3
21	ASMPTGLGYNEQF	6	31	5
21	ASNAGNEQF	6	2	1
21	ASNPTCLGYNEQF	6	1	2
21	ASNPTGLGCNEQF	6	3	3
21	ASNPTGLGYNEQF	6	563	618
21	ASNPTGLGYNEQL	6	1	3
21	ASNPTGLVYNEQF	6	1	2
21	ASRPTGLGHNEQF	6	1	3
21	ASRPTGLGYNEQF	6	796	662
21	ASRPTGLGYNEQY	6	2	1
21	ASRPTGLGYSEQF	6	1	3
21	ASRPTGPGYNEQF	6	1	3
21	ASRQEASPTGEQY	12	2	2
21	ASSAGNEQF	6	2	3
21	ASSATGLGYNEQF	6	338	138
21	ASSELGTTINEQF	6	307	25
21	ASSGPERGRNEQF	6	2	1
21	ASSHAGLGYNEQF	6	1	1
21	ASSHLCSGTRGYNEQF	6	2	14
21	ASSHLHSGTRGYNEQF	6	3	10
21	ASSHLLSGTRGYNEQF	6	8	45
21	ASSHLRAGTRGYNEQF	6	1	14
21	ASSHLRCGTRGYNEQF	6	2	3
21	ASSHLRFGTRGYNEQF	6	1	155
21	ASSHLRPGTRGYNEQF	6	6	29
21	ASSHLRSGARGYNEQF	6	4	79
21	ASSHLRSGNRGYNEQF	6	6	8
21	ASSHLRSGTGGYNEQF	6	2	43
21	ASSHLRSGTKGYNEQF	6	4	7
21	ASSHLRSGTMGYNEQF	6	1	8
21	ASSHLRSGTRAYNEQF	6	1	46
21	ASSHLRSGTREYNEQF	6	3	62
21	ASSHLRSGTRGCNEQF	6	6	42
21	ASSHLRSGTRGHNEQF	6	4	17
21	ASSHLRSGTRGYDEQF	6	4	40
21	ASSHLRSGTRGYIEQF	6	1	1
21	ASSHLRSGTRGYNEQF	6	2806	19070
21	ASSHLRSGTRGYNEQL	6	9	72
21	ASSHLRSGTRGYNEQY	6	1	51
21	ASSHLRSGTRVYNEQF	6	2	30
21	ASSHLRSGTRWYNEQF	6	1	2
21	ASSHLRSGTSGYNEQF	6	5	7
21	ASSHLRSRTRGYNEQF	6	1	19
21	ASSHLRSVTRGYNEQF	6	8	4
21	ASSHLRSWTRGYNEQF	6	2	58
21	ASSHPRSGTRGYNEQF	6	3	44
21	ASSHQGRTDTQY	8	4997	1
21	ASSHRRSGTRGYNEQF	6	1	28
21	ASSHTGLGYNEQF	6	217	160
21	ASSKGGDYNEQF	6	61	5
21	ASSLATGLAASSYEQY	12	2	2
21	ASSLGNEQF	6	19144	1
21	ASSLGPAGEGEETQY	10	2	436
21	ASSLGRGETQY	10	11	1
21	ASSLKGLGYNEQF	6	1	1
21	ASSLLRSGTRGYNEQF	6	2	30
21	ASSLRFPGSGHEQY	12	17	5
21	ASSLSAPWAVNTEAF	0	3	95
21	ASSLTGLGYNEQF	6	704	565
21	ASSLTGLGYNEQL	6	6	4
21	ASSLTGLSYNEQF	6	3	1
21	ASSLYNEQF	6	1	2992
21	ASSNLRSGTRGYNEQF	6	1	8
21	ASSPACLGYNEQF	6	4	3
21	ASSPAGLGYDEQF	6	5	1
21	ASSPAGLGYNEQF	6	2490	1282
21	ASSPAGLGYNEQL	6	9	5
21	ASSPAGLGYNEQY	6	5	1
21	ASSPAGLGYSEQF	6	4	3
21	ASSPAGMGYNEQF	6	5	2
21	ASSPAGPGYNEQF	6	2	1
21	ASSPAGRGYNEQF	6	3	1
21	ASSPASLGYNEQF	6	2	3
21	ASSPFPLCSYNEQF	6	7	3
21	ASSPKGLGYNEQF	6	444	326
21	ASSPLGLNYEQY	12	1	2070
21	ASSPLRSGTRGYNEQF	6	2	49
21	ASSPMGASTDTQY	8	2	1
21	ASSPMGLGCNEQF	6	5	1
21	ASSPMGLGYNEQF	6	1077	733
21	ASSPMGLGYNEQL	6	1	6
21	ASSPMGLGYSEQF	6	1	3
21	ASSPPDRGTYEQY	12	1	1
21	ASSPPGLGYNEQF	6	91	119
21	ASSPQWGGYNEQF	6	1	1
21	ASSPRAVQETQY	10	1	8753
21	ASSPRDRGTYEQY	12	2304	668
21	ASSPRDSGTYEQY	12	1	2
21	ASSPRERGTYEQY	12	6	1
21	ASSPRGLGYNEQF	6	380	147
21	ASSPRGRGTYEQY	12	6	1
21	ASSPRNRGTYEQY	12	4	1
21	ASSPSGLGYDEQF	6	2	2
21	ASSPSGLGYNEQF	6	176	1054
21	ASSPTALGYNEQF	6	212	191
21	ASSPTCLGYNEQF	6	564	2891
21	ASSPTCLGYSEQF	6	2	9
21	ASSPTDLGYNEQF	6	581	673
21	ASSPTDLGYNEQL	6	3	7
21	ASSPTGDSYNEQF	6	24	1018
21	ASSPTGLADNEQF	6	1	2
21	ASSPTGLAYDEQF	6	1	2
21	ASSPTGLAYNEQF	6	269	2274
21	ASSPTGLCSYNEQF	6	7	2
21	ASSPTGLCYNEQF	6	574	211
21	ASSPTGLCYSEQF	6	1	1
21	ASSPTGLDCNEQF	6	2	2
21	ASSPTGLDYNEQF	6	1183	2101
21	ASSPTGLDYSEQF	6	2	14
21	ASSPTGLGCDEQF	6	4	6
21	ASSPTGLGCNEQF	6	2189	3166
21	ASSPTGLGCNEQL	6	5	16
21	ASSPTGLGCSEQF	6	7	6
21	ASSPTGLGDNEQF	6	271	181
21	ASSPTGLGFNEQF	6	179	449
21	ASSPTGLGHNEQF	6	1627	1257
21	ASSPTGLGHNEQL	6	4	2
21	ASSPTGLGNNEQF	6	95	64
21	ASSPTGLGRNEQF	6	4	2
21	ASSPTGLGSNEQF	6	90	666
21	ASSPTGLGSYEQY	12	2	1
21	ASSPTGLGYDEQF	6	1892	1439
21	ASSPTGLGYDEQL	6	10	3
21	ASSPTGLGYDEQY	6	3	1
21	ASSPTGLGYEQY	12	15	8
21	ASSPTGLGYGEQF	6	3	6
21	ASSPTGLGYHEQF	6	53	31
21	ASSPTGLGYIEQF	6	40	60
21	ASSPTGLGYNEQF	6	1274045	993760
21	ASSPTGLGYNEQL	6	4519	4279
21	ASSPTGLGYNEQY	12	86	55
21	ASSPTGLGYNEQY	6	1656	1889
21	ASSPTGLGYSEQF	6	1900	3874
21	ASSPTGLGYSEQL	6	6	13
21	ASSPTGLGYTEQF	1	72	54
21	ASSPTGLGYYEQF	6	52	28
21	ASSPTGLNYNEQF	6	1	4
21	ASSPTGLRYNEQF	6	117	69
21	ASSPTGLSYNEQF	6	808	922
21	ASSPTGLVHNEQF	6	1	2
21	ASSPTGLVYDEQF	6	1	5
21	ASSPTGLVYNEQF	6	623	1335
21	ASSPTGLVYNEQL	6	7	3
21	ASSPTGLYYNEQF	6	2	3
21	ASSPTGMGYNEQF	6	1004	736
21	ASSPTGMSYNEQF	6	2	4
21	ASSPTGPDYNEQF	6	5	2
21	ASSPTGPGHNEQF	6	2	1
21	ASSPTGPGYDEQF	6	4	3
21	ASSPTGPGYNEQF	6	2268	1831
21	ASSPTGPGYNEQL	6	15	5
21	ASSPTGPGYNEQY	6	4	4
21	ASSPTGPGYSEQF	6	5	4
21	ASSPTGQGYNEQF	6	401	238
21	ASSPTGRGYNEQF	6	471	262
21	ASSPTGRGYNEQL	6	3	3
21	ASSPTGRGYNEQY	6	1	1
21	ASSPTGTGYNEQF	6	14	1
21	ASSPTGVGYNEQF	6	435	207
21	ASSPTILGYNEQF	6	3	2
21	ASSPTRLGCNEQF	6	1	2
21	ASSPTRLGYNEQF	6	79	425
21	ASSPTSDSSYEQY	12	4	6
21	ASSPTSLCYNEQF	6	1	1
21	ASSPTSLGCNEQF	6	8	4
21	ASSPTSLGYNEQF	6	1315	1221
21	ASSPTSLGYNEQL	6	6	5
21	ASSPTVLGYNEQF	6	824	491
21	ASSPTVLGYNEQL	6	4	4
21	ASSPTVPGYNEQF	6	1	1
21	ASSPVGLGYNEQF	6	3	1
21	ASSQASNEQF	6	482	128
21	ASSQASNEQL	6	1	1
21	ASSQAWGASGGRDEQF	6	1	1
21	ASSQDASPTGEQY	12	1	5
21	ASSQDDNYEQY	12	1	3
21	ASSQDNNYEQY	12	2	2630
21	ASSQDVGGPSDEQF	6	12	16
21	ASSQDVLSQPQH	4	2	1
21	ASSQEAAPTGEQY	12	1	2
21	ASSQEAPPTGEQY	12	2	8
21	ASSQEASPTGEQY	12	223	2750
21	ASSQEASTTGEQY	12	1	2
21	ASSQEEGIAGPAEQY	12	1	1
21	ASSQETSGENEQF	6	1	1
21	ASSQGASPTGEQY	12	3	5
21	ASSQGGVWNEQF	6	1791	2
21	ASSQGSYNEQF	6	1	3
21	ASSQGTGTTDTQY	8	2	1
21	ASSQKMFNWGSTDTQY	8	142	148
21	ASSQQQWGGLAKNIQY	9	6130	1
21	ASSQVAGEQF	6	2	1
21	ASSQVGPDEQY	12	2	6
21	ASSQVGWNYNEQF	6	2	14065
21	ASSQVSYEQY	12	1139	3
21	ASSRLRSGTRGYNEQF	6	7	86
21	ASSRTGLGYNEQF	6	307	127
21	ASSSGDPYNEQF	6	3	42900
21	ASSSTGLGCNEQF	6	2	1
21	ASSSTGLGYDEQF	6	1	1
21	ASSSTGLGYNEQF	6	751	512
21	ASSSTWDSPYEQY	12	4	3
21	ASSTMGLGYNEQF	6	3	1
21	ASSTTGLGYNEQF	6	696	295
21	ASSTTGLGYNEQL	6	5	3
21	ASSVGASGGDQETQY	10	4	1
21	ASSYLRSGTRGYNEQF	6	4	15
21	ASSYTGLGYNEQF	6	3	2
21	ASTAGNEQF	6	2205	4006
21	ASTAGNEQY	6	3	4
21	ASTAGSEQF	6	3	11
21	ASTAVNEQF	6	7	1
21	ASTEGNEQF	6	2	11
21	ASTGGNEQF	6	1	4
21	ASTHLRSGTRGYNEQF	6	2	8
21	ASTPTGLGYNEQF	6	119	86
21	ASTSGNEQF	6	1	1
21	ASVPTGLGYNEQF	6	6	2
21	ATSPTGLGYNEQF	6	111	723
21	TSSHLRSGTRGYNEQF	6	4	7
21	TSSPTCLGYNEQF	6	1	1
21	TSSPTGLGYNEQF	6	708	701
21	TSSPTGLGYNEQY	6	3	5
21	VSSHLRSGTRGYNEQF	6	2	176
21	VSSPTGLDYNEQF	6	3	4
21	VSSPTGLGYDEQF	6	1	2
21	VSSPTGLGYNEQF	6	667	1308
21	VSSPTGLGYNEQL	6	5	6
21	VSSPTGLGYNEQY	6	3	2
21	VSTAGNEQF	6	2	2
22	AWKRRAGVSTDTQY	8	596	117
23	AISPTSDSSYEQY	12	4	46
23	ARSPTSDSSYEQY	12	56	16
23	ASGPTSDSSYEQY	12	19	59
23	ASGQNLGQLYSYEQY	12	78	7
23	ASGQVEGDGLFEQY	12	8	2
23	ASIPTSDSSYEQY	12	10	15
23	ASNPTSDSSYEQY	12	9	9
23	ASNQNLGQLYSYEQY	12	28	2
23	ASRPTSDSSYEQY	12	7	21
23	ASRQVEGDGLFEQY	12	4	7
23	ASSATSDSSYEQY	12	4	5
23	ASSELGTTINEQF	6	24	2
23	ASSENLGQLYSYEQY	12	10	2
23	ASSHTSDSSYEQY	12	3	1
23	ASSLNLGQLYSYEQY	12	8	4
23	ASSLTSDSSYEQY	12	8	5
23	ASSPASDSSYEQY	12	16	23
23	ASSPFEGYETQY	10	613	270
23	ASSPHRAVSYNEQF	6	1	1
23	ASSPHSRGDYNEQF	6	3260	3
23	ASSPISDSSYEQY	12	7	4
23	ASSPLSRQEPYEQY	12	1	7
23	ASSPLSRQGHYEQY	12	1	1
23	ASSPLSRQGPYEQY	12	122	1673
23	ASSPLSRQVPYEQY	12	1	3
23	ASSPNLGQLYSYEQY	12	11	8
23	ASSPNSDSSYEQY	12	9	11
23	ASSPPSDSSYEQY	12	3	4
23	ASSPSSDSSYEQY	12	4	28
23	ASSPTADSSYEQY	12	9	130
23	ASSPTGLGYNEQF	6	6	2
23	ASSPTLDSSYEQY	12	9	11
23	ASSPTPDSSYEQY	12	10	117
23	ASSPTSDGSYEQY	12	23	26
23	ASSPTSDISYEQY	12	21	35
23	ASSPTSDNSYEQY	12	5	48
23	ASSPTSDRPYEQY	12	1	1
23	ASSPTSDRSYEQY	12	20	14
23	ASSPTSDSAYEQY	12	2	3
23	ASSPTSDSCYEQY	12	4	6
23	ASSPTSDSFYEQY	12	11	15
23	ASSPTSDSPYEQY	12	19	34
23	ASSPTSDSSCEQY	12	13	18
23	ASSPTSDSSDEQY	12	5	4
23	ASSPTSDSSHEQY	12	15	32
23	ASSPTSDSSYEQF	6	7	11
23	ASSPTSDSSYEQY	12	16892	24386
23	ASSPTSDSSYEQY	6	14	28
23	ASSPTSDSSYNEQF	6	3	2
23	ASSPTSDSTYEQY	12	12	4
23	ASSPTSDSYYEQY	12	7	6
23	ASSPTSDTSYEQY	12	14	49
23	ASSPTSESSYEQY	12	18	11
23	ASSPTSGSSYEQY	12	31	90
23	ASSPTSHSSYEQY	12	9	9
23	ASSPTSNSSYEQY	12	5	5
23	ASSPTSYSSYEQY	12	15	15
23	ASSPTTDSSYEQY	12	12	14
23	ASSPTWDSSYEQY	12	4	4
23	ASSQAEGDGLFEQY	12	6	1
23	ASSQDASQETQY	10	2	2
23	ASSQDLGQLYSYEQY	12	59	1
23	ASSQDNPIAGGSYEQY	12	5	7
23	ASSQDNPIAGISYEQY	12	2	9
23	ASSQDNPIAGRSYEQY	12	1	3
23	ASSQDNPIAGSPYEQY	12	3	9
23	ASSQDNPIAGSSYEQY	12	1	5
23	ASSQDNPIAVSSYEQY	12	2	2
23	ASSQDNTIAGSSYEQY	2	1	2
23	ASSQDRVDRRAAPYEQY	12	2	2
23	ASSQGDSHNEQF	6	1	18
23	ASSQGGFSGRAHEQF	6	25	1
23	ASSQGLRGLHNEQF	6	1297	1
23	ASSQNLEQLYSYEQY	12	12	1
23	ASSQNLGHLYSYEQY	12	38	2
23	ASSQNLGKLYSYEQY	12	25	1
23	ASSQNLGQLCSYEQY	12	205	9
23	ASSQNLGQLDSYEQY	12	8	1
23	ASSQNLGQLHSYEQY	12	42	2
23	ASSQNLGQLSSYEQY	12	2	5
23	ASSQNLGQLYAYEQY	12	9	2
23	ASSQNLGQLYCYEQY	12	11	1
23	ASSQNLGQLYFYEQY	12	27	3
23	ASSQNLGQLYPYEQY	12	85	482
23	ASSQNLGQLYSCEQY	12	38	1
23	ASSQNLGQLYSHEQY	12	34	1
23	ASSQNLGQLYSNEQY	12	4	1
23	ASSQNLGQLYSYEQY	12	32148	1909
23	ASSQNLGQLYSYEQY	6	25	2
23	ASSQNLGQLYTYEQY	12	9	1
23	ASSQNLGQLYYYEQY	12	10	1
23	ASSQNLGQMYSYEQY	12	19	1
23	ASSQNLGQPYSYEQY	12	51	2
23	ASSQNLGRLYSYEQY	12	54	1
23	ASSQNLRQLYSYEQY	12	12	1
23	ASSQNLVQLYSYEQY	12	34	1
23	ASSQNPGQLYSYEQY	12	63	16
23	ASSQNRGQLYSYEQY	12	15	2
23	ASSQSGTWDEQY	12	133	308
23	ASSQSLGQLYSYEQY	12	97	1
23	ASSQVEGDALFEQY	12	2	2
23	ASSQVEGDELFEQY	12	1	8
23	ASSQVEGDGLFEQY	12	5916	946
23	ASSQVEGDGLLEQY	12	16	11
23	ASSQVEGDGPFEQY	12	9	2
23	ASSQVEGDVLFEQY	12	8	2
23	ASSQVERDGLFEQY	12	4	2
23	ASSQVEWDGLFEQY	12	8	10
23	ASSQVGGDGLFEQY	12	10	1
23	ASSRGEGLSSYEQY	12	1	387
23	ASSRNLGQLYSYEQY	12	48	4
23	ASSRVEGDGLFEQY	12	11	1
23	ASSSTSDSSYEQY	12	11	12
23	ASSTTSDSSYEQY	12	4	9
23	ASTDGLAETQY	10	1	5
23	ASTPTSDSSYEQY	12	4	4
23	ASTQNLGQLYSYEQY	12	5	1
23	TSSPFEGYETQY	10	1	1
23	TSSPTSDSSYEQY	12	7	9
23	TSSQNLGQLYSYEQY	12	27	2
23	VSSPTSDSSYEQY	12	12	25
23	VSSQNLGQLYSYEQY	12	15	3
24	AISQGTGTTDTQY	8	4	3
24	ASGQGTGTTDTQY	8	21	3
24	ASIQGTGTTDTQY	8	4	1
24	ASNQGTGTTDTQY	8	4	3
24	ASSPTGLGYNEQF	6	13	3
24	ASSQALGASGGRDEQF	6	1	1
24	ASSQARGASGGRDEQF	6	6	10
24	ASSQAWGANGGRDEQF	6	1	2
24	ASSQAWGASEGRDEQF	6	6	3
24	ASSQAWGASGGGDEQF	6	1	4
24	ASSQAWGASGGRDEQF	6	618	3557
24	ASSQAWGASGGRDEQL	6	5	5
24	ASSQAWGVSGGRDEQF	6	1	3
24	ASSQDRVDRRAAPYEQY	12	1	1
24	ASSQDWGASGGRDEQF	6	3	1
24	ASSQEGQFVGETQY	10	3	5
24	ASSQGAGTTDTQY	8	189	5
24	ASSQGKGTTDTQY	8	6	1
24	ASSQGLASYEQY	12	1	1
24	ASSQGSGTTDTQY	8	3	8
24	ASSQGTGATDTQY	8	17	1
24	ASSQGTGITDTQY	8	7	1
24	ASSQGTGNTDTQY	8	4	2
24	ASSQGTGTIDTQY	8	1	2
24	ASSQGTGTKDTQY	8	4	1
24	ASSQGTGTTDTQY	8	6268	1469
24	ASSQGTWTTDTQY	8	2	1
24	ASSQTWGASGGRDEQF	6	2	6
24	ASSQVLGQYNEQF	12	1	11
24	ASSQVLGQYNEQF	6	1	4162
24	ASSQVTGTTDTQY	8	3	1
24	ASSQWTGTTDTQY	8	3	4
24	ASSRAWGASGGRDEQF	6	2	62
24	ASSRGTGTTDTQY	8	11	2
24	ASSSTDTQY	8	1	1690
24	ASSSTWDSPYEQY	12	2	1
24	TSSQAWGASGGRDEQF	6	5	5
24	TSSQGTGTTDTQY	8	2	1
25	ASGQDASQETQY	10	1	2
25	ASGQDRVDRRAAPYEQY	12	2	1
25	ASSPTSDSSYEQY	12	37	53
25	ASSQAWGASGGRDEQF	6	1	9
25	ASSQDASQETQY	10	403	469
25	ASSQDASRETQY	10	1	1
25	ASSQDMEETQY	10	4	434
25	ASSQDRVDRRAAPYEQY	12	490	425
25	ASSQDRVDRRAAPYEQY	6	1	1
25	ASSQDRVDRRDAPYEQY	12	1	1
25	ASSQDRVYRRAAPYEQY	12	1	1
25	ASSQGTGTTDTQY	8	13	2
25	ASSQNLGQLYPYEQY	12	1	1
25	ASSQNLGQLYSYEQY	12	69	5
25	ASSQVEGDGLFEQY	12	7	3
26	AITAGGVRDTQY	8	49	36
26	ARSLEGTRGDEQF	6	2	5
26	ARTAGGVRDTQY	8	84	54
26	ARTLTSGGYSYEQY	12	1	3
26	ASAAGGVRDTQY	8	169	165
26	ASALTSGGYSYEQY	12	4	17
26	ASGFDGGSYNSPLH	5	1	3
26	ASGLDRSAKNIQY	9	10	3
26	ASGLEGTRGDEQF	6	5	13
26	ASGWQLGEDEQF	6	5	5
26	ASIAGGVRDTQY	8	56	45
26	ASILEGTRGDEQF	6	3	5
26	ASILTSGGYSYEQY	12	2	22
26	ASIWQLGEDEQF	6	5	1
26	ASKGRGHSYNEQF	6	259	75
26	ASNAGGVRDTQY	8	60	59
26	ASNLTIEGDWESYNEQF	6	2	8
26	ASPAGGVRDTQY	8	32	42
26	ASPLTSGGYSYEQY	12	1	12
26	ASRLEGTRGDEQF	6	3	8
26	ASRLWTSGADEQF	6	6237	2
26	ASRTESGSIGYEQY	12	1	2499
26	ASRVTDTQY	8	2	44
26	ASRWQLGEDEQF	6	5	11
26	ASSAGGVRDTQY	8	68	44
26	ASSEDRVGNEQF	6	2537	1
26	ASSELGTTINEQF	6	20	1
26	ASSEQVAYEQY	12	1716	1
26	ASSETRPSSTDTQY	8	3	403
26	ASSFDCGSYNSPLH	5	1	3
26	ASSFDGCSYNSPLH	5	1	6
26	ASSFDGGSYNSPLH	5	1123	1355
26	ASSFDLRAGELF	7	36	10
26	ASSFDSGSYNSPLH	5	1	1
26	ASSFEGGSYNSPLH	5	3	4
26	ASSFEGTRGDEQF	6	5	17
26	ASSFFRGQTDTQY	8	147	539
26	ASSFGGGSYNSPLH	5	1	4
26	ASSFGTGGYEQY	12	2	1
26	ASSFTIEGDWESYNEQF	6	3	23
26	ASSFYGGSYNSPLH	5	1	1
26	ASSGTLGDEQF	6	1733	1
26	ASSHSWGLAGGKQETQY	10	109	1
26	ASSLATGRTKNIQY	9	2	1
26	ASSLDGEGYT	1	1	7
26	ASSLDGGSYNSPLH	5	7	3
26	ASSLDGKGYT	1	116	1379
26	ASSLDGSAKNIQY	9	13	1
26	ASSLDGTRGDEQF	6	4	4
26	ASSLDHAGETQY	10	3	62
26	ASSLDRPAKNIQY	9	7	1
26	ASSLDRSAKDIQY	9	7	3
26	ASSLDRSAKNIQY	9	5883	878
26	ASSLDRSAKSIQY	9	6	2
26	ASSLDRSARNIQY	9	7	1
26	ASSLDRSDKNIQY	9	4	5
26	ASSLDRSTKNIQY	9	1	1
26	ASSLDSRSYEQY	12	1	2
26	ASSLDSSSYEQY	12	1378	1
26	ASSLEATRGDEQF	6	1	1
26	ASSLEETRGDEQF	6	3	3
26	ASSLEGARGDEQF	6	7	23
26	ASSLEGIRGDEQF	6	3	11
26	ASSLEGNRGDEQF	6	6	11
26	ASSLEGSRGDEQF	6	1	5
26	ASSLEGTGGDEQF	6	4	11
26	ASSLEGTRADEQF	6	2	7
26	ASSLEGTRCDEQF	6	2	5
26	ASSLEGTRDDEQF	6	2	2
26	ASSLEGTRGDEQF	6	4192	9915
26	ASSLEGTRGDEQL	6	29	33
26	ASSLEGTRGGEQF	6	7	13
26	ASSLEGTRGYEQF	6	3	5
26	ASSLERTRGDEQF	6	3	9
26	ASSLEVTRGDEQF	6	3	3
26	ASSLEWTRGDEQF	6	4	35
26	ASSLGDSSYNEQF	6	6	1
26	ASSLGGTRGDEQF	6	7	15
26	ASSLGRSAKNIQY	9	15	4
26	ASSLGVSSYEQY	12	1	2
26	ASSLKIEGDWESYNEQF	6	3	54
26	ASSLPKGGGGDTQY	8	28	42
26	ASSLQGGKNIQY	9	2	5
26	ASSLQPGNSSPLH	5	1	53
26	ASSLQTGTDTQY	8	129	1
26	ASSLRIEGDWESYNEQF	6	2	39
26	ASSLSPGLKTDTQY	8	434	2
26	ASSLSTDDNEQF	6	2	50
26	ASSLTGSTDTQY	8	3	131
26	ASSLTIEGDWDSYNEQF	6	2	22
26	ASSLTIEGDWESCNEQF	6	3	29
26	ASSLTIEGDWESYDEQF	6	2	43
26	ASSLTIEGDWESYNEQF	6	1095	23076
26	ASSLTIEGDWESYNEQL	6	3	155
26	ASSLTIEGDWESYNEQY	6	4	49
26	ASSLTIEGDWESYSEQF	6	1	23
26	ASSLTIEGDWEYYNEQF	6	3	60
26	ASSLTIEGDWGSYNEQF	6	1	130
26	ASSLTIEGGWESYNEQF	6	23	36
26	ASSLTIGGDWESYNEQF	6	1	46
26	ASSLTVEGDWESYNEQF	6	3	65
26	ASSLVGQVNNEQF	6	1432	72
26	ASSLYRSAKNIQY	9	2	1
26	ASSPAKGTVENYEQY	12	1	1889
26	ASSPDAPGSGNSPLH	5	13	26
26	ASSPDSSSYEQY	12	4	1
26	ASSPGQVEWEQY	12	1	213
26	ASSPIQSSYNEQF	6	3	1
26	ASSPRTGPGSYNEQF	6	1	6428
26	ASSPSRTGLLEQY	12	266	64
26	ASSPTGLGYNEQF	6	10	9
26	ASSPTGYNEQF	6	102	1612
26	ASSPVQGSYNEQF	6	5	31
26	ASSQGHRSDTQY	8	1	4296
26	ASSRDPSSYEQY	12	24	11
26	ASSRGGTNYEQY	12	2	1
26	ASSRLGGETQY	10	7	138
26	ASSRQGSSSYNEQF	6	3819	55
26	ASSRQLGEDEQF	6	4	8
26	ASSSAGTENIQY	9	2	9336
26	ASSSDRSAKNIQY	9	4	5
26	ASSSEGTRGDEQF	6	3	10
26	ASSSGGVRDTQY	8	3	1
26	ASSSGTGIDTQY	8	1154	1
26	ASSSQGGETQY	10	13	66
26	ASSSSPGQKKGKDTQY	8	1	2928
26	ASSSSTPYEQY	12	1	2372
26	ASSWELGEDEQF	6	5	5
26	ASSWKLGEDEQF	6	6	4
26	ASSWMGGEDTQY	8	1669	11
26	ASSWQIGEDEQF	6	4	3
26	ASSWQLGEDEQF	6	2487	3392
26	ASSWQLGEDEQL	6	8	12
26	ASSWQLGEDEQY	6	6	12
26	ASSWQLGEGEQF	6	3	1
26	ASSWQLGEYEQF	6	2	2
26	ASSWQLGGDEQF	6	9	4
26	ASSYSLGTDTQY	8	1	2580
26	ASSYTSGGYNEQF	6	1	5156
26	ASTAAGVRDTQY	8	11	8
26	ASTAEGVRDTQY	8	64	120
26	ASTAGAVRDTQY	8	16	11
26	ASTAGCVRDTQY	8	52	24
26	ASTAGDVRDTQY	8	197	90
26	ASTAGGARDTQY	8	149	302
26	ASTAGGDRDTQY	8	8	103
26	ASTAGGFRDTQY	8	98	58
26	ASTAGGGRDTQY	8	23	149
26	ASTAGGIRDTQY	8	70	45
26	ASTAGGLRDTQY	8	18	9
26	ASTAGGVGDTQY	8	107	169
26	ASTAGGVIDTQY	8	56	68
26	ASTAGGVKDTQY	8	47	40
26	ASTAGGVRDTQY	10	41	30
26	ASTAGGVRDTQY	8	98818	81955
26	ASTAGGVRETQY	10	5	3
26	ASTAGGVRETQY	8	18	9
26	ASTAGGVRGTQY	8	142	187
26	ASTAGGVSDTQY	8	60	17
26	ASTAGGVTDTQY	8	18	45
26	ASTAGRVRDTQY	8	16	15
26	ASTAGSVRDTQY	8	47	136
26	ASTAGVVRDTQY	8	63	25
26	ASTARGVRDTQY	8	58	95
26	ASTAVGVRDTQY	8	58	31
26	ASTAWGVRDTQY	8	68	297
26	ASTEGGVRDTQY	8	88	45
26	ASTFTSGGYSYEQY	12	3	6
26	ASTGGGVRDTQY	8	32	14
26	ASTITSGGYSYEQY	12	1	11
26	ASTLASGGYSYEQY	12	4	20
26	ASTLNSGGYSYEQY	12	1	4
26	ASTLTCGGYSYEQY	12	1	4
26	ASTLTIGGYSYEQY	12	2	8
26	ASTLTNGGYSYEQY	12	2	64
26	ASTLTRGGYSYEQY	12	3	9
26	ASTLTSGGCSYEQY	12	6	27
26	ASTLTSGGYPYEQY	12	5	31
26	ASTLTSGGYSYEQF	6	1	5
26	ASTLTSGGYSYEQY	12	1611	10095
26	ASTLTSRGYSYEQY	12	2	9
26	ASTPGGVRDTQY	8	34	23
26	ASTPTSGGYSYEQY	12	4	61
26	ASTSGGVRDTQY	8	93	243
26	ASTTGGVRDTQY	8	428	64
26	ASTVGGVRDTQY	8	62	49
26	ATTAGGVRDTQY	8	4	6
26	TSSLEGTRGDEQF	6	3	8
26	TSSWQLGEDEQF	6	5	3
26	TSTAGGVRDTQY	8	70	148
26	TSTTGGVRDTQY	8	1	1
26	VSSLEGTRGDEQF	6	2	31
26	VSTAGGVRDTQY	8	79	369
26	VSTLTSGGYSYEQY	12	2	6
27	ASGRGGTNYEQY	12	3	15
27	ASNRGGTNYEQY	12	1	6
27	ASRRGGTNYEQY	12	4	32
27	ASSHGGTNYEQY	12	2	8
27	ASSLATGLAASSYEQY	12	1	2
27	ASSLDRGSTDTQY	8	2	1
27	ASSLGGTNYEQY	12	1	3
27	ASSLSGTDNEQF	6	190	326
27	ASSPTGLGYNEQF	6	8	9
27	ASSQPAKGTQY	8	9	8
27	ASSREGTNYEQY	12	1	2
27	ASSRETGVHNEQF	6	22	1
27	ASSRGETNYEQY	12	3	2
27	ASSRGGANYEQY	12	4	49
27	ASSRGGNNYEQY	12	4	28
27	ASSRGGSNYEQY	12	1	26
27	ASSRGGTDYEQY	12	3	12
27	ASSRGGTNCEQY	12	6	15
27	ASSRGGTNHEQY	12	2	5
27	ASSRGGTNYEQY	12	2445	10172
27	ASSRGGTNYEQY	6	4	11
27	ASSRGGTSYEQY	12	1	8
27	ASSRGRTNYEQY	12	1	5
27	ASSRRGTNYEQY	12	1	24
27	ASSRRTVQETQY	10	7	46
27	ASSRVGTNYEQY	12	2	3
27	ASSSDIGGAVYEQY	12	4	3296
27	ASSSGGTNYEQY	12	1	4
27	ASSSRDSGGETQY	10	68	5
27	VSSLSGTDNEQF	6	1	2
27	VSSRGGTNYEQY	12	16	22
28	ASIPPTLSTDTQY	8	2	1
28	ASPPPTLSTDTQY	8	2	1
28	ASRLELAGGRDTQY	8	2	7
28	ASSLEHSGRPYEQY	12	17	3
28	ASSLELAGDRDTQY	8	1	5
28	ASSLELAGGGDTQY	8	1	1
28	ASSLELAGGRDTQY	8	783	1728
28	ASSLELAGGRGTQY	8	3	2
28	ASSLGAVEQF	6	81	161
28	ASSLGLAGGRDTQY	8	5	3
28	ASSLGPRNEQF	6	3	1
28	ASSLGRGRSITDTQY	8	28	38
28	ASSPLGGPSYNEQF	6	3	12
28	ASSPRDTTDTQY	8	1	4081
28	ASSPTGLGYNEQF	6	17	3
28	ASSQGTGTTDTQY	8	2	1
28	ASSRGGTNYEQY	12	5	13
28	ASSSELAGGRDTQY	8	2	2
28	ASSSTWDSPYEQY	12	18	2
28	ASSVDRVYNEQF	6	1	1048
28	ASSWEGSLAKNIQY	9	1	123
28	ASTPLTLSTDTQY	8	2	1
28	ASTPPTLSTDTQY	10	1	1
28	ASTPPTLSTDTQY	8	545	927
28	ASTPPTLSTGTQY	8	1	1
28	ASTPQGPYEQY	12	7511	1
28	ATQRGGTDTQY	8	12	8
28	VSSLELAGGRDTQY	8	1	1
29	ASIPRWRVYETQY	10	27	25
29	ASKESRPDTDTQY	8	1	3593
29	ASSDGSSFSLYNEQF	6	2	1
29	ASSEPGQGRETQY	10	57	253
29	ASSEPGRGRETQY	10	1	1
29	ASSFPRGGINEQF	6	1128	1
29	ASSGVSQETQY	10	1	5719
29	ASSHGTGENEQF	6	2	731
29	ASSLELAGGRDTQY	8	1	1
29	ASSLGIAGDTDTQY	8	34	3765
29	ASSLGIAGDTGTQY	8	1	6
29	ASSLGLARNEQF	6	401	1
29	ASSLGQTDTQY	8	47	2468
29	ASSLRPRGTQY	10	1	218
29	ASSLVAGTSEETQY	10	1	1
29	ASSPTGLGYNEQF	6	6	6
29	ASSRHGTAKGETQY	10	1	1
29	ASSRWTSSYEQY	12	144	133
29	ASSSGQVFGYT	1	8	3
29	ASSYKMSLAAKNIQY	9	24	333
3	AIQRGGTDTQY	8	9	8
3	ASQRGGTDTQY	8	12	11
3	ASRKGQAYEQY	12	1	2
3	ASSLEHSGRPYEQY	12	1	2
3	ASSLTDREQY	12	4	1
3	ASSPLGGPSYNEQF	6	3	2
3	ASSPRLGAPGGNEQF	6	147	20
3	ASSSQTGTDTQY	8	5	16249
3	ASSSTWDSPYEQY	12	4	4
3	ASTHEGTGANVLT	11	5	7
3	ATHRGGTDTQY	8	5	5
3	ATKRGGTDTQY	8	10	19
3	ATLRGGTDTQY	8	5	3
3	ATQGGGTDTQY	8	7	5
3	ATQLGGTDTQY	8	3	5
3	ATQQGGTDTQY	8	21	12
3	ATQREGTDTQY	8	13	6
3	ATQRGATDTQY	8	7	35
3	ATQRGCTDTQY	8	9	2
3	ATQRGDTDTQY	8	15	35
3	ATQRGGADTQY	8	48	50
3	ATQRGGIDTQY	8	4	22
3	ATQRGGKDTQY	8	5	4
3	ATQRGGTDTQY	10	4	5
3	ATQRGGTDTQY	8	18739	18705
3	ATQRGGTGTQY	8	13	43
3	ATQRGSTDTQY	8	12	10
3	ATQRGVTDTQY	8	5	17
3	ATQRRGTDTQY	8	10	14
3	ATQRVGTDTQY	8	11	7
3	ATQRWGTDTQY	8	4	4
3	ATQWGGTDTQY	8	10	54
3	ATRRGGTDTQY	8	20	33
30	ASSLEGRIQETQY	10	1	364
30	ASSQAWGASGGRDEQF	6	3	16
30	ASSQDASQETQY	10	1	2
30	ASSQDRVDRRAAPYEQY	12	2	1
30	ASSQGTGTTDTQY	8	88	4
30	ASSQNLGQLYSYEQY	12	1	1
30	ASSRGGTNYEQY	12	2	6
30	ASSSRDLSSGNTIY	2	1841	1
31	AISPGQGYEQY	12	2	1
31	ARSEAGGETQY	10	5	15
31	ASGEAGGETQY	10	4	11
31	ASIRGLAVYNEQF	6	2	4
31	ASKCGLAVYNEQF	6	3	2
31	ASKRGIAVYNEQF	6	1	1
31	ASKRGLAAYNEQF	6	2	12
31	ASKRGLAVYNEQF	6	1081	2041
31	ASKRGLAVYNEQL	6	3	7
31	ASKRGLAVYNEQY	6	4	3
31	ASKRGLEVYNEQF	6	1	2
31	ASKRGPAVYNEQF	6	4	2
31	ASMIDGNNEQF	6	2	4
31	ASNEAGGETQY	10	3	3
31	ASRAGRSSYNEQF	6	4405	1
31	ASREAGGETQY	10	1	1
31	ASRRGLAVYNEQF	6	2	2
31	ASRSAGATYNEQF	6	198	1480
31	ASSEAAGETQY	10	1	25
31	ASSEADGETQY	10	2	21
31	ASSEAGEETQY	10	4	2
31	ASSEAGGDTQY	10	6	12
31	ASSEAGGETQY	10	4401	7882
31	ASSEAGGGTQY	10	10	15
31	ASSEAGVYLNEQF	6	2	15955
31	ASSEASGETQY	10	2	6
31	ASSEATSSYNEQF	6	51	1
31	ASSEAVGETQY	10	2	14
31	ASSEEGGETQY	10	3	9
31	ASSEGFSYEQY	12	1768	84
31	ASSEGPAEVSEQF	6	1	2
31	ASSEGTYEQY	12	13289	2
31	ASSEHATDTQY	8	2224	1
31	ASSELGSSTDTQY	8	381	386
31	ASSELGTTINEQF	6	167	14
31	ASSESGGETQY	10	2	7
31	ASSETGGETQY	10	2	7
31	ASSETSDRAYEQY	12	57	275
31	ASSEVTSSYNEQF	6	6289	7
31	ASSGAGGETQY	10	82	11
31	ASSGGQGFQETQY	10	1	3
31	ASSGLGSSTDTQY	8	2	2
31	ASSGTGVSGNTIY	2	5808	1
31	ASSHQGSTEAF	0	1	1
31	ASSKGGDYNEQF	6	1	1
31	ASSLGTPNEQF	6	1	10
31	ASSPDAPEQY	12	104	109
31	ASSPRTYEQY	12	2909	5
31	ASSPTGLGYNEQF	6	23	12
31	ASSQTIANEQF	6	785	1
31	ASSQWTAQETQY	10	760	1
31	ASSYRRNNEQF	6	1	301
31	ASSYSGERDTQY	8	45	5
31	ASSYSGTQSDTQY	8	6	1
31	ASTGTSGYEQY	12	8	561
31	ASTPGTAADTQY	8	1	1
31	ASTRASGYEQY	12	3	55
31	ASTRISGYEQY	12	1	18
31	ASTRNSGYEQY	12	3	37
31	ASTRSSGYEQY	12	2	14
31	ASTRTGGYEQY	12	29	36
31	ASTRTRGYEQY	12	4	33
31	ASTRTSGYEQY	12	2659	32671
31	ASTRTSGYEQY	6	2	42
31	ASTRTSRYEQY	12	4	37
31	ASTSTSGYEQY	12	2	48
31	ATWTRGQETQY	10	14	13
31	VSKRGLAVYNEQF	6	2	3
31	VSSEAGGETQY	10	3	9
31	VSSEGFSYEQY	12	1	1
32	AISPGQGYEQY	12	5	1
32	ARSEGPAEVSEQF	6	1	4
32	ASMIDGNNEQF	6	1	2
32	ASSDGTGGYNEQF	6	7028	1
32	ASSDRGTDTQY	8	33	184
32	ASSDSSGGANEQF	6	3	1010
32	ASSEAGGETQY	10	3	21
32	ASSEGPAEVSEQF	6	510	2959
32	ASSEGSAEVSEQF	6	3	5
32	ASSEQTNPTDTQY	8	2963	1
32	ASSHQGSTEAF	0	3	2
32	ASSYSGTQSDTQY	8	2	1
32	ASTRTSGYEQY	12	4	41
32	ATWTRGQETQY	10	3	23
33	AIWTRGQETQY	10	7	6
33	ASGAKLYEQY	12	2	5
33	ASGHQGSTEAF	0	1	1
33	ASKRLGETQY	10	13436	1
33	ASMIDGNNEQF	6	2	1
33	ASRRTASSYEQY	12	133	1
33	ASRRTGPQRETQY	10	154	815
33	ASRRTGPRRETQY	10	3	6
33	ASSEAGGETQY	10	8	19
33	ASSELGTTINEQF	6	163	13
33	ASSFVGTNQETQY	10	1	1
33	ASSHQGGTEAF	0	4	2
33	ASSHQGITEAF	0	2	2
33	ASSHQGNTEAF	0	1	1
33	ASSHQGRTEAF	0	4	3
33	ASSHQGSNEAF	0	5	1
33	ASSHQGSTEAF	0	1742	2018
33	ASSHQSSTEAF	0	1	2
33	ASSHRGSTEAF	0	6	6
33	ASSLGTTQVNEQF	6	2	2
33	ASSPTDNEQF	6	501	1
33	ASSPTGLGYNEQF	6	30	18
33	ASSRGDSDDEQY	12	1	1
33	ASSRQGSTEAF	0	1	1
33	ASSSDRGREQY	12	107	128
33	ASSYDRDTQY	8	17	1
33	ASSYDWDTQY	8	7678	18
33	ASSYSGETGELF	7	28	70
33	ASSYSGTQSDTQY	8	4	1
33	ASSYSIISGNTIY	2	12	39
33	ASSYSRSYEQY	12	1	197
33	ASTPGDRGATEAF	0	4	364
33	ASTPGGSGNTIY	2	364	1
33	ASTQQGADTQY	8	387	798
33	ASTRTSGYEQY	12	2	27
33	ASWTRGQETQY	10	4	6
33	ATCTRGQETQY	10	10	19
33	ATGTRGQETQY	10	3	6
33	ATLTRGQETQY	10	5	4
33	ATRTRGQETQY	10	20	17
33	ATWARGQETQY	10	7	30
33	ATWIRGQETQY	10	5	4
33	ATWNRGQETQY	10	9	16
33	ATWSRGQETQY	10	2	42
33	ATWTGGQETQY	10	45	17
33	ATWTIGQETQY	10	8	11
33	ATWTKGQETQY	10	2	8
33	ATWTRCQETQY	10	4	9
33	ATWTRDQETQY	10	5	37
33	ATWTRGQDTQY	10	10	19
33	ATWTRGQETQY	10	9028	15518
33	ATWTRGQGTQY	10	13	28
33	ATWTRGRETQY	10	13	23
33	ATWTRSQETQY	10	4	2
33	ATWTRVQETQY	10	9	30
33	ATWTTGQETQY	10	1	2
34	ARMIDGNNEQF	6	2	3
34	ASIIDGNNEQF	6	3	3
34	ASMIDGDNEQF	6	3	3
34	ASMIDGKNEQF	6	4	2
34	ASMIDGNDEQF	6	1	51
34	ASMIDGNNEQF	6	2055	1496
34	ASMIDGNNEQL	6	12	4
34	ASMIDGNNEQY	6	1	9
34	ASMIDGNSEQF	6	1	4
34	ASMIDGSNEQF	6	5	6
34	ASMINGNNEQF	6	1	4
34	ASMIYGNNEQF	6	6	3
34	ASRDRTGGAYEQY	12	3	2
34	ASRDRTGGVYEQY	12	694	608
34	ASSCSGTQSDTQY	8	3	1
34	ASSEAGGETQY	10	8	8
34	ASSELGTTINEQF	6	89	4
34	ASSHSGTQSDTQY	8	3	2
34	ASSLGTPNEQF	6	1	7
34	ASSPTGLGYNEQF	6	29	7
34	ASSRGDSDDEQY	12	1341	6
34	ASSYSGTQSDTQY	8	2544	168
34	ASTIDGNNEQF	6	5	2
34	ASTRTSGYEQY	12	3	29
34	ASVGTTVETQY	10	1129	112
34	ASVIDGNNEQF	6	4	1
34	ATMIDGNNEQF	6	1	2
34	ATWTRGQETQY	10	5	11
35	ASSEAGGETQY	10	1	1
35	ATWTRGQETQY	10	11	6
36	ASSELGTTINEQF	6	13	3
37	AISLGPRNEQF	6	2	1
37	ARSLGPRNEQF	6	8	4
37	ASGLGPRNEQF	6	15	39
37	ASIRRTSGVYEQF	6	5	1
37	ASREGRSHEQY	12	1	3
37	ASREGRSYEQY	12	335	245
37	ASREGRYYEQY	12	1	1
37	ASRLGPRNEQF	6	3	3
37	ASRLTSGAVQEQY	12	1	4087
37	ASRRDSVGGTQY	8	57	76
37	ASRRRTSGVCEQF	6	7	1
37	ASRRRTSGVYEQF	6	2992	251
37	ASRRRTSGVYEQL	6	2	1
37	ASRRRTSGVYEQY	6	5	1
37	ASSFIAGFTDTQY	8	3	1
37	ASSFKARGAGRSTDTQY	8	89	11
37	ASSLALGAGTQYNEQF	6	318	2
37	ASSLATGLAASSYEQY	12	31	41
37	ASSLDPRNEQF	6	7	4
37	ASSLDWTKSWYDTQY	8	6857	1
37	ASSLEHSGRPYEQY	12	1	3
37	ASSLGGSGGYNEQF	6	4289	2
37	ASSLGHRNEQF	6	5	12
37	ASSLGLRNEQF	6	3	12
37	ASSLGPLNEQF	6	4	4
37	ASSLGPPNEQF	6	4	5
37	ASSLGPRDEQF	6	12	4
37	ASSLGPRNEQF	6	8325	3819
37	ASSLGPRNEQL	6	16	10
37	ASSLGPRNEQY	6	15	7
37	ASSLGPRSEQF	6	8	2
37	ASSLGRRNEQF	6	1	6
37	ASSLGTPNEQF	6	1	3
37	ASSLGTSTDTQY	8	557	28
37	ASSLRFPGSGHEQY	12	4	4
37	ASSLSPPYNEQF	6	1	894
37	ASSLSPRNEQF	6	2	1
37	ASSLTQGAKDTQY	8	29	68
37	ASSLVPGGTYEQY	12	1906	16
37	ASSLVPRNEQF	6	2	3
37	ASSLVRRTDTQY	8	1111	52
37	ASSLVYRLADNEQF	6	4	1
37	ASSLYQGYQETQY	10	200	679
37	ASSLYQGYQGTQY	10	1	1
37	ASSLYTIGNAGTQY	10	522	207
37	ASSPGLALSNEQF	6	2688	408
37	ASSPGLAPSNEQF	6	11	3
37	ASSPTGLGYNEQF	6	47	30
37	ASSPTSDSSYEQY	12	3	1
37	ASSPTTRSDTQY	8	129	37
37	ASSQGTGTTDTQY	8	1	1
37	ASSQTINQETQY	10	6485	13
37	ASSQVEGDGLFEQY	12	2	1
37	ASSRRGGYYNEQF	6	1	1
37	ASSRTRYEQY	12	184	157
37	ASSSGPRNEQF	6	3	3
37	ASSSGTIYNEQF	6	1	2
37	ASSSGTSHNEQF	6	1	1
37	ASSSGTSYNEQF	6	339	259
37	ASSSHRVNEQF	6	12019	1
37	ASSSNRGTYNEQF	6	151	55
37	ASSSSQDTQY	10	1	1
37	ASSSSQETQY	10	450	216
37	ASSSTWDSPYEQY	12	10	5
37	ASSTGLITDTQY	8	414	105
37	ASSVFLAGGETQY	10	1	1
37	ASSVGPRNEQF	6	2	16
37	TSSLGPRNEQF	6	3	6
37	VSSLGPRNEQF	6	4	6
38	ASGSSGGAWNEQF	6	10200	6
38	ASSELGTTINEQF	6	4	1
38	ASSLATGLAASSYEQY	12	13	9
38	ASSLDGPGTGAYEQY	12	236	3
38	ASSLEHSGRPYEQY	12	2	1
38	ASSLGGGGYEQY	12	1	1
38	ASSLGGQHYNEQF	6	1	6
38	ASSLGGSGGHNEQF	6	1	6
38	ASSLGGSGGYNEQF	6	67	4670
38	ASSLGPRNEQF	6	2	1
38	ASSLGPSGLSTDTQY	8	80	15
38	ASSLIAATRNEQF	6	390	1
38	ASSLLGETQY	10	1	8526
38	ASSLLPSSFHEQF	6	193	307
38	ASSLNPSGGRNEQF	6	1367	1
38	ASSLPGGETQY	10	4	14084
38	ASSLRFPGSGHEQY	12	1	3
38	ASSLSSGLGNNEQF	6	1	1
38	ASSLTPGPPTDTQY	8	2362	36
38	ASSNILAGGADTQY	8	2	1
38	ASSPGPGEETQY	10	2307	1
38	ASSPLGGPSYNEQF	6	1	2
38	ASSPSGAITYNEQF	6	3188	1
38	ASSPTGLGYNEQF	6	25	17
38	ASSRGGRDEQF	6	1	1
38	ASSSRGQGSPLH	5	160	130
38	ASSSSGGSCNEQF	6	3	1
38	ASSSSGGSYNEQF	6	117	1620
38	ASSYRTSGTYNEQF	6	3119	1
4	AISLGLANIQY	9	1	1
4	ARSWSGTSGGETDTQY	8	6	1
4	ASGVTGRRTKNIQY	9	2	3
4	ASGWSGTSGGETDTQY	8	8	4
4	ASIWSGTSGGETDTQY	8	6	2
4	ASNWSGTSGGETDTQY	8	5	2
4	ASRRDSYNEQF	6	1	13318
4	ASRWSGTSGGETDTQY	8	5	4
4	ASSCSGTSGGETDTQY	8	6	1
4	ASSFFLAGGETQY	10	1	2
4	ASSFGETQY	10	2	1
4	ASSFQSGGFADTQY	8	497	1
4	ASSFRGHQSTDTQY	8	1388	1
4	ASSFRSCPGGRNQETQY	10	1	2
4	ASSFRSYPGGRNQETQY	10	328	1039
4	ASSFRSYPGGRSQETQY	10	1	2
4	ASSFSAGFIGLDTQY	8	1	1623
4	ASSLAQGMGEQY	12	1	496
4	ASSLATGLAASSYEQY	12	11	9
4	ASSLEHSGRPYEQY	12	2	2
4	ASSLGGRQETQY	10	7468	1
4	ASSLGGSGGYNEQF	6	2	1
4	ASSLGLADIQY	9	1	3
4	ASSLGLANIQY	9	980	984
4	ASSLGPANIQY	9	2	3
4	ASSLGPRNEQF	6	9	1
4	ASSLGSGQGETQY	10	6177	4
4	ASSLGTGGLNIQY	9	3	1
4	ASSLRLAGGSYNEQF	6	10524	1
4	ASSLRTSGTYEQY	12	625	1256
4	ASSLRTSVTYEQY	12	1	2
4	ASSLSGTSGGETDTQY	8	5	1
4	ASSLTGRRTKNIQY	9	1	1
4	ASSLVQGGEQY	12	2	4983
4	ASSPLGGPSYNEQF	6	1	2
4	ASSPTGLGYNEQF	6	28	24
4	ASSRSGTSGGETDTQY	8	3	2
4	ASSSDTRISEQF	6	1	16764
4	ASSSGTGIYEQY	12	1737	1
4	ASSSPGAGYNEQF	6	2234	4
4	ASSSTWDSPYEQY	12	7	5
4	ASSVAGRRTKNIQY	9	6	1
4	ASSVFLAGGETQY	10	1756	499
4	ASSVFLGGGETQY	10	2	1
4	ASSVLLAGGETQY	10	7	3
4	ASSVSLAGGETQY	10	3	2
4	ASSVTERRTKNIQY	9	4	1
4	ASSVTGRRAKNIQY	9	5	3
4	ASSVTGRRNKNIQY	9	4	2
4	ASSVTGRRTENIQY	9	4	3
4	ASSVTGRRTKDIQY	9	10	2
4	ASSVTGRRTKNIQY	9	1892	1537
4	ASSVTGRRTKSIQY	9	2	2
4	ASSWAGTSGGETDTQY	8	3	6
4	ASSWCGTSGGETDTQY	8	4	1
4	ASSWFGTSGGETDTQY	8	8	3
4	ASSWPGTSGGETDTQY	8	34	4
4	ASSWSETSGGETDTQY	8	2	3
4	ASSWSGASGGETDTQY	8	11	2
4	ASSWSGISGGETDTQY	8	3	1
4	ASSWSGNSGGETDTQY	8	7	3
4	ASSWSGSSGGETDTQY	8	5	2
4	ASSWSGTGGGETDTQY	8	6	4
4	ASSWSGTRGGETDTQY	8	7	1
4	ASSWSGTSEGETDTQY	8	3	1
4	ASSWSGTSGEETDTQY	8	5	9
4	ASSWSGTSGGEADTQY	8	12	2
4	ASSWSGTSGGEIDTQY	8	6	3
4	ASSWSGTSGGEKDTQY	8	2	3
4	ASSWSGTSGGERDTQY	8	3	1
4	ASSWSGTSGGETDTQY	8	6052	2261
4	ASSWSGTSGGETGTQY	8	19	5
4	ASSWSGTSGGGTDTQY	8	2	4
4	ASSWSGTSGGVTDTQY	8	2	6
4	ASSWSGTSGVETDTQY	8	8	2
4	ASSWSGTSGWETDTQY	8	3	19
4	ASSWSGTSRGETDTQY	8	10	5
4	ASSWSGTSVGETDTQY	8	2	2
4	ASSWSGTSWGETDTQY	8	5	11
4	ASSWSRTSGGETDTQY	8	9	3
4	ASSWSVTSGGETDTQY	8	5	3
4	ASSWYGTSGGETDTQY	8	4	3
4	ASTALAGAQETQY	10	421	690
4	ATQRGGTDTQY	8	4	5
4	ATSQGGGENIQY	9	16	2
4	VSSWSGTSGGETDTQY	8	7	2
40	ASGPSPPHSLQETQY	10	4	3
40	ASGSPNRVTSTDTQY	8	3	1
40	ASRKGQAYEQY	12	2	4
40	ASSFPTSGPQETQY	10	719	1
40	ASSFRSADTQY	8	33	115
40	ASSHDRGLYNEQF	6	2	4036
40	ASSLAGQGGNEQF	6	6533	1
40	ASSLAIDPAGGTDTQY	8	2995	22
40	ASSLEAGTYNEQF	6	4	1170
40	ASSLNGGLAGRQETQY	10	1	2
40	ASSLWTDSYEQY	12	2336	1
40	ASSPLGGPSYNEQF	6	2	1
40	ASSPPNRVTSTDTQY	8	2	1
40	ASSPSPHHSLQETQY	10	1	1
40	ASSPSPHSLQETQY	10	1	1
40	ASSPSPPHGLQETQY	10	2	1
40	ASSPSPPHILQETQY	10	3	1
40	ASSPSPPHRLQETQY	10	1	1
40	ASSPSPPHSLQETQY	10	915	126
40	ASSPSPPHSLQGTQY	10	3	1
40	ASSPSPPRSLQETQY	10	2	1
40	ASSPTGLGYNEQF	6	14	8
40	ASSSPGSYDEQF	6	4	1
40	ASSSPGSYNEQF	6	205	561
40	ASSSPNRATSTDTQY	8	1	2
40	ASSSPNRVTSTDTQY	8	1192	112
40	ASSSTWDSPYEQY	12	11	4
40	ASSTEGPGGRYNEQF	6	2	243
41	ASSQTGFQETQY	10	3674	2
42	AISLATGLAASSYEQY	12	25	7
42	ARSLATGLAASSYEQY	12	22	29
42	ASCLATGLAASSYEQY	12	2	15
42	ASGFTQGADEQF	6	2	7
42	ASGLATGLAASSYEQY	12	86	526
42	ASGLATGPAASSYEQY	12	1	1
42	ASGLVALGETQY	10	2	2
42	ASGSWGTAAKNIQY	9	3	4
42	ASIGESPETQY	10	1	1
42	ASILATGLAASSYEQY	12	27	33
42	ASISWGTAAKNIQY	9	2	2
42	ASNLATGLAASSYEQY	12	18	35
42	ASRLATGLAASSYEQY	12	24	29
42	ASRSWGTAAKNIQY	9	1	2
42	ASSADRGYYEQY	12	7487	3
42	ASSAGTGRANEQF	6	5710	1
42	ASSARTGVGNTIY	2	2	13315
42	ASSFAQGADEQF	6	2	7
42	ASSFATGLAASSYEQY	12	8	23
42	ASSFTQGADEQF	6	1635	2425
42	ASSFTQGADEQL	6	4	11
42	ASSFTQGADEQY	6	6	4
42	ASSFTQGAGEQF	6	3	1
42	ASSFTQGAYEQF	6	2	2
42	ASSFTQGGDEQF	6	1	3
42	ASSFTQGTDEQF	6	2	1
42	ASSFTQRADEQF	6	1	1
42	ASSFTQVADEQF	6	2	2
42	ASSFTRGADEQF	6	4	1
42	ASSIATGLAASSYEQY	12	5	19
42	ASSLAAGLAASSYEQY	12	95	114
42	ASSLAKGLAASSYEQY	12	21	35
42	ASSLAMGLAASSYEQY	12	137	239
42	ASSLAPGLAASSYEQY	12	5	10
42	ASSLARGLAASSYEQY	12	7	12
42	ASSLASGLAASSYEQY	12	8	32
42	ASSLATALAASSYEQY	12	5	6
42	ASSLATELAASSYEQY	12	54	20
42	ASSLATGIAASSYEQY	12	30	68
42	ASSLATGLAACSYEQY	12	5	2
42	ASSLATGLAAGSYEQY	12	96	63
42	ASSLATGLAAISYEQY	12	15	77
42	ASSLATGLAANSYEQY	12	22	133
42	ASSLATGLAARPYEQY	12	2	1
42	ASSLATGLAARSYEQY	12	192	35
42	ASSLATGLAASAYEQY	12	6	12
42	ASSLATGLAASCYEQY	12	11	19
42	ASSLATGLAASFYEQY	12	21	50
42	ASSLATGLAASPCEQY	12	1	1
42	ASSLATGLAASPHEQY	12	1	1
42	ASSLATGLAASPYEQY	12	556	323
42	ASSLATGLAASPYEQY	6	2	243
42	ASSLATGLAASSCEQY	12	39	364
42	ASSLATGLAASSDEQY	12	10	10
42	ASSLATGLAASSFEQY	12	2	1
42	ASSLATGLAASSHEQY	12	353	56
42	ASSLATGLAASSNEQY	12	2	1
42	ASSLATGLAASSYEQF	6	21	28
42	ASSLATGLAASSYEQY	12	40670	58352
42	ASSLATGLAASSYEQY	6	37	48
42	ASSLATGLAASSYNEQF	6	1	3
42	ASSLATGLAASTYEQY	12	6	7
42	ASSLATGLAASYYEQY	12	12	32
42	ASSLATGLAATSYEQY	12	7	184
42	ASSLATGLADSSYEQY	12	11	14
42	ASSLATGLAGSSYEQY	12	9	14
42	ASSLATGLAPSSYEQY	12	7	6
42	ASSLATGLASSSYEQY	12	18	16
42	ASSLATGLATSSYEQY	12	26	31
42	ASSLATGLAVSSYEQY	12	26	36
42	ASSLATGLEASSYEQY	12	11	23
42	ASSLATGLGASSYEQY	12	15	11
42	ASSLATGLPASSYEQY	12	1	43
42	ASSLATGLSASSYEQY	12	18	246
42	ASSLATGLTASSYEQY	12	23	33
42	ASSLATGLVASPYEQY	12	1	1
42	ASSLATGLVASSYEQY	12	40	69
42	ASSLATGPAASSYEQY	12	61	104
42	ASSLATGQAASSYEQY	12	2	2
42	ASSLATGRAASSYEQY	12	6	16
42	ASSLATGVAASSYEQY	12	15	6
42	ASSLATRLAASSYEQY	12	27	150
42	ASSLATVLAASSHEQY	12	1	1
42	ASSLATVLAASSYEQY	12	36	35
42	ASSLDRTDTQY	8	13512	96
42	ASSLEHSGRPYEQY	12	6	4
42	ASSLETGLAASSYEQY	12	16	60
42	ASSLGGSGGYNEQF	6	6	2
42	ASSLGPRNEQF	6	6	3
42	ASSLGRTDTQY	8	27	1
42	ASSLGTGLAASSYEQY	12	18	26
42	ASSLLIEQF	6	1221	6
42	ASSLPTGLAASSYEQY	12	4	19
42	ASSLRFPGSGHEQY	12	1	2
42	ASSLSTGLAASSYEQY	12	20	119
42	ASSLTQGADEQF	6	1	6
42	ASSLTTGLAASSYEQY	12	14	81
42	ASSLVALGETQY	10	854	1467
42	ASSLVDLGETQY	10	1	1
42	ASSLVTGLAASSYEQY	12	38	204
42	ASSPALREGGTDTQY	10	1	1
42	ASSPALREGGTDTQY	8	632	338
42	ASSPALRKGGTDTQY	8	1	1
42	ASSPKSGVEQF	6	4	1
42	ASSPPRGGETQY	10	1	1
42	ASSPTGLGYNEQF	6	31	24
42	ASSPWFGGQETQY	10	8469	2
42	ASSPWGTAAKNIQY	9	3	4
42	ASSSATGLAASSYEQY	12	20	239
42	ASSSCGTAAKNIQY	9	3	4
42	ASSSGGTAAKNIQY	9	3	1
42	ASSSGQGAYNEQF	6	6650	1
42	ASSSRGTAAKNIQY	9	3	1
42	ASSSTQGADEQF	6	3	3
42	ASSSWGSAAKNIQY	9	2	6
42	ASSSWGTAAENIQY	9	3	3
42	ASSSWGTAAKNIQY	9	2330	1415
42	ASSSWGTAAKSIQY	9	4	2
42	ASSSWGTADKNIQY	9	2	4
42	ASSSWGTAVKNIQY	9	2	4
42	ASSSWGTTAKNIQY	9	3	1
42	ASSSWWTAAKNIQY	9	3	3
42	ASSTALREGGTDTQY	8	1	2
42	ASSVATGLAASSYEQY	12	8	26
42	ASSYWGTAAKNIQY	9	3	3
42	ASTLATGLAASSYEQY	12	2	4
42	TSSLATGLAASSYEQY	12	22	560
42	VSSLATGLAASSYEQY	12	137	23
43	AISLEHSGRPYEQY	12	2	18
43	AISPLGGPSYNEQF	6	2	10
43	AISSTWDSPYEQY	12	20	18
43	ARRKGQAYEQY	12	1	3
43	ARSLEHSGRPYEQY	12	7	6
43	ARSPLGGPSYNEQF	6	1	4
43	ARSQGGLAGSHNEQF	6	5	2
43	ARSSTWDSPYEQY	12	21	15
43	ASAAGGTWNEQF	6	19	6
43	ASGFGETQY	10	13	1
43	ASGFTGGGLEQY	12	2	4
43	ASGKGQAYEQY	12	5	3
43	ASGLEHSGRPYEQY	12	14	24
43	ASGPLGGPSYNEQF	6	3	21
43	ASGSTWDSPYEQY	12	77	22
43	ASILEHSGRPYEQY	12	5	25
43	ASIPLGGPSYNEQF	6	4	33
43	ASISTRGKINEQF	6	10	2
43	ASISTWDSPYEQY	12	30	8
43	ASLGDGRNTIY	2	1	515
43	ASLLGRDYNEQF	6	2654	1
43	ASNQGGLAGSHNEQF	6	2	2
43	ASNSTWDSPYEQY	12	17	6
43	ASRDTSGGSYEQY	12	1	1
43	ASRFTGGGLEQY	12	4	5
43	ASRKGQAHEQY	12	3	5
43	ASRKGQAYEQY	12	1897	2649
43	ASRKGQSYEQY	12	5	5
43	ASRKGQTYEQY	12	1	1
43	ASRKVQAYEQY	12	3	1
43	ASRLEHSGRPYEQY	12	16	18
43	ASRLFQPYNEQF	6	12	1
43	ASRNGQAYEQY	12	1	3
43	ASRPLGGPSYNEQF	6	3	24
43	ASRRGQAYEQY	12	5	6
43	ASRSTWDSPYEQY	12	31	17
43	ASRWEDTIY	2	1	4
43	ASSATWDSPYEQY	12	12	7
43	ASSDYYSYNEQF	6	5000	2
43	ASSEGGLAGSHNEQF	6	7	3
43	ASSELGTTINEQF	6	11	1
43	ASSFAETQY	10	7	3
43	ASSFEHSGRPYEQY	12	3	5
43	ASSFGETQY	10	10761	315
43	ASSFKGGGLEQY	12	1	3
43	ASSFPRHQETQY	10	1	23944
43	ASSFRETQY	10	15	1
43	ASSFSETQY	10	2	5556
43	ASSFTGGGFEQY	12	1	1
43	ASSFTGGGLEQY	12	2078	999
43	ASSFVPGLDPNEQF	6	7820	1
43	ASSFYRDRGLGETQY	10	117	1
43	ASSHLGGPSYNEQF	6	2	5
43	ASSIEHSGRPYEQY	12	2	4
43	ASSISHNEQF	6	4007	1
43	ASSLATGLAASSYEQY	12	12	13
43	ASSLDHSGRPYEQY	12	2	40
43	ASSLEDSGRPYEQY	12	4	1
43	ASSLEDTIY	2	1	3
43	ASSLEHCGRPYEQY	12	1	22
43	ASSLEHGGRPYEQY	12	7	57
43	ASSLEHIGRPYEQY	12	11	7
43	ASSLEHNGRPYEQY	12	6	5
43	ASSLEHRGRPYEQY	12	17	27
43	ASSLEHSARPYEQY	12	1	5
43	ASSLEHSCRPYEQY	12	6	3
43	ASSLEHSDRPYEQY	12	7	4
43	ASSLEHSGCPYEQY	12	17	9
43	ASSLEHSGGPYEQY	12	4	2
43	ASSLEHSGHPYEQY	12	9	37
43	ASSLEHSGLPYEQY	12	16	23
43	ASSLEHSGPPYEQY	12	4	30
43	ASSLEHSGRHYEQY	12	2	4
43	ASSLEHSGRLYEQY	12	8	12
43	ASSLEHSGRPCEQY	12	13	9
43	ASSLEHSGRPDEQY	12	7	3
43	ASSLEHSGRPHEQY	12	20	14
43	ASSLEHSGRPYEQF	6	8	3
43	ASSLEHSGRPYEQY	12	12739	9862
43	ASSLEHSGRPYEQY	6	12	16
43	ASSLEHSGRRYEQY	12	6	1
43	ASSLEHSGRSYEQY	12	7	5
43	ASSLEHSGRTYEQY	12	7	3
43	ASSLEHSGSPYEQY	12	6	3
43	ASSLEHSSRPYEQY	12	17	5
43	ASSLEHSVRPYEQY	12	15	5
43	ASSLEHTGRPYEQY	12	4	1
43	ASSLENSGRPYEQY	12	8	16
43	ASSLEQSGRPYEQY	12	1	1
43	ASSLERSGRPYEQY	12	14	74
43	ASSLEYSGRPYEQY	12	5	10
43	ASSLFQAYNEQF	6	8	1
43	ASSLFQPYNEQF	6	9236	369
43	ASSLFQPYNEQL	6	26	2
43	ASSLFQPYSEQF	6	18	1
43	ASSLFRPYNEQF	6	13	1
43	ASSLGDSTYEQY	12	98	61
43	ASSLGEPNSYEQY	12	2	2
43	ASSLGEPSSYEQY	12	2602	403
43	ASSLGETQY	10	58	4
43	ASSLGGIITDTQY	8	1	9
43	ASSLGGPSSYEQY	12	4	3
43	ASSLGGSGGYNEQF	6	2	10
43	ASSLGHSGRPYEQY	12	18	14
43	ASSLGPRNEQF	6	3	3
43	ASSLGQVYEQY	12	1	83
43	ASSLGTPNEQF	6	39	4
43	ASSLGVLYQETQY	10	1	2
43	ASSLIGVSTHNEQF	6	2	1201
43	ASSLKHSGRPYEQY	12	10	4
43	ASSLLQPYNEQF	6	25	1
43	ASSLQGASYEQY	12	5259	4
43	ASSLQHSGRPYEQY	12	7	4
43	ASSLRFPGSGHEQY	12	1	2
43	ASSLSYEQY	12	97	17
43	ASSLTGGGLEQY	12	2	2
43	ASSLTWDSPYEQY	12	30	9
43	ASSLVQPYNEQF	6	3	2
43	ASSLYQGTLGYEQF	6	583	1
43	ASSPLEGPSYNEQF	6	20	9
43	ASSPLGAPSYNEQF	6	3	1
43	ASSPLGCPSYNEQF	6	2	47
43	ASSPLGDPSYNEQF	6	3	4
43	ASSPLGGLSYNEQF	6	5	4
43	ASSPLGGPFYNEQF	6	2	21
43	ASSPLGGPPYNEQF	6	12	22
43	ASSPLGGPSCNEQF	6	4	39
43	ASSPLGGPSHNEQF	6	107	9
43	ASSPLGGPSSNEQF	6	2	4
43	ASSPLGGPSYDEQF	6	4	15
43	ASSPLGGPSYNEQF	6	4896	11834
43	ASSPLGGPSYNEQL	6	15	45
43	ASSPLGGPSYNEQY	6	5	24
43	ASSPLGGPSYSEQF	6	7	11
43	ASSPLGGPTYNEQF	6	1	3
43	ASSPLGGPYYNEQF	6	1	28
43	ASSPLGGRSYNEQF	6	1	2
43	ASSPLGGTSYNEQF	6	4	3
43	ASSPLGSPSYNEQF	6	6	9
43	ASSPLWGPSYNEQF	6	4	19
43	ASSPPTGAYEQY	12	4	1
43	ASSPSGGPSYNEQF	6	4	13
43	ASSPSGGRYNEQF	6	6215	1
43	ASSPTGLGYNEQF	6	47	68
43	ASSPTWDSPYEQY	12	97	37
43	ASSPVGGPSYNEQF	6	5	5
43	ASSPWGGPSYNEQF	6	2	6
43	ASSQGGIAGSHNEQF	6	5	1
43	ASSQGGLAGCHNEQF	6	4	3
43	ASSQGGLAGSHNEQF	6	4593	1167
43	ASSQGGLAGSHNEQL	6	14	4
43	ASSQGGLAGSQNEQF	6	8	1
43	ASSQGGLAGSYNEQF	6	4	3
43	ASSQGGLSGSHNEQF	6	3	4
43	ASSQGGLVGSHNEQF	6	4	1
43	ASSQGGPAGSHNEQF	6	3	5
43	ASSQQGQETQY	10	4	2
43	ASSRGGTNYEQY	12	2	3
43	ASSSAWDSPYEQY	12	46	13
43	ASSSDRRYSYEQY	12	2272	1
43	ASSSEHSGRPYEQY	12	9	9
43	ASSSGETQY	10	2137	1
43	ASSSGYQETQY	10	449	1
43	ASSSIWDSPYEQY	12	31	7
43	ASSSLGGPSYNEQF	6	6	16
43	ASSSNWDSPYEQY	12	19	6
43	ASSSPWDSPYEQY	12	2	1
43	ASSSSWDSPYEQY	12	12	21
43	ASSSTCDSPYEQY	12	31	19
43	ASSSTGDSPYEQY	12	17	61
43	ASSSTRDSPYEQY	12	63	25
43	ASSSTSDSPYEQY	12	10	5
43	ASSSTWDGPYEQY	12	58	19
43	ASSSTWDIPYEQY	12	73	39
43	ASSSTWDNPYEQY	12	25	1091
43	ASSSTWDRPYEQY	12	12	4
43	ASSSTWDSAYEQY	12	18	6
43	ASSSTWDSHYEQY	12	19	5
43	ASSSTWDSLYEQY	12	277	8
43	ASSSTWDSPCEQY	12	36	14
43	ASSSTWDSPDEQY	12	22	3
43	ASSSTWDSPHEQY	12	42	20
43	ASSSTWDSPYEQF	6	20	6
43	ASSSTWDSPYEQY	12	37510	12548
43	ASSSTWDSPYEQY	6	29	13
43	ASSSTWDSRYEQY	12	14	4
43	ASSSTWDSTYEQY	12	33	13
43	ASSSTWDTPYEQY	12	19	25
43	ASSSTWESPYEQY	12	52	27
43	ASSSTWGSPYEQY	12	277	45
43	ASSSTWHSPYEQY	12	9	6
43	ASSSTWNSPYEQY	12	16	2
43	ASSSTWVSPYEQY	12	5	5
43	ASSSTWYSPYEQY	12	36	7
43	ASSSWAGGTRNEQF	6	1	10701
43	ASSTLGGPSYNEQF	6	2	14
43	ASSTTWDSPYEQY	12	1	3
43	ASSVEHSGRPYEQY	12	6	6
43	ASSWEDTIY	2	448	3350
43	ASSWEYTIY	2	1	2
43	ASTLEHSGRPYEQY	12	1	11
43	ASTPEESRNEQF	6	1	1
43	ASTSTWDSPYEQY	12	4	4
43	ATQRGGTDTQY	8	10	12
43	ATSLEHSGRPYEQY	12	3	7
43	ATSPLGGPSYNEQF	6	1	2
43	ATSSTWDSPYEQY	12	4	11
43	TSSLEHSGRPYEQY	12	8	5
43	TSSPLGGPSYNEQF	6	2	1465
43	TSSSTWDSPYEQY	12	13	8
43	VSRKGQAYEQY	12	3	4
43	VSSLEHSGRPYEQY	12	17	5
43	VSSLGEPSSYEQY	12	2	1
43	VSSPLGGPSYNEQF	6	2	7
43	VSSSTWDSPYEQY	12	29	18
44	AISVGASGGDQETQY	10	7	3
44	ASGVGASGGDQETQY	10	11	9
44	ASIVGASGGDQETQY	10	5	1
44	ASNVGASGGDQETQY	10	4	2
44	ASNVGQGLDSYEQY	12	1	2
44	ASRENSQGTQY	8	1	7567
44	ASRVGASGGDQETQY	10	6	1
44	ASSAGASGGDQETQY	10	6	9
44	ASSELGTTINEQF	6	10	2
44	ASSIGASGGDQETQY	10	5	3
44	ASSLGASGGDQETQY	10	6	6
44	ASSNERAAHTDTQY	8	1	1
44	ASSPELDTQY	8	9	2
44	ASSPHGQGTDEQY	12	2170	1
44	ASSPRDNSGETQY	10	4	767
44	ASSPTGLGYNEQF	6	32	22
44	ASSRMVLNEQF	6	10072	2
44	ASSVAGTSGGNYNEQF	6	5962	1
44	ASSVGAGGGDQETQY	10	14	1
44	ASSVGAIGGDQETQY	10	1	2
44	ASSVGANGGDQETQY	10	4	1
44	ASSVGARGGDQETQY	10	4	3
44	ASSVGASEGDQETQY	10	5	2
44	ASSVGASGGDLETQY	10	1	3
44	ASSVGASGGDQDTQY	10	6	3
44	ASSVGASGGDQETQY	10	9530	2826
44	ASSVGASGGDQGTQY	10	21	5
44	ASSVGASGGDRETQY	10	9	9
44	ASSVGASGGEQETQY	10	11	2
44	ASSVGASGGGQETQY	10	15	8
44	ASSVGASGGVQETQY	10	4	3
44	ASSVGASGGYQETQY	10	9	2
44	ASSVGASGVDQETQY	10	6	2
44	ASSVGASWGDQETQY	10	3	4
44	ASSVGQGLDFYEQY	12	5	2
44	ASSVGQGLDPYEQY	12	6	3
44	ASSVGQGLDSYEQY	12	1604	1878
44	ASSVGQTYEQY	12	22	900
44	ASSVGRGLDSYEQY	12	2	10
44	ASSVGVSGGDQETQY	10	3	1
44	ASSVTAGATDTQY	8	7813	1
44	ASSVVASGGDQETQY	10	3	3
44	SVGASGGDQETQY	10	1	6
44	TSSVGASGGDQETQY	10	6	3
5	ASSFRSYPGGRNQETQY	10	1	1
5	ASSLATGLAASSYEQY	12	1	1
5	ASSLEATNLNEQF	6	11839	1
5	ASSLEGTGSWNEQF	6	8	1
5	ASSLGGSGGYNEQF	6	1	1
5	ASSLGIGGGAQETQY	10	1	2070
5	ASSLGLANIQY	9	1	2
5	ASSPGTSSRSTDTQY	8	2	1
5	ASSPTGLGYNEQF	6	13	7
5	ASSSETGGTQY	10	1	3
5	ASSSKTGGTQY	10	89	224
5	ASSSSGGKSTDTQY	8	246	1
5	ASSWSGTSGGETDTQY	8	13	5
5	ASSYPPDNEQF	6	41	38
5	ASSYRGGYNEQF	6	413	1
5	ATQRGGTDTQY	8	35	64
6	AISTRISGNTIY	2	4	2
6	ARSHRDRGSTDTQY	8	2	1
6	ARSRAGDTQY	8	2	3
6	ASCHRDRGSTDTQY	8	2	2
6	ASGQAGQSSYEQY	12	252	1
6	ASGTRISGNTIY	2	5	42
6	ASIFSEDTQY	8	1	1
6	ASIRKSGNTIY	2	2	11313
6	ASITRISGNTIY	2	8	9
6	ASITSGLSYNEQF	6	2	24030
6	ASNLWGRGAFPEQY	12	1	1
6	ASNRAGDTQY	8	1	5
6	ASNRFSESLGNEQF	6	1	2
6	ASNRFSGSLGNEQF	6	334	401
6	ASNRFSGSLGSEQF	6	2	1
6	ASNTRISGNTIY	2	4	4
6	ASREGTGPLWEQY	12	2	634
6	ASRETGGVGELF	7	13	3
6	ASRIGQGTDTQY	8	5	2
6	ASRRAGDTQY	8	2	5
6	ASRSGAYEQY	12	1	316
6	ASRTRISGNTIY	2	5	23
6	ASSARISGNTIY	2	11	19
6	ASSEAGGETQY	10	1	1
6	ASSFDFLTSTDTQY	8	7	1
6	ASSFGQGEQY	12	383	173
6	ASSFNLGSSGNTIY	2	1	5
6	ASSFRAELTYEQY	12	351	814
6	ASSFRGSEQY	12	1	10035
6	ASSFRLGSSGNTIY	2	2	21
6	ASSFSEDTQY	8	3691	276
6	ASSFSLGSSGDTIY	2	1	9
6	ASSFSLGSSGNTIY	2	374	5924
6	ASSFSLGSSGSTIY	2	1	13
6	ASSFSLGSYGNTIY	2	1	13
6	ASSFSLRSSGNTIY	2	1	6
6	ASSFYGGRPDTQY	8	3	2
6	ASSFYRGRPDTQY	8	996	689
6	ASSGADRQETQY	10	1	3
6	ASSHQGSTEAF	0	3	1
6	ASSHRDRGRTDTQY	8	12	1
6	ASSHRDRGSADTQY	8	10	1
6	ASSHRDRGSTDTQY	8	4474	231
6	ASSIGQGTDTQY	8	10319	295
6	ASSIGQVTDTQY	8	13	1
6	ASSIRISGNTIY	2	4	2
6	ASSKGGDYNEQF	6	9	3
6	ASSLAGASEQY	12	496	233
6	ASSLAGAYEQY	12	1	1
6	ASSLAGDTQY	8	1	1
6	ASSLATGLAASSYEQY	12	1	3
6	ASSLDRGKFYEQY	12	1	7745
6	ASSLGDTQY	8	9	5
6	ASSLGGDTIY	2	8	1
6	ASSLGGNTIY	2	5124	298
6	ASSLGGSYNEQF	6	3	5911
6	ASSLGQGEQY	12	6	1
6	ASSLGRLGHTDTQY	8	345	1
6	ASSLGTPNEQF	6	1	7
6	ASSLKLAGGIYEQY	12	1	154
6	ASSLLSGNTIY	2	4039	1
6	ASSLNTGGTDTQY	8	43	1176
6	ASSLRAELTYEQY	12	2	3
6	ASSLRASSSYTDTQY	8	1	8097
6	ASSLRFPGSGHEQY	12	17	33
6	ASSLRLESGNTIY	2	288	296
6	ASSLRPNQETQY	10	5	6278
6	ASSLSGNTIY	2	14	1
6	ASSLSTGLGYNEQF	6	1658	1
6	ASSLVDTQY	8	12	30583
6	ASSLWDRGFDEQY	12	206	1
6	ASSLWGRGAFPEQY	12	1337	509
6	ASSLWGTKTYNEQF	6	1	8872
6	ASSLYRGRPDTQY	8	2	3
6	ASSNRISGNTIY	2	3	7
6	ASSPGRTTEAF	0	145	1
6	ASSPPSNIQY	9	4	25130
6	ASSPRGFSYEQY	12	610	1
6	ASSPRISGNTIY	2	1	3
6	ASSPSREQSEQF	6	1	582
6	ASSPTGLGYNEQF	6	60	42
6	ASSQADRQETQY	10	2	4
6	ASSQQGYYEQY	12	1	3278
6	ASSRADRQETQY	10	861	7036
6	ASSRADRQGTQY	10	1	11
6	ASSRAGDTQY	8	1691	6582
6	ASSRAGETQY	8	2	2
6	ASSRAGGTQY	8	3	10
6	ASSRAYRQETQY	10	2	3
6	ASSREGDTQY	8	1	29
6	ASSRGGDTQY	8	1	12
6	ASSRSDRQETQY	10	1	17
6	ASSRTGDTQY	8	1	8
6	ASSRVDRQETQY	10	2	7
6	ASSRVGDTQY	8	2	6
6	ASSSAGGTDTQY	8	1	2465
6	ASSSIDSTDTQY	8	1	76
6	ASSSQGFAYEQY	12	142	1045
6	ASSSSGGTDTQY	8	4	9
6	ASSTGISGNTIY	2	3	2
6	ASSTLISGNTIY	2	5	5
6	ASSTPISGNTIY	2	3	3
6	ASSTQISGNTIY	2	3	10
6	ASSTRICGNTIY	2	2	19
6	ASSTRIPGNTIY	2	9	30
6	ASSTRISANTIY	2	1	5
6	ASSTRISENTIY	2	3	8
6	ASSTRISGDTIY	2	52	17
6	ASSTRISGNTIY	2	5582	10143
6	ASSTRISGSTIY	2	7	20
6	ASSTRISRNTIY	2	3	6
6	ASSTRISVNTIY	2	1	7
6	ASSTRIYGNTIY	2	5	25
6	ASSTRTSGNTIY	2	15	16
6	ASSTRVSGNTIY	2	8	14
6	ASSTWISGNTIY	2	5	25
6	ASSWADRQETQY	10	13	13
6	ASSWGGDEQY	12	1	7268
6	ASSYGGANIQY	9	355	2
6	ASTLGDRGNNEQF	6	2	2
6	ASTLGNRGNDEQF	6	1	1
6	ASTLGNRGNNEQF	6	531	352
6	ASTLGNRGNNEQL	6	3	1
6	ASTLGNRGNNEQY	6	1	4
6	ASTLGNRGSNEQF	6	1	4
6	ASTLTSGKGYEQY	12	1	51
6	ASTRTSGYEQY	12	1	21
6	TSSIGQGTDTQY	8	1	3
6	TSSTRISGNTIY	2	3	16
6	VSSFSLGSSGNTIY	2	1	6
6	VSSRADRQETQY	10	2	8
6	VSSRAGDTQY	8	4	4
6	VSSTRISGNTIY	2	1	21
7	ASGLVLLRNEQF	6	1	1
7	ASGLVLPRNEQF	6	21	6
7	ASGNRRGNEQF	6	8	2
7	ASGPGTAGVDEQF	6	6340	2
7	ASSELGTTINEQF	6	25	2
7	ASSPTGLGYNEQF	6	29	28
8	ASRLGGIGNEQF	6	671	3
8	ASSLLRGARYEQY	12	1	13
8	ASSPERGTKYEQY	12	1	1
8	ASSPLVAFGEQF	6	1	16
8	ASSPLVGCGEQF	6	1	3
8	ASSPLVGFCEQF	6	2	2
8	ASSPLVGFGEQF	6	294	5912
8	ASSSLVGFGEQF	6	2	7
9	AISKGGDYNEQF	6	34	4
9	ARGGIFSGNTIY	2	7	2
9	ARSKGGDYNEQF	6	36	4
9	ASGGIFSGNTIY	2	2525	277
9	ASGGILSGNTIY	2	2	2
9	ASGGTFSGNTIY	2	3	1
9	ASGKGGDYNEQF	6	115	31
9	ASGPMGASTDTQY	8	6	3
9	ASGQAAGQETQY	10	4	23
9	ASGQAGGQAKNIQY	9	3	5
9	ASGQDLGNSYNEQF	6	13	6
9	ASGQVGPDEQY	12	6	4
9	ASGRTTSGNTIY	2	1	3
9	ASGVIFSGNTIY	2	2	2
9	ASIKGGDYNEQF	6	44	5
9	ASIQAGGQAKNIQY	9	2	3
9	ASIQDLGNSYNEQF	6	1	2
9	ASIQVGPDEQY	12	1	1
9	ASNQDLGNSYNEQF	6	43	2
9	ASRKGGDYNEQF	6	49	15
9	ASRPMGASTDTQY	8	2	2
9	ASRQAAGQETQY	10	1	15
9	ASSEGGDYNEQF	6	118	17
9	ASSFLDRGIYEQY	12	3	1
9	ASSFPDGGIYEQY	12	2	3
9	ASSFPDRGIYEQY	12	1358	1499
9	ASSFPDRGIYEQY	6	1	2
9	ASSFPDRGVYEQY	12	3	2
9	ASSFPDRVIYEQY	12	1	4
9	ASSFPHRGIYEQY	12	1	4
9	ASSHAAGQETQY	10	3	7
9	ASSKEGDYNEQF	6	72	3
9	ASSKGADYNEQF	6	3	2
9	ASSKGEDYNEQF	6	40	5
9	ASSKGGAYNEQF	6	3	16
9	ASSKGGDCNEQF	6	81	5
9	ASSKGGDFNEQF	6	11	4
9	ASSKGGDHNEQF	6	98	14
9	ASSKGGDSNEQF	6	4	3
9	ASSKGGDYDEQF	6	81	3
9	ASSKGGDYNEQF	6	69783	8529
9	ASSKGGDYNEQL	6	229	23
9	ASSKGGDYNEQY	6	83	16
9	ASSKGGDYSEQF	6	91	7
9	ASSKGGEYNEQF	6	116	17
9	ASSKGGGYNEQF	6	116	22
9	ASSKGGNYNEQF	6	44	2
9	ASSKGGVYNEQF	6	8	11
9	ASSKGRDYNEQF	6	50	4
9	ASSKGVDYNEQF	6	31	2
9	ASSKGWDYNEQF	6	21	3
9	ASSKRGDYNEQF	6	40	11
9	ASSKVGDYNEQF	6	23	1
9	ASSKWGDYNEQF	6	23	23
9	ASSLTWASTDTQY	8	1	6856
9	ASSMGGDYNEQF	6	10	3
9	ASSNGGDYNEQF	6	23	3
9	ASSPIGASTDTQY	8	3	1
9	ASSPLTSGYSYNEQF	6	5	17842
9	ASSPMGAGTDTQY	8	5	1
9	ASSPMGARTDTQY	8	4	1
9	ASSPMGASADTQY	8	3	2
9	ASSPMGASTDTQY	8	1625	1633
9	ASSPMGASTGTQY	8	3	1
9	ASSPQWGGYNEQF	6	71	3137
9	ASSPTGASTDTQY	8	2	7
9	ASSPTGLGYNEQF	6	89	49
9	ASSPTRVGTVFHGYT	1	65	196
9	ASSQAAEQETQY	10	2	21
9	ASSQAAGKETQY	10	1	11
9	ASSQAAGQETQY	10	2721	8947
9	ASSQAAGQGTQY	10	4	31
9	ASSQAAGRETQY	10	2	10
9	ASSQAEGQAKNIQY	9	1	1
9	ASSQAEGQETQY	10	4	4
9	ASSQAGGQAKNIQY	9	1127	667
9	ASSQAGGQAKSIQY	9	5	2
9	ASSQAGGQSKNIQY	9	1	1
9	ASSQAGPDEQY	12	3	5
9	ASSQAGRQAKNIQY	9	7	1
9	ASSQDLGDSYNEQF	6	4	3
9	ASSQDLGNAYNEQF	6	2	1
9	ASSQDLGNCYNEQF	6	1	7
9	ASSQDLGNSCNEQF	6	2	2
9	ASSQDLGNSHNEQF	6	6	7
9	ASSQDLGNSYNEQF	6	4210	1818
9	ASSQDLGNSYNEQL	6	17	4
9	ASSQDLGNSYNEQY	6	7	3
9	ASSQDLGNYYNEQF	6	3	7
9	ASSQDLWNSYNEQF	6	2	8
9	ASSQDPGNSYNEQF	6	7	2
9	ASSQDRGQETQY	10	9	1
9	ASSQDRIYNEQF	6	1	6530
9	ASSQDRWGLAGSDTQY	8	2	667
9	ASSQELGNSYNEQF	6	4	7
9	ASSQGGDYNEQF	6	2	1
9	ASSQGKGGRTDTQY	8	114	28
9	ASSQGLGNSYNEQF	6	9	3
9	ASSQKETQY	10	2749	1
9	ASSQKSPNEQF	6	1130	1
9	ASSQNRGQETQY	10	7910	32
9	ASSQNRVQETQY	10	6	1
9	ASSQSGGQAKNIQY	9	2	1
9	ASSQTAGQETQY	10	3	3
9	ASSQVAPDEQY	12	1	6
9	ASSQVGGQAKNIQY	9	3	3
9	ASSQVGLDEQY	12	4	13
9	ASSQVGPDEQY	12	3095	2312
9	ASSQVGPDEQY	6	6	6
9	ASSQVGPGEQY	12	9	12
9	ASSQVRPDEQY	12	2	1
9	ASSQVVPDEQY	12	2	3
9	ASSQYLGNSYNEQF	6	4	1
9	ASSRAAGQETQY	10	3	11
9	ASSRDLGNSYNEQF	6	45	3
9	ASSRGGDYNEQF	6	46	10
9	ASSRTTSGNTIY	2	82	254
9	TSSKGGDYNEQF	6	50	8
9	TSSQDLGNSYNEQF	6	2	1
9	VSSKGGDYNEQF	6	59	18
