CD8_M1a8-7_2nd_run_F6-5AA_UNIQUE_OUTPUT.txt	0	0
CD8_M2a8-7_F5-1AA_UNIQUE_OUTPUT.txt	0	0
CD8_M3a8-7_F6-1AA_UNIQUE_OUTPUT.txt	0	0
CD8_O1a8-7_F5-5AA_UNIQUE_OUTPUT.txt	0	0
CD8_O2a8-7_F5-2AA_UNIQUE_OUTPUT.txt	0	0
