5	ASRPSSGDRNEQF	6	2
4	ASRPSSGDRNEQF	6	494
1	ASSYLQREGHFYNEQF	6	1
35	ASSYLQREGHFYNEQF	6	2
33	ASKPTGAHEQY	12	63
35	ASKPTGAHEQY	12	1
25	ASSTRVAGDNNEQF	6	1
26	ASSTRVAGDNNEQF	6	196
19	ASSYLGSYNEQF	6	1
33	ASSYLGSYNEQF	6	1635
35	ASSYLGSYNEQF	6	3
35	ASSYHTTNEQF	6	1
32	ASSYHTTNEQF	6	1
2	ASSYHTTNEQF	6	1
33	ASSYHTTNEQF	6	567
42	ASSWISYEQY	12	9
31	ASSWISYEQY	12	153
17	ASSDWNYEQY	12	13
23	ASSDWNYEQY	12	6
43	ASSLGSPGLSNEQF	6	554
28	ASSLGSPGLSNEQF	6	1
19	ASSLAGANEQF	6	2
6	ASSLAGANEQF	6	1
25	ASSRSRDGNYEQY	12	1
23	ASSRSRDGNYEQY	12	458
25	ASSPSRNEQF	6	5
19	ASSPSRNEQF	6	3
25	ASSPKAYEQY	12	1
23	ASSPKAYEQY	12	52
30	ASSLGLRGRNTEAF	0	1
4	ASSLGLRGRNTEAF	0	9
35	ASSPVQGRRRETQY	10	2
36	ASSPVQGRRRETQY	10	3
30	ASSPFTSEIYEQY	12	2
24	ASSPFTSEIYEQY	12	74
37	ASSSTRTGNTIY	2	170
30	ASSSTRTGNTIY	2	2
4	ASSLDRVSYNEQF	6	1
28	ASSLDRVSYNEQF	6	1
5	ASSLDRVSYNEQF	6	399
35	ASSYMTGNSGNTIY	2	11
1	ASSYMTGNSGNTIY	2	1
13	ASSVGTNNEQF	6	1
6	ASSVGTNNEQF	6	400
32	AIKISGGENIQY	9	12
35	AIKISGGENIQY	9	4
36	AIKISGGENIQY	9	9
1	AIKISGGENIQY	9	1
2	AIKISGGENIQY	9	21547
7	ASSFAGSYEQY	12	4
6	ASSFAGSYEQY	12	238
35	ASSYSGNTEAF	0	2
33	ASSYSGNTEAF	0	440
32	ASSYSGNTEAF	0	1
23	ASSGRRADTQY	8	530
25	ASSGRRADTQY	8	1
2	AIKGQGKGETQY	10	452
32	AIKGQGKGETQY	10	1
23	ASSQGLPGQGENIQY	9	4256
25	ASSQGLPGQGENIQY	9	52
21	ASSFLETQY	10	1
6	ASSFLETQY	10	28
4	ASSLDLAGGHNEQF	6	105
5	ASSLDLAGGHNEQF	6	1
3	ASSVGGPGQNIQY	9	4
5	ASSVGGPGQNIQY	9	1
24	ASSQVLVQGYGNTIY	2	6
30	ASSQVLVQGYGNTIY	2	1
23	ASSGRQGVILYEQY	12	932
25	ASSGRQGVILYEQY	12	6
24	ASSGRQGVILYEQY	12	1
43	ASSLGTSGPGVTDTQY	8	1
28	ASSLGTSGPGVTDTQY	8	1
40	ASSLGTSGPGVTDTQY	8	513
21	ASSVGDRGIAGDEQF	6	1
44	ASSVGDRGIAGDEQF	6	357
34	ASSLGIFNEQF	6	771
35	ASSLGIFNEQF	6	2
31	ASSLGIFNEQF	6	2
5	ASSSLSGSTYNEQF	6	3
4	ASSSLSGSTYNEQF	6	740
37	ASSSLSGSTYNEQF	6	1
25	ASSQSPRYEQY	12	1
23	ASSQSPRYEQY	12	1
19	ASSASGNEQF	6	1
44	ASSASGNEQF	6	1
3	ASSPREFRNNEQF	6	382
5	ASSPREFRNNEQF	6	2
28	ASSPREFRNNEQF	6	1
5	ASSFGTKVTYEQY	12	3
4	ASSFGTKVTYEQY	12	588
33	ASSFRSSYEQY	12	24
32	ASSFRSSYEQY	12	19
25	ASSQDEGEPYNEQF	6	1
23	ASSQDEGEPYNEQF	6	133
31	ASSEFAQGLNEQF	6	97
35	ASSEFAQGLNEQF	6	1
32	ASSYGDAQETQY	10	1
31	ASSYGDAQETQY	10	880
34	ASSYGDAQETQY	10	1
35	ASSFDSSYNEQF	6	2
31	ASSFDSSYNEQF	6	1
33	ASSFDSSYNEQF	6	259
18	ASSSLAGGYNEQF	6	1460
44	ASSSLAGGYNEQF	6	1
26	ASRTSGSYNEQF	6	266
19	ASRTSGSYNEQF	6	2767
40	ASSILAGGTYNEQF	6	1
43	ASSILAGGTYNEQF	6	501
23	ASSQDHGWTEAF	0	1720
25	ASSQDHGWTEAF	0	7
21	ASGGSNTEAF	0	1
39	ASGGSNTEAF	0	1
44	ASGGSNTEAF	0	642
28	ASSLYKWAYNEQF	6	4
43	ASSLYKWAYNEQF	6	891
44	ASSRGLVSYNEQF	6	3274
21	ASSRGLVSYNEQF	6	1
19	ASSLAGGYNEQF	6	2
6	ASSLAGGYNEQF	6	446
38	ASSLAGGYNEQF	6	1
4	ASSLDSYEQY	12	35
43	ASSLDSYEQY	12	12
28	ASSRQLETEQF	6	2
43	ASSRQLETEQF	6	5333
14	ASTDLRLGSDNEQF	6	152
8	ASTDLRLGSDNEQF	6	1
14	ATSSETGVANSPLH	5	1
10	ATSSETGVANSPLH	5	49
25	ASSDWRYEQY	12	1
23	ASSDWRYEQY	12	1
23	ASSPLPPFGDTQY	8	3
25	ASSPLPPFGDTQY	8	1
33	ASSPALAWDEQF	6	87
31	ASSPALAWDEQF	6	1
4	ASLGGETQY	10	61
5	ASLGGETQY	10	1
25	ASSLTSGETQY	10	16
23	ASSLTSGETQY	10	4158
44	ASSVAASGSYNEQF	6	2204
21	ASSVAASGSYNEQF	6	1
35	ASSYPLGAEETQY	10	2
33	ASSYPLGAEETQY	10	49
32	ASSYPLGAEETQY	10	1
32	ATHADSYNEQF	6	1
35	ATHADSYNEQF	6	4
31	ATHADSYNEQF	6	1
33	ATHADSYNEQF	6	757
4	ASSFFLVSTYNEQF	6	121
5	ASSFFLVSTYNEQF	6	1
40	ASSLASGGLFEQY	12	1
43	ASSLASGGLFEQY	12	1
3	ASSLAQTVLDEQF	6	1764
28	ASSLAQTVLDEQF	6	2
43	ASSLGSGNEQL	6	39
26	ASSLGSGNEQL	6	1
25	ASSQVELSPYNEQF	6	1
23	ASSQVELSPYNEQF	6	9
25	ASSQGRAVRSYNEQF	6	28
23	ASSQGRAVRSYNEQF	6	1753
33	ASRLGGYNEQF	6	454
8	ASRLGGYNEQF	6	13
0	ASRPEGNEQF	6	6
44	ASRPEGNEQF	6	9
23	ASSQEGSGRPQETQY	10	286
25	ASSQEGSGRPQETQY	10	3
39	ASSVVASPNTGELF	7	1
44	ASSVVASPNTGELF	7	22
21	ASSVVLSGRHIQY	9	1
44	ASSVVLSGRHIQY	9	779
6	ASGLITGRDYNEQF	6	1
7	ASGLITGRDYNEQF	6	814
25	ASSQGWVGALVEQF	6	5
23	ASSQGWVGALVEQF	6	731
31	ASSYPGRNYNEQF	6	168
33	ASSYPGRNYNEQF	6	1
0	ATSDRTKYNEQF	6	392
1	ATSDRTKYNEQF	6	1
36	AISKSGTSGSTFLDEQF	6	1
2	AISKSGTSGSTFLDEQF	6	560
32	AISKSGTSGSTFLDEQF	6	1
35	AISKSGTSGSTFLDEQF	6	2
13	ASSDGGYNEQF	6	1
21	ASSDGGYNEQF	6	1
26	ASSLRRGSSYNEQF	6	8
37	ASSLRRGSSYNEQF	6	16
32	ASQLAGEGGAKNIQY	9	1
36	ASQLAGEGGAKNIQY	9	4
35	ASQLAGEGGAKNIQY	9	23
26	ASSLPGNTEAF	0	3
19	ASSLPGNTEAF	0	1
26	ASSSYSGRLLPLTNNEQF	6	20
25	ASSSYSGRLLPLTNNEQF	6	1
15	SVEDLAGQSSYNEQF	6	1
20	SVEDLAGQSSYNEQF	6	111207
21	ASSVEGLPVDTQY	8	1
44	ASSVEGLPVDTQY	8	10
44	ASSGINTEAF	0	109
21	ASSGINTEAF	0	1
28	ASTSGRAYNEQF	6	115
30	ASTSGRAYNEQF	6	1
18	ASSLGQTYNEQF	6	2
21	ASSLGQTYNEQF	6	680
43	ASSPSSGNTIY	2	18
28	ASSPSSGNTIY	2	1
19	ASSLAIGAGVGSYNEQF	6	1
6	ASSLAIGAGVGSYNEQF	6	25
26	ASSLDPSYEQY	12	1
27	ASSLDPSYEQY	12	1
19	ASSPGRSYEQY	12	1113
6	ASSPGRSYEQY	12	4
25	ASSQDLTSGTSHTGTQY	8	1
23	ASSQDLTSGTSHTGTQY	8	5
21	ASSARGYNEQF	6	1
14	ASSARGYNEQF	6	8
32	AISESTGQGVKNIQY	9	4
2	AISESTGQGVKNIQY	9	1569
36	AISESTGQGVKNIQY	9	1
35	AISESTGQGVKNIQY	9	3
23	ASSQDRGNEQF	6	211
25	ASSQDRGNEQF	6	1
2	AISGTGEQY	12	375
32	AISGTGEQY	12	1
35	AISGTGEQY	12	1
28	ASSLTDGGSETQY	10	1
3	ASSLTDGGSETQY	10	2
14	ATSDGGLNTEAF	0	1
10	ATSDGGLNTEAF	0	182
44	ASNRQGYNEQF	6	1052
21	ASNRQGYNEQF	6	2
6	ASSLLGETQY	10	10
30	ASSLLGETQY	10	1
4	ASSLLGETQY	10	146
24	ASSQGVLGNTEAF	0	1
23	ASSQGVLGNTEAF	0	613
25	ASSQGVLGNTEAF	0	7
31	ATQMAYEQY	12	1
33	ATQMAYEQY	12	148
33	ASSYATGYNEQF	6	472
35	ASSYATGYNEQF	6	5
32	ASSYATGYNEQF	6	7
6	ASRPSGSYNEQF	6	540
26	ASRPSGSYNEQF	6	2
5	ASTSDSYEQY	12	1
4	ASTSDSYEQY	12	75
37	ASSTGTAHFWEQY	12	1043
30	ASSTGTAHFWEQY	12	1
38	ASSTGTAHFWEQY	12	1
42	ASSTGTAHFWEQY	12	1
12	ASSPRSSYNEQF	6	1
21	ASSPRSSYNEQF	6	32
18	ASRLLRNNEQF	6	135
31	ASRLLRNNEQF	6	1
23	ASSVGTSGSWSYNEQF	6	75
25	ASSVGTSGSWSYNEQF	6	1
1	ASSYTLSGVGNTIY	2	1
36	ASSYTLSGVGNTIY	2	4
25	ASSQGLAAPYEQY	12	5
23	ASSQGLAAPYEQY	12	487
23	ASSQDPGGGDEQF	6	13
25	ASSQDPGGGDEQF	6	2
36	AIGTSSNEQF	6	1
2	AIGTSSNEQF	6	101
32	ASSYDAAFSYEQY	12	1
31	ASSYDAAFSYEQY	12	134
30	ASSHGSGQPNEQF	6	1
28	ASSHGSGQPNEQF	6	19
35	ASSGEAGSYNEQF	6	1
32	ASSGEAGSYNEQF	6	2366
14	ASSIGLAAQETQY	10	84
8	ASSIGLAAQETQY	10	1
19	ASGTSGRAYEQY	12	3
1	ASGTSGRAYEQY	12	1
25	ASSPPGVQETQY	10	1
23	ASSPPGVQETQY	10	546
43	ASSSQETQY	10	286
27	ASSSQETQY	10	1
1	ASSDRYNEQF	6	6144
2	ASSDRYNEQF	6	3
35	ASRGGELRENIQY	9	2
36	ASRGGELRENIQY	9	3
2	ASRGGELRENIQY	9	906
32	ASRGGELRENIQY	9	14
5	ASSSTTSGIYNEQF	6	3
4	ASSSTTSGIYNEQF	6	326
15	SARLVGETQY	10	587
20	SARLVGETQY	10	7
4	ASSLEMSYEQY	12	514
30	ASSLEMSYEQY	12	1
5	ASSLEMSYEQY	12	1
30	ASSQERSDTQY	8	2
24	ASSQERSDTQY	8	144
27	ASSQERSDTQY	8	2
28	ASSQLGESIQY	9	1
30	ASSQLGESIQY	9	1
37	ASSLHGGYNEQF	6	371
30	ASSLHGGYNEQF	6	1
35	AIKRQGASYEQY	12	1
2	AIKRQGASYEQY	12	494
32	AIKRQGASYEQY	12	3
3	ASRLRDNEQF	6	1
5	ASRLRDNEQF	6	1
24	ASRQDHGWTEAF	0	1
23	ASRQDHGWTEAF	0	5
36	ASSYSPPAYNEQF	6	2
33	ASSYSPPAYNEQF	6	2163
35	ASSYSPPAYNEQF	6	11
31	ASSYSPPAYNEQF	6	2
36	AISESEGRTGTEQF	6	1
2	AISESEGRTGTEQF	6	38
23	ASSQGDRTSGLNEQF	6	886
25	ASSQGDRTSGLNEQF	6	11
23	ASSQFRISDTQY	8	313
25	ASSQFRISDTQY	8	7
25	ASSQNDRAMNTEAF	0	2
23	ASSQNDRAMNTEAF	0	252
30	ASSAHGREGETQY	10	6
37	ASSAHGREGETQY	10	310
23	ASRDWSYEQY	12	10
25	ASRDWSYEQY	12	1
20	SVEDPELSYNEQF	6	1749
15	SVEDPELSYNEQF	6	1
35	ASSYPRGNNEQF	6	1
34	ASSYPRGNNEQF	6	49
23	ASSQGLTGQGENIQY	9	11
25	ASSQGLTGQGENIQY	9	1
26	ASRYNNEQF	6	1
31	ASRYNNEQF	6	1
25	VSSQESGQLHYEQY	12	1
23	VSSQESGQLHYEQY	12	17
24	ASSQVFGGDRQETQY	10	160
25	ASSQVFGGDRQETQY	10	1
30	ASSQVFGGDRQETQY	10	1
23	ASSQVFGGDRQETQY	10	1
23	ASSQESGQLHYEQY	12	2036
25	ASSQESGQLHYEQY	12	11
26	ASRASGSYNEQF	6	2
19	ASRASGSYNEQF	6	5
25	ASSLPDVGYNEQF	6	1
27	ASSLPDVGYNEQF	6	49
6	ASRPDRYNEQF	6	2
14	ASRPDRYNEQF	6	788
2	ASRGDQTYEQY	12	1
1	ASRGDQTYEQY	12	81
1	ASSEDSLRNTIY	2	368
2	ASSEDSLRNTIY	2	2
32	ASSVTSGSTDTQY	8	1
13	ASSVTSGSTDTQY	8	2
30	ASSSYSSSYNEQF	6	1
5	ASSSYSSSYNEQF	6	1
28	ASSSYSSSYNEQF	6	1
3	ASSSYSSSYNEQF	6	494
23	ASSQDVVAKNIQY	9	152
25	ASSQDVVAKNIQY	9	1
28	ASSPGSSYEQY	12	20
12	ASSPGSSYEQY	12	44
43	ASSPGSSYEQY	12	1
34	ASSPGSSYEQY	12	1
4	ASSLKGDTQY	8	22
5	ASSLKGDTQY	8	1
4	ASSLSEYNEQF	6	1
5	ASSLSEYNEQF	6	106
25	ASSPPAYEQY	12	1
23	ASSPPAYEQY	12	6
33	ASSCHTTNEQF	6	1
35	ASSCHTTNEQF	6	1
35	ASTFPAGMSSYNEQF	6	1
36	ASTFPAGMSSYNEQF	6	1
32	ASTFPAGMSSYNEQF	6	1
25	ASSQEEASYEQY	12	4
23	ASSQEEASYEQY	12	847
2	ASSLTSYNEQF	6	1
32	ASSLTSYNEQF	6	14
31	ASSLTSYNEQF	6	1159
35	ASSLTSYNEQF	6	7
19	ASSLPGRGNEQF	6	1
26	ASSLPGRGNEQF	6	108
31	ASSYWDSSYNEQF	6	139
33	ASSYWDSSYNEQF	6	1
36	ASSPQTSGTYNEQF	6	1
35	ASSPQTSGTYNEQF	6	1
23	ASSQDRMENTEAF	0	274
25	ASSQDRMENTEAF	0	2
23	ASSQDLGWTDTQY	8	41
25	ASSQDLGWTDTQY	8	1
0	ASSEAGPGSSYNEQF	6	2251
1	ASSEAGPGSSYNEQF	6	2
36	ASSEAGPGSSYNEQF	6	2
36	ASSYWVGNTIY	2	1
33	ASSYWVGNTIY	2	1
35	ASSYWVGNTIY	2	1
27	ASSLGLVDEQF	6	24
43	ASSLGLVDEQF	6	480
4	ASSPPSSYNEQF	6	270
5	ASSPPSSYNEQF	6	2
9	ASSPPSSYNEQF	6	4
28	ASSLSRLAANEQF	6	2
3	ASSLSRLAANEQF	6	721
5	ASSLSRLAANEQF	6	2
25	ASSQGTSGRSSYYEQY	12	1
23	ASSQGTSGRSSYYEQY	12	8
31	ASSPTLGNEQF	6	568
35	ASSPTLGNEQF	6	1
19	ASSLGPTYEQY	12	28
18	ASSLGPTYEQY	12	20
26	ASSSSGRGNEQF	6	10
19	ASSSSGRGNEQF	6	1
31	ASLSVSYEQY	12	49
36	ASLSVSYEQY	12	1
30	ASSLAGGITYNEQF	6	1
4	ASSLAGGITYNEQF	6	655
4	ASSLESYEQY	12	1
40	ASSLESYEQY	12	169
43	ASSLESYEQY	12	1
28	ASSLSGRVSYNEQF	6	1
43	ASSLSGRVSYNEQF	6	229
25	ASSRGSWENIQY	9	76
23	ASSRGSWENIQY	9	1
5	ASSPLLAGGLNEQF	6	13
28	ASSPLLAGGLNEQF	6	4
3	ASSPLLAGGLNEQF	6	2629
28	ASSVGGQGQNIQY	9	5
5	ASSVGGQGQNIQY	9	3
30	ASSVGGQGQNIQY	9	1
3	ASSVGGQGQNIQY	9	4712
30	ASSQDIGQGTDTQY	8	4
24	ASSQDIGQGTDTQY	8	186
25	ASSQDIGQGTDTQY	8	1
31	ASSYHDTQY	8	68
33	ASSYHDTQY	8	1
21	ASSPRDGPYNEQF	6	1
44	ASSPRDGPYNEQF	6	1
33	ASRTGTAYYNEQF	6	134
35	ASRTGTAYYNEQF	6	1
25	ASSQQTSGSETQY	10	1
23	ASSQQTSGSETQY	10	23
25	ASSQRVQETQY	10	4
23	ASSQRVQETQY	10	405
43	ASSLTLTEAF	0	134
28	ASSLTLTEAF	0	1
23	ASSQLQGLSPYEQY	12	413
25	ASSQLQGLSPYEQY	12	1
4	ASSFLSGRLSSYNEQF	6	171
5	ASSFLSGRLSSYNEQF	6	1
13	ASSRTSSSYNEQF	6	40
26	ASSRTSSSYNEQF	6	2
34	ASSGSHVYEQY	12	1
31	ASSGSHVYEQY	12	2
24	ASSFQSGESDEQF	6	17
25	ASSFQSGESDEQF	6	1
25	ASSQPGLTYEQY	12	4
23	ASSQPGLTYEQY	12	1251
4	ASSMMAGKTYEQY	12	158
5	ASSMMAGKTYEQY	12	1
31	ASSLSSYNEQF	6	1
27	ASSLSSYNEQF	6	86
5	ASSLGGLAFSYNEQF	6	1
4	ASSLGGLAFSYNEQF	6	26
18	ASSLDSSSYNEQF	6	21
6	ASSLDSSSYNEQF	6	10
5	ASSYPPDNEQF	6	245
28	ASSYPPDNEQF	6	1
30	ASSQSEARFNEQF	6	5
24	ASSQSEARFNEQF	6	363
25	ASSQSEARFNEQF	6	3
27	ASSQSEARFNEQF	6	3
43	ASSPSGDSYNEQF	6	404
40	ASSPSGDSYNEQF	6	1
19	ASSFRSDTQY	8	1
18	ASSFRSDTQY	8	1
5	ASSLGAGVRTDTQY	8	1
3	ASSLGAGVRTDTQY	8	37
35	ASRPLPSSYEQY	12	1
33	ASRPLPSSYEQY	12	125
6	ASSSRETQY	10	6
21	ASSSRETQY	10	2
19	ASSSRETQY	10	3
37	ASSSRETQY	10	1
32	ASSVDIYNEQF	6	1
31	ASSVDIYNEQF	6	167
3	ASSVTSGYNEQF	6	1
28	ASSVTSGYNEQF	6	1
5	ASSVTSGYNEQF	6	186
32	ASSYKGARNEQF	6	1
34	ASSYKGARNEQF	6	388
35	ASSYKGARNEQF	6	3
25	ASSQEPPGTNSYEQY	12	1
23	ASSQEPPGTNSYEQY	12	9
19	ASSPPSRNTEAF	0	1
12	ASSPPSRNTEAF	0	2
14	ATGTLNRVSAKNIQY	9	1
10	ATGTLNRVSAKNIQY	9	1187
9	ASSPGRSSYNEQF	6	5
44	ASSPGRSSYNEQF	6	6
33	ATLVGAAYNEQF	6	1
35	ATLVGAAYNEQF	6	1
2	AISEPTLSPYNEQF	6	1451
35	AISEPTLSPYNEQF	6	8
4	ASSLRNEQF	6	2
19	ASSLRNEQF	6	2
25	ASSQTPSGNEQF	6	11
30	ASSQTPSGNEQF	6	1
23	ASSQTPSGNEQF	6	1747
38	ASSQTPSGNEQF	6	1
27	ASSQTPSGNEQF	6	1
21	ASSVEAAGVNIQY	9	2
44	ASSVEAAGVNIQY	9	1958
35	ASSPGRATYNEQF	6	1
33	ASSPGRATYNEQF	6	1
31	ASSGGPEPGNTIY	2	33
35	ASSGGPEPGNTIY	2	2
30	ASSPWTLDEQF	6	1
43	ASSPWTLDEQF	6	625
28	ASSPWTLDEQF	6	1
32	ASSYSRSGIDSYEQY	12	1
1	ASSYSRSGIDSYEQY	12	1
2	AIRSGTDTQY	8	44
35	AIRSGTDTQY	8	1
35	ASSYYDRTGSFSYEQY	12	1
36	ASSYYDRTGSFSYEQY	12	1
1	ASSEGGGEGYNEQF	6	1
32	ASSEGGGEGYNEQF	6	1
36	ASSEGGGEGYNEQF	6	1
35	ASSEGGGEGYNEQF	6	4
3	ASSHRDEAKNIQY	9	908
5	ASSHRDEAKNIQY	9	1
7	ASSSGEINEQF	6	1
6	ASSSGEINEQF	6	14
34	ASSYYIRHEQF	6	1
33	ASSYYIRHEQF	6	1
32	ASSYYIRHEQF	6	1
31	ASSYYIRHEQF	6	684
32	ASSVSYEQY	12	1
34	ASSVSYEQY	12	1
31	ASSVSYEQY	12	158
43	ASSLGHRGTTNEQF	6	441
28	ASSLGHRGTTNEQF	6	1
21	ASSLNGRYNEQF	6	4
6	ASSLNGRYNEQF	6	1
4	ASSLGGKGEQY	12	403
5	ASSLGGKGEQY	12	3
35	ASGFTAYNEQF	6	1
31	ASGFTAYNEQF	6	415
2	ASLTEDTDTQY	8	7
0	ASLTEDTDTQY	8	9
1	ASLTEDTDTQY	8	1891
6	ASSLSPRGETQY	10	344
8	ASSLSPRGETQY	10	1
23	ASSPLSPFGDTQY	8	774
25	ASSPLSPFGDTQY	8	2
33	ASRAQTGGFYEQY	12	26
35	ASRAQTGGFYEQY	12	1
35	AISEPSGRGETQY	10	1
2	AISEPSGRGETQY	10	86
35	ASSSSLSYEQY	12	2
31	ASSSSLSYEQY	12	1
34	ASSSSLSYEQY	12	983
5	ASSTQDRNNEQF	6	1
3	ASSTQDRNNEQF	6	101
44	ASSASGRTSYNEQF	6	1697
21	ASSASGRTSYNEQF	6	1
35	ASSLTGWRTYEQY	12	1
33	ASSLTGWRTYEQY	12	57
31	ASSYPQPSGEQF	6	1
34	ASSYPQPSGEQF	6	1
23	ASSGWSYEQY	12	11
25	ASSGWSYEQY	12	1
42	ATRTRDSSYNEQF	6	26
37	ATRTRDSSYNEQF	6	1
33	ASSYTGSEAF	0	286
35	ASSYTGSEAF	0	2
23	ASSPTAHEQY	12	46
25	ASSPTAHEQY	12	1
18	ASSPTGEETQY	10	1447
33	ASSPTGEETQY	10	1
19	ASSPYRGQETQY	10	1
6	ASSPYRGQETQY	10	1457
31	ASSYEGRDENEQF	6	1
35	ASSYEGRDENEQF	6	6
33	ASSYEGRDENEQF	6	833
36	ASSYEGRDENEQF	6	1
6	ASSFRLAGKVHNEQF	6	1
35	ASSFRLAGKVHNEQF	6	16
30	ASSLSGSGNEQF	6	1
24	ASSLSGSGNEQF	6	3
33	ASSYSLTTNYEQY	12	388
35	ASSYSLTTNYEQY	12	3
21	ASSPRTDSGNTIY	2	1
44	ASSPRTDSGNTIY	2	378
2	ASSGALAGGDNEQF	6	1
1	ASSGALAGGDNEQF	6	665
0	ASSGALAGGDNEQF	6	2
23	ASSQVGASGRLGEQF	6	35
25	ASSQVGASGRLGEQF	6	1
40	ASSLAGVSYNEQF	6	1
33	ASSLAGVSYNEQF	6	4
33	ASSYSSGENEQF	6	116
35	ASSYSSGENEQF	6	1
12	ASSLLSSYNEQF	6	1
38	ASSLLSSYNEQF	6	3
1	ASSYSIGGQGQETQY	10	2
35	ASSYSIGGQGQETQY	10	1
38	ASSLAGGTYNEQF	6	1
6	ASSLAGGTYNEQF	6	1
23	ASSDWSYEQY	12	3464
25	ASSDWSYEQY	12	17
35	ASSSSSYNEQF	6	1
34	ASSSSSYNEQF	6	1
33	ASSSNYEQY	12	71
34	ASSSNYEQY	12	60
31	ASSSNYEQY	12	1
23	ASSQRAGDNIQY	9	159
25	ASSQRAGDNIQY	9	1
43	VSRTDSLQETQY	10	4
28	VSRTDSLQETQY	10	1
44	ASSVGVAGGRSQETQY	10	94
39	ASSVGVAGGRSQETQY	10	1
44	ASSPEGDEQF	6	13
0	ASSPEGDEQF	6	1
24	ASGRGNEQF	6	93
30	ASGRGNEQF	6	1
23	ASSQFTGLSTDTQY	8	165
25	ASSQFTGLSTDTQY	8	3
24	ASSQFTGLSTDTQY	8	1
21	ASSTNYNEQF	6	66
13	ASSTNYNEQF	6	16
23	ASSQAAGGNEQF	6	28
25	ASSQAAGGNEQF	6	1
35	ASSSGLARGEQY	12	1
34	ASSSGLARGEQY	12	1
27	ASSQGASNNEQF	6	5
28	ASSQGASNNEQF	6	1
30	ASSQGASNNEQF	6	23
25	ASSQGASNNEQF	6	10
24	ASSQGASNNEQF	6	5246
36	ASSYSTQSSYNSPLH	5	1
35	ASSYSTQSSYNSPLH	5	3
36	ASSFAPLSSYNEQF	6	4
32	ASSFAPLSSYNEQF	6	1
35	ASSYFGPGVGNNEQF	6	4
32	ASSYFGPGVGNNEQF	6	4
36	ASSYFGPGVGNNEQF	6	1
19	ASSSTGTYEQY	12	10
43	ASSSTGTYEQY	12	31
34	ASTALQETQY	10	132
31	ASTALQETQY	10	1
4	ASRTVAGAPPEQF	6	185
5	ASRTVAGAPPEQF	6	1
42	ASSLGRAYMHEQF	6	204
37	ASSLGRAYMHEQF	6	1
0	ASSTSGRNNEQF	6	52
1	ASSTSGRNNEQF	6	1
21	ASSDNPGLARNEQF	6	1
44	ASSDNPGLARNEQF	6	965
20	SARDRTYEQY	12	54
15	SARDRTYEQY	12	1
25	ASSQGSGRVNEQF	6	1
30	ASSQGSGRVNEQF	6	2
24	ASSQGSGRVNEQF	6	67
27	ASSQGSGRVNEQF	6	1
28	ASSSPREGNEQF	6	1
43	ASSSPREGNEQF	6	51
4	ASSLVVAGVLSYNEQF	6	268
5	ASSLVVAGVLSYNEQF	6	2
35	ASSSSGRYNEQF	6	8
1	ASSSSGRYNEQF	6	1
32	ASSSSGRYNEQF	6	5
34	ASSSSGRYNEQF	6	2010
36	ASSSSGRYNEQF	6	2
31	ASSSSGRYNEQF	6	2
24	ASSQTPGGSTDTQY	8	2
30	ASSQTPGGSTDTQY	8	1
27	ASSQTPGGSTDTQY	8	1
4	ASSFTTQTASGRETQY	10	7
5	ASSFTTQTASGRETQY	10	2
33	ASSQNRYPSEQY	12	109
35	ASSQNRYPSEQY	12	1
35	ASSGLAGGRNEQF	6	2
31	ASSGLAGGRNEQF	6	101
4	ASSRDVSRSYEQY	12	248
30	ASSRDVSRSYEQY	12	1
30	ASEEAGPGSQETQY	10	1
27	ASEEAGPGSQETQY	10	39
23	ASRKVAVDKNIQY	9	252
25	ASRKVAVDKNIQY	9	2
43	ASSPGLAGGYEQY	12	4
23	ASSPGLAGGYEQY	12	43
4	ASSPGLAGGYEQY	12	52
32	ASSPGTSGVNEQF	6	1
31	ASSPGTSGVNEQF	6	1
35	ASSPGTVYEQY	12	1
33	ASSPGTVYEQY	12	21
30	ASSQDTQRGFTDTQY	8	1
24	ASSQDTQRGFTDTQY	8	21
25	ASSQDTQRGFTDTQY	8	1
14	ATSSGLENIQY	9	1
10	ATSSGLENIQY	9	25
35	ASSPTNTGTEQY	12	1
34	ASSPTNTGTEQY	12	11
18	ASSLAGESYNEQF	6	1
33	ASSLAGESYNEQF	6	1
44	ASGGDDSYNEQF	6	3377
21	ASGGDDSYNEQF	6	1
23	ASSDRLATNEKLF	3	697
25	ASSDRLATNEKLF	3	6
34	ASSYLPDGDIQY	9	92
35	ASSYLPDGDIQY	9	1
35	ASSGLAGGNEQF	6	1
31	ASSGLAGGNEQF	6	105
31	ASSINPRDDIQY	9	608
34	ASSINPRDDIQY	9	2
35	ASSINPRDDIQY	9	4
32	ASSINPRDDIQY	9	1
14	ASSEGQGVYNEQF	6	1448
8	ASSEGQGVYNEQF	6	2
34	ASSYGGGETQY	10	21
35	ASSYGGGETQY	10	1
43	ASSLSENNEQF	6	82
28	ASSLSENNEQF	6	1
31	ASSQTYGRYEQY	12	142
33	ASSQTYGRYEQY	12	1
32	ASSQTYGRYEQY	12	11
40	ASSAGTPNVYEQY	12	1
41	ASSAGTPNVYEQY	12	352
32	ASSLTTSGSFNEQF	6	4
35	ASSLTTSGSFNEQF	6	1
34	ASSLGRANQPQH	4	15
35	ASSLGRANQPQH	4	1
32	ASRYPAKNIQY	9	1
31	ASRYPAKNIQY	9	138
5	ASSFGGNEQF	6	2
4	ASSFGGNEQF	6	252
34	ASSWTHYNEQF	6	7
31	ASSWTHYNEQF	6	328
18	ASSPSRKETQY	10	7526
19	ASSPSRKETQY	10	1
37	ASSSSSGNTIY	2	153
30	ASSSSSGNTIY	2	1
30	ASSLEGPRGNNEQF	6	1
4	ASSLEGPRGNNEQF	6	61
32	AISIRDRNYEQY	12	1
36	AISIRDRNYEQY	12	1
2	AISIRDRNYEQY	12	323
0	ASSEIQGADTQY	8	359
1	ASSEIQGADTQY	8	1
2	ASRQGASYEQY	12	176
35	ASRQGASYEQY	12	1
28	ASSLGSGSKLDEQF	6	1
30	ASSLGSGSKLDEQF	6	8
27	ASSLGSGSKLDEQF	6	8206
4	ASSLGSGSKLDEQF	6	1
35	ASRRQLSSYNEQF	6	3
32	ASRRQLSSYNEQF	6	1
31	ASRRQLSSYNEQF	6	737
36	ASRRQLSSYNEQF	6	1
34	ASRRQLSSYNEQF	6	22
32	ASSAKQGEVVNIQY	9	1
35	ASSAKQGEVVNIQY	9	8
36	ASSAKQGEVVNIQY	9	3
19	ASSAKQGEVVNIQY	9	1
1	ASSAKQGEVVNIQY	9	1
3	ASSLRDNEQL	6	1
5	ASSLRDNEQL	6	1
36	ASSYGYPAGGLINNEQF	6	2
35	ASSYGYPAGGLINNEQF	6	15
19	ASSDPTSLDEQF	6	1
17	ASSDPTSLDEQF	6	1114
31	ASSREYQETQY	10	1
43	ASSREYQETQY	10	3
25	ASSQDPSGGPYEQY	12	2
30	ASSQDPSGGPYEQY	12	2
24	ASSQDPSGGPYEQY	12	163
27	ASSQDPSGGPYEQY	12	3
43	ASSLNYNEQF	6	1
37	ASSLNYNEQF	6	715
35	ASSYSETQETQY	10	4
33	ASSYSETQETQY	10	587
0	ASSYPSGTYNEQF	6	1
1	ASSYPSGTYNEQF	6	602
28	ASSPRLAGGTNEQF	6	1
43	ASSPRLAGGTNEQF	6	190
19	ASSYSKKAGGYNEQF	6	1
35	ASSYSKKAGGYNEQF	6	20
1	ASSYSKKAGGYNEQF	6	3
32	ASSYSKKAGGYNEQF	6	4
36	ASSYSKKAGGYNEQF	6	3
23	ASSQGYGALDGIYEQY	12	1259
25	ASSQGYGALDGIYEQY	12	6
35	ASSHRGTEAF	0	1
31	ASSHRGTEAF	0	19
25	ASSLGTGVYEQY	12	5
27	ASSLGTGVYEQY	12	67
23	ASSLGTGVYEQY	12	456
28	ASSTRTGPFSYEQY	12	1
43	ASSTRTGPFSYEQY	12	38
28	ASSPGTLVYNEQF	6	1
29	ASSPGTLVYNEQF	6	1374
2	AIRDSSGNTIY	2	470
36	AIRDSSGNTIY	2	1
31	ASSKGQVRNIQY	9	6
35	ASSKGQVRNIQY	9	1
19	ASSFGETQY	10	1
6	ASSFGETQY	10	152
25	ASSLEGVSSYNEQF	6	1
23	ASSLEGVSSYNEQF	6	117
43	ASSLFRTVETQY	10	55
28	ASSLFRTVETQY	10	1
2	AISTDNQETQY	10	359
35	AISTDNQETQY	10	1
34	ASTRTSGNTIY	2	31
35	ASTRTSGNTIY	2	2
18	ASSLGSGVYEQY	12	1
23	ASSLGSGVYEQY	12	1
5	ASSSTTGGIYNEQF	6	1
4	ASSSTTGGIYNEQF	6	18
28	ASSLLAGGRDEQF	6	1
43	ASSLLAGGRDEQF	6	193
40	ASSLLAGGRDEQF	6	1
5	ASSLQQGGYNEQF	6	3
4	ASSLQQGGYNEQF	6	542
31	ASSLRETQY	10	1410
6	ASSLRETQY	10	2
36	ASSYIVTPFSGNTIY	2	2
35	ASSYIVTPFSGNTIY	2	18
20	SARRLYAETQY	10	35
15	SARRLYAETQY	10	46
34	ASSYWRNQETQY	10	144
35	ASSYWRNQETQY	10	1
31	ASSSSGTSGHEQY	12	1
34	ASSSSGTSGHEQY	12	258
35	ASSSSGTSGHEQY	12	1
5	ASSRGSGNYNEQF	6	157
28	ASSRGSGNYNEQF	6	1
25	ASSQVLVQETQY	10	9
23	ASSQVLVQETQY	10	3998
24	ASSQEVDSLGDYIQY	9	1999
30	ASSQEVDSLGDYIQY	9	12
25	ASSQEVDSLGDYIQY	9	8
27	ASSQEVDSLGDYIQY	9	6
28	ASLAGDSSYNEQF	6	1
5	ASLAGDSSYNEQF	6	604
8	ASRPTSYNEQF	6	1
6	ASRPTSYNEQF	6	901
4	ASSTRRADNEQF	6	1077
5	ASSTRRADNEQF	6	3
1	ASSVDGATYNEQF	6	450
2	ASSVDGATYNEQF	6	1
4	ASSLGGSYEQY	12	13
8	ASSLGGSYEQY	12	1
25	ASSLQSGESDEQL	6	1
24	ASSLQSGESDEQL	6	10
35	ASSVLADAYNEQF	6	3
32	ASSVLADAYNEQF	6	6244
26	ASSPDSSYEQY	12	9
34	ASSPDSSYEQY	12	24
33	ASTRTANNEQF	6	28
35	ASTRTANNEQF	6	2
33	ASSSRLAGSYEQY	12	22
36	ASSSRLAGSYEQY	12	1
32	ASSPPGLSNEQF	6	1
35	ASSPPGLSNEQF	6	3
33	ASSPPGLSNEQF	6	421
23	ASSPDSGTGSYEQY	12	614
25	ASSPDSGTGSYEQY	12	4
31	ASSSTYPYEQY	12	19
35	ASSSTYPYEQY	12	2
30	ASSIWGSTDTQY	8	1
28	ASSIWGSTDTQY	8	2
3	ASSIWGSTDTQY	8	38
26	ASSHQRTDTQY	8	1
19	ASSHQRTDTQY	8	1
2	AISGSTGEETQY	10	1
36	AISGSTGEETQY	10	1
6	ASSLVGYNEQF	6	100
28	ASSLVGYNEQF	6	115
31	ASSLVGYNEQF	6	1
31	ASSLLETQY	10	3
6	ASSLLETQY	10	333
27	ASSLLETQY	10	20
40	ASSLALNEYNEQF	6	151
41	ASSLALNEYNEQF	6	1
43	ASSLALNEYNEQF	6	1
35	ASSYSRGNEQF	6	1
33	ASSYSRGNEQF	6	214
14	ASSRDRGQETQY	10	36
23	ASSRDRGQETQY	10	1
6	ASSLGEFNEQF	6	3
7	ASSLGEFNEQF	6	1
5	ASSLVGRNIQY	9	1
6	ASSLVGRNIQY	9	2
4	ASSLVGRNIQY	9	132
23	ASSPLRGEQY	12	232
25	ASSPLRGEQY	12	2
23	ASSQSGSLYNEQF	6	1164
25	ASSQSGSLYNEQF	6	12
23	ASRDPTGMNTEAF	0	344
25	ASRDPTGMNTEAF	0	6
35	ATLVGPTNTEAF	0	1
34	ATLVGPTNTEAF	0	88
25	ASSPSNQPQH	4	37
23	ASSPSNQPQH	4	1
28	ASSLGGAEQF	6	3
3	ASSLGGAEQF	6	936
19	ASSGSVRSYNEQF	6	167
14	ASSGSVRSYNEQF	6	1
35	ASSQTGPLEQY	12	1
33	ASSQTGPLEQY	12	69
6	ASSLRGNEQF	6	2
5	ASSLRGNEQF	6	1
3	ASSLRGNEQF	6	42
35	AIRPGQTYNEQF	6	1
2	AIRPGQTYNEQF	6	135
32	AIRPGQTYNEQF	6	1
19	ASTGGKETQY	10	19
31	ASTGGKETQY	10	1
34	ASTGGKETQY	10	42
4	ASSSQGGSYEQY	12	410
5	ASSSQGGSYEQY	12	1
29	ASSLAVYNEQF	6	192
6	ASSLAVYNEQF	6	2
18	ASSLAGSSYNEQF	6	10
19	ASSLAGSSYNEQF	6	1
34	ASSSSGPYNEQF	6	1
26	ASSSSGPYNEQF	6	80
19	ASSPPSRETQY	10	1
43	ASSPPSRETQY	10	4
31	ASSYSGVYEQF	6	2
34	ASSYSGVYEQF	6	115
35	ASSYSGVYEQF	6	1
35	ASSYSGTSTYNEQF	6	43
36	ASSYSGTSTYNEQF	6	1
1	ASSYSGTSTYNEQF	6	1
27	ASSLQSGESDEQF	6	12
24	ASSLQSGESDEQF	6	1585
30	ASSLQSGESDEQF	6	20
25	ASSLQSGESDEQF	6	4
4	ASSLGAGAYNEQF	6	3
26	ASSLGAGAYNEQF	6	13
32	ASSFLDEQF	6	3
35	ASSFLDEQF	6	1
33	ASSFLDEQF	6	2490
18	ASSVSYNEQF	6	537
43	ASSVSYNEQF	6	25
2	AIRRDRGSSYEQY	12	461
35	AIRRDRGSSYEQY	12	2
36	AIRRDRGSSYEQY	12	1
19	ASSLHNEQF	6	25
37	ASSLHNEQF	6	113
44	ASSLHNEQF	6	1
26	ASSLHNEQF	6	5
6	ASSPDLSSYNEQF	6	37
40	ASSPDLSSYNEQF	6	1
35	ASSEKRGISYNEQF	6	1
36	ASSEKRGISYNEQF	6	1
35	ASSGRAYEQY	12	1
34	ASSGRAYEQY	12	143
32	ASSGRAYEQY	12	1
23	ASRPTAYEQY	12	689
25	ASRPTAYEQY	12	8
24	ASSQTPFGNEQF	6	425
27	ASSQTPFGNEQF	6	1
30	ASSQTPFGNEQF	6	3
25	ASSQTPFGNEQF	6	3
27	ASSQVLGQGYGNTIY	2	3
30	ASSQVLGQGYGNTIY	2	19
24	ASSQVLGQGYGNTIY	2	2042
25	ASSQVLGQGYGNTIY	2	5
35	ASSEFTGRNSPLH	5	1
31	ASSEFTGRNSPLH	5	151
18	ASSLVAAYEQY	12	1
6	ASSLVAAYEQY	12	1709
25	ASSQDHREIYYEQY	12	3
23	ASSQDHREIYYEQY	12	305
35	ASGVDSSYNEQF	6	1
31	ASGVDSSYNEQF	6	3
34	ASGVDSSYNEQF	6	726
26	ASSLGSGNEQF	6	45
43	ASSLGSGNEQF	6	170
28	ASSLEGNLYEQY	12	1
5	ASSLEGNLYEQY	12	2
3	ASSLEGNLYEQY	12	477
44	ASSPTGTTLNNEQF	6	2601
21	ASSPTGTTLNNEQF	6	1
5	ASSEAWAPNNEQL	6	1
4	ASSEAWAPNNEQL	6	1
28	ASSPGYQETQY	10	1
43	ASSPGYQETQY	10	366
39	ASSEGTGKNIQY	9	1
44	ASSEGTGKNIQY	9	840
44	ASSGGTGKNIQY	9	2
14	ASSGGTGKNIQY	9	1
34	ASSYRDTYEQY	12	619
32	ASSYRDTYEQY	12	2
35	ASSYRDTYEQY	12	2
34	ASSEGQVRNIQY	9	1
31	ASSEGQVRNIQY	9	1350
35	ASSEGQVRNIQY	9	6
1	ASSESRPSRETQY	10	1634
2	ASSESRPSRETQY	10	2
24	ASSPRTSGVVSDTQY	8	74
27	ASSPRTSGVVSDTQY	8	3
40	ASSLGPTSELNIQY	9	2
43	ASSLGPTSELNIQY	9	1244
28	ASSLGPTSELNIQY	9	1
35	ASVDFTTYEQY	12	1
33	ASVDFTTYEQY	12	232
23	ASSQAPAGLQETQY	10	30
25	ASSQAPAGLQETQY	10	1
35	ATLGGAAYNEQF	6	1
33	ATLGGAAYNEQF	6	642
23	ASSHLGLNEQY	12	48
25	ASSHLGLNEQY	12	1
25	ASSQGPRDSFSDTQY	8	2
23	ASSQGPRDSFSDTQY	8	115
23	ASSQFGLAASYNEQF	6	1130
25	ASSQFGLAASYNEQF	6	23
23	ASSQGNNEQF	6	2374
25	ASSQGNNEQF	6	25
23	ASSQDPLAGAVEQY	6	301
25	ASSQDPLAGAVEQY	6	7
32	AISESGKVAGNTIY	2	3
2	AISESGKVAGNTIY	2	1048
35	AISESGKVAGNTIY	2	9
36	AISESGKVAGNTIY	2	1
23	ASSQPGNEQF	6	2
21	ASSQPGNEQF	6	1
31	ASSLGQRDEQY	12	2
34	ASSLGQRDEQY	12	191
25	ASSQRREAYEQY	12	2
23	ASSQRREAYEQY	12	483
35	ASSRYTRGYMGNEQF	6	5
1	ASSRYTRGYMGNEQF	6	1
0	ASSGGGAYNEQF	6	145
1	ASSGGGAYNEQF	6	1
23	ASSQGRQGARMETQY	10	13
25	ASSQGRQGARMETQY	10	1
24	ASSQEADSYNEQF	6	120
30	ASSQEADSYNEQF	6	1
5	ASSSDRGRGNIQY	9	1
4	ASSSDRGRGNIQY	9	7
32	ASSYSITVWYEQF	6	1
33	ASSYSITVWYEQF	6	426
35	ASSYSITVWYEQF	6	1
43	ASSPTTPVNEQF	6	708
28	ASSPTTPVNEQF	6	3
6	ASSLTGGYNEQF	6	3
19	ASSLTGGYNEQF	6	1
33	ASSYGVGNTIY	2	3573
31	ASSYGVGNTIY	2	4
36	ASSYGVGNTIY	2	3
2	ASSYGVGNTIY	2	2
32	ASSYGVGNTIY	2	2
35	ASSYGVGNTIY	2	45
1	ASSYGVGNTIY	2	3
7	ASSLTAGGRTDTQY	8	1
6	ASSLTAGGRTDTQY	8	85
23	ASSRGSQETQY	10	136
25	ASSRGSQETQY	10	1
35	ASKTGLAVNEQF	6	2
31	ASKTGLAVNEQF	6	233
32	ASSPSRAYNEQF	6	1
31	ASSPSRAYNEQF	6	843
35	ASSPSRAYNEQF	6	9
2	AISGVAGINEQF	6	53
36	AISGVAGINEQF	6	1
2	ASSPGQGPHNEQF	6	1
21	ASSPGQGPHNEQF	6	3269
30	ASSHLRSWETQY	10	1
4	ASSHLRSWETQY	10	269
30	ASSQLAGVDEQF	6	1
24	ASSQLAGVDEQF	6	435
27	ASSQLAGVDEQF	6	2
13	ASSSGRYNEQF	6	5
19	ASSSGRYNEQF	6	2
12	ASSSGRYNEQF	6	1504
36	ASRPDGLAGYNEQF	6	1
1	ASRPDGLAGYNEQF	6	1
6	ASRPDGLAGYNEQF	6	1
35	ASRPDGLAGYNEQF	6	7
7	ASGATGTGILNEQF	6	684
6	ASGATGTGILNEQF	6	1
36	AISDHGRGEETQY	10	1
35	AISDHGRGEETQY	10	3
2	AISDHGRGEETQY	10	738
28	ASNPQHQETQY	10	2
29	ASNPQHQETQY	10	7886
8	ASSLGGYNEQF	6	143
13	ASSLGGYNEQF	6	1
6	ASSLGGYNEQF	6	3
19	ASSLGGYNEQF	6	30
25	ASSQGDNEQF	6	1
23	ASSQGDNEQF	6	38
35	ASIPTGITPGNTIY	2	1
32	ASIPTGITPGNTIY	2	1
25	ASSRLFHNNEQF	6	33
23	ASSRLFHNNEQF	6	4456
7	ASSLWERDYNEQF	6	1
6	ASSLWERDYNEQF	6	1071
34	ASSDGGLLNEQF	6	1
32	ASSDGGLLNEQF	6	1
35	ASSDGGLLNEQF	6	105
31	ASSDGGLLNEQF	6	486
36	ASSDGGLLNEQF	6	1
4	ASSVGNEQF	6	2
5	ASSVGNEQF	6	186
25	ASSQDPGASYEQY	12	3
23	ASSQDPGASYEQY	12	157
43	ASSHTSNEQF	6	4
40	ASSHTSNEQF	6	118
33	ASSEDGTNSYEQY	12	1
31	ASSEDGTNSYEQY	12	66
35	ASSLAGASYNEQF	6	2
32	ASSLAGASYNEQF	6	1
26	ASSLAGASYNEQF	6	16
33	ASSLAGASYNEQF	6	807
13	ASSLVTGSYNEQF	6	243
37	ASSLVTGSYNEQF	6	1
1	ASSDGGLPLGEQY	12	7
0	ASSDGGLPLGEQY	12	1092
25	ASSQELIEGETQY	10	1
30	ASSQELIEGETQY	10	8
24	ASSQELIEGETQY	10	1106
27	ASSQELIEGETQY	10	1
34	ASNQIQGVYEQY	12	1
31	ASNQIQGVYEQY	12	317
35	ASSYSGRFYEQY	12	2
33	ASSYSGRFYEQY	12	145
31	ASSRGLASYNEQF	6	32
44	ASSRGLASYNEQF	6	4
5	ASSLRYNEQF	6	1
3	ASSLRYNEQF	6	2
34	ASSSTGRNEQY	12	336
31	ASSSTGRNEQY	12	2
35	ASSSTGRNEQY	12	3
35	ASHQPPKYNEQF	6	1
1	ASHQPPKYNEQF	6	1
31	ASHQPPKYNEQF	6	255
14	ASSESGSYNEQF	6	161
0	ASSESGSYNEQF	6	10
23	ASSDGSYEQY	12	1
13	ASSDGSYEQY	12	216
17	ASSDGSYEQY	12	11
6	ASSPTAYEQY	12	1
27	ASSPTAYEQY	12	1
25	ASSPTAYEQY	12	653
30	ASSPTAYEQY	12	1
23	ASSPTAYEQY	12	56738
6	ASSLEGYEQY	12	334
4	ASSLEGYEQY	12	2
35	AISESPGQETQY	10	1
2	AISESPGQETQY	10	200
0	AISESPGQETQY	10	1
25	ASSQPGLQETQY	10	8
23	ASSQPGLQETQY	10	748
36	ASSFSSGMGADTQY	8	1
35	ASSFSSGMGADTQY	8	1
1	ASSFSSGMGADTQY	8	1
44	ASSGGPKAGAGNEQF	6	10
21	ASSGGPKAGAGNEQF	6	1
35	ASSYQGVTAYEQY	12	1
33	ASSYQGVTAYEQY	12	336
25	ASSQVKRFSGSAKNIQY	9	1
27	ASSQVKRFSGSAKNIQY	9	1
24	ASSQVKRFSGSAKNIQY	9	74
4	ASSSGRTYEQY	12	9
19	ASSSGRTYEQY	12	3
3	ASSLRQGNEQF	6	562
28	ASSLRQGNEQF	6	2
30	ASTRHIQETQY	10	1
37	ASTRHIQETQY	10	452
35	ASSYSGGGGSGNTIY	2	4
36	ASSYSGGGGSGNTIY	2	1
1	ASSYSGGGGSGNTIY	2	1
6	ASSIKETQY	10	1100
8	ASSIKETQY	10	1
10	ATSRDLVSHAEQF	6	150
14	ATSRDLVSHAEQF	6	1
35	ASSERLQGNNEQF	6	1
36	ASSERLQGNNEQF	6	1
31	ASSERLQGNNEQF	6	340
40	ASGLGGNMNTEAF	0	1
43	ASGLGGNMNTEAF	0	1
25	ASSQGWAVRSYNEQF	6	1
23	ASSQGWAVRSYNEQF	6	26
26	ASGTSGSYNEQF	6	1
19	ASGTSGSYNEQF	6	4
36	ASGPYRDRVDIQY	9	1
31	ASGPYRDRVDIQY	9	285
28	ASSLWPGGETQY	10	1
3	ASSLWPGGETQY	10	812
44	ASSVGLAGGYEQY	12	327
21	ASSVGLAGGYEQY	12	1
31	ASSEEAGRIYEQY	12	66
35	ASSEEAGRIYEQY	12	1
34	ASSEEAGRIYEQY	12	1
19	ASSNYNEQF	6	769
14	ASSNYNEQF	6	2
3	ASGLVFYNEQF	6	190
28	ASGLVFYNEQF	6	1
28	ASNFQGGNEQF	6	1
5	ASNFQGGNEQF	6	30
33	ASTHTAGGSYEQY	12	42
35	ASTHTAGGSYEQY	12	2
19	ASRPSGNEQF	6	5
25	ASRPSGNEQF	6	2
6	ASSFNVAGVSNEQF	6	1520
7	ASSFNVAGVSNEQF	6	2
23	ASSPLAVSSYNEQF	6	1737
25	ASSPLAVSSYNEQF	6	10
36	ASQTVKETQY	10	1
35	ASQTVKETQY	10	1
33	ASQTVKETQY	10	353
33	ASSSLGSYNEQF	6	1
13	ASSSLGSYNEQF	6	1
6	ASSSLGSYNEQF	6	405
6	ASSLAVSYNEQF	6	563
7	ASSLAVSYNEQF	6	3
25	ASSQGLRDNEQF	6	22
23	ASSQGLRDNEQF	6	2006
6	ASSLSGNEQF	6	74
44	ASSLSGNEQF	6	1
19	ASSLSGNEQF	6	1
6	ASRDRGVDEQF	6	1208
7	ASRDRGVDEQF	6	1
32	ASSDGTSDYNEQF	6	1736
35	ASSDGTSDYNEQF	6	1
28	ASSLARGRENDSEQF	6	1
43	ASSLARGRENDSEQF	6	201
30	ASSFNEGETQY	10	1
28	ASSFNEGETQY	10	54
30	ASSQEGAGVNEQF	6	7
25	ASSQEGAGVNEQF	6	2
27	ASSQEGAGVNEQF	6	5
24	ASSQEGAGVNEQF	6	506
44	VSSPEGNEQF	6	10
0	VSSPEGNEQF	6	1
31	ASSDRGDIQY	9	357
32	ASSDRGDIQY	9	5
35	ASTQTQAVTEQF	6	4
31	ASTQTQAVTEQF	6	151
25	ASSLIVGLNNEQF	6	25
23	ASSLIVGLNNEQF	6	5270
19	ASSPRVSNEQF	6	3
32	ASSPRVSNEQF	6	1
31	ASSPRVSNEQF	6	262
6	ASTSLNEQF	6	90
26	ASTSLNEQF	6	1
21	VSSGSNTEAF	0	1
44	VSSGSNTEAF	0	309
2	AIGTSRGEETQY	10	279
35	AIGTSRGEETQY	10	1
19	ASSAGYEQY	12	1
40	ASSAGYEQY	12	64
5	ASGFRAGSYNEQF	6	1
4	ASGFRAGSYNEQF	6	4
28	ASSLGVGGEETQY	10	1
37	ASSLGVGGEETQY	10	2867
30	ASSLGVGGEETQY	10	2
42	ASSLGVGGEETQY	10	2
38	ASSLGVGGEETQY	10	1
33	ASSYGGKWNEKLF	3	103
35	ASSYGGKWNEKLF	3	2
23	ASSPDRLETQY	10	649
25	ASSPDRLETQY	10	7
19	ASRTTTSGNYNEQF	6	1
1	ASRTTTSGNYNEQF	6	5
35	ASRTTTSGNYNEQF	6	9
36	ASRTTTSGNYNEQF	6	4
12	ASSPLSSYNEQF	6	177
4	ASSPLSSYNEQF	6	1
13	ASSPLSSYNEQF	6	1
27	ASSPGTGSETQY	10	2
25	ASSPGTGSETQY	10	2
24	ASSPGTGSETQY	10	362
30	ASSPGTGSETQY	10	1
23	ASSHTISGWVNEQF	6	1152
25	ASSHTISGWVNEQF	6	11
35	AISPGFSNEKLF	3	1
2	AISPGFSNEKLF	3	27
26	ASSLQETQY	10	66
31	ASSLQETQY	10	1
6	ASRLAGANEQF	6	4
19	ASRLAGANEQF	6	431
25	ASSQGTSGRSSSYEQY	12	25
23	ASSQGTSGRSSSYEQY	12	2147
18	ASRSLQETQY	10	5390
19	ASRSLQETQY	10	1
31	ASRRGPYEQY	12	60
36	ASRRGPYEQY	12	1
19	ASSSPSDGYEQY	12	1
23	ASSSPSDGYEQY	12	4953
25	ASSSPSDGYEQY	12	16
14	ASSVGSEQF	6	94
18	ASSVGSEQF	6	1
43	ASTPTSRAYNEQF	6	204
28	ASTPTSRAYNEQF	6	1
19	ASSLRESNEQF	6	3
21	ASSLRESNEQF	6	30
26	ASSPGTGSYNEQF	6	181
19	ASSPGTGSYNEQF	6	1
23	ASSQGETKAYEQY	12	1
25	ASSQGETKAYEQY	12	1
44	ASSVELAGGGSAKNIQY	9	789
21	ASSVELAGGGSAKNIQY	9	2
1	ASSESPGQETQY	10	1
0	ASSESPGQETQY	10	1031
6	ASSFLDFYNEQF	6	4328
7	ASSFLDFYNEQF	6	2
23	ASSQEGLSSYNEQF	6	1009
25	ASSQEGLSSYNEQF	6	6
43	ASSSNMVAYEQY	12	148
40	ASSSNMVAYEQY	12	1
25	ASSPTVYEQY	12	1
23	ASSPTVYEQY	12	95
34	ASNLAGSSYNEQF	6	183
35	ASNLAGSSYNEQF	6	2
36	AISESHSGNIQY	9	1
35	AISESHSGNIQY	9	2
2	AISESHSGNIQY	9	959
0	ASSFGQENEQF	6	9388
36	ASSFGQENEQF	6	13
1	ASSFGQENEQF	6	5
23	ASSHLTGSYNEQF	6	142
25	ASSHLTGSYNEQF	6	1
23	ASSQHNSYEQY	12	2196
25	ASSQHNSYEQY	12	7
32	AISGRTSGEVNEQF	6	1
35	AISGRTSGEVNEQF	6	1
2	AISGRTSGEVNEQF	6	510
5	ASSPSTGGLDNEQF	6	3
28	ASSPSTGGLDNEQF	6	1
3	ASSPSTGGLDNEQF	6	1407
24	ASSVSGSDNEQF	6	2
30	ASSVSGSDNEQF	6	1
32	ASGLAKNIQY	9	1
34	ASGLAKNIQY	9	1
35	ASGLAKNIQY	9	1
35	ASSYGGRLYNEQF	6	2
34	ASSYGGRLYNEQF	6	197
35	ASSEDDRAYNEQF	6	2
31	ASSEDDRAYNEQF	6	446
33	ASSYAGVDFEQF	6	19
35	ASSYAGVDFEQF	6	1
35	ASSARTGTMDNEQF	6	2
2	ASSARTGTMDNEQF	6	1
35	ASREEETQY	10	1
31	ASREEETQY	10	41
35	ASTTAGREQY	12	1
34	ASTTAGREQY	12	299
35	AIRPTSGDYNEQF	6	11
32	AIRPTSGDYNEQF	6	1
2	AIRPTSGDYNEQF	6	268
19	ASSLGTSPWRTEAF	0	303
35	ASSLGTSPWRTEAF	0	1
31	ASSEAGETQY	10	105
14	ASSEAGETQY	10	10
30	ASSLVERSSGNTIY	2	1
28	ASSLVERSSGNTIY	2	68
5	ASSPLAKRGRSYEQY	12	10
30	ASSPLAKRGRSYEQY	12	2
4	ASSPLAKRGRSYEQY	12	2198
35	AISEPDRGYEQY	6	1
2	AISEPDRGYEQY	6	211
36	AISEPDRGYEQY	6	3
23	ASSQGEPDNEQF	6	8
25	ASSQGEPDNEQF	6	1
4	ASGYRESYEQY	12	715
30	ASGYRESYEQY	12	1
5	ASGYRESYEQY	12	1
28	ASSPSLVVDNDEQF	6	1
43	ASSPSLVVDNDEQF	6	3
1	ASSEWPNDDEQY	12	321
0	ASSEWPNDDEQY	12	1
26	ASSFEGETQY	10	5
19	ASSFEGETQY	10	1
7	ASSTGGTKNIQY	9	1
6	ASSTGGTKNIQY	9	2976
35	ASSELAGGQETQY	10	1
31	ASSELAGGQETQY	10	77
28	ASSLFNEQF	6	1
19	ASSLFNEQF	6	9
29	ASSLFNEQF	6	118
25	ASSQRTLRGYEQY	12	2
23	ASSQRTLRGYEQY	12	243
1	ASTLGGRRRNEKLF	3	5
0	ASTLGGRRRNEKLF	3	287
35	ASNYSLTTNYEQY	12	1
33	ASNYSLTTNYEQY	12	18
1	ASSDGVLNIQY	9	1
35	ASSDGVLNIQY	9	5
36	ASSDGVLNIQY	9	1
34	ASSDGVLNIQY	9	1
31	ASSDGVLNIQY	9	1489
32	ASRPGLAGRLSYNEQF	6	3
1	ASRPGLAGRLSYNEQF	6	1
35	ASRPGLAGRLSYNEQF	6	7
1	ASLAEDTDTQY	8	7
0	ASLAEDTDTQY	8	1
5	ASSLGAQYNEQF	6	1
13	ASSLGAQYNEQF	6	1
4	ASSLGAQYNEQF	6	342
25	ASSQPTSGGHSYEQY	12	1
30	ASSQPTSGGHSYEQY	12	5
27	ASSQPTSGGHSYEQY	12	1
24	ASSQPTSGGHSYEQY	12	229
44	ASIPEGNEQF	6	8
0	ASIPEGNEQF	6	1
2	AISDGGIAKNIQY	9	178
36	AISDGGIAKNIQY	9	1
19	ASSLSNEQF	6	1
44	ASSLSNEQF	6	4
29	ASSLSNEQF	6	30
25	ASSPRTSGSGADTQY	8	4
30	ASSPRTSGSGADTQY	8	1
24	ASSPRTSGSGADTQY	8	16
14	ASSPSTSGRFTEQF	6	1
8	ASSPSTSGRFTEQF	6	367
23	ASSQVRAGVYYNEQF	6	6
25	ASSQVRAGVYYNEQF	6	1
35	ASSYSSPSSYNEQF	6	9
36	ASSYSSPSSYNEQF	6	4
5	ASSLGETQY	10	1
4	ASSLGETQY	10	183
37	ASSLGETQY	10	122
13	ASSLGETQY	10	605
25	AISPTAYEQY	12	1
23	AISPTAYEQY	12	17
5	ASSLGTGIGYEQF	6	335
3	ASSLGTGIGYEQF	6	1
25	ASIQEGGQKNIQY	9	1
23	ASIQEGGQKNIQY	9	2
0	ASGPEGNEQF	6	2
44	ASGPEGNEQF	6	15
6	ASGGVGLSIQY	9	4
7	ASGGVGLSIQY	9	2630
23	ASSQATGSNTEAF	0	751
25	ASSQATGSNTEAF	0	6
34	ASSSLGRSYEQY	12	11
31	ASSSLGRSYEQY	12	1593
32	ASSSLGRSYEQY	12	1
23	ASSQGTSGPIGYEQY	12	19
25	ASSQGTSGPIGYEQY	12	1
44	ASSVSQGRTETQY	10	647
24	ASSVSQGRTETQY	10	8
21	ASSVSQGRTETQY	10	1
19	ASTGLAGETQY	10	1
31	ASTGLAGETQY	10	404
35	ASTGLAGETQY	10	2
23	ASSQSGGPTYEQY	12	324
25	ASSQSGGPTYEQY	12	5
5	ASSPLGIDEQF	6	1
4	ASSPLGIDEQF	6	116
25	ASSPMVTTEQY	12	1
24	ASSPMVTTEQY	12	46
35	ASRATGGGNEQF	6	1
33	ASRATGGGNEQF	6	101
4	ASSLDRYEQY	12	1
6	ASSLDRYEQY	12	2
35	AISERLATNEQF	6	1
2	AISERLATNEQF	6	170
32	ASSGLGLAGDTQY	8	2
33	ASSGLGLAGDTQY	8	5
25	ASSQGRQNNEQF	6	1
23	ASSQGRQNNEQF	6	223
27	ASSLLAGAPNEQF	6	8
25	ASSLLAGAPNEQF	6	4
30	ASSLLAGAPNEQF	6	12
24	ASSLLAGAPNEQF	6	1362
30	ASSQGRGTDTQY	8	7
25	ASSQGRGTDTQY	8	1
24	ASSQGRGTDTQY	8	568
27	ASSQGRGTDTQY	8	2
23	ASSQGRLAGGAKNIQY	9	1495
25	ASSQGRLAGGAKNIQY	9	5
35	ASSWAPYNEQF	6	3
31	ASSWAPYNEQF	6	409
30	ASSQGPGPSGNEQF	6	2
27	ASSQGPGPSGNEQF	6	2
24	ASSQGPGPSGNEQF	6	204
4	ASSPEIRTYEQY	12	64
11	ASSPEIRTYEQY	12	1
5	ASSPEIRTYEQY	12	1
23	TSSPTAYEQY	12	54
25	TSSPTAYEQY	12	1
23	ASSQDGAGRNEQF	6	10
25	ASSQDGAGRNEQF	6	1
32	AIRGTGVLETQY	10	1
2	AIRGTGVLETQY	10	1329
35	AIRGTGVLETQY	10	1
19	ASINDRGNEQY	12	67427
21	ASINDRGNEQY	12	1
43	ASSLLPGTNEQF	6	2
6	ASSLLPGTNEQF	6	1
3	ASSLAMGTRTDNEQF	6	869
5	ASSLAMGTRTDNEQF	6	1
28	ASSLAMGTRTDNEQF	6	4
25	ASSHSARQIYEQY	12	1
23	ASSHSARQIYEQY	12	86
18	ASSDGNYEQY	12	2
31	ASSDGNYEQY	12	1
17	ASSDGNYEQY	12	48870
21	ASSSPGSYNEQF	6	1
40	ASSSPGSYNEQF	6	79
18	ASSSPGSYNEQF	6	6
43	ASSLQGETQY	10	44
42	ASSLQGETQY	10	1
31	ASSYNNEQF	6	1230
34	ASSYNNEQF	6	1
25	ASRQVGQRYEQY	12	11
23	ASRQVGQRYEQY	12	3006
18	ASSLLAGGYNEQF	6	1
6	ASSLLAGGYNEQF	6	1
38	ASSLLAGGYNEQF	6	23
4	ASSLGTVRTNYEQY	12	80
5	ASSLGTVRTNYEQY	12	1
33	ASSYTLGSSYEQY	12	204
35	ASSYTLGSSYEQY	12	2
9	ASSPWTSGKNEQF	6	1
19	ASSPWTSGKNEQF	6	2
25	ASSQNSPREQF	6	1
23	ASSQNSPREQF	6	7
19	ASGSYNEQF	6	2
35	ASGSYNEQF	6	1
25	ASSQAGQGFYEQY	12	3
23	ASSQAGQGFYEQY	12	364
2	ASSYSIIVWYEQF	6	1
35	ASSYSIIVWYEQF	6	3
33	ASSYSIIVWYEQF	6	191
33	ASSYVKGPYNEQF	6	113
35	ASSYVKGPYNEQF	6	3
43	ASSLQGGYEQY	12	3
18	ASSLQGGYEQY	12	43
6	ASSFRSGRPYNEQF	6	232
7	ASSFRSGRPYNEQF	6	1
4	ASSLVGFGDMNTEAF	0	59
5	ASSLVGFGDMNTEAF	0	37
31	ASSYWSSYNEQF	6	104
32	ASSYWSSYNEQF	6	10
43	ASRLYARGKNTEAF	0	3
28	ASRLYARGKNTEAF	0	1
25	ASSQEVEKLF	3	4
23	ASSQEVEKLF	3	156
33	ASSYKSGTNEQF	6	142
35	ASSYKSGTNEQF	6	2
19	ASSGAGYNEQF	6	2
6	ASSGAGYNEQF	6	1
35	AISGTDQETQY	10	4
2	AISGTDQETQY	10	2037
33	ASSYRGQETQY	10	2150
36	ASSYRGQETQY	10	1
32	ASSYRGQETQY	10	2
35	ASSYRGQETQY	10	5
23	ASSQDSLAGKAKNIQY	9	34
25	ASSQDSLAGKAKNIQY	9	1
31	ASRGLDSSTDTQY	8	41
35	ASRGLDSSTDTQY	8	2
6	ASSLDVSSYNEQF	6	6
18	ASSLDVSSYNEQF	6	3
25	ASSPRGSLVGKGYEQY	12	1
23	ASSPRGSLVGKGYEQY	12	23
33	ASRRDRTLYNEQF	6	259
36	ASRRDRTLYNEQF	6	1
35	ASRRDRTLYNEQF	6	1
23	ASSPQEGSYNEQF	6	2186
24	ASSPQEGSYNEQF	6	1
25	ASSPQEGSYNEQF	6	18
23	ASSQEGSQETQY	10	599
25	ASSQEGSQETQY	10	4
23	ASSQAMGYGYEQY	12	2283
25	ASSQAMGYGYEQY	12	30
2	AISEFGDSGNTIY	2	36
36	AISEFGDSGNTIY	2	94
24	ASSQGPLTGTVIYEQY	12	166
27	ASSQGPLTGTVIYEQY	12	4
30	ASSQGPLTGTVIYEQY	12	3
35	ASSYRSQNTEAF	0	1
33	ASSYRSQNTEAF	0	26
35	ASSSGLAREEQY	12	1
34	ASSSGLAREEQY	12	31
33	ASKLTGTSGYEQY	12	62
35	ASKLTGTSGYEQY	12	1
33	ASRGLAGAETQY	10	54
35	ASRGLAGAETQY	10	1
6	ASSFLGEQY	12	926
8	ASSFLGEQY	12	1
25	ASSQTQAREIREQY	12	1
23	ASSQTQAREIREQY	12	94
33	ASSYSGSYYNEQF	6	69
35	ASSYSGSYYNEQF	6	1
31	ASSEEAGNTIY	2	605
35	ASSEEAGNTIY	2	3
34	ASSYPPGQGDTIY	2	309
1	ASSYPPGQGDTIY	2	1
35	ASSYPPGQGDTIY	2	6
2	ASSYPPGQGDTIY	2	1
30	ASSPPLADPQHEQF	6	1
24	ASSPPLADPQHEQF	6	47
25	ASSQDLTSGTSHTDTQY	8	3
23	ASSQDLTSGTSHTDTQY	8	197
35	ASSRDSTSYNEQF	6	1
32	ASSRDSTSYNEQF	6	2072
31	ASSEADRSNEQF	6	102
32	ASSEADRSNEQF	6	4
6	ASSLTDSLHTIY	2	757
44	ASSLTDSLHTIY	2	1
28	ASSLVGGGGNEQF	6	3
5	ASSLVGGGGNEQF	6	311
36	AISESTGEETQY	10	39
2	AISESTGEETQY	10	187
6	ASGTPSGQETQY	10	1
7	ASGTPSGQETQY	10	1934
23	ASSLLPRETQY	10	2338
25	ASSLLPRETQY	10	21
19	ASSPKILFNNEQF	6	2649
17	ASSPKILFNNEQF	6	1
38	ASSLGSLDGSYEQY	12	1
43	ASSLGSLDGSYEQY	12	22
2	AISDLVGKAGLETYEQY	12	150
35	AISDLVGKAGLETYEQY	12	1
36	ASLTSQREGSRRETQY	10	1
1	ASLTSQREGSRRETQY	10	8
35	ASLTSQREGSRRETQY	10	2
26	ASSLGGNEQF	6	235
19	ASSLGGNEQF	6	38
31	ASSEMTGGFYEQY	12	7
35	ASSEMTGGFYEQY	12	2
19	ASSPPGTSPHEQF	6	1
31	ASSPPGTSPHEQF	6	139
25	ASSHGDRDSYEQY	12	1
23	ASSHGDRDSYEQY	12	58
40	ASSQRTSNSPLH	5	181
43	ASSQRTSNSPLH	5	1
33	ASSYSGDSYNEQF	6	119
35	ASSYSGDSYNEQF	6	1
31	ASSYDSRFYEQY	12	71
32	ASSYDSRFYEQY	12	1
25	ASSQEPGQVYEQY	12	1
23	ASSQEPGQVYEQY	12	4
0	ASSAGLAGDTQY	8	4
1	ASSAGLAGDTQY	8	1
33	ASSYAGVEFEQF	6	1364
1	ASSYAGVEFEQF	6	2
31	ASSYAGVEFEQF	6	1
2	ASSYAGVEFEQF	6	1
35	ASSYAGVEFEQF	6	11
33	ASSKGLGVDEQF	6	1256
32	ASSKGLGVDEQF	6	2
35	ASSKGLGVDEQF	6	9
4	ASSSNRGRGNIQY	9	1295
5	ASSSNRGRGNIQY	9	7
2	AISHGSQGMNTEAF	0	125
35	AISHGSQGMNTEAF	0	1
35	ASSLAVLTDTQY	8	1
34	ASSLAVLTDTQY	8	29
2	ASSVRTRGSETQY	10	1
1	ASSVRTRGSETQY	10	305
32	ASSPLAGGYNEQF	6	365
18	ASSPLAGGYNEQF	6	2
4	ASSHRLAGVVQETQY	10	16
5	ASSHRLAGVVQETQY	10	1
31	ASSEGTVEETQY	10	210
35	ASSEGTVEETQY	10	2
37	ASSLDYNEQF	6	4
43	ASSLDYNEQF	6	2
3	ASSLKDNEQF	6	1
5	ASSLKDNEQF	6	1
27	ASSHSSGRLDEQF	6	3
30	ASSHSSGRLDEQF	6	12
19	ASSHSSGRLDEQF	6	1
24	ASSHSSGRLDEQF	6	624
25	ASSHSSGRLDEQF	6	3
23	ASSQDFGTSGKLETQY	10	30
25	ASSQDFGTSGKLETQY	10	1
23	ASSQHNSHEQY	12	1
25	ASSQHNSHEQY	12	1
30	ASSLVPSYSYEQY	12	1
37	ASSLVPSYSYEQY	12	143
31	ASSYSGLGYNEQF	6	861
19	ASSYSGLGYNEQF	6	1
34	ASSYSGLGYNEQF	6	1
30	ASSQDGSNEQF	6	3
25	ASSQDGSNEQF	6	439
5	ASSLRENEQF	6	2
3	ASSLRENEQF	6	1
30	ASYVGAPAKNIQY	9	1
24	ASYVGAPAKNIQY	9	5
3	ASSGSDEQF	6	3
5	ASSGSDEQF	6	161
5	ASSLEDREFDEQF	6	2
4	ASSLEDREFDEQF	6	337
2	ASRGLDSNRKGNEQF	6	1
1	ASRGLDSNRKGNEQF	6	414
14	ATSRGTGQETQY	10	2
10	ATSRGTGQETQY	10	464
34	ATTMGGTHNEQF	6	434
31	ATTMGGTHNEQF	6	1
35	ATTMGGTHNEQF	6	2
36	ASSSTGTGSYEQY	12	1
0	ASSSTGTGSYEQY	12	181
30	ASTGGTGPVNEQF	6	1
37	ASTGGTGPVNEQF	6	353
43	ASSLSYREYEQY	12	242
28	ASSLSYREYEQY	12	1
21	ASSRLAGGDEQF	6	1
44	ASSRLAGGDEQF	6	53
25	ASSQAASSYEQY	12	1
30	ASSQAASSYEQY	12	1
24	ASSQAASSYEQY	12	103
27	ASSQAASSYEQY	12	2
0	ASSESFSYEQY	12	3
2	ASSESFSYEQY	12	3
1	ASSESFSYEQY	12	2454
32	AIGLERGTQY	10	1
2	AIGLERGTQY	10	467
44	ASSEGLAGGEETQY	10	3287
21	ASSEGLAGGEETQY	10	2
42	ASSLAAAYEQY	12	82
6	ASSLAAAYEQY	12	1
41	ASSLGGRIYNEQF	6	1
40	ASSLGGRIYNEQF	6	25
28	ASSLGPPYEQY	12	373
30	ASSLGPPYEQY	12	1
30	ASSQGVAGPTDTQY	8	3
24	ASSQGVAGPTDTQY	8	10
29	ASSLRGGPYNEQF	6	150
19	ASSLRGGPYNEQF	6	1
8	ASSLGEINEQF	6	1
7	ASSLGEINEQF	6	3
19	ASSLGEINEQF	6	1
6	ASSLGEINEQF	6	13325
13	ASSAGLAGYEQY	12	17
44	ASSAGLAGYEQY	12	94
8	ASSLGPGMNTEAF	0	1
6	ASSLGPGMNTEAF	0	375
36	ASSEGLARPLQETQY	10	1
35	ASSEGLARPLQETQY	10	1
43	ASSLEGLAVNEQF	6	1220
28	ASSLEGLAVNEQF	6	4
14	ASSLRGYEQY	12	1
29	ASSLRGYEQY	12	267
5	ASSYRDRPYNEQF	6	2
4	ASSYRDRPYNEQF	6	277
14	ASRSDRYNEQF	6	1
6	ASRSDRYNEQF	6	324
35	ASSYSRRNTEAF	0	2
33	ASSYSRRNTEAF	0	88
36	ASSYSRRNTEAF	0	1
30	ASSFRAGSYNEQF	6	2
4	ASSFRAGSYNEQF	6	2975
3	ASSFRAGSYNEQF	6	1
5	ASSFRAGSYNEQF	6	12
36	ASSYLLPGLSSYEQY	12	1
1	ASSYLLPGLSSYEQY	12	1
42	ASSLHRQLNSPLH	5	7
37	ASSLHRQLNSPLH	5	1
23	ASSQEGSQGTQY	10	8
25	ASSQEGSQGTQY	10	1
44	ASSGSSTEAF	0	938
21	ASSGSSTEAF	0	1
35	ASSEVVRGNEQF	6	3
31	ASSEVVRGNEQF	6	302
32	ASSEVVRGNEQF	6	1
28	ASSNLGGANTEAF	0	3
3	ASSNLGGANTEAF	0	127
44	ASSPGLAGEETQY	10	434
21	ASSPGLAGEETQY	10	1
3	ASSLRDNEQF	6	1531
5	ASSLRDNEQF	6	949
28	ASSLRDNEQF	6	1
23	ASSLTSGTGVYEQY	12	154
25	ASSLTSGTGVYEQY	12	2
27	ASSLEETQY	10	1
4	ASSLEETQY	10	1
29	ASSLEETQY	10	1
19	ASSLEETQY	10	141
23	ASSQNSLREQF	6	2312
25	ASSQNSLREQF	6	22
7	ASGFSGSSSYEQY	12	471
6	ASGFSGSSSYEQY	12	1
18	ASSLQLSSYNEQF	6	2101
19	ASSLQLSSYNEQF	6	1
25	ASSLYAISLADNEQF	6	1
23	ASSLYAISLADNEQF	6	6
25	ASRPGLAGGFSYNEQF	6	41
23	ASRPGLAGGFSYNEQF	6	2577
32	AIRDSSDNSPLH	5	1
2	AIRDSSDNSPLH	5	362
2	AISESLGAAQPQH	4	83
35	AISESLGAAQPQH	4	1
4	ASSPLGQRLAKNIQY	9	1358
5	ASSPLGQRLAKNIQY	9	7
30	ASSPLGQRLAKNIQY	9	1
32	ASTLGDETQY	10	3
31	ASTLGDETQY	10	452
35	ASSPIGEETQY	10	1
18	ASSPIGEETQY	10	1
33	ASSPIGEETQY	10	200
23	ASSRDDRDSYEQY	12	60
25	ASSRDDRDSYEQY	12	2
28	ASSFSGGSYNEQF	6	2
18	ASSFSGGSYNEQF	6	1
5	ASSSYTSYNEQF	6	1
3	ASSSYTSYNEQF	6	910
28	ASSSYTSYNEQF	6	2
43	ASSSYTSYNEQF	6	1
31	ASSYSDGVYEQY	12	76
35	ASSYSDGVYEQY	12	1
34	ASNRDSRNEQF	6	27
31	ASNRDSRNEQF	6	819
36	ASNRDSRNEQF	6	1
32	ASNRDSRNEQF	6	2
35	ASNRDSRNEQF	6	1
43	ASSLSGRSYEQY	12	1
12	ASSLSGRSYEQY	12	3
40	ASSLSGRSYEQY	12	115
0	ASTDILYEQY	12	2
1	ASTDILYEQY	12	1380
2	ASTDILYEQY	12	2
35	ASSGRQGLGNEQF	6	2
31	ASSGRQGLGNEQF	6	759
34	ASSYSSNYEQY	12	7636
1	ASSYSSNYEQY	12	1
31	ASSYSSNYEQY	12	11
32	ASSYSSNYEQY	12	1
35	ASSYSSNYEQY	12	34
4	ASSLKGLAGLSSYNEQF	6	384
5	ASSLKGLAGLSSYNEQF	6	4
4	ASSLKAGSYNEQF	6	1
30	ASSLKAGSYNEQF	6	1
6	ASRTDTSSYNEQF	6	1875
7	ASRTDTSSYNEQF	6	2
33	ASGPTGLAYNEQF	6	461
35	ASGPTGLAYNEQF	6	3
38	ASSFSSYEQY	12	1
19	ASSFSSYEQY	12	73
35	AIRELAGAYNEQF	6	1
2	AIRELAGAYNEQF	6	36
43	ASSLGGGETQY	10	67
19	ASSLGGGETQY	10	462
35	AISESRETQY	10	2
2	AISESRETQY	10	690
32	AISESRETQY	10	1
7	ASSFRGGGNTIY	2	1
6	ASSFRGGGNTIY	2	790
28	ASSLGVHSYNEQF	6	2
3	ASSLGVHSYNEQF	6	269
28	ASSHRLAGDNEQF	6	1
43	ASSHRLAGDNEQF	6	20
28	ASSLMDGGSETQY	10	1
3	ASSLMDGGSETQY	10	600
42	ASSSGHEQY	12	1
19	ASSSGHEQY	12	261
35	ASSNGQSYNEQF	6	2
31	ASSNGQSYNEQF	6	995
30	ASSLGQGSYNEQF	6	88
27	ASSLGQGSYNEQF	6	8
24	ASSHSGAGKNIQY	9	254
30	ASSHSGAGKNIQY	9	4
24	ASSHIGDNEQF	6	266
30	ASSHIGDNEQF	6	4
27	ASSHIGDNEQF	6	2
5	ASSLAPGEYNEQF	6	1
4	ASSLAPGEYNEQF	6	226
23	VSSQEEASYEQY	12	317
25	VSSQEEASYEQY	12	4
25	ASSQAARQSSYNEQF	6	3
24	ASSQAARQSSYNEQF	6	514
30	ASSQAARQSSYNEQF	6	9
27	ASSQAARQSSYNEQF	6	3
4	ASSSHGRTGDYQETQY	10	94
5	ASSSHGRTGDYQETQY	10	1
1	ASRTAGQLLLISYNEQF	6	1
35	ASRTAGQLLLISYNEQF	6	11
35	ASSPLAEQETQY	10	1
33	ASSPLAEQETQY	10	1
31	ASSPLAEQETQY	10	91
34	ASSPLAEQETQY	10	1
25	ASGSGSPKSETQY	10	1
23	ASGSGSPKSETQY	10	10
33	ASRASGRMGNEQF	6	1
31	ASRASGRMGNEQF	6	66
31	ASSPRQGRNIQY	9	3
34	ASSPRQGRNIQY	9	2748
32	ASSPRQGRNIQY	9	2
1	ASSPRQGRNIQY	9	1
35	ASSPRQGRNIQY	9	12
23	ASSQDGTGRRDTIY	2	277
25	ASSQDGTGRRDTIY	2	2
24	ASSQEGFNYNEQF	6	37
30	ASSQEGFNYNEQF	6	1
21	ASSPEGNEQF	6	1
44	ASSPEGNEQF	6	7436
0	ASSPEGNEQF	6	901
26	ASSPEGNEQF	6	149
1	ASSPEGNEQF	6	1
14	ASRRGGSSYNEQF	6	240
37	ASRRGGSSYNEQF	6	1
33	ASRAPMNTEAF	0	35
31	ASRAPMNTEAF	0	1
18	ASSYRYEQY	12	106
19	ASSYRYEQY	12	2
25	ASSKRGTPDATDTQY	8	7
23	ASSKRGTPDATDTQY	8	644
6	ASSSGTADTQY	8	78
5	ASSSGTADTQY	8	1
23	ASSPFGTPREKLF	3	319
25	ASSPFGTPREKLF	3	1
28	ASTSGTSGRAEYNEQF	6	1
43	ASTSGTSGRAEYNEQF	6	193
36	ASSPRQGGNIQY	9	1
34	ASSPRQGGNIQY	9	22
33	ASRVGNEQF	6	2
32	ASRVGNEQF	6	2
34	ASRVGNEQF	6	2
31	ASRVGNEQF	6	1554
6	ASSNSGRIYNEQF	6	636
7	ASSNSGRIYNEQF	6	1
23	ASSQGELDNEQF	6	880
25	ASSQGELDNEQF	6	6
19	ASRTSSSYNEQF	6	13
26	ASRTSSSYNEQF	6	8
3	ASSLVFYNEQF	6	1617
29	ASSLVFYNEQF	6	1
28	ASSLVFYNEQF	6	1
5	ASSLVFYNEQF	6	2
35	AISPAKGYNEQF	6	1
2	AISPAKGYNEQF	6	298
32	AISDSGSTNEQF	6	1
36	AISDSGSTNEQF	6	1
2	AISDSGSTNEQF	6	362
43	ASSLEGLAGGLNEQF	6	273
28	ASSLEGLAGGLNEQF	6	1
6	ASSLVDEQF	6	444
4	ASSLVDEQF	6	27
1	ASSYGGQWGYNEQF	6	3
35	ASSYGGQWGYNEQF	6	3
39	ASVLKTLAGRVYNEQF	6	1
7	ASVLKTLAGRVYNEQF	6	170
18	ASSYRGSYEQY	12	1065
19	ASSYRGSYEQY	12	1
34	ASSYRGSYEQY	12	1
35	ASSSGLARDEQY	12	5
34	ASSSGLARDEQY	12	435
36	ASSSGLARDEQY	12	1
33	ASSFQTGGTDTQY	8	14
35	ASSFQTGGTDTQY	8	1
1	ASSFQTGGTDTQY	8	1
4	ASSLLGDTQY	8	147
19	ASSLLGDTQY	8	6
5	ASSLLGDTQY	8	9
37	ASSLLGDTQY	8	1
25	ASSPGGSYNEQF	6	94
23	ASSPGGSYNEQF	6	1
23	ASSQVGGYNEQF	6	610
25	ASSQVGGYNEQF	6	4
32	AISEGAAQETQY	10	1
2	AISEGAAQETQY	10	21
0	ASSPEGNEQL	6	2
44	ASSPEGNEQL	6	14
4	ASSLEIYNIQY	9	2926
5	ASSLEIYNIQY	9	2
31	ASSQRRNYEQY	12	253
35	ASSQRRNYEQY	12	3
35	AISESLLAGSSEINEQF	6	1
2	AISESLLAGSSEINEQF	6	619
31	ASSPRTVYEQY	12	255
32	ASSPRTVYEQY	12	2
35	ASSPRTVYEQY	12	1
6	ASSPGSEQF	6	1
19	ASSPGSEQF	6	46
32	ASSYPGSNNNEQF	6	1
34	ASSYPGSNNNEQF	6	379
18	ASRRAQGAVNIQY	9	5111
33	ASRRAQGAVNIQY	9	1
35	ASSAWASGRKSYEQY	12	1
32	ASSAWASGRKSYEQY	12	1
25	ASSQARENNEQF	6	6
23	ASSQARENNEQF	6	116
3	ASSIGGQGQNIQY	9	7
28	ASSIGGQGQNIQY	9	1
43	ASSLEHNEQF	6	1190
28	ASSLEHNEQF	6	1
40	ASSLEHNEQF	6	1
10	ATSGDRGMEETQY	10	89
14	ATSGDRGMEETQY	10	1
35	AISGQDRLHEQY	12	1
2	AISGQDRLHEQY	12	136
19	ASSLEANTEAF	0	10
40	ASSLEANTEAF	0	1
1	ASSYVPAGDGDTQY	8	1
35	ASSYVPAGDGDTQY	8	3
21	ASSGANNEQF	6	1
44	ASSGANNEQF	6	1358
7	ASRHDSYEQF	6	1
6	ASRHDSYEQF	6	162
37	ASSFYQETQY	10	170
31	ASSFYQETQY	10	231
43	ASSLERNEQF	6	2
19	ASSLERNEQF	6	5
24	ASSGPGLAGGNEQF	6	809
25	ASSGPGLAGGNEQF	6	2
27	ASSGPGLAGGNEQF	6	8
30	ASSGPGLAGGNEQF	6	9
36	AITDPGLAVYEQY	12	1
2	AITDPGLAVYEQY	12	211
23	ASRPPGQGNEKLF	3	306
25	ASRPPGQGNEKLF	3	4
35	ASSEGLAGLSYEQY	12	3
36	ASSEGLAGLSYEQY	12	1
44	ASSGTSYNEQF	6	2
6	ASSGTSYNEQF	6	1
4	ASSPGTPRETQY	10	108
6	ASSPGTPRETQY	10	10
5	ASSPGTPRETQY	10	4
33	ATQIASGFYYEQY	12	191
35	ATQIASGFYYEQY	12	1
43	ASSPGLNEQF	6	134
40	ASSPGLNEQF	6	1
28	ASSPGLNEQF	6	1
37	ASSLGLSEQF	6	135
42	ASSLGLSEQF	6	2
43	ASNGAGLQSINYNEQF	6	92
37	ASNGAGLQSINYNEQF	6	1
23	ASRPGLAEGFSYNEQF	6	45
25	ASRPGLAEGFSYNEQF	6	1
32	ASSDSQDLNNEQF	6	1735
35	ASSDSQDLNNEQF	6	2
31	ASSKGFYYNEQF	6	909
35	ASSKGFYYNEQF	6	1
19	ASRTSGRAYEQY	12	3
1	ASRTSGRAYEQY	12	1
31	ASSEADNPDYEQY	12	19
35	ASSEADNPDYEQY	12	1
23	ASSQQAGTYNEQF	6	447
25	ASSQQAGTYNEQF	6	9
35	ASSYLRELGETQY	10	2
34	ASSYLRELGETQY	10	67
25	ASSQVGLSSYNEQF	6	1
23	ASSQVGLSSYNEQF	6	3
8	ASSSTGTGPYEQY	12	20
0	ASSSTGTGPYEQY	12	1
28	ATEQLGDEQF	6	2
43	ATEQLGDEQF	6	108
35	AIMKQENTEAF	0	1
2	AIMKQENTEAF	0	309
4	ASSLETVRTNYEQY	12	2306
5	ASSLETVRTNYEQY	12	4
30	ASSLETVRTNYEQY	12	1
35	AISAYGTDQETQY	10	1
2	AISAYGTDQETQY	10	205
7	ASSFPGGQETQY	10	13
6	ASSFPGGQETQY	10	270
2	AISDLNSGANEQY	12	43
35	AISDLNSGANEQY	12	1
35	ASSEGSYEQY	12	1
31	ASSEGSYEQY	12	98
30	ASNPSGREPYEQY	12	2
24	ASNPSGREPYEQY	12	312
27	ASNPSGREPYEQY	12	1
28	ASSLMVSGPYNEQF	6	1
43	ASSLMVSGPYNEQF	6	116
28	ASSPAGGQVEQF	6	1
3	ASSPAGGQVEQF	6	58
23	ASRRGQAADTQY	8	7
25	ASRRGQAADTQY	8	1
4	ASSLAGYNEQF	6	1
31	ASSLAGYNEQF	6	193
33	ASRGASGSLSEQF	6	45
35	ASRGASGSLSEQF	6	1
33	ASKRTLGGETQY	10	314
1	ASKRTLGGETQY	10	1
35	ASKRTLGGETQY	10	1
43	ASSLGTNNEQF	6	2
26	ASSLGTNNEQF	6	25
26	ASSSGGNEQF	6	1
4	ASSSGGNEQF	6	1
2	AIKGASTDTQY	8	97
36	AIKGASTDTQY	8	1
4	ASSLGNEQF	6	333
5	ASSLGNEQF	6	1
18	ASSLGNEQF	6	126
23	ASSSGSPKSETQY	10	1231
25	ASSSGSPKSETQY	10	5
35	ASSEGVHEQY	12	1
31	ASSEGVHEQY	12	58
6	ASSPGGYEQY	12	1
43	ASSPGGYEQY	12	1
6	ASSLTALETQY	10	1
8	ASSLTALETQY	10	1
6	ASSLAGDYNEQF	6	2
19	ASSLAGDYNEQF	6	251
23	ASSQGRGTYEQY	12	511
30	ASSQGRGTYEQY	12	1
25	ASSQGRGTYEQY	12	3
30	ASRLAGEETQY	10	1
37	ASRLAGEETQY	10	169
6	ASSESSTDTQY	8	1
32	ASSESSTDTQY	8	1006
13	ASSPLAGPYNEQF	6	1
21	ASSPLAGPYNEQF	6	1
32	ASSSRTDTQY	8	1
35	ASSSRTDTQY	8	1
33	ASSSRTDTQY	8	59
25	ASSQDRGTSYEQY	12	1
30	ASSQDRGTSYEQY	12	16
24	ASSQDRGTSYEQY	12	263
5	ASSLGSYEQY	12	2
37	ASSLGSYEQY	12	88
3	ASSLGSYEQY	12	555
37	ASSLGRAEINEQF	6	4094
28	ASSLGRAEINEQF	6	1
34	ASTLSGVEQF	6	1
31	ASTLSGVEQF	6	154
5	ASSLDRGQETQY	10	2
25	ASSLDRGQETQY	10	8
23	ASSLDRGQETQY	10	1235
3	ASSLDRGQETQY	10	204
44	ASSGSNPEAF	0	315
21	ASSGSNPEAF	0	1
25	ASSPTSGGSYEQY	12	2
23	ASSPTSGGSYEQY	12	339
30	ASSQGGGQVYEQY	12	2
24	ASSQGGGQVYEQY	12	190
29	ASSAGQGYEQY	12	1
6	ASSAGQGYEQY	12	190
33	ASRLDHRGYTEAF	1	69
35	ASRLDHRGYTEAF	1	2
34	ASSPRTAYEQY	12	75
31	ASSPRTAYEQY	12	1
5	ASSSLSGSTCNEQF	6	2
4	ASSSLSGSTCNEQF	6	20
3	ASSSGSYEQY	12	1
19	ASSSGSYEQY	12	91
23	ASSRLPRETQY	10	1
25	ASSRLPRETQY	10	1
25	ASSPPGSYYNEQF	6	11
23	ASSPPGSYYNEQF	6	1808
35	AISEGLSYEQY	12	1
2	AISEGLSYEQY	12	63
4	ASSLLAGGHEQF	6	10
5	ASSLLAGGHEQF	6	2
35	ASIPGILSYNEQF	6	2
31	ASIPGILSYNEQF	6	176
37	ASSPTSYNEQF	6	1
31	ASSPTSYNEQF	6	14
34	ASSPTSYNEQF	6	1
5	ASSPNRGRGNIQY	9	1
4	ASSPNRGRGNIQY	9	9
31	ASSGLAGGYNEQF	6	19
14	ASSGLAGGYNEQF	6	1
25	ASSPLTKGDREQY	12	17
23	ASSPLTKGDREQY	12	1358
34	ASRPDRGGETQY	10	2
31	ASRPDRGGETQY	10	45
13	ASSYSSYEQY	12	1
34	ASSYSSYEQY	12	599
23	ASSQEYGLAGVNEQF	6	1469
25	ASSQEYGLAGVNEQF	6	16
35	ASSEGVLAKNIQY	9	2
31	ASSEGVLAKNIQY	9	186
1	ASSFPLQGLPTAYEQY	12	2
35	ASSFPLQGLPTAYEQY	12	4
43	ASSPPSQETQY	10	2355
28	ASSPPSQETQY	10	1
40	ASSPPSQETQY	10	1
23	ASSQDGTGASTDTQY	8	249
25	ASSQDGTGASTDTQY	8	6
35	AISDSRDRGSYEQY	12	1
2	AISDSRDRGSYEQY	12	23
14	ASSSSRTVSYEQY	12	1
8	ASSSSRTVSYEQY	12	195
21	ASSGSTQGRLEQY	12	4
44	ASSGSTQGRLEQY	12	14134
24	ASYVRAPAKNIQY	9	2144
25	ASYVRAPAKNIQY	9	5
27	ASYVRAPAKNIQY	9	4
30	ASYVRAPAKNIQY	9	32
4	ASSILPQGNYEQY	12	575
5	ASSILPQGNYEQY	12	3
35	ASSSATYEQY	12	1
31	ASSSATYEQY	12	2
34	ASSSATYEQY	12	197
35	ASSIGREYNEQF	6	11
33	ASSIGREYNEQF	6	502
23	ASSQRAQETQY	10	22
25	ASSQRAQETQY	10	1
1	ASSYSRLAVASYNEQF	6	1
35	ASSYSRLAVASYNEQF	6	1
35	ASSRQGPSYEQY	12	1
33	ASSRQGPSYEQY	12	283
5	ASSLETVCTNYEQY	12	1
4	ASSLETVCTNYEQY	12	2
33	ASSSRRIYEQY	12	539
35	ASSSRRIYEQY	12	3
40	ASSLETAPNEQF	6	1
41	ASSLETAPNEQF	6	269
23	ASGPTAYEQY	12	58
25	ASGPTAYEQY	12	1
19	ASGLGGAKNIQY	9	1
4	ASGLGGAKNIQY	9	1
5	ASSLRNNEQF	6	1
18	ASSLRNNEQF	6	1
36	AISESTGKETQY	10	1
2	AISESTGKETQY	10	1
23	ASSPTAYEQY	6	133
25	ASSPTAYEQY	6	1
35	AISESGRRGLYQETQY	10	4
2	AISESGRRGLYQETQY	10	2581
32	AISESGRRGLYQETQY	10	2
2	ASSLGAWETQY	10	1
19	ASSLGAWETQY	10	729
31	ASRDRVDNEQF	6	662
33	ASRDRVDNEQF	6	2
25	ASSQKQGSYEQY	12	5
23	ASSQKQGSYEQY	12	458
19	ASSSRQETQY	10	1
31	ASSSRQETQY	10	11
9	ASSLLNEQF	6	1
19	ASSLLNEQF	6	5458
27	ASSLGSGYNEQF	6	1
4	ASSLGSGYNEQF	6	32
28	ASSLDGNEQF	6	3
19	ASSLDGNEQF	6	4
26	ASSLDGNEQF	6	35
5	ASSFIQAGGAYNEQF	6	1
4	ASSFIQAGGAYNEQF	6	163
20	SARDRSNEQF	6	264
15	SARDRSNEQF	6	12
18	ASSLSGGPYNEQF	6	1
38	ASSLSGGPYNEQF	6	22
23	ASSPQVGDNEQF	6	1696
25	ASSPQVGDNEQF	6	2
9	ASSQGYNEQF	6	1
21	ASSQGYNEQF	6	14
19	ASSFEETQY	10	3078
29	ASSFEETQY	10	36
25	ASSQGRTVRSYNEQF	6	1
23	ASSQGRTVRSYNEQF	6	1
29	ASSLRGGTEAF	0	31
38	ASSLRGGTEAF	0	1
32	ASSRKQYNEQF	6	1
36	ASSRKQYNEQF	6	1
33	ASSRKQYNEQF	6	1009
18	ASSLGQAPYNEQF	6	1
6	ASSLGQAPYNEQF	6	1
4	ASSLELGVPYEQY	12	322
5	ASSLELGVPYEQY	12	2
33	ASRTLTSHHNEQF	6	1
32	ASRTLTSHHNEQF	6	1
31	ASRTLTSHHNEQF	6	191
33	ASTRNSEQF	6	2
31	ASTRNSEQF	6	526
29	ASSVAGGSYNEQF	6	1
13	ASSVAGGSYNEQF	6	148
3	ASSFPDSTTDTQY	8	116
28	ASSFPDSTTDTQY	8	1
36	ASSYSRGNNEQF	6	1
34	ASSYSRGNNEQF	6	1572
32	ASSYSRGNNEQF	6	2
35	ASSYSRGNNEQF	6	8
5	ASRRTSGRTNEQF	6	2
4	ASRRTSGRTNEQF	6	647
30	ASRRTSGRTNEQF	6	1
17	ASSDGGYEQY	12	1
23	ASSDGGYEQY	12	100
25	ASSDGGYEQY	12	1
3	ASSSRDNEQF	6	3
5	ASSSRDNEQF	6	1
2	AISLAGGTDTQY	8	446
35	AISLAGGTDTQY	8	6
7	ASSSSVDEQF	6	3
6	ASSSSVDEQF	6	248
21	ASSPRTGPYEQY	12	1
44	ASSPRTGPYEQY	12	435
7	ASSKGHTISYEQY	12	1
6	ASSKGHTISYEQY	12	2348
18	ASSYWVKGDEQF	6	1
35	ASSYWVKGDEQF	6	3
33	ASSYWVKGDEQF	6	459
25	ASSPGLAGPSYEQY	12	1
23	ASSPGLAGPSYEQY	12	131
31	ASSLTGYEQF	6	502
1	ASSLTGYEQF	6	1
35	ASSLTGYEQF	6	7
6	ASSLGGRYNEQF	6	6
42	ASSLGGRYNEQF	6	1
23	ASSQEVAGLYDEQF	6	13
25	ASSQEVAGLYDEQF	6	1
31	ASEWTGVADTQY	8	16
35	ASEWTGVADTQY	8	1
36	ATMDRPSYNEQF	6	1
34	ATMDRPSYNEQF	6	971
32	ATMDRPSYNEQF	6	1
31	ATMDRPSYNEQF	6	1
35	ATMDRPSYNEQF	6	8
35	ASSYAGIGLNEQF	6	1
33	ASSYAGIGLNEQF	6	55
36	ASSEALGQGNKNEQF	6	4
32	ASSEALGQGNKNEQF	6	1
23	ASSPGDFYNEQF	6	549
25	ASSPGDFYNEQF	6	4
32	AISESLAVSKETQY	10	1
2	AISESLAVSKETQY	10	691
36	AISESLAVSKETQY	10	1
2	AIIRSNSYNEQF	6	729
32	AIIRSNSYNEQF	6	2
4	ASSHGPSYEQY	12	659
5	ASSHGPSYEQY	12	6
19	ASSKYNEQF	6	2
26	ASSKYNEQF	6	2
23	ASSPGLRSSNEQF	6	307
25	ASSPGLRSSNEQF	6	1
21	ASSVGTGSNNEQF	6	3
44	ASSVGTGSNNEQF	6	1354
1	ASSGRTSGSLNEQF	6	2
36	ASSGRTSGSLNEQF	6	2
35	ASSGRTSGSLNEQF	6	13
43	ASRMVATNEKLF	3	43
37	ASRMVATNEKLF	3	1
31	ASKDSYNEQF	6	1
13	ASKDSYNEQF	6	4
32	ASSKQGSANNEQF	6	2
31	ASSKQGSANNEQF	6	2
35	ASSKQGSANNEQF	6	6
33	ASSKQGSANNEQF	6	579
33	ASSSYNEQF	6	21
19	ASSSYNEQF	6	2625
40	ASSQDPGQGTYEQY	12	1
43	ASSQDPGQGTYEQY	12	67
35	ASRSYNEQF	6	195
43	ASRSYNEQF	6	2
19	ASSLPEDTQY	8	3
31	ASSLPEDTQY	8	11
32	AIQRQGEHSYNEQF	6	2
35	AIQRQGEHSYNEQF	6	1
2	AIQRQGEHSYNEQF	6	2058
25	ASSQSPTSVSGNTIY	2	5
23	ASSQSPTSVSGNTIY	2	217
25	ASSPDRILYEQY	12	6
23	ASSPDRILYEQY	12	1493
6	ASSLVTAYEQY	12	1
42	ASSLVTAYEQY	12	202
33	ASSYSRLAGETQY	10	132
35	ASSYSRLAGETQY	10	3
0	ASSESTNQETQY	10	2249
1	ASSESTNQETQY	10	2
1	ASRPWGGSGVYNEQF	6	1
32	ASRPWGGSGVYNEQF	6	1
23	VSSPTAYEQY	12	50
25	VSSPTAYEQY	12	5
13	ASRDRSNEQF	6	1
29	ASRDRSNEQF	6	864
25	ASSLKYSGNYNEQF	6	9
23	ASSLKYSGNYNEQF	6	1784
30	ASSLGGAKNIQY	9	1
4	ASSLGGAKNIQY	9	160
19	ASSLGGAKNIQY	9	1
30	ASSHTVAESNEQF	6	1
24	ASSHTVAESNEQF	6	1
32	ASSLRTSGAYNEQF	6	1
2	ASSLRTSGAYNEQF	6	1
25	ASSSLYQGPPISETQY	10	1
27	ASSSLYQGPPISETQY	10	16
43	ASSPGQGVYEQY	12	1
26	ASSPGQGVYEQY	12	1
4	ASSWDSSYEQY	12	16
37	ASSWDSSYEQY	12	6
35	ATRGRDRNEQF	6	1
2	ATRGRDRNEQF	6	382
31	ASSDVEGTYEQY	12	539
35	ASSDVEGTYEQY	12	4
31	ASRIAGVSYNEQF	6	498
35	ASRIAGVSYNEQF	6	6
33	ASSFSPPAYNEQF	6	2
1	ASSFSPPAYNEQF	6	1
35	ASGPGGQAYNEQF	6	2
33	ASGPGGQAYNEQF	6	182
35	ASKKGGADTDTQY	8	2
33	ASKKGGADTDTQY	8	237
30	ASSQGLAGATDTQY	8	1
24	ASSQGLAGATDTQY	8	24
29	ASSLGAGDYNEQF	6	1
26	ASSLGAGDYNEQF	6	28197
19	ASSLGAGDYNEQF	6	1
0	ASSPKGNEQF	6	1
44	ASSPKGNEQF	6	2
33	ASRTVTQETQY	10	683
32	ASRTVTQETQY	10	1
35	ASRTVTQETQY	10	1
2	AISVAQTSPDTQY	8	1
36	AISVAQTSPDTQY	8	1
19	ASSLSGTGWNEQF	6	1
32	ASSLSGTGWNEQF	6	67
44	ASSVGYEQF	6	3
33	ASSVGYEQF	6	1
34	ASSSPLSYEQY	12	1
26	ASSSPLSYEQY	12	22
14	ASSLAAYNEQF	6	131
43	ASSLAAYNEQF	6	13
33	ASSFLNEQF	6	1
19	ASSFLNEQF	6	5
35	ASSSGFGNTIY	2	2
31	ASSSGFGNTIY	2	93
33	ASSKLAGQETQY	10	77
1	ASSKLAGQETQY	10	1
36	ASSKLAGQETQY	10	1
33	ASSYRERPYEQY	12	2
31	ASSYRERPYEQY	12	262
44	ASSLNNEQF	6	3267
27	ASSLNNEQF	6	18
21	ASSLNNEQF	6	1
25	ASSHEGGQKNIQY	9	1
23	ASSHEGGQKNIQY	9	13
35	AISDYRLAGTYEQY	12	2
2	AISDYRLAGTYEQY	12	396
21	ASSQDLGPTYEQY	12	1
44	ASSQDLGPTYEQY	12	807
13	ASSVGDSYEQY	12	11
44	ASSVGDSYEQY	12	1
24	ASSQGGRDQETQY	10	197
30	ASSQGGRDQETQY	10	2
31	ASTRGTDSSYEQY	12	119
32	ASTRGTDSSYEQY	12	29
35	ASTRGTDSSYEQY	12	1
32	ASSDSGQGGNEQF	6	21
35	ASSDSGQGGNEQF	6	1
37	ASSLGRAEINEQL	6	38
42	ASSLGRAEINEQL	6	1
5	ASSLGRGRQETQY	10	1
4	ASSLGRGRQETQY	10	122
43	ASSLGAGGYNEQF	6	2
26	ASSLGAGGYNEQF	6	54
19	ASSLGAGGYNEQF	6	1
44	ASSPRQETQY	10	3
19	ASSPRQETQY	10	2770
19	ASSSTAYEQY	12	1
25	ASSSTAYEQY	12	1
23	ASSSTAYEQY	12	38
23	ASSQGGIEQY	6	1136
25	ASSQGGIEQY	6	8
23	ASSRGLAGGRYNEQF	6	165
25	ASSRGLAGGRYNEQF	6	2
26	ASSSEETQY	10	1
19	ASSSEETQY	10	477
23	ASSQEGLAETYEQY	12	614
25	ASSQEGLAETYEQY	12	4
35	ASSSMTRNTDTQY	8	2
31	ASSSMTRNTDTQY	8	36
1	ASSSMTRNTDTQY	8	1
36	ASSSMTRNTDTQY	8	1
4	ASSLNPGQETQY	10	157
5	ASSLNPGQETQY	10	4
6	ASSLASGRNEQF	6	1
26	ASSLASGRNEQF	6	15
6	ASRTGTSSYNEQF	6	1
14	ASRTGTSSYNEQF	6	2
5	ASSLNGLLPESEQF	6	1
4	ASSLNGLLPESEQF	6	92
8	ASRGTEKETQY	10	1
6	ASRGTEKETQY	10	264
35	ASSYSSYNEQF	6	9
32	ASSYSSYNEQF	6	1
36	ASSYSSYNEQF	6	11
34	ASSYSSYNEQF	6	2442
31	ASSYSSYNEQF	6	2
1	ASSYSSYNEQF	6	1
25	ASSQGFPGQGENIQY	9	1
23	ASSQGFPGQGENIQY	9	9
30	ASSLLAGAPNEQL	6	1
24	ASSLLAGAPNEQL	6	42
18	ASSYRVSYEQY	12	1
19	ASSYRVSYEQY	12	21
31	ASSPTSPYNEQF	6	391
34	ASSPTSPYNEQF	6	1
37	ASSFSDPTDTQY	8	2
42	ASSFSDPTDTQY	8	1
35	ASSVSQGPFEQY	12	2
31	ASSVSQGPFEQY	12	135
36	ASSEHPGLAGETQY	10	1
32	ASSEHPGLAGETQY	10	1
30	ASSHPSPSYNEQF	6	3
25	ASSHPSPSYNEQF	6	1
24	ASSHPSPSYNEQF	6	222
23	ASSQDPLAGKAKNIQY	9	556
25	ASSQDPLAGKAKNIQY	9	1
5	ASSSGLADYNEQF	6	2
28	ASSSGLADYNEQF	6	7
3	ASSSGLADYNEQF	6	1181
34	ARTDEGQVPYEQY	12	71
35	ARTDEGQVPYEQY	12	2
5	ASSLDLADTQY	8	29
4	ASSLDLADTQY	8	1
30	ASSQILSTYNEQF	6	299
28	ASSQILSTYNEQF	6	2
19	ASTTSYNEQF	6	3586
38	ASTTSYNEQF	6	1
36	ASSGDSYYEQY	12	1
32	ASSGDSYYEQY	12	1
31	ASSGDSYYEQY	12	440
33	ASSGDSYYEQY	12	2
3	ASRLGSYEQY	12	1
37	ASRLGSYEQY	12	1
30	ASRPGQGVYEQY	12	1
43	ASRPGQGVYEQY	12	28
36	ASRVGTYEQY	12	1
34	ASRVGTYEQY	12	31
19	ASSLLDEQF	6	5
33	ASSLLDEQF	6	2
1	ASSLAGVYNEQF	6	1
6	ASSLAGVYNEQF	6	44
6	VSGSITGEQY	12	1
7	VSGSITGEQY	12	14
25	ASSQIRGSSGNTIY	2	1
23	ASSQIRGSSGNTIY	2	18
19	ASSLGGAQETQY	10	1
37	ASSLGGAQETQY	10	18
35	ASSYDTTGSGNTIY	2	2
32	ASSYDTTGSGNTIY	2	4
23	ASSQRLPGQGENIQY	9	6
25	ASSQRLPGQGENIQY	9	1
7	ASSSGGYNEQF	6	38
12	ASSSGGYNEQF	6	10
6	ASSSGGYNEQF	6	2356
44	ASSSGGYNEQF	6	1
19	ASSSGGTKNIQY	9	1
6	ASSSGGTKNIQY	9	6
2	ASRQGSSYEQY	12	4
1	ASRQGSSYEQY	12	218
5	ASSLTSGRYNEQF	6	1
4	ASSLTSGRYNEQF	6	278
39	ASAPANSPLH	5	1
44	ASAPANSPLH	5	2873
21	ASAPANSPLH	5	1
1	ASRTNGQETQY	10	1
34	ASRTNGQETQY	10	437
32	ASSYSLNTGARNTEAF	0	1
35	ASSYSLNTGARNTEAF	0	1
36	ASIRAVSTDTQY	8	1
35	ASIRAVSTDTQY	8	2
31	ASIRAVSTDTQY	8	223
32	ASSYSGQGKEQY	12	1
33	ASSYSGQGKEQY	12	59
33	ASRTLAAFDNEQF	6	108
1	ASRTLAAFDNEQF	6	1
31	ASSEGRVKTYEQY	12	254
35	ASSEGRVKTYEQY	12	1
0	ASSELQAYEQY	12	312
36	ASSELQAYEQY	12	1
25	ASSQAHGWTEAF	0	1
23	ASSQAHGWTEAF	0	3
43	ASSVTTYNEQF	6	609
28	ASSVTTYNEQF	6	1
30	ASSLAATEHYEQY	12	1
37	ASSLAATEHYEQY	12	180
6	ASSRQGTNSPLH	5	30
7	ASSRQGTNSPLH	5	26
20	SASRSREQY	12	6
15	SASRSREQY	12	2
26	ASSLEGYNEQF	6	1
37	ASSLEGYNEQF	6	48
23	ASSHPGLAGVTQETQY	10	750
25	ASSHPGLAGVTQETQY	10	7
23	ASSHDPGLAVSYEQY	12	675
25	ASSHDPGLAVSYEQY	12	10
23	ASSQEVAGLYNEQF	6	2620
25	ASSQEVAGLYNEQF	6	16
35	ASSYKRQGGTIQY	9	13
33	ASSYKRQGGTIQY	9	1104
32	AISPPGLQAETQY	10	2
35	AISPPGLQAETQY	10	1
2	AISPPGLQAETQY	10	795
32	AISVGTSGYQETQY	10	2
2	AISVGTSGYQETQY	10	217
35	ASSLALAGSSYNEQF	6	7
36	ASSLALAGSSYNEQF	6	1
26	TSSPEGNEQF	6	1
44	TSSPEGNEQF	6	7
28	ASSLVNMPYEQY	12	1
43	ASSLVNMPYEQY	12	191
35	ASRPVQGLGETQY	10	1
33	ASRPVQGLGETQY	10	16
37	ASSPRPYNEQF	6	1
42	ASSPRPYNEQF	6	1387
25	ASSQTSPWSGLGDKNIQY	9	5
23	ASSQTSPWSGLGDKNIQY	9	2334
28	ASSLDTHGAYNEQF	6	117
43	ASSLDTHGAYNEQF	6	604
27	ASSPTPKTSGRGSEQF	6	1
24	ASSPTPKTSGRGSEQF	6	44
35	ASSFLSGSGETQY	10	3
34	ASSFLSGSGETQY	10	125
31	ASSFLSGSGETQY	10	1
36	AISAPPQGSSYEQY	12	1
2	AISAPPQGSSYEQY	12	665
27	ASRPSGRGIGNEQF	6	1
24	ASRPSGRGIGNEQF	6	27
3	ASSLAMGARTDNEQF	6	1
5	ASSLAMGARTDNEQF	6	1
35	ARSYSSNYEQY	12	1
34	ARSYSSNYEQY	12	2
18	ASSLGGGSYNSPLH	5	1
19	ASSLGGGSYNSPLH	5	2
25	ASSQTHGGSTDTQY	8	1
24	ASSQTHGGSTDTQY	8	125
30	ASSQTHGGSTDTQY	8	3
27	ASSQTHGGSTDTQY	8	4
25	ASSRRGTNEQF	6	1
23	ASSRRGTNEQF	6	788
28	ASSLVSGTSFPNEQF	6	1
43	ASSLVSGTSFPNEQF	6	1063
40	ASSLVSGTSFPNEQF	6	1
19	ASSSPSRETQY	10	568
34	ASSSPSRETQY	10	1
35	ASTEIGTDYEQY	12	1
31	ASTEIGTDYEQY	12	4
27	ASSQGTSNNEQF	6	1
30	ASSQGTSNNEQF	6	1
24	ASSQGTSNNEQF	6	152
25	ASSQGTSNNEQF	6	1
33	ASSYSSGRINEQY	12	161
35	ASSYSSGRINEQY	12	2
1	ASRGLADPQETQY	10	446
0	ASRGLADPQETQY	10	1
5	ASSLVGQGAQETQY	10	2
28	ASSLVGQGAQETQY	10	1
3	ASSLVGQGAQETQY	10	324
33	ASSYSQDPNQPQH	4	13
35	ASSYSQDPNQPQH	4	1
6	ASSASYNEQF	6	1
44	ASSASYNEQF	6	1
18	ASSASYNEQF	6	2
36	ASSYSPGTGGNIQY	9	11
35	ASSYSPGTGGNIQY	9	16
1	ASSYSPGTGGNIQY	9	2
23	ASSQDMYEQY	12	185
25	ASSQDMYEQY	12	1
28	ASRDIAAGELF	7	1
3	ASRDIAAGELF	7	5
44	ASSIGQGSYEQY	12	1
13	ASSIGQGSYEQY	12	1
31	ASGGAKSYEQY	12	1
33	ASGGAKSYEQY	12	256
36	ASGGAKSYEQY	12	1
26	ASRTSGSHNEQF	6	2
19	ASRTSGSHNEQF	6	3
35	ASRLAGVGRRYNEQF	6	2
32	ASRLAGVGRRYNEQF	6	1
35	ASSYTASGISYNEQF	6	5
36	ASSYTASGISYNEQF	6	1
2	ASSYTASGISYNEQF	6	1
32	ASSYTASGISYNEQF	6	1
32	ASSRQDKGYEQY	12	1
35	ASSRQDKGYEQY	12	3
31	ASSRQDKGYEQY	12	783
33	ASRLSDWSYEQY	12	1
35	ASRLSDWSYEQY	12	1
34	ASTSGAGGVNEQF	6	1
36	ASTSGAGGVNEQF	6	1
1	ASTSGAGGVNEQF	6	1
35	ASTSGAGGVNEQF	6	8
31	ASTSGAGGVNEQF	6	926
25	ASSQLREYNEQF	6	4
23	ASSQLREYNEQF	6	1031
7	ASGLRDSLNEQF	6	1706
6	ASGLRDSLNEQF	6	1
28	ASSLVGENIQY	9	1
43	ASSLVGENIQY	9	153
35	AISELIPSSSGRNEQY	12	1
2	AISELIPSSSGRNEQY	12	27
31	ASSEALGSLEQY	12	69
35	ASSEALGSLEQY	12	1
31	ASRDIGTDTQY	8	1
33	ASRDIGTDTQY	8	53
36	ASRDIGTDTQY	8	1
35	ASSERASGVDEQF	6	4
31	ASSERASGVDEQF	6	145
24	ASSLSDSDNEQF	6	3
30	ASSLSDSDNEQF	6	1
43	ASSLGYEQY	12	60
19	ASSLGYEQY	12	30
31	ASSLGYEQY	12	1
36	ASSYRGVKDIQY	9	1
32	ASSYRGVKDIQY	9	2
33	ASSYRGVKDIQY	9	530
35	ASSYRGVKDIQY	9	1
33	ASRSPSNTEAF	0	115
36	ASRSPSNTEAF	0	2
25	ASSPPGQIQNTEAF	0	1
23	ASSPPGQIQNTEAF	0	49
43	ASSFGGDTQY	8	7
40	ASSFGGDTQY	8	1
21	ASSVGSSPVNAEQF	6	1
44	ASSVGSSPVNAEQF	6	622
19	ASSQLGGNIQY	9	1
28	ASSQLGGNIQY	9	3
3	ASSLVLAAYNEQF	6	888
28	ASSLVLAAYNEQF	6	2
0	ASSVDRATYNEQF	6	1
1	ASSVDRATYNEQF	6	14
32	AISAGTEETQY	10	1
2	AISAGTEETQY	10	322
23	ASSQDHNEQF	6	434
25	ASSQDHNEQF	6	2
35	VSGGAKSYEQY	12	1
33	VSGGAKSYEQY	12	1
7	ASSRSGINIQY	9	1
6	ASSRSGINIQY	9	33
26	ASSGTGYNEQF	6	58
6	ASSGTGYNEQF	6	415
44	ASSPKQETQY	10	1
19	ASSPKQETQY	10	1
40	ASSLPPGATEQY	12	204
43	ASSLPPGATEQY	12	1
30	ASSLESGRAAYEQF	6	1
28	ASSLESGRAAYEQF	6	36
25	ASSQGLGYEQY	12	1
23	ASSQGLGYEQY	12	541
2	AITEGHRSEQY	12	409
36	AITEGHRSEQY	12	1
2	AISELDDTQY	8	42
35	AISELDDTQY	8	1
6	ASSIQLSSYNEQF	6	1
18	ASSIQLSSYNEQF	6	1
6	ASSRTSGSNEQF	6	45
7	ASSRTSGSNEQF	6	11
30	ASSQLGENIQY	9	3
28	ASSQLGENIQY	9	1975
0	ASALGGRRRNEKLF	3	4
1	ASALGGRRRNEKLF	3	1
35	ASSPALRGNEQF	6	1
33	ASSPALRGNEQF	6	87
28	ASTSIAAQGNEQF	6	179
43	ASTSIAAQGNEQF	6	1
35	ASRGGGAVYETQY	10	4
33	ASRGGGAVYETQY	10	25
32	ASSSLSERSYNEQF	6	4
36	ASSSLSERSYNEQF	6	3
35	ASSSLSERSYNEQF	6	1
35	ASSYSDRQETQY	10	2
31	ASSYSDRQETQY	10	1
33	ASSYSDRQETQY	10	548
25	ASSQDVGASQETQY	10	2
23	ASSQDVGASQETQY	10	243
31	ASTIIARTYNEQF	6	630
35	ASTIIARTYNEQF	6	2
5	ASSSSGTSNEQF	6	1
3	ASSSSGTSNEQF	6	210
28	ASSSSGTSNEQF	6	1
19	ASRTSGPYNEQF	6	2
26	ASRTSGPYNEQF	6	1
5	ASSLQGNEQF	6	5
4	ASSLQGNEQF	6	622
39	ASSDRGQETQY	10	1
44	ASSDRGQETQY	10	839
33	ASSPSTSGKSEQY	12	145
35	ASSPSTSGKSEQY	12	7
40	ASRLTGTVSGNTIY	2	1
43	ASRLTGTVSGNTIY	2	43
19	ASRTSLNEQF	6	2
4	ASRTSLNEQF	6	1
19	ASSQGRREETQY	10	2
23	ASSQGRREETQY	10	322
25	ASSQGRREETQY	10	6
35	ASSYRGTEAF	0	1
33	ASSYRGTEAF	0	29
44	ASRGSNTEAF	0	200
21	ASRGSNTEAF	0	1
5	ASSYDRGVYEQY	12	3
28	ASSYDRGVYEQY	12	1
3	ASSYDRGVYEQY	12	1138
28	ASSPSTGGLGNEQF	6	1
3	ASSPSTGGLGNEQF	6	13
23	ASSQGSGRGNNEQF	6	847
25	ASSQGSGRGNNEQF	6	5
35	ASSYSSNFAGVTIY	2	4
1	ASSYSSNFAGVTIY	2	1
2	ASSYSSNFAGVTIY	2	1
36	ASSYSSNFAGVTIY	2	1
2	AISESLGRLFEQF	6	450
35	AISESLGRLFEQF	6	1
25	ASSQEDSPIDKNIQY	9	1
23	ASSQEDSPIDKNIQY	9	2
3	ASSYSIIYNEQF	6	434
5	ASSYSIIYNEQF	6	1
23	ASSQEPRQVYEQY	12	2238
25	ASSQEPRQVYEQY	12	20
25	ASSQEGQGSYNEQF	6	4
23	ASSQEGQGSYNEQF	6	279
25	ASSQEDSPIAKNIQY	9	6
23	ASSQEDSPIAKNIQY	9	324
25	ASRPDRGTAYEQY	12	1
23	ASRPDRGTAYEQY	12	21
0	ASSDISGNEQF	6	2134
1	ASSDISGNEQF	6	1
36	ASSDISGNEQF	6	1
33	ASSYGVGSTIY	2	7
35	ASSYGVGSTIY	2	1
4	ASSLWETQY	10	1
31	ASSLWETQY	10	48
25	ASSPGLEPVEQY	12	2
23	ASSPGLEPVEQY	12	531
18	ASSLGGSSYNSPLH	5	505
19	ASSLGGSSYNSPLH	5	2
24	ASSQENGNAYEQY	12	45
25	ASSQENGNAYEQY	12	1
27	ASSLGSGSPYNEQF	6	1460
30	ASSLGSGSPYNEQF	6	2
25	ASSLGSGSPYNEQF	6	1
35	ASRGTSGSFNEQF	6	1
34	ASRGTSGSFNEQF	6	49
25	ASSHDPGPAVSYEQY	12	1
23	ASSHDPGPAVSYEQY	12	1
34	ASSSNLSGFYEQY	12	407
35	ASSSNLSGFYEQY	12	3
30	ASRHGGEQF	6	1
24	ASRHGGEQF	6	83
25	ASSQGGLAGYEQY	12	1
23	ASSQGGLAGYEQY	12	32
32	ASSEALWRVRETQY	10	1
35	ASSEALWRVRETQY	10	2
25	ASSSQEGSYNEQF	6	1
23	ASSSQEGSYNEQF	6	5
20	SAWDRSNEQF	6	1
15	SAWDRSNEQF	6	1
8	ASSVEVALYNEQF	6	1
44	ASSVEVALYNEQF	6	1167
35	ASTEGHRSEQY	12	1
2	ASTEGHRSEQY	12	2
21	ASSTGTSHNEQF	6	1
44	ASSTGTSHNEQF	6	5183
37	ASSPAAYNEQF	6	2
14	ASSPAAYNEQF	6	1
2	AISESADGWETQY	10	229
32	AISESADGWETQY	10	1
35	AISESADGWETQY	10	1
5	ASMDPGDYEQY	12	2
4	ASMDPGDYEQY	12	950
25	ASSQARLAGISQETQY	10	2
23	ASSQARLAGISQETQY	10	182
44	ASSVDQGPNEQF	6	7423
39	ASSVDQGPNEQF	6	1
21	ASSVDQGPNEQF	6	3
1	ASSEEVAGGQNIQY	9	1
35	ASSEEVAGGQNIQY	9	6
35	ASSESGQIKNIQY	9	1
31	ASSESGQIKNIQY	9	94
5	ASSLEGSGNSEQY	12	1
4	ASSLEGSGNSEQY	12	25
20	SVGTGITDTQY	8	42
15	SVGTGITDTQY	8	81
13	ASSVGGSSYNEQF	6	1
18	ASSVGGSSYNEQF	6	1
17	ASSVGGSSYNEQF	6	1
5	ASSQDLSRDEQF	6	1
3	ASSQDLSRDEQF	6	210
3	ASSLGGLVDTQY	8	382
5	ASSLGGLVDTQY	8	2
36	AISGLGNEQF	6	1
2	AISGLGNEQF	6	1824
6	ASSLDRLNTEAF	0	1
26	ASSLDRLNTEAF	0	37
5	ASSLNPAGGGETQY	10	1
4	ASSLNPAGGGETQY	10	112
9	ASRRTGEETQY	10	4
19	ASRRTGEETQY	10	3
7	ASSFFDGNEQF	6	1
6	ASSFFDGNEQF	6	782
10	ATSRDSRNPFANEQF	6	942
14	ATSRDSRNPFANEQF	6	1
23	ASSQDLAGEETQY	10	1543
25	ASSQDLAGEETQY	10	3
35	ASSYSTFASGNNEQF	6	4
2	ASSYSTFASGNNEQF	6	1
33	ASRHKTGSNEQF	6	257
35	ASRHKTGSNEQF	6	1
24	ASSQAQAGRDEQF	6	93
30	ASSQAQAGRDEQF	6	1
35	ASSYTSGSYEQY	12	1
32	ASSYTSGSYEQY	12	1
33	ASSYTSGSYEQY	12	41
37	ASSLATGLAASSYEQY	12	1
42	ASSLATGLAASSYEQY	12	373
7	ASGLVGTSDREQY	12	263
6	ASGLVGTSDREQY	12	2
3	ASSLTRDYNEQF	6	1078
5	ASSLTRDYNEQF	6	3
28	ASSLTRDYNEQF	6	2
31	ASSSTYEQY	12	496
19	ASSSTYEQY	12	1
34	ASSSTYEQY	12	1
6	ASSSTYEQY	12	168
32	ASSSTYEQY	12	3
40	ASSLTENTEAF	0	280
43	ASSLTENTEAF	0	1
1	ASSESRLAEQY	12	1437
2	ASSESRLAEQY	12	3
0	ASSESRLAEQY	12	1
26	ASSLVGQETQY	10	29
6	ASSLVGQETQY	10	234
23	ASSQNILREQF	6	20
25	ASSQNILREQF	6	1
6	ASSPRLAGPYEQY	12	7
19	ASSPRLAGPYEQY	12	1
23	ASSQEDRNNEQF	6	1518
25	ASSQEDRNNEQF	6	4
2	AISGMTGNNEQF	6	221
35	AISGMTGNNEQF	6	4
40	ASSLARTRWDEQF	6	37
41	ASSLARTRWDEQF	6	1
28	ASSPSIGGLDNEQF	6	1
3	ASSPSIGGLDNEQF	6	1
35	ASRKELQETQY	10	5
31	ASRKELQETQY	10	1134
32	ASRKELQETQY	10	1
36	AISESQGAGETQY	10	1
32	AISESQGAGETQY	10	4
2	AISESQGAGETQY	10	453
14	ATSRVYKGTPLDNEQF	6	48
10	ATSRVYKGTPLDNEQF	6	526
27	ASSQGNSEAF	0	2
25	ASSQGNSEAF	0	1
24	ASSQGNSEAF	0	192
30	ASSQGNSEAF	0	2
5	ASSLGRTAVRLETQY	10	2
4	ASSLGRTAVRLETQY	10	193
0	ASRRQVGGVEQY	12	417
36	ASRRQVGGVEQY	12	1
34	ASSLSTGIHEQY	12	402
35	ASSLSTGIHEQY	12	8
32	ASSYRQGGSSYNEQF	6	1
1	ASSYRQGGSSYNEQF	6	1
35	ASSYRQGGSSYNEQF	6	16
25	ASSQEWSSYNEQF	6	1
23	ASSQEWSSYNEQF	6	90
31	ASRLRSLGEQY	12	52
32	ASRLRSLGEQY	12	1
5	ATDPDRGTDEQF	6	2
3	ATDPDRGTDEQF	6	167
2	ASSYSPPAYNEQL	6	1
33	ASSYSPPAYNEQL	6	2
25	ASSQVLVQGTQY	10	1
23	ASSQVLVQGTQY	10	9
23	ASSLMVGLNNEQF	6	8
25	ASSLMVGLNNEQF	6	1
21	ASSPQGGFDNEQF	6	2
44	ASSPQGGFDNEQF	6	2849
27	ASSQDRLGYEQY	12	2
24	ASSQDRLGYEQY	12	383
30	ASSQDRLGYEQY	12	4
35	ASRQDKNIQY	9	8
34	ASRQDKNIQY	9	459
5	ASSLGDNEQF	6	3
3	ASSLGDNEQF	6	1
6	ASSPQGQAKNIQY	9	1265
7	ASSPQGQAKNIQY	9	1
5	ASSLSSSNHPPYEQY	12	1
30	ASSLSSSNHPPYEQY	12	1
4	ASSLSSSNHPPYEQY	12	103
30	ASSQELVTDTQY	8	1
24	ASSQELVTDTQY	8	8
23	ASSQSAGPSYNEQF	6	1098
25	ASSQSAGPSYNEQF	6	1
23	ASSLLTGSYNEQF	6	1
19	ASSLLTGSYNEQF	6	2
25	ASSQELLLQYEQY	12	13
23	ASSQELLLQYEQY	12	1432
2	ASRNFAGATDTQY	8	1
1	ASRNFAGATDTQY	8	210
1	ASSEIIGLDGIYEQY	12	1
35	ASSEIIGLDGIYEQY	12	4
24	ASSKVLGQGYGNTIY	2	3
27	ASSKVLGQGYGNTIY	2	1
35	ASSYGGMRAYEQF	6	1
33	ASSYGGMRAYEQF	6	159
31	ASSYSYEQY	12	290
19	ASSYSYEQY	12	1742
1	ASSYSYEQY	12	1
4	ASSLDIAGPYNEQF	6	376
5	ASSLDIAGPYNEQF	6	2
25	ASSQLGNEQF	6	1
23	ASSQLGNEQF	6	808
21	ASSQLGNEQF	6	1
33	ASSQLANTEAF	0	93
35	ASSQLANTEAF	0	1
30	ASSYEQGSEQF	6	2
27	ASSYEQGSEQF	6	1
24	ASSYEQGSEQF	6	145
2	AIREAGRETQY	10	77
35	AIREAGRETQY	10	1
29	ASSLAMSAYNEQF	6	1
26	ASSLAMSAYNEQF	6	7034
21	ASSGSNTEAF	0	65
37	ASSGSNTEAF	0	1
18	ASSGSNTEAF	0	1
44	ASSGSNTEAF	0	298074
39	ASSGSNTEAF	0	10
14	ASSGSNTEAF	0	1
38	ASSGSNTEAF	0	1
8	ASSGSNTEAF	0	2
8	ASSLDLSSYNEQF	6	1
21	ASSLDLSSYNEQF	6	1
44	ASSLDLSSYNEQF	6	1
16	ASSLDLSSYNEQF	6	1
18	ASSLDLSSYNEQF	6	1
7	ASSLDLSSYNEQF	6	6
6	ASSLDLSSYNEQF	6	22513
44	ASSLEGNEQF	6	1
19	ASSLEGNEQF	6	4016
33	ASSFLGSYNEQF	6	2
6	ASSFLGSYNEQF	6	1
19	ASSPGGNEQF	6	5
44	ASSPGGNEQF	6	2
26	ASSPGGNEQF	6	1
19	ASSQTYEQY	12	40
31	ASSQTYEQY	12	104
36	AIRLDSTDTQY	8	1
35	AIRLDSTDTQY	8	1
2	AIRLDSTDTQY	8	131
24	ASSQGASGSSYNEQF	6	4
30	ASSQGASGSSYNEQF	6	1
6	ASTPRAGKNIQY	9	967
7	ASTPRAGKNIQY	9	1
5	ASRTRTGTTYNEQF	6	1
4	ASRTRTGTTYNEQF	6	28
35	ASDPSGRSYNEQF	6	1
2	ASDPSGRSYNEQF	6	151
24	ASSPTPYTPEAF	0	120
25	ASSPTPYTPEAF	0	1
4	ASSLAGYEQY	12	29
6	ASSLAGYEQY	12	77
30	ASSTTSVRRYEQY	12	1
25	ASSTTSVRRYEQY	12	13
23	ASSTTSVRRYEQY	12	575
43	ASSLSGSQETQY	10	248
28	ASSLSGSQETQY	10	1
43	ASSQDGFGNTIY	2	21
37	ASSQDGFGNTIY	2	1
4	ASSLGGSSYEQY	12	105
26	ASSLGGSSYEQY	12	1
3	ASSFNTKNIQY	9	262
5	ASSFNTKNIQY	9	1
25	ASSQVELSSYNEQF	6	29
27	ASSQVELSSYNEQF	6	1
23	ASSQVELSSYNEQF	6	2498
35	ASSEAGGSVHEQF	6	2
32	ASSEAGGSVHEQF	6	1324
19	ASSFYNEQF	6	1
33	ASSFYNEQF	6	1
37	ASSPTSYEQY	12	26
23	ASSPTSYEQY	12	27
24	ASSLSDSSYNEQF	6	1
4	ASSLSDSSYNEQF	6	915
5	ASSLSDSSYNEQF	6	1
28	ASSFLTAPTYEQY	12	3
3	ASSFLTAPTYEQY	12	332
23	ASRTDSLQETQY	10	1
28	ASRTDSLQETQY	10	1
43	ASRTDSLQETQY	10	2993
44	ASSQLAGGDEQF	6	9
24	ASSQLAGGDEQF	6	1
7	ASSIGGLLYNEQF	6	2
6	ASSIGGLLYNEQF	6	5935
5	ASSLEPTEAGGRDEQY	12	1
4	ASSLEPTEAGGRDEQY	12	4
23	ASSLSLTNSPLH	5	1414
25	ASSLSLTNSPLH	5	8
14	ATSRGGYDYNEQF	6	1
10	ATSRGGYDYNEQF	6	590
26	ASRTSVSYNEQF	6	1
19	ASRTSVSYNEQF	6	1
25	ASSQVHSGTATYEQY	12	2
23	ASSQVHSGTATYEQY	12	276
32	AISESKASGSHYEQY	12	1
2	AISESKASGSHYEQY	12	144
43	ASSPDSSSYNEQF	6	1
40	ASSPDSSSYNEQF	6	119
25	ASSFGQGNTEAF	0	1
23	ASSFGQGNTEAF	0	149
5	ASSLDGSGAPRTYEQY	12	1
4	ASSLDGSGAPRTYEQY	12	302
37	ASSLDASGIYEQY	12	1
5	ASSLDASGIYEQY	12	2
4	ASSLDASGIYEQY	12	282
27	ASSLAGQNYNEQF	6	1
30	ASSLAGQNYNEQF	6	6
31	ASSPPANTYNEQF	6	2
34	ASSPPANTYNEQF	6	65
35	ASSPPANTYNEQF	6	1
25	ASSHPGLAGVTQGTQY	10	2
23	ASSHPGLAGVTQGTQY	10	4
10	ATSNRQRNTEAF	0	242
14	ATSNRQRNTEAF	0	1
28	ASSLGPSGDSSYEQY	12	1
40	ASSLGPSGDSSYEQY	12	2
43	ASSLGPSGDSSYEQY	12	33
5	ASSSRATNEKLF	3	1
4	ASSSRATNEKLF	3	20
25	ASSPAAYEQY	12	2
23	ASSPAAYEQY	12	207
21	ASTGSNTEAF	0	1
44	ASTGSNTEAF	0	315
4	ASSLESGYNEQF	6	373
5	ASSLESGYNEQF	6	2
23	ASGRTGNTGELF	7	123
25	ASGRTGNTGELF	7	1
12	ASSSPGTSGIYEQY	12	4
6	ASSSPGTSGIYEQY	12	1
0	ASTLRTSAYNEQF	6	766
1	ASTLRTSAYNEQF	6	1
25	ASSQVRAGVSYNEQF	6	23
23	ASSQVRAGVSYNEQF	6	931
26	ASSQVRAGVSYNEQF	6	1
35	ASLNSPSYNEQF	6	5
31	ASLNSPSYNEQF	6	343
35	ASRGAGLADSNNEQF	6	19
1	ASRGAGLADSNNEQF	6	3
19	ASGFEETQY	10	3
29	ASGFEETQY	10	1
27	ASRQGNSEAF	0	1
24	ASRQGNSEAF	0	14
28	ASSSYTDTQY	8	1
43	ASSSYTDTQY	8	34
25	ASSLSGSDNEQF	6	17
27	ASSLSGSDNEQF	6	10
30	ASSLSGSDNEQF	6	13
24	ASSLSGSDNEQF	6	2507
25	ASSPTASEQY	12	1
23	ASSPTASEQY	12	14
30	ASGRRPRETQY	10	198
28	ASGRRPRETQY	10	2
4	ASSLAPNTEAF	0	42
41	ASSLAPNTEAF	0	147
5	ASSLAGGPSTFDEQF	6	1
4	ASSLAGGPSTFDEQF	6	13
25	ASSQIPRYEQY	12	6
23	ASSQIPRYEQY	12	866
34	ASSLLRLDEQF	6	1
31	ASSLLRLDEQF	6	323
35	ASSLLRLDEQF	6	1
30	ASSLTGQNYNEQF	6	1813
27	ASSLTGQNYNEQF	6	1
28	ASSLTGQNYNEQF	6	5
44	ASSVEPILNEQF	6	264
34	ASSVEPILNEQF	6	1
18	ASGTGLKETQY	10	1
14	ASGTGLKETQY	10	2
25	ASSQGGGGEQY	12	1
23	ASSQGGGGEQY	12	491
35	ASSYSSSYEQY	12	1
34	ASSYSSSYEQY	12	6
2	ASSESSGGIYEQY	12	1
1	ASSESSGGIYEQY	12	193
1	ASRTKSGTSAINEQF	6	1
32	ASRTKSGTSAINEQF	6	2
35	ASRTKSGTSAINEQF	6	5
30	ASSQALDHNEQF	6	1
27	ASSQALDHNEQF	6	2
24	ASSQALDHNEQF	6	580
19	ASSSGYEQY	12	4
18	ASSSGYEQY	12	115
35	ASSDRGSWSYNEQF	6	2
32	ASSDRGSWSYNEQF	6	1
36	ASSDRGSWSYNEQF	6	2
36	ASSYGGANEKLF	3	1
33	ASSYGGANEKLF	3	21
35	ASSAVINEQF	6	5
34	ASSAVINEQF	6	401
5	ASSLGPRQETQY	10	2
4	ASSLGPRQETQY	10	217
23	ASSSASWDEQF	6	209
25	ASSSASWDEQF	6	6
3	ASRVRPSGANEQF	6	107
28	ASRVRPSGANEQF	6	1
31	ASSYRGLAYEQY	12	1
33	ASSYRGLAYEQY	12	203
35	ASSYRGLAYEQY	12	1
4	ASRTVAGTPPEQF	6	44
5	ASRTVAGTPPEQF	6	1
23	ASSNPGRTKETQY	10	440
25	ASSNPGRTKETQY	10	6
25	ASSRGLAGVSDTQY	8	4
23	ASSRGLAGVSDTQY	8	77
6	ASRSGGYNEQF	6	1
33	ASRSGGYNEQF	6	2
44	ASSPPVRNIQY	9	17449
21	ASSPPVRNIQY	9	2
30	ASTEGRGTYNEQF	6	1
37	ASTEGRGTYNEQF	6	12
43	ASSSGLASNEQF	6	48
6	ASSSGLASNEQF	6	1
30	ASSPVGPETQY	10	1
4	ASSPVGPETQY	10	24
35	VSSYGVGNTIY	2	2
32	VSSYGVGNTIY	2	1
33	VSSYGVGNTIY	2	78
6	ASSANYNEQF	6	1
44	ASSANYNEQF	6	95
31	ASSDQGGAKNIQY	9	1999
1	ASSDQGGAKNIQY	9	1
34	ASSDQGGAKNIQY	9	2
35	ASSDQGGAKNIQY	9	9
35	ASSSTGSAYEQY	12	6
33	ASSSTGSAYEQY	12	125
4	ASSFTGYEQY	12	826
28	ASSFTGYEQY	12	3
5	ASSFTGYEQY	12	3
32	ASSYRGLRDFDNEQF	6	1
35	ASSYRGLRDFDNEQF	6	3
1	ASSYRGLRDFDNEQF	6	1
12	ASSFGGYNEQF	6	1
18	ASSFGGYNEQF	6	1054
25	ASSQEGGQKNIQY	9	79
23	ASSQEGGQKNIQY	9	11641
23	ASSQVTGGGETQY	10	500
25	ASSQVTGGGETQY	10	3
19	ASSPYNEQF	6	1
43	ASSPYNEQF	6	1
31	ASSPYNEQF	6	275
36	ASSPYNEQF	6	1
33	ASSPYNEQF	6	3
35	ASSEAGGSIHEQF	6	1
32	ASSEAGGSIHEQF	6	8
19	ASSDGGQETQY	10	1
44	ASSDGGQETQY	10	2
5	ASSSHWGDGYNEQF	6	2
28	ASSSHWGDGYNEQF	6	3
3	ASSSHWGDGYNEQF	6	508
25	ASSQDGVGLAGTISYEQY	12	2
23	ASSQDGVGLAGTISYEQY	12	168
35	ASSYSQRNEQF	6	1
33	ASSYSQRNEQF	6	37
35	ASTLGNRGFKNIQY	9	24
1	ASTLGNRGFKNIQY	9	2
36	ASTLGNRGFKNIQY	9	5
25	ASSQDGYPSTDTQY	8	6
23	ASSQDGYPSTDTQY	8	294
3	ASSFGHTEAF	0	563
5	ASSFGHTEAF	0	1
31	ASFLGYEQY	12	397
32	ASFLGYEQY	12	1
40	ASSLGPNYEQY	12	18
43	ASSLGPNYEQY	12	1
40	ASSLNPTDSYNEQF	6	1
43	ASSLNPTDSYNEQF	6	34
25	ASSQAASGSPRNEQF	6	1
23	ASSQAASGSPRNEQF	6	31
31	ASKRGLAVYNEQF	6	380
32	ASKRGLAVYNEQF	6	1
13	ASSSGQGETQY	10	21
19	ASSSGQGETQY	10	357
23	ASSQGNRDPYTYEQY	12	90
25	ASSQGNRDPYTYEQY	12	1
12	ASSLSSYEQY	12	3
19	ASSLSSYEQY	12	1
25	ASSQRNNEQF	6	1
23	ASSQRNNEQF	6	31
43	ASSEYTNEQF	6	249
28	ASSEYTNEQF	6	1
3	ASSASRWVPNNEQF	6	832
28	ASSASRWVPNNEQF	6	2
44	ASSPRDSHNEQF	6	1718
21	ASSPRDSHNEQF	6	1
19	ASSLLRNNEQF	6	1
18	ASSLLRNNEQF	6	17388
33	ASSPGILQETQY	10	89
35	ASSPGILQETQY	10	2
43	ASSSTPPRDNEQF	6	182
28	ASSSTPPRDNEQF	6	1
30	ASSLGGEETQY	10	64
37	ASSLGGEETQY	10	61
28	ASSLGGEETQY	10	1
1	ASSTSGRSYEQY	12	212
13	ASSTSGRSYEQY	12	1
19	ASSTSGRSYEQY	12	1
23	ASSLIVGLNDEQF	6	30
25	ASSLIVGLNDEQF	6	1
3	ASSSALADYNEQF	6	1
28	ASSSALADYNEQF	6	1
25	ASSQSTAKTGIYEQY	12	1
23	ASSQSTAKTGIYEQY	12	15
43	ASSPGTGRFHEQY	12	44
28	ASSPGTGRFHEQY	12	1
4	ASSPRTSWNEQF	6	353
5	ASSPRTSWNEQF	6	5
35	ASSHKNTEAF	0	1
33	ASSHKNTEAF	0	95
5	ASSSLGDRGYEQY	12	1
4	ASSSLGDRGYEQY	12	127
24	ASRHSGSGIGNEQF	6	171
30	ASRHSGSGIGNEQF	6	4
34	ASLLGPSTGEQY	12	1376
31	ASLLGPSTGEQY	12	3
35	ASLLGPSTGEQY	12	2
36	ASLLGPSTGEQY	12	1
44	ASSESGNEQF	6	1
21	ASSESGNEQF	6	1
32	ASSRPGLQTYEQY	12	1
33	ASSRPGLQTYEQY	12	643
35	ASSRPGLQTYEQY	12	10
36	ASSRPGLQTYEQY	12	1
6	ASSVKETQY	10	6
37	ASSVKETQY	10	5
28	ASSYRGSNNEQF	6	2
4	ASSYRGSNNEQF	6	1
5	ASSYRGSNNEQF	6	541
25	ASSQEFPSLDEQF	6	14
23	ASSQEFPSLDEQF	6	1405
40	ASSSISTDTQY	8	2366
43	ASSSISTDTQY	8	3
41	ASSSISTDTQY	8	5
19	ASSYRGTNEQF	6	1
33	ASSYRGTNEQF	6	313
35	ASSYRGTNEQF	6	1
31	ASRTTRPIDTQY	8	2
32	ASRTTRPIDTQY	8	1
35	ASRTTRPIDTQY	8	3
36	ASRTTRPIDTQY	8	1
33	ASRTTRPIDTQY	8	220
34	ASSESHVYEQY	12	11
31	ASSESHVYEQY	12	917
32	ASSESHVYEQY	12	1
35	ASSESHVYEQY	12	4
35	ASSEGIWDPRYNEQF	6	4
1	ASSEGIWDPRYNEQF	6	1
32	ASSEGIWDPRYNEQF	6	4
36	ASSEGIWDPRYNEQF	6	1
35	ASSYSRSEPYEQY	12	2
32	ASSYSRSEPYEQY	12	2
33	ASSYSRSEPYEQY	12	554
19	ASSLGGETQY	10	201
6	ASSLGGETQY	10	1
